<?xml version="1.0"?>
<VTKFile type="PolyData" version="0.1" byte_order="LittleEndian">
  <PolyData>
    <Piece NumberOfPoints="     19" NumberOfVerts="  0" NumberOfLines="     18"
           NumberOfStrips="  0" NumberOfPolys="      0">
      <Points>
        <DataArray type="Float32" NumberOfComponents="3" format="ascii">
                      -5.12720                       1.31886                      89.29684
                      -5.24364                       2.52212                      88.65927
                      -5.49149                       4.97264                      87.46960
                      -5.74645                       7.44405                      86.32038
                      -6.06938                      10.54585                      84.90799
                      -6.41532                      14.20207                      83.08199
                      -6.74733                      17.79747                      81.13941
                      -7.08181                      21.39155                      79.19482
                      -7.41650                      24.98357                      77.24636
                      -7.75210                      28.57437                      75.29581
                      -8.08963                      32.16567                      73.34653
                      -8.42850                      35.75676                      71.39711
                      -8.76934                      39.34764                      69.44764
                      -9.11286                      42.93829                      67.49824
                      -9.45732                      46.52886                      65.54885
                      -9.74501                      49.52098                      63.92435
                      -9.97631                      51.91084                      62.61791
                     -10.21314                      54.27452                      61.26337
                     -10.32902                      55.47609                      60.62274
        </DataArray>
      </Points>
      <PointData>
        <DataArray type="Float32" Name="TranslationalVelocity" NumberOfComponents="3" format="ascii">
                       0.31095                       1.92496                       3.55421
                       0.59465                       3.67060                       6.79690
                       1.17242                       6.93511                      13.40087
                       1.75512                      10.09227                      20.06112
                       2.48645                      13.97471                      28.42022
                       3.34849                      18.97718                      38.27343
                       4.19620                      24.29056                      47.96275
                       5.04359                      29.60996                      57.64854
                       5.89050                      34.93980                      67.32872
                       6.73712                      40.27549                      77.00566
                       7.58386                      45.60825                      86.68391
                       8.43055                      50.94167                      96.36162
                       9.27719                      56.27569                     106.03875
                      10.12378                      61.61017                     115.71528
                      10.97034                      66.94484                     125.39158
                      11.67581                      71.39055                     133.45509
                      12.23928                      74.96585                     139.89558
                      12.79658                      78.67208                     146.26552
                      13.07987                      80.42584                     149.50365
        </DataArray>
        <DataArray type="Float32" Name="RotationalVelocity" NumberOfComponents="3" format="ascii">
                       2.69492                      -0.00000                      -0.23577
                       2.69492                      -0.00000                      -0.23577
                       2.69492                      -0.00000                      -0.23577
                       2.69492                      -0.00000                      -0.23577
                       2.69492                      -0.00000                      -0.23577
                       2.69492                      -0.00000                      -0.23577
                       2.69492                      -0.00000                      -0.23577
                       2.69492                      -0.00000                      -0.23577
                       2.69492                      -0.00000                      -0.23577
                       2.69492                      -0.00000                      -0.23577
                       2.69492                      -0.00000                      -0.23577
                       2.69492                      -0.00000                      -0.23577
                       2.69492                      -0.00000                      -0.23577
                       2.69492                      -0.00000                      -0.23577
                       2.69492                      -0.00000                      -0.23577
                       2.69492                      -0.00000                      -0.23577
                       2.69492                      -0.00000                      -0.23577
                       2.69492                      -0.00000                      -0.23577
                       2.69492                      -0.00000                      -0.23577
        </DataArray>
        <DataArray type="Float32" Name="TranslationalAcceleration" NumberOfComponents="3" format="ascii">
                       0.45418                      -9.64962                       5.19134
                       0.86606                     -18.45346                       9.89911
                       1.63635                     -36.38344                      18.70361
                       2.38135                     -54.46635                      27.21891
                       3.29749                     -77.16182                      37.69053
                       4.47786                    -103.91345                      51.18213
                       5.73151                    -130.21969                      65.51143
                       6.98658                    -156.51631                      79.85693
                       8.24411                    -182.79772                      94.23058
                       9.50302                    -209.07033                     108.62001
                      10.76124                    -235.34648                     123.00151
                      12.01961                    -261.62119                     137.38480
                      13.27813                    -287.89430                     151.76972
                      14.53675                    -314.16578                     166.15584
                      15.79542                    -340.43664                     180.54250
                      16.84435                    -362.32883                     192.53181
                      17.68791                    -379.81454                     202.17371
                      18.56233                    -397.10854                     212.16837
                      18.97612                    -405.89998                     216.89803
        </DataArray>
        <DataArray type="Float32" Name="OrientationX" NumberOfComponents="3" format="ascii">
                       0.99344                       0.03839                      -0.10771
                       0.99344                       0.03839                      -0.10771
                       0.99344                       0.03839                      -0.10771
                       0.99344                       0.03839                      -0.10771
                       0.99344                       0.03839                      -0.10771
                       0.99344                       0.03839                      -0.10771
                       0.99344                       0.03839                      -0.10771
                       0.99344                       0.03839                      -0.10771
                       0.99344                       0.03839                      -0.10771
                       0.99344                       0.03839                      -0.10771
                       0.99344                       0.03839                      -0.10771
                       0.99344                       0.03839                      -0.10771
                       0.99344                       0.03839                      -0.10771
                       0.99344                       0.03839                      -0.10771
                       0.99344                       0.03839                      -0.10771
                       0.99344                       0.03839                      -0.10771
                       0.99344                       0.03839                      -0.10771
                       0.99344                       0.03839                      -0.10771
                       0.99344                       0.03839                      -0.10771
        </DataArray>
        <DataArray type="Float32" Name="OrientationY" NumberOfComponents="3" format="ascii">
                      -0.07670                      -0.47483                      -0.87673
                      -0.07670                      -0.47483                      -0.87673
                      -0.07670                      -0.47483                      -0.87673
                      -0.07670                      -0.47483                      -0.87673
                      -0.07670                      -0.47483                      -0.87673
                      -0.07670                      -0.47483                      -0.87673
                      -0.07670                      -0.47483                      -0.87673
                      -0.07670                      -0.47483                      -0.87673
                      -0.07670                      -0.47483                      -0.87673
                      -0.07670                      -0.47483                      -0.87673
                      -0.07670                      -0.47483                      -0.87673
                      -0.07670                      -0.47483                      -0.87673
                      -0.07670                      -0.47483                      -0.87673
                      -0.07670                      -0.47483                      -0.87673
                      -0.07670                      -0.47483                      -0.87673
                      -0.07670                      -0.47483                      -0.87673
                      -0.07670                      -0.47483                      -0.87673
                      -0.07670                      -0.47483                      -0.87673
                      -0.07670                      -0.47483                      -0.87673
        </DataArray>
        <DataArray type="Float32" Name="OrientationZ" NumberOfComponents="3" format="ascii">
                      -0.08480                       0.87924                      -0.46878
                      -0.08480                       0.87924                      -0.46878
                      -0.08480                       0.87924                      -0.46878
                      -0.08480                       0.87924                      -0.46878
                      -0.08480                       0.87924                      -0.46878
                      -0.08480                       0.87924                      -0.46878
                      -0.08480                       0.87924                      -0.46878
                      -0.08480                       0.87924                      -0.46878
                      -0.08480                       0.87924                      -0.46878
                      -0.08480                       0.87924                      -0.46878
                      -0.08480                       0.87924                      -0.46878
                      -0.08480                       0.87924                      -0.46878
                      -0.08480                       0.87924                      -0.46878
                      -0.08480                       0.87924                      -0.46878
                      -0.08480                       0.87924                      -0.46878
                      -0.08480                       0.87924                      -0.46878
                      -0.08480                       0.87924                      -0.46878
                      -0.08480                       0.87924                      -0.46878
                      -0.08480                       0.87924                      -0.46878
        </DataArray>
        <DataArray type="Float32" Name="Force" NumberOfComponents="3" format="ascii">
                      -0.81275                      -5.03136                      -9.28983
                     158.60667                     -39.23449                    -102.27935
                     229.34183                    -131.38497                    -287.91277
                     224.98482                    -211.90101                    -438.14089
                    2856.13007                     241.94900                     -62.85530
                    3611.30557                     234.81000                    -212.85177
                    4528.77541                     254.00349                    -342.81690
                    6426.91172                     327.05805                    -549.15637
                    7208.84770                     314.27170                    -714.58583
                    8395.18666                     345.48591                    -870.64158
                   10774.45213                     404.00529                   -1191.27655
                   12101.59750                     439.32525                   -1365.10253
                   13468.79525                     518.40387                   -1464.09979
                   14575.39096                     553.96100                   -1597.58490
                   15537.69400                     588.17825                   -1707.48144
                   16197.86687                     614.91614                   -1776.75287
                   16311.84832                     631.89714                   -1765.52175
                   13410.98411                     580.42092                   -1337.32265
                   10939.84245                     346.22660                   -1329.56462
        </DataArray>
        <DataArray type="Float32" Name="Moment" NumberOfComponents="3" format="ascii">
                       0.00000                       0.00000                       0.00000
                       0.00000                       0.00000                       0.00000
                       0.00000                       0.00000                       0.00000
                       0.00000                       0.00000                       0.00000
                     118.26908                   -1226.27834                     653.80423
                     216.46408                   -2244.41755                    1196.63672
                     296.81102                   -3077.49843                    1640.80326
                     460.97412                   -4779.63097                    2548.31456
                     648.94879                   -6728.65480                    3587.45876
                     740.11959                   -7673.96335                    4091.46075
                     819.28636                   -8494.80762                    4529.10321
                     876.59126                   -9088.97605                    4845.89086
                     713.55506                   -7398.52790                    3944.60922
                     715.26159                   -7416.22211                    3954.04309
                     697.02014                   -7227.08483                    3853.20239
                     666.98529                   -6915.66707                    3687.16648
                     598.96561                   -6210.40196                    3311.14637
                     311.46755                   -3229.46532                    1721.82613
                     304.35367                   -3155.70472                    1682.49983
        </DataArray>
      </PointData>
      <Lines>
        <DataArray type="Int32" Name="connectivity" format="ascii">
      0      1
      1      2
      2      3
      3      4
      4      5
      5      6
      6      7
      7      8
      8      9
      9     10
     10     11
     11     12
     12     13
     13     14
     14     15
     15     16
     16     17
     17     18
        </DataArray>
        <DataArray type="Int32" Name="offsets" format="ascii">
      2
      4
      6
      8
     10
     12
     14
     16
     18
     20
     22
     24
     26
     28
     30
     32
     34
     36
        </DataArray>
      </Lines>
    </Piece>
  </PolyData>
</VTKFile>
