<?xml version="1.0"?>
<VTKFile type="PolyData" version="0.1" byte_order="LittleEndian">
  <PolyData>
    <Piece NumberOfPoints="     19" NumberOfVerts="  0" NumberOfLines="     18"
           NumberOfStrips="  0" NumberOfPolys="      0">
      <Points>
        <DataArray type="Float32" NumberOfComponents="3" format="ascii">
                      -5.16220                      -1.00322                      88.89672
                      -5.31100                      -1.91471                      87.88928
                      -5.63634                      -3.66662                      85.81400
                      -5.97482                      -5.38493                      83.71010
                      -6.40577                      -7.51277                      81.06305
                      -6.86206                     -10.17400                      77.97573
                      -7.28689                     -12.93251                      74.97225
                      -7.71383                     -15.69287                      71.97076
                      -8.14040                     -18.45649                      68.97219
                      -8.56753                     -21.22194                      65.97535
                      -8.99676                     -23.98644                      62.97796
                      -9.42728                     -26.75113                      59.98093
                      -9.85973                     -29.51599                      56.98435
                     -10.29483                     -32.28095                      53.98824
                     -10.73085                     -35.04597                      50.99232
                     -11.09483                     -37.35020                      48.49582
                     -11.38609                     -39.19941                      46.50400
                     -11.67545                     -41.08945                      44.54903
                     -11.82323                     -42.00345                      43.54387
        </DataArray>
      </Points>
      <PointData>
        <DataArray type="Float32" Name="TranslationalVelocity" NumberOfComponents="3" format="ascii">
                      -0.07239                       0.92167                      -0.82744
                      -0.13816                       1.76332                      -1.57921
                      -0.26458                       3.49844                      -3.02416
                      -0.38857                       5.25813                      -4.44138
                      -0.54211                       7.47245                      -6.19638
                      -0.73414                      10.05174                      -8.39130
                      -0.93319                      12.55960                     -10.66647
                      -1.13238                      15.06597                     -12.94316
                      -1.33180                      17.56992                     -15.22253
                      -1.53135                      20.07247                     -17.50341
                      -1.73083                      22.57563                     -19.78352
                      -1.93033                      25.07858                     -22.06378
                      -2.12984                      27.58131                     -24.34418
                      -2.32936                      30.08382                     -26.62466
                      -2.52888                      32.58626                     -28.90519
                      -2.69515                      34.67159                     -30.80567
                      -2.82858                      36.33542                     -32.33086
                      -2.96497                      37.96872                     -33.88973
                      -3.03092                      38.80842                     -34.64358
        </DataArray>
        <DataArray type="Float32" Name="RotationalVelocity" NumberOfComponents="3" format="ascii">
                       0.82478                      -0.00000                      -0.07216
                       0.82478                      -0.00000                      -0.07216
                       0.82478                      -0.00000                      -0.07216
                       0.82478                      -0.00000                      -0.07216
                       0.82478                      -0.00000                      -0.07216
                       0.82478                      -0.00000                      -0.07216
                       0.82478                      -0.00000                      -0.07216
                       0.82478                      -0.00000                      -0.07216
                       0.82478                      -0.00000                      -0.07216
                       0.82478                      -0.00000                      -0.07216
                       0.82478                      -0.00000                      -0.07216
                       0.82478                      -0.00000                      -0.07216
                       0.82478                      -0.00000                      -0.07216
                       0.82478                      -0.00000                      -0.07216
                       0.82478                      -0.00000                      -0.07216
                       0.82478                      -0.00000                      -0.07216
                       0.82478                      -0.00000                      -0.07216
                       0.82478                      -0.00000                      -0.07216
                       0.82478                      -0.00000                      -0.07216
        </DataArray>
        <DataArray type="Float32" Name="TranslationalAcceleration" NumberOfComponents="3" format="ascii">
                       0.06045                       0.76484                       0.69090
                       0.11567                       1.46011                       1.32213
                       0.23029                       2.80627                       2.63224
                       0.34689                       4.13144                       3.96493
                       0.49381                       5.77541                       5.64432
                       0.66385                       7.81555                       7.58789
                       0.82815                       9.91640                       9.46583
                       0.99233                      12.01839                      11.34241
                       1.15632                      14.12241                      13.21677
                       1.32019                      16.22756                      15.08985
                       1.48411                      18.33212                      16.96350
                       1.64802                      20.43679                      18.83696
                       1.81191                      22.54156                      20.71023
                       1.97578                      24.64638                      22.58331
                       2.13965                      26.75124                      24.45633
                       2.27621                      28.50531                      26.01714
                       2.38509                      29.91219                      27.26174
                       2.49153                      31.34450                      28.47833
                       2.54660                      32.04133                      29.10778
        </DataArray>
        <DataArray type="Float32" Name="OrientationX" NumberOfComponents="3" format="ascii">
                       0.99242                      -0.02920                      -0.11935
                       0.99242                      -0.02920                      -0.11935
                       0.99242                      -0.02920                      -0.11935
                       0.99242                      -0.02920                      -0.11935
                       0.99242                      -0.02920                      -0.11935
                       0.99242                      -0.02920                      -0.11935
                       0.99242                      -0.02920                      -0.11935
                       0.99242                      -0.02920                      -0.11935
                       0.99242                      -0.02920                      -0.11935
                       0.99242                      -0.02920                      -0.11935
                       0.99242                      -0.02920                      -0.11935
                       0.99242                      -0.02920                      -0.11935
                       0.99242                      -0.02920                      -0.11935
                       0.99242                      -0.02920                      -0.11935
                       0.99242                      -0.02920                      -0.11935
                       0.99242                      -0.02920                      -0.11935
                       0.99242                      -0.02920                      -0.11935
                       0.99242                      -0.02920                      -0.11935
                       0.99242                      -0.02920                      -0.11935
        </DataArray>
        <DataArray type="Float32" Name="OrientationY" NumberOfComponents="3" format="ascii">
                       0.05835                      -0.74286                       0.66690
                       0.05835                      -0.74286                       0.66690
                       0.05835                      -0.74286                       0.66690
                       0.05835                      -0.74286                       0.66690
                       0.05835                      -0.74286                       0.66690
                       0.05835                      -0.74286                       0.66690
                       0.05835                      -0.74286                       0.66690
                       0.05835                      -0.74286                       0.66690
                       0.05835                      -0.74286                       0.66690
                       0.05835                      -0.74286                       0.66690
                       0.05835                      -0.74286                       0.66690
                       0.05835                      -0.74286                       0.66690
                       0.05835                      -0.74286                       0.66690
                       0.05835                      -0.74286                       0.66690
                       0.05835                      -0.74286                       0.66690
                       0.05835                      -0.74286                       0.66690
                       0.05835                      -0.74286                       0.66690
                       0.05835                      -0.74286                       0.66690
                       0.05835                      -0.74286                       0.66690
        </DataArray>
        <DataArray type="Float32" Name="OrientationZ" NumberOfComponents="3" format="ascii">
                      -0.10814                      -0.66881                      -0.73552
                      -0.10814                      -0.66881                      -0.73552
                      -0.10814                      -0.66881                      -0.73552
                      -0.10814                      -0.66881                      -0.73552
                      -0.10814                      -0.66881                      -0.73552
                      -0.10814                      -0.66881                      -0.73552
                      -0.10814                      -0.66881                      -0.73552
                      -0.10814                      -0.66881                      -0.73552
                      -0.10814                      -0.66881                      -0.73552
                      -0.10814                      -0.66881                      -0.73552
                      -0.10814                      -0.66881                      -0.73552
                      -0.10814                      -0.66881                      -0.73552
                      -0.10814                      -0.66881                      -0.73552
                      -0.10814                      -0.66881                      -0.73552
                      -0.10814                      -0.66881                      -0.73552
                      -0.10814                      -0.66881                      -0.73552
                      -0.10814                      -0.66881                      -0.73552
                      -0.10814                      -0.66881                      -0.73552
                      -0.10814                      -0.66881                      -0.73552
        </DataArray>
        <DataArray type="Float32" Name="Force" NumberOfComponents="3" format="ascii">
                       0.26030                      -3.31404                       2.97520
                     136.62951                     -37.51937                      14.02936
                     177.95557                     -72.57762                      39.83225
                     153.45762                     -80.71292                      50.83138
                    1454.83427                      60.81051                    -269.18364
                    1550.45174                      51.12590                    -274.43498
                    1833.12088                      62.44651                    -326.28662
                    1818.95695                      87.63584                    -347.10901
                    2007.61378                     161.12686                    -441.67084
                    2515.60132                     256.63674                    -603.20221
                    2760.49421                     311.41555                    -689.01673
                    3067.79016                     332.51853                    -753.38413
                    3790.94181                     355.48997                    -880.58924
                    4105.78443                     378.06305                    -947.40291
                    4287.40989                     387.68075                    -982.85073
                    4350.71837                     389.58961                    -993.89402
                    4176.22114                     346.92268                    -929.44239
                    2973.51238                     214.49587                    -632.20502
                    1061.01856                     -42.86103                    -117.01627
        </DataArray>
        <DataArray type="Float32" Name="Moment" NumberOfComponents="3" format="ascii">
                       0.00000                       0.00000                       0.00000
                       0.00000                       0.00000                       0.00000
                       0.00000                       0.00000                       0.00000
                       0.00000                       0.00000                       0.00000
                      79.95781                     494.53407                     543.86004
                      97.09433                     600.52240                     660.41988
                     102.47275                     633.78761                     697.00304
                     111.35299                     688.71136                     757.40501
                     107.52452                     665.03250                     731.36437
                     100.56150                     621.96662                     684.00299
                      77.49823                     479.32174                     527.13039
                      75.47439                     466.80443                     513.36457
                      97.33138                     601.98855                     662.03227
                     101.16473                     625.69756                     688.10607
                      97.20495                     601.20661                     661.17233
                      92.28424                     570.77228                     627.70241
                      82.87847                     512.59819                     563.72591
                      42.30860                     261.67605                     287.77622
                      37.60048                     232.55664                     255.75237
        </DataArray>
      </PointData>
      <Lines>
        <DataArray type="Int32" Name="connectivity" format="ascii">
      0      1
      1      2
      2      3
      3      4
      4      5
      5      6
      6      7
      7      8
      8      9
      9     10
     10     11
     11     12
     12     13
     13     14
     14     15
     15     16
     16     17
     17     18
        </DataArray>
        <DataArray type="Int32" Name="offsets" format="ascii">
      2
      4
      6
      8
     10
     12
     14
     16
     18
     20
     22
     24
     26
     28
     30
     32
     34
     36
        </DataArray>
      </Lines>
    </Piece>
  </PolyData>
</VTKFile>
