<?xml version="1.0"?>
<VTKFile type="PolyData" version="0.1" byte_order="LittleEndian">
  <PolyData>
    <Piece NumberOfPoints="     19" NumberOfVerts="  0" NumberOfLines="     18"
           NumberOfStrips="  0" NumberOfPolys="      0">
      <Points>
        <DataArray type="Float32" NumberOfComponents="3" format="ascii">
                      -4.94143                       0.47937                      91.42014
                      -4.88879                       0.91286                      92.71520
                      -4.80324                       1.68981                      95.33643
                      -4.72702                       2.42412                      97.97244
                      -4.63734                       3.31658                     101.27635
                      -4.48086                       4.52381                     105.19297
                      -4.30398                       5.85457                     109.06706
                      -4.12945                       7.18774                     112.94043
                      -3.95492                       8.52507                     116.81240
                      -3.78118                       9.86473                     120.68361
                      -3.60944                      11.20324                     124.55529
                      -3.43903                      12.54202                     128.42694
                      -3.27059                      13.88107                     132.29858
                      -3.10484                      15.22031                     136.17026
                      -2.94002                      16.55964                     140.04195
                      -2.80330                      17.67581                     143.26840
                      -2.69471                      18.57621                     145.84701
                      -2.58896                      19.52873                     148.40814
                      -2.53560                      19.96547                     149.70198
        </DataArray>
      </Points>
      <PointData>
        <DataArray type="Float32" Name="TranslationalVelocity" NumberOfComponents="3" format="ascii">
                       0.03239                      -1.10085                       0.37026
                       0.06169                      -2.10470                       0.70508
                       0.11419                      -4.13508                       1.30518
                       0.16381                      -6.17625                       1.87236
                       0.22412                      -8.73420                       2.56168
                       0.30570                     -11.76993                       3.49413
                       0.39562                     -14.77417                       4.52199
                       0.48571                     -17.77771                       5.55171
                       0.57608                     -20.78016                       6.58465
                       0.66661                     -23.78197                       7.61939
                       0.75706                     -26.78401                       8.65323
                       0.84753                     -29.78593                       9.68729
                       0.93801                     -32.78772                      10.72155
                       1.02851                     -35.78936                      11.75596
                       1.11902                     -38.79094                      12.79045
                       1.19444                     -41.29224                      13.65256
                       1.25529                     -43.29126                      14.34802
                       1.31966                     -45.27660                      15.08373
                       1.34917                     -46.27954                      15.42106
        </DataArray>
        <DataArray type="Float32" Name="RotationalVelocity" NumberOfComponents="3" format="ascii">
                       0.77239                      -0.00000                      -0.06758
                       0.77239                      -0.00000                      -0.06758
                       0.77239                      -0.00000                      -0.06758
                       0.77239                      -0.00000                      -0.06758
                       0.77239                      -0.00000                      -0.06758
                       0.77239                      -0.00000                      -0.06758
                       0.77239                      -0.00000                      -0.06758
                       0.77239                      -0.00000                      -0.06758
                       0.77239                      -0.00000                      -0.06758
                       0.77239                      -0.00000                      -0.06758
                       0.77239                      -0.00000                      -0.06758
                       0.77239                      -0.00000                      -0.06758
                       0.77239                      -0.00000                      -0.06758
                       0.77239                      -0.00000                      -0.06758
                       0.77239                      -0.00000                      -0.06758
                       0.77239                      -0.00000                      -0.06758
                       0.77239                      -0.00000                      -0.06758
                       0.77239                      -0.00000                      -0.06758
                       0.77239                      -0.00000                      -0.06758
        </DataArray>
        <DataArray type="Float32" Name="TranslationalAcceleration" NumberOfComponents="3" format="ascii">
                      -0.07178                      -0.37677                      -0.82048
                      -0.13726                      -0.71815                      -1.56890
                      -0.27024                      -1.34861                      -3.08884
                      -0.40418                      -1.95431                      -4.61977
                      -0.57218                      -2.69667                      -6.54002
                      -0.77075                      -3.66670                      -8.80973
                      -0.96653                      -4.70846                     -11.04745
                      -1.16224                      -5.75161                     -13.28447
                      -1.35786                      -6.79717                     -15.52040
                      -1.55342                      -7.84409                     -17.75568
                      -1.74900                      -8.89033                     -19.99122
                      -1.94458                      -9.93672                     -22.22664
                      -2.14014                     -10.98326                     -24.46195
                      -2.33570                     -12.02991                     -26.69712
                      -2.53124                     -13.07661                     -28.93225
                      -2.69420                     -13.94889                     -30.79485
                      -2.82439                     -14.65105                     -32.28289
                      -2.95337                     -15.38342                     -33.75713
                      -3.01877                     -15.72668                     -34.50464
        </DataArray>
        <DataArray type="Float32" Name="OrientationX" NumberOfComponents="3" format="ascii">
                       0.99885                       0.01395                      -0.04590
                       0.99885                       0.01395                      -0.04590
                       0.99885                       0.01395                      -0.04590
                       0.99885                       0.01395                      -0.04590
                       0.99885                       0.01395                      -0.04590
                       0.99885                       0.01395                      -0.04590
                       0.99885                       0.01395                      -0.04590
                       0.99885                       0.01395                      -0.04590
                       0.99885                       0.01395                      -0.04590
                       0.99885                       0.01395                      -0.04590
                       0.99885                       0.01395                      -0.04590
                       0.99885                       0.01395                      -0.04590
                       0.99885                       0.01395                      -0.04590
                       0.99885                       0.01395                      -0.04590
                       0.99885                       0.01395                      -0.04590
                       0.99885                       0.01395                      -0.04590
                       0.99885                       0.01395                      -0.04590
                       0.99885                       0.01395                      -0.04590
                       0.99885                       0.01395                      -0.04590
        </DataArray>
        <DataArray type="Float32" Name="OrientationY" NumberOfComponents="3" format="ascii">
                      -0.02788                       0.94746                      -0.31867
                      -0.02788                       0.94746                      -0.31867
                      -0.02788                       0.94746                      -0.31867
                      -0.02788                       0.94746                      -0.31867
                      -0.02788                       0.94746                      -0.31867
                      -0.02788                       0.94746                      -0.31867
                      -0.02788                       0.94746                      -0.31867
                      -0.02788                       0.94746                      -0.31867
                      -0.02788                       0.94746                      -0.31867
                      -0.02788                       0.94746                      -0.31867
                      -0.02788                       0.94746                      -0.31867
                      -0.02788                       0.94746                      -0.31867
                      -0.02788                       0.94746                      -0.31867
                      -0.02788                       0.94746                      -0.31867
                      -0.02788                       0.94746                      -0.31867
                      -0.02788                       0.94746                      -0.31867
                      -0.02788                       0.94746                      -0.31867
                      -0.02788                       0.94746                      -0.31867
                      -0.02788                       0.94746                      -0.31867
        </DataArray>
        <DataArray type="Float32" Name="OrientationZ" NumberOfComponents="3" format="ascii">
                       0.03904                       0.31958                       0.94675
                       0.03904                       0.31958                       0.94675
                       0.03904                       0.31958                       0.94675
                       0.03904                       0.31958                       0.94675
                       0.03904                       0.31958                       0.94675
                       0.03904                       0.31958                       0.94675
                       0.03904                       0.31958                       0.94675
                       0.03904                       0.31958                       0.94675
                       0.03904                       0.31958                       0.94675
                       0.03904                       0.31958                       0.94675
                       0.03904                       0.31958                       0.94675
                       0.03904                       0.31958                       0.94675
                       0.03904                       0.31958                       0.94675
                       0.03904                       0.31958                       0.94675
                       0.03904                       0.31958                       0.94675
                       0.03904                       0.31958                       0.94675
                       0.03904                       0.31958                       0.94675
                       0.03904                       0.31958                       0.94675
                       0.03904                       0.31958                       0.94675
        </DataArray>
        <DataArray type="Float32" Name="Force" NumberOfComponents="3" format="ascii">
                      -0.02065                       0.70170                      -0.23601
                     158.74389                      25.85708                     -15.27477
                     180.92527                      59.65366                     -27.59769
                     146.46333                      72.67101                     -30.57052
                    1469.10564                    -122.24354                     -19.32236
                    1474.40032                     -98.90290                     -27.41943
                    1761.52887                    -116.66717                     -33.26425
                    1711.01672                    -100.65868                     -36.58485
                    1700.98790                    -100.39340                     -36.26081
                    2064.62567                    -210.30256                     -14.15705
                    2363.54340                    -343.62422                      18.51875
                    2865.44339                    -494.64331                      48.79736
                    3468.99882                    -544.20969                      40.63797
                    3719.10585                    -568.22359                      38.42950
                    3954.20289                    -594.43525                      37.58191
                    4072.52577                    -602.20701                      35.32564
                    4029.75529                    -588.57541                      32.48811
                    2975.86244                    -429.97359                      22.41417
                     899.67220                      25.12676                     -45.58423
        </DataArray>
        <DataArray type="Float32" Name="Moment" NumberOfComponents="3" format="ascii">
                       0.00000                       0.00000                       0.00000
                       0.00000                       0.00000                       0.00000
                       0.00000                       0.00000                       0.00000
                       0.00000                       0.00000                       0.00000
                     -31.80846                    -260.35464                    -771.29873
                     -35.35655                    -289.39604                    -857.33366
                     -37.57610                    -307.56321                    -911.15379
                     -41.47635                    -339.48704                   -1005.72791
                     -42.51575                    -347.99462                   -1030.93156
                     -41.16579                    -336.94508                    -998.19738
                     -33.75043                    -276.24979                    -818.38799
                     -30.85183                    -252.52455                    -748.10215
                     -30.53406                    -249.92358                    -740.39680
                     -30.28991                    -247.92522                    -734.47666
                     -30.04787                    -245.94411                    -728.60764
                     -28.25684                    -231.28436                    -685.17826
                     -25.63482                    -209.82291                    -621.59887
                     -13.41550                    -109.80687                    -325.30206
                     -11.45212                     -93.73646                    -277.69359
        </DataArray>
      </PointData>
      <Lines>
        <DataArray type="Int32" Name="connectivity" format="ascii">
      0      1
      1      2
      2      3
      3      4
      4      5
      5      6
      6      7
      7      8
      8      9
      9     10
     10     11
     11     12
     12     13
     13     14
     14     15
     15     16
     16     17
     17     18
        </DataArray>
        <DataArray type="Int32" Name="offsets" format="ascii">
      2
      4
      6
      8
     10
     12
     14
     16
     18
     20
     22
     24
     26
     28
     30
     32
     34
     36
        </DataArray>
      </Lines>
    </Piece>
  </PolyData>
</VTKFile>
