<?xml version="1.0"?>
<VTKFile type="PolyData" version="0.1" byte_order="LittleEndian">
  <PolyData>
    <Piece NumberOfPoints="     19" NumberOfVerts="  0" NumberOfLines="     18"
           NumberOfStrips="  0" NumberOfPolys="      0">
      <Points>
        <DataArray type="Float32" NumberOfComponents="3" format="ascii">
                      -5.19579                       0.01059                      88.51287
                      -5.37498                       0.02368                      87.15803
                      -5.75550                       0.14453                      84.45203
                      -6.14650                       0.31021                      81.74773
                      -6.64153                       0.54409                      78.36830
                      -7.18320                       0.68169                      74.30511
                      -7.70109                       0.68928                      70.23787
                      -8.22126                       0.69429                      66.17090
                      -8.74130                       0.69491                      62.10389
                      -9.26205                       0.69305                      58.03695
                      -9.78483                       0.69239                      53.97029
                     -10.30892                       0.69141                      49.90380
                     -10.83495                       0.69013                      45.83756
                     -11.36364                       0.68860                      41.77167
                     -11.89326                       0.68696                      37.70591
                     -12.33524                       0.68553                      34.31782
                     -12.68937                       0.67648                      31.60742
                     -13.04484                       0.61240                      28.89681
                     -13.22322                       0.62205                      27.54193
        </DataArray>
      </Points>
      <PointData>
        <DataArray type="Float32" Name="TranslationalVelocity" NumberOfComponents="3" format="ascii">
                       0.00251                       4.08016                       0.02872
                       0.00562                       7.79757                       0.06423
                       0.03430                      15.22763                       0.39203
                       0.07361                      22.65557                       0.84142
                       0.12912                      31.93943                       1.47580
                       0.16177                      43.08899                       1.84903
                       0.16357                      54.24391                       1.86961
                       0.16476                      65.39861                       1.88319
                       0.16491                      76.55340                       1.88487
                       0.16446                      87.70816                       1.87984
                       0.16431                      98.86266                       1.87803
                       0.16407                     110.01700                       1.87538
                       0.16377                     121.17111                       1.87191
                       0.16341                     132.32492                       1.86775
                       0.16302                     143.47861                       1.86331
                       0.16268                     152.77337                       1.85944
                       0.16053                     160.20910                       1.83489
                       0.14533                     167.64573                       1.66109
                       0.14762                     171.36303                       1.68725
        </DataArray>
        <DataArray type="Float32" Name="RotationalVelocity" NumberOfComponents="3" format="ascii">
                       2.71241                      -0.00000                      -0.23730
                       2.71241                      -0.00000                      -0.23730
                       2.71241                      -0.00000                      -0.23730
                       2.71241                      -0.00000                      -0.23730
                       2.71241                      -0.00000                      -0.23730
                       2.71241                      -0.00000                      -0.23730
                       2.71241                      -0.00000                      -0.23730
                       2.71241                      -0.00000                      -0.23730
                       2.71241                      -0.00000                      -0.23730
                       2.71241                      -0.00000                      -0.23730
                       2.71241                      -0.00000                      -0.23730
                       2.71241                      -0.00000                      -0.23730
                       2.71241                      -0.00000                      -0.23730
                       2.71241                      -0.00000                      -0.23730
                       2.71241                      -0.00000                      -0.23730
                       2.71241                      -0.00000                      -0.23730
                       2.71241                      -0.00000                      -0.23730
                       2.71241                      -0.00000                      -0.23730
                       2.71241                      -0.00000                      -0.23730
        </DataArray>
        <DataArray type="Float32" Name="TranslationalAcceleration" NumberOfComponents="3" format="ascii">
                       0.96824                      -0.08556                      11.06700
                       1.85039                      -0.18907                      21.15006
                       3.61353                      -1.09787                      41.30283
                       5.37615                      -2.33901                      61.44964
                       7.57915                      -4.08897                      86.63014
                      10.22494                      -5.12839                     116.87162
                      12.87205                      -5.20397                     147.12825
                      15.51911                      -5.26042                     177.38429
                      18.16620                      -5.28437                     207.64062
                      20.81328                      -5.28995                     237.89686
                      23.46029                      -5.30433                     268.15237
                      26.10727                      -5.31642                     298.40748
                      28.75420                      -5.32626                     328.66197
                      31.40105                      -5.33425                     358.91561
                      34.04787                      -5.34145                     389.16895
                      36.25356                      -5.34697                     414.38012
                      38.01810                      -5.29275                     434.54888
                      39.78288                      -4.83062                     454.72035
                      40.66500                      -4.90858                     464.80313
        </DataArray>
        <DataArray type="Float32" Name="OrientationX" NumberOfComponents="3" format="ascii">
                       0.99144                       0.00031                      -0.13053
                       0.99144                       0.00031                      -0.13053
                       0.99144                       0.00031                      -0.13053
                       0.99144                       0.00031                      -0.13053
                       0.99144                       0.00031                      -0.13053
                       0.99144                       0.00031                      -0.13053
                       0.99144                       0.00031                      -0.13053
                       0.99144                       0.00031                      -0.13053
                       0.99144                       0.00031                      -0.13053
                       0.99144                       0.00031                      -0.13053
                       0.99144                       0.00031                      -0.13053
                       0.99144                       0.00031                      -0.13053
                       0.99144                       0.00031                      -0.13053
                       0.99144                       0.00031                      -0.13053
                       0.99144                       0.00031                      -0.13053
                       0.99144                       0.00031                      -0.13053
                       0.99144                       0.00031                      -0.13053
                       0.99144                       0.00031                      -0.13053
                       0.99144                       0.00031                      -0.13053
        </DataArray>
        <DataArray type="Float32" Name="OrientationY" NumberOfComponents="3" format="ascii">
                      -0.00062                      -0.99998                      -0.00704
                      -0.00062                      -0.99998                      -0.00704
                      -0.00062                      -0.99998                      -0.00704
                      -0.00062                      -0.99998                      -0.00704
                      -0.00062                      -0.99998                      -0.00704
                      -0.00062                      -0.99998                      -0.00704
                      -0.00062                      -0.99998                      -0.00704
                      -0.00062                      -0.99998                      -0.00704
                      -0.00062                      -0.99998                      -0.00704
                      -0.00062                      -0.99998                      -0.00704
                      -0.00062                      -0.99998                      -0.00704
                      -0.00062                      -0.99998                      -0.00704
                      -0.00062                      -0.99998                      -0.00704
                      -0.00062                      -0.99998                      -0.00704
                      -0.00062                      -0.99998                      -0.00704
                      -0.00062                      -0.99998                      -0.00704
                      -0.00062                      -0.99998                      -0.00704
                      -0.00062                      -0.99998                      -0.00704
                      -0.00062                      -0.99998                      -0.00704
        </DataArray>
        <DataArray type="Float32" Name="OrientationZ" NumberOfComponents="3" format="ascii">
                      -0.13052                       0.00706                      -0.99142
                      -0.13052                       0.00706                      -0.99142
                      -0.13052                       0.00706                      -0.99142
                      -0.13052                       0.00706                      -0.99142
                      -0.13052                       0.00706                      -0.99142
                      -0.13052                       0.00706                      -0.99142
                      -0.13052                       0.00706                      -0.99142
                      -0.13052                       0.00706                      -0.99142
                      -0.13052                       0.00706                      -0.99142
                      -0.13052                       0.00706                      -0.99142
                      -0.13052                       0.00706                      -0.99142
                      -0.13052                       0.00706                      -0.99142
                      -0.13052                       0.00706                      -0.99142
                      -0.13052                       0.00706                      -0.99142
                      -0.13052                       0.00706                      -0.99142
                      -0.13052                       0.00706                      -0.99142
                      -0.13052                       0.00706                      -0.99142
                      -0.13052                       0.00706                      -0.99142
                      -0.13052                       0.00706                      -0.99142
        </DataArray>
        <DataArray type="Float32" Name="Force" NumberOfComponents="3" format="ascii">
                      -0.01106                     -17.96619                      -0.12645
                     142.67021                    -108.77666                     -19.55748
                     224.06713                    -328.92475                     -31.84103
                     230.86688                    -500.26252                     -33.95608
                    2592.48726                     182.85036                    -340.00849
                    3254.86870                     132.29093                    -427.57335
                    4119.87857                      98.21788                    -541.69760
                    5978.33022                      92.51184                    -786.41008
                    6771.67143                       6.12866                    -891.47132
                    7910.30180                     -26.30976                   -1041.60705
                    7673.91505                    -279.78286                   -1012.29049
                    8836.96416                    -304.63383                   -1165.58703
                   10186.89355                    -314.67868                   -1343.38161
                   11092.17145                    -289.97699                   -1462.38884
                   11847.45338                    -294.71206                   -1561.85814
                   12395.37297                    -298.77285                   -1634.02264
                   12603.76282                    -282.83281                   -1661.34443
                   12333.22267                     -10.08618                   -1623.78502
                   11175.08783                    -162.35314                   -1472.39646
        </DataArray>
        <DataArray type="Float32" Name="Moment" NumberOfComponents="3" format="ascii">
                       0.00000                       0.00000                       0.00000
                       0.00000                       0.00000                       0.00000
                       0.00000                       0.00000                       0.00000
                       0.00000                       0.00000                       0.00000
                     162.03190                      -8.76230                    1230.74409
                     315.55453                     -17.06443                    2396.85446
                     441.88490                     -23.89608                    3356.42081
                     702.89026                     -38.01063                    5338.93671
                    1006.08391                     -54.40661                    7641.90179
                    1149.30293                     -62.15156                    8729.74908
                    1234.90260                     -66.78058                    9379.93766
                    1342.74455                     -72.61242                   10199.07171
                    1016.62384                     -54.97659                    7721.95982
                    1051.15584                     -56.84400                    7984.25418
                    1034.05433                     -55.91919                    7854.35641
                     990.20796                     -53.54808                    7521.31299
                     888.45103                     -48.04531                    6748.39888
                     475.62842                     -25.72085                    3612.72616
                     479.12129                     -25.90973                    3639.25694
        </DataArray>
      </PointData>
      <Lines>
        <DataArray type="Int32" Name="connectivity" format="ascii">
      0      1
      1      2
      2      3
      3      4
      4      5
      5      6
      6      7
      7      8
      8      9
      9     10
     10     11
     11     12
     12     13
     13     14
     14     15
     15     16
     16     17
     17     18
        </DataArray>
        <DataArray type="Int32" Name="offsets" format="ascii">
      2
      4
      6
      8
     10
     12
     14
     16
     18
     20
     22
     24
     26
     28
     30
     32
     34
     36
        </DataArray>
      </Lines>
    </Piece>
  </PolyData>
</VTKFile>
