<?xml version="1.0"?>
<VTKFile type="PolyData" version="0.1" byte_order="LittleEndian">
  <PolyData>
    <Piece NumberOfPoints="     19" NumberOfVerts="  0" NumberOfLines="     18"
           NumberOfStrips="  0" NumberOfPolys="      0">
      <Points>
        <DataArray type="Float32" NumberOfComponents="3" format="ascii">
                      -5.12782                       1.31496                      89.28969
                      -5.24483                       2.51468                      88.64560
                      -5.49385                       4.95860                      87.44265
                      -5.74998                       7.42361                      86.28003
                      -6.07439                      10.51754                      84.85081
                      -6.42206                      14.16362                      83.00499
                      -6.75577                      17.74827                      81.04292
                      -7.09196                      21.33159                      79.07884
                      -7.42835                      24.91281                      77.11092
                      -7.76565                      28.49281                      75.14090
                      -8.10489                      32.07331                      73.17215
                      -8.44545                      35.65361                      71.20326
                      -8.78800                      39.23368                      69.23433
                      -9.13322                      42.81354                      67.26546
                      -9.47939                      46.39331                      65.29661
                      -9.76849                      49.37642                      63.65589
                     -10.00093                      51.75905                      62.33649
                     -10.23888                      54.11523                      60.96914
                     -10.35533                      55.31325                      60.32199
        </DataArray>
      </Points>
      <PointData>
        <DataArray type="Float32" Name="TranslationalVelocity" NumberOfComponents="3" format="ascii">
                       0.30008                       1.88196                       3.42995
                       0.57387                       3.58870                       6.55932
                       1.13158                       6.78333                      12.93404
                       1.69411                       9.87437                      19.36379
                       2.40017                      13.67637                      27.43403
                       3.23223                      18.57036                      36.94450
                       4.05026                      23.76439                      46.29471
                       4.86800                      28.96423                      55.64147
                       5.68525                      34.17416                      64.98275
                       6.50223                      39.38973                      74.32086
                       7.31932                      44.60246                      83.66025
                       8.13637                      49.81583                      92.99913
                       8.95337                      55.02978                     102.33743
                       9.77031                      60.24417                     111.67515
                      10.58723                      65.45874                     121.01265
                      11.26800                      69.80438                     128.79383
                      11.81173                      73.29895                     135.00868
                      12.34942                      76.91987                     141.15457
                      12.62282                      78.63446                     144.27948
        </DataArray>
        <DataArray type="Float32" Name="RotationalVelocity" NumberOfComponents="3" format="ascii">
                       2.60841                      -0.00000                      -0.22821
                       2.60841                      -0.00000                      -0.22821
                       2.60841                      -0.00000                      -0.22821
                       2.60841                      -0.00000                      -0.22821
                       2.60841                      -0.00000                      -0.22821
                       2.60841                      -0.00000                      -0.22821
                       2.60841                      -0.00000                      -0.22821
                       2.60841                      -0.00000                      -0.22821
                       2.60841                      -0.00000                      -0.22821
                       2.60841                      -0.00000                      -0.22821
                       2.60841                      -0.00000                      -0.22821
                       2.60841                      -0.00000                      -0.22821
                       2.60841                      -0.00000                      -0.22821
                       2.60841                      -0.00000                      -0.22821
                       2.60841                      -0.00000                      -0.22821
                       2.60841                      -0.00000                      -0.22821
                       2.60841                      -0.00000                      -0.22821
                       2.60841                      -0.00000                      -0.22821
                       2.60841                      -0.00000                      -0.22821
        </DataArray>
        <DataArray type="Float32" Name="TranslationalAcceleration" NumberOfComponents="3" format="ascii">
                       0.43036                      -9.00961                       4.91907
                       0.82067                     -17.22970                       9.38024
                       1.55135                     -33.97537                      17.73203
                       2.25841                     -50.86599                      25.81377
                       3.12815                     -72.06631                      35.75487
                       4.24745                     -97.04888                      48.54857
                       5.43518                    -121.60933                      62.12445
                       6.62424                    -146.16067                      75.71546
                       7.81560                    -170.69760                      89.33274
                       9.00825                    -195.22618                     102.96476
                      10.20025                    -219.75814                     116.58937
                      11.39239                    -244.28873                     130.21565
                      12.58467                    -268.81781                     143.84344
                      13.77705                    -293.34537                     157.47236
                      14.96947                    -317.87233                     171.10177
                      15.96318                    -338.31129                     182.46002
                      16.76228                    -354.63589                     191.59372
                      17.59019                    -370.77884                     201.05677
                      17.98228                    -378.98719                     205.53837
        </DataArray>
        <DataArray type="Float32" Name="OrientationX" NumberOfComponents="3" format="ascii">
                       0.99342                       0.03827                      -0.10791
                       0.99342                       0.03827                      -0.10791
                       0.99342                       0.03827                      -0.10791
                       0.99342                       0.03827                      -0.10791
                       0.99342                       0.03827                      -0.10791
                       0.99342                       0.03827                      -0.10791
                       0.99342                       0.03827                      -0.10791
                       0.99342                       0.03827                      -0.10791
                       0.99342                       0.03827                      -0.10791
                       0.99342                       0.03827                      -0.10791
                       0.99342                       0.03827                      -0.10791
                       0.99342                       0.03827                      -0.10791
                       0.99342                       0.03827                      -0.10791
                       0.99342                       0.03827                      -0.10791
                       0.99342                       0.03827                      -0.10791
                       0.99342                       0.03827                      -0.10791
                       0.99342                       0.03827                      -0.10791
                       0.99342                       0.03827                      -0.10791
                       0.99342                       0.03827                      -0.10791
        </DataArray>
        <DataArray type="Float32" Name="OrientationY" NumberOfComponents="3" format="ascii">
                      -0.07648                      -0.47962                      -0.87414
                      -0.07648                      -0.47962                      -0.87414
                      -0.07648                      -0.47962                      -0.87414
                      -0.07648                      -0.47962                      -0.87414
                      -0.07648                      -0.47962                      -0.87414
                      -0.07648                      -0.47962                      -0.87414
                      -0.07648                      -0.47962                      -0.87414
                      -0.07648                      -0.47962                      -0.87414
                      -0.07648                      -0.47962                      -0.87414
                      -0.07648                      -0.47962                      -0.87414
                      -0.07648                      -0.47962                      -0.87414
                      -0.07648                      -0.47962                      -0.87414
                      -0.07648                      -0.47962                      -0.87414
                      -0.07648                      -0.47962                      -0.87414
                      -0.07648                      -0.47962                      -0.87414
                      -0.07648                      -0.47962                      -0.87414
                      -0.07648                      -0.47962                      -0.87414
                      -0.07648                      -0.47962                      -0.87414
                      -0.07648                      -0.47962                      -0.87414
        </DataArray>
        <DataArray type="Float32" Name="OrientationZ" NumberOfComponents="3" format="ascii">
                      -0.08522                       0.87664                      -0.47354
                      -0.08522                       0.87664                      -0.47354
                      -0.08522                       0.87664                      -0.47354
                      -0.08522                       0.87664                      -0.47354
                      -0.08522                       0.87664                      -0.47354
                      -0.08522                       0.87664                      -0.47354
                      -0.08522                       0.87664                      -0.47354
                      -0.08522                       0.87664                      -0.47354
                      -0.08522                       0.87664                      -0.47354
                      -0.08522                       0.87664                      -0.47354
                      -0.08522                       0.87664                      -0.47354
                      -0.08522                       0.87664                      -0.47354
                      -0.08522                       0.87664                      -0.47354
                      -0.08522                       0.87664                      -0.47354
                      -0.08522                       0.87664                      -0.47354
                      -0.08522                       0.87664                      -0.47354
                      -0.08522                       0.87664                      -0.47354
                      -0.08522                       0.87664                      -0.47354
                      -0.08522                       0.87664                      -0.47354
        </DataArray>
        <DataArray type="Float32" Name="Force" NumberOfComponents="3" format="ascii">
                      -0.74529                      -4.67405                      -8.51867
                     157.16375                     -37.58841                     -97.86730
                     225.43048                    -125.21751                    -272.37455
                     220.40736                    -201.27398                    -412.26931
                    2825.61149                     249.75301                     -46.12636
                    3572.35370                     242.87090                    -193.24571
                    4475.65689                     262.62205                    -319.23424
                    6302.31007                     334.02359                    -515.76568
                    7039.08546                     319.45799                    -675.31544
                    8171.39067                     349.18288                    -824.04992
                   10454.80878                     407.01051                   -1127.90639
                   11818.38954                     446.06166                   -1300.99459
                   13046.85321                     520.09605                   -1385.00568
                   14086.99889                     553.68096                   -1510.00990
                   14993.52377                     586.13382                   -1613.06428
                   15611.74383                     611.33755                   -1677.65707
                   15702.48832                     626.78186                   -1665.39574
                   12840.60098                     567.55986                   -1260.02300
                   10245.74917                     322.36738                   -1246.98003
        </DataArray>
        <DataArray type="Float32" Name="Moment" NumberOfComponents="3" format="ascii">
                       0.00000                       0.00000                       0.00000
                       0.00000                       0.00000                       0.00000
                       0.00000                       0.00000                       0.00000
                       0.00000                       0.00000                       0.00000
                     113.10787                   -1163.57627                     628.53922
                     206.72099                   -2126.60388                    1148.74630
                     282.72544                   -2908.48562                    1571.10222
                     437.34873                   -4499.14400                    2430.34213
                     613.73934                   -6313.72978                    3410.54287
                     699.50528                   -7196.03091                    3887.14322
                     773.48148                   -7957.04743                    4298.22820
                     826.34429                   -8500.86377                    4591.98625
                     677.92473                   -6974.02505                    3767.22037
                     679.01488                   -6985.23977                    3773.27832
                     661.37698                   -6803.79308                    3675.26467
                     632.66162                   -6508.38919                    3515.69376
                     567.97793                   -5842.96770                    3156.24718
                     294.68838                   -3031.55215                    1637.58015
                     286.44471                   -2946.74683                    1591.77012
        </DataArray>
      </PointData>
      <Lines>
        <DataArray type="Int32" Name="connectivity" format="ascii">
      0      1
      1      2
      2      3
      3      4
      4      5
      5      6
      6      7
      7      8
      8      9
      9     10
     10     11
     11     12
     12     13
     13     14
     14     15
     15     16
     16     17
     17     18
        </DataArray>
        <DataArray type="Int32" Name="offsets" format="ascii">
      2
      4
      6
      8
     10
     12
     14
     16
     18
     20
     22
     24
     26
     28
     30
     32
     34
     36
        </DataArray>
      </Lines>
    </Piece>
  </PolyData>
</VTKFile>
