<?xml version="1.0"?>
<VTKFile type="PolyData" version="0.1" byte_order="LittleEndian">
  <PolyData>
    <Piece NumberOfPoints="     19" NumberOfVerts="  0" NumberOfLines="     18"
           NumberOfStrips="  0" NumberOfPolys="      0">
      <Points>
        <DataArray type="Float32" NumberOfComponents="3" format="ascii">
                      -5.03741                      -1.46431                      90.32309
                      -5.07261                      -2.79920                      90.61418
                      -5.17336                      -5.48804                      91.10591
                      -5.28849                      -8.18596                      91.55483
                      -5.44100                     -11.56386                      92.09041
                      -5.55913                     -15.58913                      92.86826
                      -5.64223                     -19.58779                      93.77080
                      -5.72738                     -23.58581                      94.67604
                      -5.81203                     -27.58289                      95.58553
                      -5.89719                     -31.57942                      96.49749
                      -5.98448                     -35.57611                      97.40845
                      -6.07306                     -39.57269                      98.31981
                      -6.16358                     -43.56911                      99.23162
                      -6.25674                     -47.56537                     100.14389
                      -6.35082                     -51.56156                     101.05633
                      -6.42985                     -54.89172                     101.81681
                      -6.49295                     -57.55407                     102.43293
                      -6.55267                     -60.20468                     103.10271
                      -6.58675                     -61.53877                     103.39706
        </DataArray>
      </Points>
      <PointData>
        <DataArray type="Float32" Name="TranslationalVelocity" NumberOfComponents="3" format="ascii">
                      -0.11694                      -0.29193                      -1.33666
                      -0.22355                      -0.55483                      -2.55517
                      -0.43828                      -0.99565                      -5.00961
                      -0.65374                      -1.39624                      -7.47233
                      -0.92351                      -1.87295                     -10.55575
                      -1.24497                      -2.57356                     -14.23012
                      -1.56431                      -3.39078                     -17.88018
                      -1.88360                      -4.21030                     -21.52966
                      -2.20282                      -5.03374                     -25.17829
                      -2.52198                      -5.85940                     -28.82642
                      -2.84117                      -6.68397                     -32.47469
                      -3.16034                      -7.50882                     -36.12285
                      -3.47950                      -8.33391                     -39.77088
                      -3.79865                      -9.15920                     -43.41875
                      -4.11779                      -9.98459                     -47.06657
                      -4.38374                     -10.67246                     -50.10641
                      -4.59636                     -11.22983                     -52.53667
                      -4.80805                     -11.83645                     -54.95621
                      -4.91459                     -12.10242                     -56.17399
        </DataArray>
        <DataArray type="Float32" Name="RotationalVelocity" NumberOfComponents="3" format="ascii">
                       0.91282                      -0.00000                      -0.07986
                       0.91282                      -0.00000                      -0.07986
                       0.91282                      -0.00000                      -0.07986
                       0.91282                      -0.00000                      -0.07986
                       0.91282                      -0.00000                      -0.07986
                       0.91282                      -0.00000                      -0.07986
                       0.91282                      -0.00000                      -0.07986
                       0.91282                      -0.00000                      -0.07986
                       0.91282                      -0.00000                      -0.07986
                       0.91282                      -0.00000                      -0.07986
                       0.91282                      -0.00000                      -0.07986
                       0.91282                      -0.00000                      -0.07986
                       0.91282                      -0.00000                      -0.07986
                       0.91282                      -0.00000                      -0.07986
                       0.91282                      -0.00000                      -0.07986
                       0.91282                      -0.00000                      -0.07986
                       0.91282                      -0.00000                      -0.07986
                       0.91282                      -0.00000                      -0.07986
                       0.91282                      -0.00000                      -0.07986
        </DataArray>
        <DataArray type="Float32" Name="TranslationalAcceleration" NumberOfComponents="3" format="ascii">
                      -0.03353                       1.20396                      -0.38330
                      -0.06385                       2.30178                      -0.72976
                      -0.11782                       4.52087                      -1.34665
                      -0.16864                       6.75110                      -1.92753
                      -0.23028                       9.54561                      -2.63215
                      -0.31433                      12.86410                      -3.59279
                      -0.40750                      16.15005                      -4.65775
                      -0.50085                      19.43525                      -5.72476
                      -0.59451                      22.71934                      -6.79527
                      -0.68834                      26.00276                      -7.86776
                      -0.78209                      29.28642                      -8.93928
                      -0.87585                      32.56995                     -10.01103
                      -0.96964                      35.85334                     -11.08300
                      -1.06344                      39.13656                     -12.15514
                      -1.15724                      42.41973                     -13.22735
                      -1.23542                      45.15569                     -14.12092
                      -1.29851                      47.34236                     -14.84208
                      -1.36546                      49.51486                     -15.60726
                      -1.39601                      50.61175                     -15.95647
        </DataArray>
        <DataArray type="Float32" Name="OrientationX" NumberOfComponents="3" format="ascii">
                       0.99605                      -0.04262                      -0.07783
                       0.99605                      -0.04262                      -0.07783
                       0.99605                      -0.04262                      -0.07783
                       0.99605                      -0.04262                      -0.07783
                       0.99605                      -0.04262                      -0.07783
                       0.99605                      -0.04262                      -0.07783
                       0.99605                      -0.04262                      -0.07783
                       0.99605                      -0.04262                      -0.07783
                       0.99605                      -0.04262                      -0.07783
                       0.99605                      -0.04262                      -0.07783
                       0.99605                      -0.04262                      -0.07783
                       0.99605                      -0.04262                      -0.07783
                       0.99605                      -0.04262                      -0.07783
                       0.99605                      -0.04262                      -0.07783
                       0.99605                      -0.04262                      -0.07783
                       0.99605                      -0.04262                      -0.07783
                       0.99605                      -0.04262                      -0.07783
                       0.99605                      -0.04262                      -0.07783
                       0.99605                      -0.04262                      -0.07783
        </DataArray>
        <DataArray type="Float32" Name="OrientationY" NumberOfComponents="3" format="ascii">
                       0.08516                       0.21260                       0.97342
                       0.08516                       0.21260                       0.97342
                       0.08516                       0.21260                       0.97342
                       0.08516                       0.21260                       0.97342
                       0.08516                       0.21260                       0.97342
                       0.08516                       0.21260                       0.97342
                       0.08516                       0.21260                       0.97342
                       0.08516                       0.21260                       0.97342
                       0.08516                       0.21260                       0.97342
                       0.08516                       0.21260                       0.97342
                       0.08516                       0.21260                       0.97342
                       0.08516                       0.21260                       0.97342
                       0.08516                       0.21260                       0.97342
                       0.08516                       0.21260                       0.97342
                       0.08516                       0.21260                       0.97342
                       0.08516                       0.21260                       0.97342
                       0.08516                       0.21260                       0.97342
                       0.08516                       0.21260                       0.97342
                       0.08516                       0.21260                       0.97342
        </DataArray>
        <DataArray type="Float32" Name="OrientationZ" NumberOfComponents="3" format="ascii">
                      -0.02494                      -0.97621                       0.21539
                      -0.02494                      -0.97621                       0.21539
                      -0.02494                      -0.97621                       0.21539
                      -0.02494                      -0.97621                       0.21539
                      -0.02494                      -0.97621                       0.21539
                      -0.02494                      -0.97621                       0.21539
                      -0.02494                      -0.97621                       0.21539
                      -0.02494                      -0.97621                       0.21539
                      -0.02494                      -0.97621                       0.21539
                      -0.02494                      -0.97621                       0.21539
                      -0.02494                      -0.97621                       0.21539
                      -0.02494                      -0.97621                       0.21539
                      -0.02494                      -0.97621                       0.21539
                      -0.02494                      -0.97621                       0.21539
                      -0.02494                      -0.97621                       0.21539
                      -0.02494                      -0.97621                       0.21539
                      -0.02494                      -0.97621                       0.21539
                      -0.02494                      -0.97621                       0.21539
                      -0.02494                      -0.97621                       0.21539
        </DataArray>
        <DataArray type="Float32" Name="Force" NumberOfComponents="3" format="ascii">
                       0.53027                       1.32376                       6.06099
                     166.02926                       3.60137                      35.54782
                     198.16100                      12.66646                      80.35368
                     167.77673                      17.54987                      98.96808
                    1527.55740                     -96.10218                    -258.67243
                    1698.31001                    -102.97119                    -270.03190
                    2073.16330                    -127.25786                    -336.69826
                    2153.31001                    -145.47375                    -409.97630
                    2475.31725                    -190.83052                    -578.25669
                    3066.29766                    -247.91032                    -768.52252
                    3402.59332                    -285.68115                    -900.76709
                    3784.30418                    -313.29173                    -981.70410
                    4720.18243                    -372.05751                   -1139.67336
                    5124.70786                    -402.37490                   -1230.23643
                    5371.78192                    -419.89421                   -1281.02786
                    5479.17268                    -427.11608                   -1301.32361
                    5293.25474                    -409.46291                   -1242.84389
                    3806.04487                    -282.88068                    -841.35656
                    1321.29241                     -52.32669                     -84.15625
        </DataArray>
        <DataArray type="Float32" Name="Moment" NumberOfComponents="3" format="ascii">
                       0.00000                       0.00000                       0.00000
                       0.00000                       0.00000                       0.00000
                       0.00000                       0.00000                       0.00000
                       0.00000                       0.00000                       0.00000
                      18.71998                     732.69570                    -161.66316
                      23.81429                     932.08570                    -205.65689
                      25.87949                    1012.91703                    -223.49165
                      29.11696                    1139.63101                    -251.45003
                      28.45805                    1113.84128                    -245.75974
                      26.96531                    1055.41597                    -232.86869
                      21.47611                     840.56966                    -185.46465
                      21.42747                     838.66603                    -185.04463
                      27.99464                    1095.70367                    -241.75783
                      29.07528                    1137.99971                    -251.09010
                      28.07793                    1098.96354                    -242.47709
                      26.54730                    1039.05484                    -229.25874
                      23.80159                     931.58868                    -205.54723
                      12.16424                     476.10550                    -105.04869
                      10.75615                     420.99329                     -92.88864
        </DataArray>
      </PointData>
      <Lines>
        <DataArray type="Int32" Name="connectivity" format="ascii">
      0      1
      1      2
      2      3
      3      4
      4      5
      5      6
      6      7
      7      8
      8      9
      9     10
     10     11
     11     12
     12     13
     13     14
     14     15
     15     16
     16     17
     17     18
        </DataArray>
        <DataArray type="Int32" Name="offsets" format="ascii">
      2
      4
      6
      8
     10
     12
     14
     16
     18
     20
     22
     24
     26
     28
     30
     32
     34
     36
        </DataArray>
      </Lines>
    </Piece>
  </PolyData>
</VTKFile>
