<?xml version="1.0"?>
<VTKFile type="PolyData" version="0.1" byte_order="LittleEndian">
  <PolyData>
    <Piece NumberOfPoints="     19" NumberOfVerts="  0" NumberOfLines="     18"
           NumberOfStrips="  0" NumberOfPolys="      0">
      <Points>
        <DataArray type="Float32" NumberOfComponents="3" format="ascii">
                      -5.12824                       1.31235                      89.28495
                      -5.24563                       2.50971                      88.63654
                      -5.49542                       4.94919                      87.42478
                      -5.75232                       7.40991                      86.25328
                      -6.07770                      10.49856                      84.81292
                      -6.42652                      14.13786                      82.95397
                      -6.76137                      17.71530                      80.97899
                      -7.09868                      21.29141                      79.00200
                      -7.43621                      24.86540                      77.02118
                      -7.77463                      28.43818                      75.03827
                      -8.11499                      32.01144                      73.05661
                      -8.45669                      35.58451                      71.07483
                      -8.80036                      39.15736                      69.09300
                      -9.14672                      42.72998                      67.11125
                      -9.49401                      46.30252                      65.12950
                      -9.78406                      49.27961                      63.47803
                     -10.01724                      51.65739                      62.15005
                     -10.25593                      54.00855                      60.77421
                     -10.37276                      55.20419                      60.12275
        </DataArray>
      </Points>
      <PointData>
        <DataArray type="Float32" Name="TranslationalVelocity" NumberOfComponents="3" format="ascii">
                       0.11247                       0.71146                       1.28559
                       0.21509                       1.35671                       2.45853
                       0.42417                       2.56517                       4.84827
                       0.63506                       3.73479                       7.25881
                       0.89978                       5.17367                      10.28448
                       1.21168                       7.02461                      13.84957
                       1.51828                       8.98802                      17.35406
                       1.82477                      10.95360                      20.85724
                       2.13108                      12.92296                      24.35836
                       2.43728                      14.89444                      27.85828
                       2.74353                      16.86485                      31.35868
                       3.04976                      18.83551                      34.85888
                       3.35597                      20.80638                      38.35888
                       3.66216                      22.77741                      41.85865
                       3.96834                      24.74851                      45.35834
                       4.22349                      26.39116                      48.27472
                       4.42728                      27.71205                      50.60401
                       4.62878                      29.08029                      52.90723
                       4.73125                      29.72848                      54.07848
        </DataArray>
        <DataArray type="Float32" Name="RotationalVelocity" NumberOfComponents="3" format="ascii">
                       0.97961                      -0.00000                      -0.08570
                       0.97961                      -0.00000                      -0.08570
                       0.97961                      -0.00000                      -0.08570
                       0.97961                      -0.00000                      -0.08570
                       0.97961                      -0.00000                      -0.08570
                       0.97961                      -0.00000                      -0.08570
                       0.97961                      -0.00000                      -0.08570
                       0.97961                      -0.00000                      -0.08570
                       0.97961                      -0.00000                      -0.08570
                       0.97961                      -0.00000                      -0.08570
                       0.97961                      -0.00000                      -0.08570
                       0.97961                      -0.00000                      -0.08570
                       0.97961                      -0.00000                      -0.08570
                       0.97961                      -0.00000                      -0.08570
                       0.97961                      -0.00000                      -0.08570
                       0.97961                      -0.00000                      -0.08570
                       0.97961                      -0.00000                      -0.08570
                       0.97961                      -0.00000                      -0.08570
                       0.97961                      -0.00000                      -0.08570
        </DataArray>
        <DataArray type="Float32" Name="TranslationalAcceleration" NumberOfComponents="3" format="ascii">
                       0.07096                      -1.20586                       0.81106
                       0.13537                      -2.30641                       1.54726
                       0.25750                      -4.55807                       2.94319
                       0.37646                      -6.83372                       4.30292
                       0.52327                      -9.69267                       5.98102
                       0.70959                     -13.04750                       8.11065
                       0.90508                     -16.33253                      10.34507
                       1.10074                     -19.61609                      12.58151
                       1.29671                     -22.89726                      14.82147
                       1.49285                     -26.17707                      17.06340
                       1.68891                     -29.45744                      19.30433
                       1.88498                     -32.73761                      21.54547
                       2.08108                     -36.01754                      23.78681
                       2.27718                     -39.29724                      26.02829
                       2.47329                     -42.57685                      28.26983
                       2.63672                     -45.30983                      30.13783
                       2.76801                     -47.49184                      31.63853
                       2.90316                     -49.64392                      33.18330
                       2.96781                     -50.74255                      33.92223
        </DataArray>
        <DataArray type="Float32" Name="OrientationX" NumberOfComponents="3" format="ascii">
                       0.99341                       0.03820                      -0.10805
                       0.99341                       0.03820                      -0.10805
                       0.99341                       0.03820                      -0.10805
                       0.99341                       0.03820                      -0.10805
                       0.99341                       0.03820                      -0.10805
                       0.99341                       0.03820                      -0.10805
                       0.99341                       0.03820                      -0.10805
                       0.99341                       0.03820                      -0.10805
                       0.99341                       0.03820                      -0.10805
                       0.99341                       0.03820                      -0.10805
                       0.99341                       0.03820                      -0.10805
                       0.99341                       0.03820                      -0.10805
                       0.99341                       0.03820                      -0.10805
                       0.99341                       0.03820                      -0.10805
                       0.99341                       0.03820                      -0.10805
                       0.99341                       0.03820                      -0.10805
                       0.99341                       0.03820                      -0.10805
                       0.99341                       0.03820                      -0.10805
                       0.99341                       0.03820                      -0.10805
        </DataArray>
        <DataArray type="Float32" Name="OrientationY" NumberOfComponents="3" format="ascii">
                      -0.07633                      -0.48280                      -0.87240
                      -0.07633                      -0.48280                      -0.87240
                      -0.07633                      -0.48280                      -0.87240
                      -0.07633                      -0.48280                      -0.87240
                      -0.07633                      -0.48280                      -0.87240
                      -0.07633                      -0.48280                      -0.87240
                      -0.07633                      -0.48280                      -0.87240
                      -0.07633                      -0.48280                      -0.87240
                      -0.07633                      -0.48280                      -0.87240
                      -0.07633                      -0.48280                      -0.87240
                      -0.07633                      -0.48280                      -0.87240
                      -0.07633                      -0.48280                      -0.87240
                      -0.07633                      -0.48280                      -0.87240
                      -0.07633                      -0.48280                      -0.87240
                      -0.07633                      -0.48280                      -0.87240
                      -0.07633                      -0.48280                      -0.87240
                      -0.07633                      -0.48280                      -0.87240
                      -0.07633                      -0.48280                      -0.87240
                      -0.07633                      -0.48280                      -0.87240
        </DataArray>
        <DataArray type="Float32" Name="OrientationZ" NumberOfComponents="3" format="ascii">
                      -0.08549                       0.87490                      -0.47670
                      -0.08549                       0.87490                      -0.47670
                      -0.08549                       0.87490                      -0.47670
                      -0.08549                       0.87490                      -0.47670
                      -0.08549                       0.87490                      -0.47670
                      -0.08549                       0.87490                      -0.47670
                      -0.08549                       0.87490                      -0.47670
                      -0.08549                       0.87490                      -0.47670
                      -0.08549                       0.87490                      -0.47670
                      -0.08549                       0.87490                      -0.47670
                      -0.08549                       0.87490                      -0.47670
                      -0.08549                       0.87490                      -0.47670
                      -0.08549                       0.87490                      -0.47670
                      -0.08549                       0.87490                      -0.47670
                      -0.08549                       0.87490                      -0.47670
                      -0.08549                       0.87490                      -0.47670
                      -0.08549                       0.87490                      -0.47670
                      -0.08549                       0.87490                      -0.47670
                      -0.08549                       0.87490                      -0.47670
        </DataArray>
        <DataArray type="Float32" Name="Force" NumberOfComponents="3" format="ascii">
                      -0.02491                      -0.15755                      -0.28469
                     143.33093                      -4.87320                     -34.64904
                     168.64597                     -23.34914                     -73.09844
                     140.88987                     -36.42330                     -92.11598
                    1723.91277                     148.71452                     -36.22873
                    1805.14960                     144.33296                     -58.83942
                    2170.58497                     192.00703                     -36.87952
                    2386.17713                     260.50940                      50.18012
                    2796.94589                     350.52225                     141.71536
                    3213.15051                     387.43939                     134.82776
                    3640.64609                     463.77705                     198.26474
                    4139.56087                     514.97015                     202.74485
                    5140.35486                     610.13108                     197.91273
                    5483.77104                     647.25620                     204.46080
                    5648.00500                     635.94312                     154.24371
                    5637.17449                     598.35661                      87.20257
                    5350.36533                     535.59223                      23.44613
                    3805.01439                     358.59046                     -24.26493
                    1420.54386                      44.52167                    -173.05008
        </DataArray>
        <DataArray type="Float32" Name="Moment" NumberOfComponents="3" format="ascii">
                       0.00000                       0.00000                       0.00000
                       0.00000                       0.00000                       0.00000
                       0.00000                       0.00000                       0.00000
                       0.00000                       0.00000                       0.00000
                      76.61325                    -784.03848                     427.19302
                      87.74785                    -897.98683                     489.27918
                      89.75017                    -918.47797                     500.44403
                      97.08349                    -993.52514                     541.33441
                      85.74691                    -877.50974                     478.12199
                      83.13589                    -850.78926                     463.56301
                      73.09176                    -748.00054                     407.55730
                      81.96118                    -838.76770                     457.01291
                     107.23434                   -1097.40606                     597.93520
                     108.78796                   -1113.30540                     606.59815
                     104.87883                   -1073.30043                     584.80095
                     100.54074                   -1028.90563                     560.61190
                      89.98792                    -920.91106                     501.76973
                      45.95840                    -470.32533                     256.26255
                      39.83871                    -407.69815                     222.13936
        </DataArray>
      </PointData>
      <Lines>
        <DataArray type="Int32" Name="connectivity" format="ascii">
      0      1
      1      2
      2      3
      3      4
      4      5
      5      6
      6      7
      7      8
      8      9
      9     10
     10     11
     11     12
     12     13
     13     14
     14     15
     15     16
     16     17
     17     18
        </DataArray>
        <DataArray type="Int32" Name="offsets" format="ascii">
      2
      4
      6
      8
     10
     12
     14
     16
     18
     20
     22
     24
     26
     28
     30
     32
     34
     36
        </DataArray>
      </Lines>
    </Piece>
  </PolyData>
</VTKFile>
