<?xml version="1.0"?>
<VTKFile type="PolyData" version="0.1" byte_order="LittleEndian">
  <PolyData>
    <Piece NumberOfPoints="     19" NumberOfVerts="  0" NumberOfLines="     18"
           NumberOfStrips="  0" NumberOfPolys="      0">
      <Points>
        <DataArray type="Float32" NumberOfComponents="3" format="ascii">
                      -5.12703                       1.31991                      89.29878
                      -5.24331                       2.52412                      88.66299
                      -5.49085                       4.97643                      87.47693
                      -5.74549                       7.44956                      86.33136
                      -6.06802                      10.55348                      84.92353
                      -6.41349                      14.21242                      83.10292
                      -6.74504                      17.81073                      81.16564
                      -7.07905                      21.40772                      79.22634
                      -7.41328                      25.00264                      77.28318
                      -7.74841                      28.59636                      75.33793
                      -8.08548                      32.19056                      73.39393
                      -8.42388                      35.78457                      71.44981
                      -8.76426                      39.37836                      69.50563
                      -9.10732                      42.97193                      67.56152
                      -9.45132                      46.56541                      65.61742
                      -9.73862                      49.55995                      63.99734
                      -9.96961                      51.95176                      62.69442
                     -10.20614                      54.31747                      61.34336
                     -10.32187                      55.52000                      60.70450
        </DataArray>
      </Points>
      <PointData>
        <DataArray type="Float32" Name="TranslationalVelocity" NumberOfComponents="3" format="ascii">
                       0.23780                       1.46691                       2.71809
                       0.45476                       2.79715                       5.19792
                       0.89658                       5.28419                      10.24796
                       1.34215                       7.68916                      15.34088
                       1.90137                      10.64640                      21.73278
                       2.56059                      14.45782                      29.26765
                       3.20888                      18.50700                      36.67763
                       3.85693                      22.56078                      44.08492
                       4.50461                      26.62254                      51.48794
                       5.15208                      30.68879                      58.88849
                       5.79963                      34.75278                      66.29004
                       6.44714                      38.81729                      73.69117
                       7.09462                      42.88225                      81.09187
                       7.74206                      46.94756                      88.49210
                       8.38948                      51.01303                      95.89216
                       8.92899                      54.40103                     102.05882
                       9.35991                      57.12576                     106.98428
                       9.78613                      59.95061                     111.85599
                      10.00278                      61.28706                     114.33234
        </DataArray>
        <DataArray type="Float32" Name="RotationalVelocity" NumberOfComponents="3" format="ascii">
                       2.05930                      -0.00000                      -0.18017
                       2.05930                      -0.00000                      -0.18017
                       2.05930                      -0.00000                      -0.18017
                       2.05930                      -0.00000                      -0.18017
                       2.05930                      -0.00000                      -0.18017
                       2.05930                      -0.00000                      -0.18017
                       2.05930                      -0.00000                      -0.18017
                       2.05930                      -0.00000                      -0.18017
                       2.05930                      -0.00000                      -0.18017
                       2.05930                      -0.00000                      -0.18017
                       2.05930                      -0.00000                      -0.18017
                       2.05930                      -0.00000                      -0.18017
                       2.05930                      -0.00000                      -0.18017
                       2.05930                      -0.00000                      -0.18017
                       2.05930                      -0.00000                      -0.18017
                       2.05930                      -0.00000                      -0.18017
                       2.05930                      -0.00000                      -0.18017
                       2.05930                      -0.00000                      -0.18017
                       2.05930                      -0.00000                      -0.18017
        </DataArray>
        <DataArray type="Float32" Name="TranslationalAcceleration" NumberOfComponents="3" format="ascii">
                       0.26900                      -5.61113                       3.07466
                       0.51296                     -10.73059                       5.86315
                       0.96979                     -21.16046                      11.08479
                       1.41191                     -31.68093                      16.13824
                       1.95579                     -44.88593                      22.35474
                       2.65553                     -60.44575                      30.35288
                       3.39790                     -75.74170                      38.83817
                       4.14109                     -91.03197                      47.33288
                       4.88571                    -106.31322                      55.84396
                       5.63114                    -121.58926                      64.36421
                       6.37616                    -136.86741                      72.87984
                       7.12127                    -152.14471                      81.39652
                       7.86647                    -167.42107                      89.91414
                       8.61172                    -182.69647                      98.43246
                       9.35701                    -197.97150                     106.95108
                       9.97810                    -210.70058                     114.05019
                      10.47754                    -220.86724                     119.75881
                      10.99492                    -230.92037                     125.67254
                      11.24000                    -236.03248                     128.47376
        </DataArray>
        <DataArray type="Float32" Name="OrientationX" NumberOfComponents="3" format="ascii">
                       0.99345                       0.03842                      -0.10765
                       0.99345                       0.03842                      -0.10765
                       0.99345                       0.03842                      -0.10765
                       0.99345                       0.03842                      -0.10765
                       0.99345                       0.03842                      -0.10765
                       0.99345                       0.03842                      -0.10765
                       0.99345                       0.03842                      -0.10765
                       0.99345                       0.03842                      -0.10765
                       0.99345                       0.03842                      -0.10765
                       0.99345                       0.03842                      -0.10765
                       0.99345                       0.03842                      -0.10765
                       0.99345                       0.03842                      -0.10765
                       0.99345                       0.03842                      -0.10765
                       0.99345                       0.03842                      -0.10765
                       0.99345                       0.03842                      -0.10765
                       0.99345                       0.03842                      -0.10765
                       0.99345                       0.03842                      -0.10765
                       0.99345                       0.03842                      -0.10765
                       0.99345                       0.03842                      -0.10765
        </DataArray>
        <DataArray type="Float32" Name="OrientationY" NumberOfComponents="3" format="ascii">
                      -0.07676                      -0.47353                      -0.87742
                      -0.07676                      -0.47353                      -0.87742
                      -0.07676                      -0.47353                      -0.87742
                      -0.07676                      -0.47353                      -0.87742
                      -0.07676                      -0.47353                      -0.87742
                      -0.07676                      -0.47353                      -0.87742
                      -0.07676                      -0.47353                      -0.87742
                      -0.07676                      -0.47353                      -0.87742
                      -0.07676                      -0.47353                      -0.87742
                      -0.07676                      -0.47353                      -0.87742
                      -0.07676                      -0.47353                      -0.87742
                      -0.07676                      -0.47353                      -0.87742
                      -0.07676                      -0.47353                      -0.87742
                      -0.07676                      -0.47353                      -0.87742
                      -0.07676                      -0.47353                      -0.87742
                      -0.07676                      -0.47353                      -0.87742
                      -0.07676                      -0.47353                      -0.87742
                      -0.07676                      -0.47353                      -0.87742
                      -0.07676                      -0.47353                      -0.87742
        </DataArray>
        <DataArray type="Float32" Name="OrientationZ" NumberOfComponents="3" format="ascii">
                      -0.08469                       0.87994                      -0.46748
                      -0.08469                       0.87994                      -0.46748
                      -0.08469                       0.87994                      -0.46748
                      -0.08469                       0.87994                      -0.46748
                      -0.08469                       0.87994                      -0.46748
                      -0.08469                       0.87994                      -0.46748
                      -0.08469                       0.87994                      -0.46748
                      -0.08469                       0.87994                      -0.46748
                      -0.08469                       0.87994                      -0.46748
                      -0.08469                       0.87994                      -0.46748
                      -0.08469                       0.87994                      -0.46748
                      -0.08469                       0.87994                      -0.46748
                      -0.08469                       0.87994                      -0.46748
                      -0.08469                       0.87994                      -0.46748
                      -0.08469                       0.87994                      -0.46748
                      -0.08469                       0.87994                      -0.46748
                      -0.08469                       0.87994                      -0.46748
                      -0.08469                       0.87994                      -0.46748
                      -0.08469                       0.87994                      -0.46748
        </DataArray>
        <DataArray type="Float32" Name="Force" NumberOfComponents="3" format="ascii">
                      -0.39164                      -2.41590                      -4.47650
                     150.93225                     -24.98563                     -74.37228
                     202.30747                     -81.46571                    -189.99164
                     191.14902                    -127.78396                    -275.15522
                    2674.85520                     305.95093                      91.33512
                    3338.62938                     305.64612                     -29.48307
                    4116.04287                     326.07478                    -131.86067
                    5529.59685                     390.56525                    -266.53913
                    5997.00761                     366.17368                    -397.12414
                    6844.98530                     390.56920                    -504.81780
                    8372.51245                     437.13743                    -693.87788
                    9320.12447                     466.99502                    -809.33927
                   10414.47691                     543.56771                    -863.45114
                   11141.61830                     569.16875                    -946.98583
                   11752.08974                     591.54500                   -1015.45547
                   12149.86743                     606.98582                   -1058.44965
                   12115.19276                     607.95007                   -1050.35323
                    9415.56829                     491.08316                    -781.28801
                    6368.61850                     201.87842                    -773.69582
        </DataArray>
        <DataArray type="Float32" Name="Moment" NumberOfComponents="3" format="ascii">
                       0.00000                       0.00000                       0.00000
                       0.00000                       0.00000                       0.00000
                       0.00000                       0.00000                       0.00000
                       0.00000                       0.00000                       0.00000
                      77.08012                    -800.91630                     425.49819
                     142.48579                   -1480.52688                     786.55098
                     192.63900                   -2001.65377                    1063.40706
                     287.69137                   -2989.31431                    1588.11577
                     394.62833                   -4100.46408                    2178.42990
                     448.04693                   -4655.52063                    2473.31159
                     490.04241                   -5091.88300                    2705.13531
                     522.49106                   -5429.04709                    2884.25853
                     447.29101                   -4647.66613                    2469.13878
                     446.91275                   -4643.73575                    2467.05071
                     434.23946                   -4512.05133                    2397.09148
                     414.57119                   -4307.68432                    2288.51860
                     371.18618                   -3856.88376                    2049.02439
                     189.84738                   -1972.64696                    1047.99677
                     176.92524                   -1838.37689                     976.66389
        </DataArray>
      </PointData>
      <Lines>
        <DataArray type="Int32" Name="connectivity" format="ascii">
      0      1
      1      2
      2      3
      3      4
      4      5
      5      6
      6      7
      7      8
      8      9
      9     10
     10     11
     11     12
     12     13
     13     14
     14     15
     15     16
     16     17
     17     18
        </DataArray>
        <DataArray type="Int32" Name="offsets" format="ascii">
      2
      4
      6
      8
     10
     12
     14
     16
     18
     20
     22
     24
     26
     28
     30
     32
     34
     36
        </DataArray>
      </Lines>
    </Piece>
  </PolyData>
</VTKFile>
