<?xml version="1.0"?>
<VTKFile type="PolyData" version="0.1" byte_order="LittleEndian">
  <PolyData>
    <Piece NumberOfPoints="     19" NumberOfVerts="  0" NumberOfLines="     18"
           NumberOfStrips="  0" NumberOfPolys="      0">
      <Points>
        <DataArray type="Float32" NumberOfComponents="3" format="ascii">
                      -5.05782                      -1.49619                      90.08988
                      -5.11161                      -2.85957                      90.16841
                      -5.24971                      -5.59061                      90.23320
                      -5.40227                      -8.32371                      90.25430
                      -5.60162                     -11.74140                      90.25457
                      -5.77572                     -15.83681                      90.39272
                      -5.91455                     -19.92595                      90.65815
                      -6.05543                     -24.01484                      90.92635
                      -6.19582                     -28.10349                      91.19890
                      -6.33669                     -32.19197                      91.47397
                      -6.47971                     -36.28042                      91.74803
                      -6.62401                     -40.36880                      92.02251
                      -6.77024                     -44.45708                      92.29746
                      -6.91911                     -48.54523                      92.57288
                      -7.06891                     -52.63333                      92.84849
                      -7.19437                     -56.04008                      93.07828
                      -7.29460                     -58.76495                      93.27003
                      -7.39134                     -61.48667                      93.51661
                      -7.44402                     -62.84979                      93.59849
        </DataArray>
      </Points>
      <PointData>
        <DataArray type="Float32" Name="TranslationalVelocity" NumberOfComponents="3" format="ascii">
                      -0.09846                      -0.06380                      -1.12544
                      -0.18819                      -0.11933                      -2.15099
                      -0.36791                      -0.15898                      -4.20528
                      -0.54778                      -0.16481                      -6.26114
                      -0.77269                      -0.15189                      -8.83194
                      -1.04221                      -0.24435                     -11.91253
                      -1.31132                      -0.43488                     -14.98840
                      -1.58040                      -0.62734                     -18.06408
                      -1.84947                      -0.82312                     -21.13959
                      -2.11853                      -1.02076                     -24.21496
                      -2.38759                      -1.21750                     -27.29032
                      -2.65665                      -1.41447                     -30.36562
                      -2.92569                      -1.61166                     -33.44084
                      -3.19473                      -1.80904                     -36.51597
                      -3.46377                      -2.00649                     -39.59106
                      -3.68796                      -2.17109                     -42.15363
                      -3.86729                      -2.30872                     -44.20329
                      -4.04640                      -2.48784                     -46.25058
                      -4.13611                      -2.54596                     -47.27593
        </DataArray>
        <DataArray type="Float32" Name="RotationalVelocity" NumberOfComponents="3" format="ascii">
                       0.75221                      -0.00000                      -0.06581
                       0.75221                      -0.00000                      -0.06581
                       0.75221                      -0.00000                      -0.06581
                       0.75221                      -0.00000                      -0.06581
                       0.75221                      -0.00000                      -0.06581
                       0.75221                      -0.00000                      -0.06581
                       0.75221                      -0.00000                      -0.06581
                       0.75221                      -0.00000                      -0.06581
                       0.75221                      -0.00000                      -0.06581
                       0.75221                      -0.00000                      -0.06581
                       0.75221                      -0.00000                      -0.06581
                       0.75221                      -0.00000                      -0.06581
                       0.75221                      -0.00000                      -0.06581
                       0.75221                      -0.00000                      -0.06581
                       0.75221                      -0.00000                      -0.06581
                       0.75221                      -0.00000                      -0.06581
                       0.75221                      -0.00000                      -0.06581
                       0.75221                      -0.00000                      -0.06581
                       0.75221                      -0.00000                      -0.06581
        </DataArray>
        <DataArray type="Float32" Name="TranslationalAcceleration" NumberOfComponents="3" format="ascii">
                      -0.01197                       0.84801                      -0.13684
                      -0.02271                       1.62095                      -0.25957
                      -0.03951                       3.17490                      -0.45156
                      -0.05409                       4.73270                      -0.61823
                      -0.07099                       6.68229                      -0.81146
                      -0.09835                       9.00996                      -1.12419
                      -0.13214                      11.32632                      -1.51032
                      -0.16604                      13.64238                      -1.89789
                      -0.20017                      15.95804                      -2.28794
                      -0.23441                      18.27345                      -2.67938
                      -0.26860                      20.58893                      -3.07014
                      -0.30280                      22.90434                      -3.46107
                      -0.33702                      25.21968                      -3.85216
                      -0.37125                      27.53493                      -4.24338
                      -0.40548                      29.85014                      -4.63466
                      -0.43401                      31.77949                      -4.96076
                      -0.45722                      33.32219                      -5.22609
                      -0.48315                      34.85982                      -5.52244
                      -0.49406                      35.63241                      -5.64711
        </DataArray>
        <DataArray type="Float32" Name="OrientationX" NumberOfComponents="3" format="ascii">
                       0.99546                      -0.04355                      -0.08462
                       0.99546                      -0.04355                      -0.08462
                       0.99546                      -0.04355                      -0.08462
                       0.99546                      -0.04355                      -0.08462
                       0.99546                      -0.04355                      -0.08462
                       0.99546                      -0.04355                      -0.08462
                       0.99546                      -0.04355                      -0.08462
                       0.99546                      -0.04355                      -0.08462
                       0.99546                      -0.04355                      -0.08462
                       0.99546                      -0.04355                      -0.08462
                       0.99546                      -0.04355                      -0.08462
                       0.99546                      -0.04355                      -0.08462
                       0.99546                      -0.04355                      -0.08462
                       0.99546                      -0.04355                      -0.08462
                       0.99546                      -0.04355                      -0.08462
                       0.99546                      -0.04355                      -0.08462
                       0.99546                      -0.04355                      -0.08462
                       0.99546                      -0.04355                      -0.08462
                       0.99546                      -0.04355                      -0.08462
        </DataArray>
        <DataArray type="Float32" Name="OrientationY" NumberOfComponents="3" format="ascii">
                       0.08702                       0.05639                       0.99461
                       0.08702                       0.05639                       0.99461
                       0.08702                       0.05639                       0.99461
                       0.08702                       0.05639                       0.99461
                       0.08702                       0.05639                       0.99461
                       0.08702                       0.05639                       0.99461
                       0.08702                       0.05639                       0.99461
                       0.08702                       0.05639                       0.99461
                       0.08702                       0.05639                       0.99461
                       0.08702                       0.05639                       0.99461
                       0.08702                       0.05639                       0.99461
                       0.08702                       0.05639                       0.99461
                       0.08702                       0.05639                       0.99461
                       0.08702                       0.05639                       0.99461
                       0.08702                       0.05639                       0.99461
                       0.08702                       0.05639                       0.99461
                       0.08702                       0.05639                       0.99461
                       0.08702                       0.05639                       0.99461
                       0.08702                       0.05639                       0.99461
        </DataArray>
        <DataArray type="Float32" Name="OrientationZ" NumberOfComponents="3" format="ascii">
                      -0.03854                      -0.99746                       0.05992
                      -0.03854                      -0.99746                       0.05992
                      -0.03854                      -0.99746                       0.05992
                      -0.03854                      -0.99746                       0.05992
                      -0.03854                      -0.99746                       0.05992
                      -0.03854                      -0.99746                       0.05992
                      -0.03854                      -0.99746                       0.05992
                      -0.03854                      -0.99746                       0.05992
                      -0.03854                      -0.99746                       0.05992
                      -0.03854                      -0.99746                       0.05992
                      -0.03854                      -0.99746                       0.05992
                      -0.03854                      -0.99746                       0.05992
                      -0.03854                      -0.99746                       0.05992
                      -0.03854                      -0.99746                       0.05992
                      -0.03854                      -0.99746                       0.05992
                      -0.03854                      -0.99746                       0.05992
                      -0.03854                      -0.99746                       0.05992
                      -0.03854                      -0.99746                       0.05992
                      -0.03854                      -0.99746                       0.05992
        </DataArray>
        <DataArray type="Float32" Name="Force" NumberOfComponents="3" format="ascii">
                       0.44692                       0.28959                       5.10830
                     163.40516                      -4.55785                      29.23933
                     190.57967                      -3.44775                      65.19938
                     157.18651                      -1.34865                      78.66205
                    1471.76084                     -73.44590                    -275.90695
                    1458.69648                     -71.17978                    -246.58701
                    1746.10404                     -85.25601                    -296.03208
                    1672.57215                     -81.16617                    -275.24978
                    1702.93435                     -84.55889                    -312.19670
                    2080.46698                    -108.90842                    -474.68503
                    2408.41145                    -132.67231                    -659.32288
                    2750.98080                    -152.84809                    -774.82213
                    3342.93029                    -181.76582                    -875.42945
                    3605.44174                    -195.36862                    -933.00798
                    3801.44075                    -205.32805                    -972.72141
                    3940.50148                    -212.39517                   -1000.91344
                    3860.99911                    -207.68368                    -973.62320
                    2830.24656                    -152.11405                    -711.61369
                     903.61363                     -38.72938                     -63.45709
        </DataArray>
        <DataArray type="Float32" Name="Moment" NumberOfComponents="3" format="ascii">
                       0.00000                       0.00000                       0.00000
                       0.00000                       0.00000                       0.00000
                       0.00000                       0.00000                       0.00000
                       0.00000                       0.00000                       0.00000
                      29.89414                     773.61832                     -46.47243
                      33.95100                     878.60391                     -52.77907
                      36.26623                     938.51902                     -56.37826
                      39.62308                    1025.38954                     -61.59670
                      40.06931                    1036.93714                     -62.29039
                      38.26422                     990.22413                     -59.48427
                      30.87982                     799.12610                     -48.00472
                      27.57655                     713.64229                     -42.86957
                      29.78086                     770.68670                     -46.29632
                      30.36474                     785.79661                     -47.20399
                      29.01063                     750.75414                     -45.09894
                      28.22109                     730.32194                     -43.87155
                      25.84561                     668.84789                     -40.17871
                      12.89583                     333.72592                     -20.04742
                      11.37438                     294.35288                     -17.68222
        </DataArray>
      </PointData>
      <Lines>
        <DataArray type="Int32" Name="connectivity" format="ascii">
      0      1
      1      2
      2      3
      3      4
      4      5
      5      6
      6      7
      7      8
      8      9
      9     10
     10     11
     11     12
     12     13
     13     14
     14     15
     15     16
     16     17
     17     18
        </DataArray>
        <DataArray type="Int32" Name="offsets" format="ascii">
      2
      4
      6
      8
     10
     12
     14
     16
     18
     20
     22
     24
     26
     28
     30
     32
     34
     36
        </DataArray>
      </Lines>
    </Piece>
  </PolyData>
</VTKFile>
