<?xml version="1.0"?>
<VTKFile type="PolyData" version="0.1" byte_order="LittleEndian">
  <PolyData>
    <Piece NumberOfPoints="     19" NumberOfVerts="  0" NumberOfLines="     18"
           NumberOfStrips="  0" NumberOfPolys="      0">
      <Points>
        <DataArray type="Float32" NumberOfComponents="3" format="ascii">
                      -5.16782                      -0.92678                      88.83256
                      -5.32172                      -1.76846                      87.76684
                      -5.65683                      -3.37677                      85.57986
                      -6.00487                      -4.94956                      83.36655
                      -6.44767                      -6.89438                      80.58412
                      -6.91882                      -9.34199                      77.32696
                      -7.35909                     -11.89243                      74.14700
                      -7.80149                     -14.44484                      70.96890
                      -8.24352                     -17.00070                      67.79349
                      -8.68614                     -19.55848                      64.61969
                      -9.13084                     -22.11527                      61.44541
                      -9.57684                     -24.67228                      58.27148
                     -10.02477                     -27.22946                      55.09797
                     -10.47535                     -29.78677                      51.92494
                     -10.92684                     -32.34414                      48.75209
                     -11.30372                     -34.47534                      46.10814
                     -11.60534                     -36.18646                      43.99796
                     -11.90530                     -37.94078                      41.92185
                     -12.05819                     -38.78513                      40.85823
        </DataArray>
      </Points>
      <PointData>
        <DataArray type="Float32" Name="TranslationalVelocity" NumberOfComponents="3" format="ascii">
                      -0.09627                       1.40357                      -1.10038
                      -0.18370                       2.68491                      -2.09974
                      -0.35077                       5.31637                      -4.00932
                      -0.51415                       7.98045                      -5.87674
                      -0.71617                      11.33010                      -8.18587
                      -0.97042                      15.24634                     -11.09198
                      -1.23536                      19.06773                     -14.12018
                      -1.50049                      22.88712                     -17.15072
                      -1.76599                      26.70328                     -20.18536
                      -2.03169                      30.51759                     -23.22228
                      -2.29728                      34.33269                     -26.25802
                      -2.56289                      38.14751                     -29.29402
                      -2.82853                      41.96203                     -32.33023
                      -3.09418                      45.77625                     -35.36659
                      -3.35983                      49.59035                     -38.40302
                      -3.58121                      52.76873                     -40.93344
                      -3.75896                      55.30553                     -42.96509
                      -3.94119                      57.80171                     -45.04804
                      -4.02890                      59.08046                     -46.05057
        </DataArray>
        <DataArray type="Float32" Name="RotationalVelocity" NumberOfComponents="3" format="ascii">
                       1.18733                      -0.00000                      -0.10388
                       1.18733                      -0.00000                      -0.10388
                       1.18733                      -0.00000                      -0.10388
                       1.18733                      -0.00000                      -0.10388
                       1.18733                      -0.00000                      -0.10388
                       1.18733                      -0.00000                      -0.10388
                       1.18733                      -0.00000                      -0.10388
                       1.18733                      -0.00000                      -0.10388
                       1.18733                      -0.00000                      -0.10388
                       1.18733                      -0.00000                      -0.10388
                       1.18733                      -0.00000                      -0.10388
                       1.18733                      -0.00000                      -0.10388
                       1.18733                      -0.00000                      -0.10388
                       1.18733                      -0.00000                      -0.10388
                       1.18733                      -0.00000                      -0.10388
                       1.18733                      -0.00000                      -0.10388
                       1.18733                      -0.00000                      -0.10388
                       1.18733                      -0.00000                      -0.10388
                       1.18733                      -0.00000                      -0.10388
        </DataArray>
        <DataArray type="Float32" Name="TranslationalAcceleration" NumberOfComponents="3" format="ascii">
                       0.13810                       1.42878                       1.57847
                       0.26421                       2.72691                       3.01991
                       0.52419                       5.22205                       5.99157
                       0.78786                       7.66933                       9.00533
                       1.11966                      10.69993                      12.79776
                       1.50613                      14.49009                      17.21516
                       1.88190                      18.41873                      21.51017
                       2.25744                      22.35001                      25.80263
                       2.63262                      26.28592                      30.09093
                       3.00758                      30.22443                      34.37684
                       3.38264                      34.16159                      38.66379
                       3.75767                      38.09903                      42.95038
                       4.13267                      42.03670                      47.23659
                       4.50763                      45.97453                      51.52245
                       4.88258                      49.91243                      55.80816
                       5.19504                      53.19408                      59.37953
                       5.44433                      55.82769                      62.22903
                       5.68906                      58.51942                      65.02620
                       5.81487                      59.82113                      66.46430
        </DataArray>
        <DataArray type="Float32" Name="OrientationX" NumberOfComponents="3" format="ascii">
                       0.99226                      -0.02698                      -0.12122
                       0.99226                      -0.02698                      -0.12122
                       0.99226                      -0.02698                      -0.12122
                       0.99226                      -0.02698                      -0.12122
                       0.99226                      -0.02698                      -0.12122
                       0.99226                      -0.02698                      -0.12122
                       0.99226                      -0.02698                      -0.12122
                       0.99226                      -0.02698                      -0.12122
                       0.99226                      -0.02698                      -0.12122
                       0.99226                      -0.02698                      -0.12122
                       0.99226                      -0.02698                      -0.12122
                       0.99226                      -0.02698                      -0.12122
                       0.99226                      -0.02698                      -0.12122
                       0.99226                      -0.02698                      -0.12122
                       0.99226                      -0.02698                      -0.12122
                       0.99226                      -0.02698                      -0.12122
                       0.99226                      -0.02698                      -0.12122
                       0.99226                      -0.02698                      -0.12122
                       0.99226                      -0.02698                      -0.12122
        </DataArray>
        <DataArray type="Float32" Name="OrientationY" NumberOfComponents="3" format="ascii">
                       0.05390                      -0.78583                       0.61609
                       0.05390                      -0.78583                       0.61609
                       0.05390                      -0.78583                       0.61609
                       0.05390                      -0.78583                       0.61609
                       0.05390                      -0.78583                       0.61609
                       0.05390                      -0.78583                       0.61609
                       0.05390                      -0.78583                       0.61609
                       0.05390                      -0.78583                       0.61609
                       0.05390                      -0.78583                       0.61609
                       0.05390                      -0.78583                       0.61609
                       0.05390                      -0.78583                       0.61609
                       0.05390                      -0.78583                       0.61609
                       0.05390                      -0.78583                       0.61609
                       0.05390                      -0.78583                       0.61609
                       0.05390                      -0.78583                       0.61609
                       0.05390                      -0.78583                       0.61609
                       0.05390                      -0.78583                       0.61609
                       0.05390                      -0.78583                       0.61609
                       0.05390                      -0.78583                       0.61609
        </DataArray>
        <DataArray type="Float32" Name="OrientationZ" NumberOfComponents="3" format="ascii">
                      -0.11188                      -0.61785                      -0.77830
                      -0.11188                      -0.61785                      -0.77830
                      -0.11188                      -0.61785                      -0.77830
                      -0.11188                      -0.61785                      -0.77830
                      -0.11188                      -0.61785                      -0.77830
                      -0.11188                      -0.61785                      -0.77830
                      -0.11188                      -0.61785                      -0.77830
                      -0.11188                      -0.61785                      -0.77830
                      -0.11188                      -0.61785                      -0.77830
                      -0.11188                      -0.61785                      -0.77830
                      -0.11188                      -0.61785                      -0.77830
                      -0.11188                      -0.61785                      -0.77830
                      -0.11188                      -0.61785                      -0.77830
                      -0.11188                      -0.61785                      -0.77830
                      -0.11188                      -0.61785                      -0.77830
                      -0.11188                      -0.61785                      -0.77830
                      -0.11188                      -0.61785                      -0.77830
                      -0.11188                      -0.61785                      -0.77830
                      -0.11188                      -0.61785                      -0.77830
        </DataArray>
        <DataArray type="Float32" Name="Force" NumberOfComponents="3" format="ascii">
                       0.37613                      -5.48365                       4.29913
                     138.98445                     -50.19202                      19.86632
                     191.14511                    -107.77404                      58.07990
                     174.26000                    -130.14225                      78.26412
                    1817.37187                      80.38107                    -325.05328
                    2091.37677                     115.18063                    -392.06646
                    2736.04306                     215.42731                    -564.31657
                    3068.04960                     260.34938                    -647.70311
                    3636.93678                     345.87425                    -797.37323
                    4227.09628                     348.69949                    -884.45001
                    5430.78309                     416.27926                   -1111.12526
                    6155.00337                     421.10316                   -1219.05959
                    6406.18388                     426.05703                   -1259.09879
                    6723.07860                     392.05545                   -1277.65943
                    6907.81931                     352.73376                   -1272.99988
                    6907.88219                     306.32338                   -1236.16600
                    6534.48779                     248.76446                   -1136.79827
                    4656.90225                     151.57687                    -789.74756
                    2179.79246                     -84.57773                    -246.19762
        </DataArray>
        <DataArray type="Float32" Name="Moment" NumberOfComponents="3" format="ascii">
                       0.00000                       0.00000                       0.00000
                       0.00000                       0.00000                       0.00000
                       0.00000                       0.00000                       0.00000
                       0.00000                       0.00000                       0.00000
                      86.50479                     477.72596                     601.78289
                     110.51977                     610.34956                     768.84648
                     109.25075                     603.34138                     760.01840
                     127.35820                     703.34043                     885.98542
                     133.59508                     737.78387                     929.37321
                     154.45118                     852.96245                    1074.46161
                     187.16370                    1033.61855                    1302.03089
                     217.18756                    1199.42648                    1510.89618
                     209.37756                    1156.29542                    1456.56475
                     212.31411                    1172.51263                    1476.99328
                     211.47979                    1167.90506                    1471.18921
                     206.28475                    1139.21528                    1435.04921
                     185.27215                    1023.17241                    1288.87207
                      93.78354                     517.92311                     652.41852
                      79.93736                     441.45705                     556.09558
        </DataArray>
      </PointData>
      <Lines>
        <DataArray type="Int32" Name="connectivity" format="ascii">
      0      1
      1      2
      2      3
      3      4
      4      5
      5      6
      6      7
      7      8
      8      9
      9     10
     10     11
     11     12
     12     13
     13     14
     14     15
     15     16
     16     17
     17     18
        </DataArray>
        <DataArray type="Int32" Name="offsets" format="ascii">
      2
      4
      6
      8
     10
     12
     14
     16
     18
     20
     22
     24
     26
     28
     30
     32
     34
     36
        </DataArray>
      </Lines>
    </Piece>
  </PolyData>
</VTKFile>
