<?xml version="1.0"?>
<VTKFile type="PolyData" version="0.1" byte_order="LittleEndian">
  <PolyData>
    <Piece NumberOfPoints="    625" NumberOfVerts="  0" NumberOfLines="      0"
           NumberOfStrips="  0" NumberOfPolys="    600">
      <Points>
        <DataArray type="Float32" NumberOfComponents="3" format="ascii">
                      -5.11039                       0.80357                      88.73823
                      -5.11039                       0.80357                      88.73823
                      -5.11039                       0.80357                      88.73823
                      -5.11039                       0.80357                      88.73823
                      -5.11039                       0.80357                      88.73823
                      -5.11039                       0.80357                      88.73823
                      -5.11039                       0.80357                      88.73823
                      -5.11039                       0.80357                      88.73823
                      -5.11039                       0.80357                      88.73823
                      -5.11039                       0.80357                      88.73823
                      -5.11039                       0.80357                      88.73823
                      -5.11039                       0.80357                      88.73823
                      -5.11039                       0.80357                      88.73823
                      -5.11039                       0.80357                      88.73823
                      -5.11039                       0.80357                      88.73823
                      -5.11039                       0.80357                      88.73823
                      -5.11039                       0.80357                      88.73823
                      -5.11039                       0.80357                      88.73823
                      -5.11039                       0.80357                      88.73823
                      -5.11039                       0.80357                      88.73823
                      -5.11039                       0.80357                      88.73823
                      -5.11039                       0.80357                      88.73823
                      -5.11039                       0.80357                      88.73823
                      -5.11039                       0.80357                      88.73823
                      -5.11039                       0.80357                      88.73823
                      -4.50400                       0.73661                      88.79113
                      -4.51580                       0.86250                      88.87233
                      -4.56438                       0.98047                      88.95172
                      -4.64669                       1.08313                      89.02429
                      -4.75757                       1.16401                      89.08550
                      -4.89003                       1.21803                      89.13150
                      -5.03576                       1.24181                      89.15939
                      -5.18560                       1.23384                      89.16743
                      -5.33014                       1.19463                      89.15510
                      -5.46029                       1.12664                      89.12319
                      -5.56788                       1.03415                      89.07369
                      -5.64615                       0.92295                      89.00973
                      -5.69017                       0.80005                      88.93531
                      -5.69719                       0.67317                      88.85511
                      -5.66676                       0.55027                      88.77418
                      -5.60079                       0.43907                      88.69759
                      -5.50343                       0.34658                      88.63017
                      -5.38079                       0.27859                      88.57614
                      -5.24059                       0.23938                      88.53890
                      -5.09163                       0.23141                      88.52080
                      -4.94327                       0.25519                      88.52296
                      -4.80483                       0.30921                      88.54525
                      -4.68501                       0.39009                      88.58628
                      -4.59135                       0.49275                      88.64346
                      -4.52972                       0.61072                      88.71320
                      -4.26599                       0.66965                      88.87626
                      -4.28232                       0.84376                      88.98857
                      -4.34951                       1.00694                      89.09837
                      -4.46336                       1.14892                      89.19876
                      -4.61671                       1.26079                      89.28342
                      -4.79993                       1.33552                      89.34704
                      -5.00149                       1.36840                      89.38561
                      -5.20874                       1.35738                      89.39673
                      -5.40866                       1.30315                      89.37968
                      -5.58868                       1.20911                      89.33554
                      -5.73749                       1.08118                      89.26708
                      -5.84574                       0.92738                      89.17861
                      -5.90663                       0.75740                      89.07568
                      -5.91633                       0.58189                      88.96476
                      -5.87424                       0.41191                      88.85282
                      -5.78300                       0.25811                      88.74689
                      -5.64834                       0.13018                      88.65363
                      -5.47872                       0.03614                      88.57890
                      -5.28480                      -0.01809                      88.52740
                      -5.07877                      -0.02911                      88.50236
                      -4.87356                       0.00377                      88.50535
                      -4.68209                       0.07850                      88.53618
                      -4.51637                       0.19037                      88.59293
                      -4.38681                       0.33235                      88.67202
                      -4.30157                       0.49553                      88.76848
                      -4.09441                       0.60268                      88.96720
                      -4.11394                       0.81103                      89.10159
                      -4.19435                       1.00628                      89.23298
                      -4.33058                       1.17618                      89.35310
                      -4.51408                       1.31004                      89.45440
                      -4.73331                       1.39945                      89.53053
                      -4.97450                       1.43880                      89.57669
                      -5.22249                       1.42562                      89.58999
                      -5.46171                       1.36072                      89.56959
                      -5.67712                       1.24820                      89.51677
                      -5.85518                       1.09511                      89.43486
                      -5.98471                       0.91109                      89.32899
                      -6.05758                       0.70768                      89.20582
                      -6.06919                       0.49768                      89.07310
                      -6.01882                       0.29427                      88.93915
                      -5.90964                       0.11025                      88.81240
                      -5.74851                      -0.04284                      88.70081
                      -5.54554                      -0.15536                      88.61139
                      -5.31350                      -0.22026                      88.54976
                      -5.06697                      -0.23344                      88.51979
                      -4.82142                      -0.19409                      88.52337
                      -4.59231                      -0.10468                      88.56027
                      -4.39401                       0.02918                      88.62817
                      -4.23899                       0.19908                      88.72281
                      -4.13699                       0.39433                      88.83824
                      -3.95982                       0.53572                      89.06138
                      -3.98182                       0.77050                      89.21282
                      -4.07243                       0.99052                      89.36088
                      -4.22595                       1.18197                      89.49623
                      -4.43273                       1.33282                      89.61039
                      -4.67977                       1.43358                      89.69617
                      -4.95156                       1.47792                      89.74819
                      -5.23102                       1.46306                      89.76318
                      -5.50059                       1.38993                      89.74019
                      -5.74332                       1.26313                      89.68067
                      -5.94398                       1.09062                      89.58837
                      -6.08994                       0.88325                      89.46907
                      -6.17205                       0.65404                      89.33028
                      -6.18513                       0.41739                      89.18071
                      -6.12838                       0.18818                      89.02977
                      -6.00534                      -0.01919                      88.88694
                      -5.82377                      -0.19170                      88.76119
                      -5.59505                      -0.31850                      88.66042
                      -5.33357                      -0.39163                      88.59098
                      -5.05576                      -0.40649                      88.55721
                      -4.77906                      -0.36214                      88.56124
                      -4.52088                      -0.26139                      88.60282
                      -4.29742                      -0.11054                      88.67934
                      -4.12273                       0.08091                      88.78598
                      -4.00779                       0.30094                      88.91605
                      -3.85068                       0.46875                      89.15778
                      -3.87467                       0.72460                      89.32282
                      -3.97341                       0.96437                      89.48415
                      -4.14070                       1.17299                      89.63166
                      -4.36603                       1.33737                      89.75606
                      -4.63524                       1.44717                      89.84954
                      -4.93141                       1.49549                      89.90622
                      -5.23594                       1.47930                      89.92255
                      -5.52970                       1.39961                      89.89750
                      -5.79421                       1.26143                      89.83264
                      -6.01287                       1.07345                      89.73205
                      -6.17194                       0.84747                      89.60205
                      -6.26141                       0.59769                      89.45081
                      -6.27567                       0.33981                      89.28782
                      -6.21382                       0.09004                      89.12334
                      -6.07975                      -0.13595                      88.96769
                      -5.88188                      -0.32393                      88.83066
                      -5.63264                      -0.46211                      88.72085
                      -5.34770                      -0.54180                      88.64518
                      -5.04496                      -0.55799                      88.60838
                      -4.74344                      -0.50967                      88.61277
                      -4.46209                      -0.39987                      88.65808
                      -4.21858                      -0.23549                      88.74146
                      -4.02822                      -0.02686                      88.85768
                      -3.90296                       0.21291                      88.99942
                      -3.76110                       0.40179                      89.25590
                      -3.78667                       0.67458                      89.43186
                      -3.89195                       0.93023                      89.60388
                      -4.07032                       1.15267                      89.76116
                      -4.31057                       1.32793                      89.89379
                      -4.59761                       1.44501                      89.99346
                      -4.91341                       1.49653                      90.05390
                      -5.23811                       1.47926                      90.07132
                      -5.55131                       1.39430                      90.04461
                      -5.83335                       1.24697                      89.97545
                      -6.06649                       1.04653                      89.86820
                      -6.23609                       0.80558                      89.72959
                      -6.33149                       0.53927                      89.56833
                      -6.34669                       0.26431                      89.39455
                      -6.28074                      -0.00201                      89.21917
                      -6.13779                      -0.24296                      89.05322
                      -5.92682                      -0.44339                      88.90711
                      -5.66108                      -0.59072                      88.79003
                      -5.35726                      -0.67569                      88.70934
                      -5.03447                      -0.69295                      88.67011
                      -4.71298                      -0.64143                      88.67479
                      -4.41300                      -0.52436                      88.72310
                      -4.15336                      -0.34910                      88.81201
                      -3.95039                      -0.12665                      88.93592
                      -3.81684                       0.12900                      89.08704
                      -3.68760                       0.33482                      89.35542
                      -3.71444                       0.62117                      89.54013
                      -3.82495                       0.88952                      89.72070
                      -4.01218                       1.12302                      89.88579
                      -4.26437                       1.30699                      90.02501
                      -4.56568                       1.42988                      90.12964
                      -4.89716                       1.48396                      90.19308
                      -5.23800                       1.46584                      90.21136
                      -5.56677                       1.37665                      90.18332
                      -5.86282                       1.22200                      90.11073
                      -6.10754                       1.01161                      89.99815
                      -6.28557                       0.75869                      89.85265
                      -6.38571                       0.47913                      89.68338
                      -6.40167                       0.19051                      89.50096
                      -6.33244                      -0.08904                      89.31687
                      -6.18239                      -0.34196                      89.14267
                      -5.96093                      -0.55236                      88.98930
                      -5.68198                      -0.70701                      88.86641
                      -5.36308                      -0.79619                      88.78171
                      -5.02424                      -0.81432                      88.74052
                      -4.68678                      -0.76024                      88.74544
                      -4.37189                      -0.63735                      88.79615
                      -4.09935                      -0.45337                      88.88947
                      -3.88629                      -0.21987                      89.01954
                      -3.74611                       0.04848                      89.17818
                      -3.62797                       0.26786                      89.45615
                      -3.65581                       0.56483                      89.64772
                      -3.77042                       0.84315                      89.83500
                      -3.96460                       1.08532                      90.00621
                      -4.22616                       1.27612                      90.15061
                      -4.53865                       1.40357                      90.25912
                      -4.88244                       1.45966                      90.32492
                      -5.23593                       1.44087                      90.34387
                      -5.57690                       1.34837                      90.31479
                      -5.88394                       1.18797                      90.23951
                      -6.13776                       0.96977                      90.12275
                      -6.32239                       0.70746                      89.97185
                      -6.42625                       0.41753                      89.79629
                      -6.44280                       0.11819                      89.60710
                      -6.37100                      -0.17174                      89.41618
                      -6.21538                      -0.43405                      89.23551
                      -5.98570                      -0.65226                      89.07645
                      -5.69640                      -0.81265                      88.94899
                      -5.36565                      -0.90515                      88.86114
                      -5.01424                      -0.92395                      88.81843
                      -4.66424                      -0.86786                      88.82353
                      -4.33766                      -0.74040                      88.87612
                      -4.05500                      -0.54960                      88.97291
                      -3.83404                      -0.30743                      89.10780
                      -3.68865                      -0.02912                      89.27233
                      -3.58076                       0.20089                      89.55798
                      -3.60935                       0.50588                      89.75471
                      -3.72705                       0.79171                      89.94704
                      -3.92648                       1.04041                      90.12287
                      -4.19509                       1.23636                      90.27117
                      -4.51601                       1.36725                      90.38260
                      -4.86907                       1.42485                      90.45018
                      -5.23210                       1.40555                      90.46965
                      -5.58228                       1.31055                      90.43978
                      -5.89760                       1.14583                      90.36247
                      -6.15826                       0.92174                      90.24256
                      -6.34787                       0.65235                      90.08758
                      -6.45453                       0.35460                      89.90729
                      -6.47153                       0.04719                      89.71300
                      -6.39780                      -0.25057                      89.51692
                      -6.23798                      -0.51995                      89.33138
                      -6.00210                      -0.74405                      89.16802
                      -5.70499                      -0.90877                      89.03713
                      -5.36532                      -1.00376                      88.94691
                      -5.00443                      -1.02306                      88.90304
                      -4.64499                      -0.96546                      88.90828
                      -4.30960                      -0.83457                      88.96230
                      -4.01932                      -0.63862                      89.06169
                      -3.79239                      -0.38992                      89.20023
                      -3.64308                      -0.10409                      89.36919
                      -3.54501                       0.13393                      89.66080
                      -3.57412                       0.44451                      89.86115
                      -3.69399                       0.73558                      90.05700
                      -3.89707                       0.98885                      90.23607
                      -4.17061                       1.18839                      90.38708
                      -4.49742                       1.32169                      90.50056
                      -4.85696                       1.38035                      90.56938
                      -5.22665                       1.36069                      90.58920
                      -5.58326                       1.26395                      90.55879
                      -5.90437                       1.09621                      90.48006
                      -6.16981                       0.86800                      90.35794
                      -6.36290                       0.59367                      90.20013
                      -6.47152                       0.29046                      90.01652
                      -6.48883                      -0.02260                      89.81867
                      -6.41375                      -0.32582                      89.61899
                      -6.25099                      -0.60015                      89.43004
                      -6.01078                      -0.82835                      89.26369
                      -5.70822                      -0.99609                      89.13039
                      -5.36232                      -1.09283                      89.03852
                      -4.99480                      -1.11249                      88.99385
                      -4.62877                      -1.05383                      88.99919
                      -4.28722                      -0.92054                      89.05419
                      -3.99162                      -0.72099                      89.15541
                      -3.76052                      -0.46772                      89.29649
                      -3.60847                      -0.17666                      89.46856
                      -3.52011                       0.06696                      89.76458
                      -3.54953                       0.38086                      89.96706
                      -3.67067                       0.67503                      90.16500
                      -3.87592                       0.93099                      90.34597
                      -4.15238                       1.13267                      90.49860
                      -4.48267                       1.26738                      90.61328
                      -4.84604                       1.32667                      90.68283
                      -5.21967                       1.30680                      90.70287
                      -5.58008                       1.20903                      90.67213
                      -5.90461                       1.03950                      90.59256
                      -6.17288                       0.80886                      90.46915
                      -6.36803                       0.53161                      90.30965
                      -6.47781                       0.22516                      90.12409
                      -6.49530                      -0.09123                      89.92412
                      -6.41942                      -0.39768                      89.72232
                      -6.25493                      -0.67493                      89.53136
                      -6.01216                      -0.90557                      89.36324
                      -5.70638                      -1.07510                      89.22852
                      -5.35678                      -1.17287                      89.13567
                      -4.98535                      -1.19274                      89.09052
                      -4.61542                      -1.13345                      89.09591
                      -4.27023                      -0.99874                      89.15150
                      -3.97147                      -0.79707                      89.25380
                      -3.73792                      -0.54110                      89.39638
                      -3.58424                      -0.24693                      89.57028
                      -3.50571                       0.00000                      89.86927
                      -3.53524                       0.31499                      90.07246
                      -3.65680                       0.61019                      90.27109
                      -3.86277                       0.86705                      90.45269
                      -4.14019                       1.06942                      90.60585
                      -4.47163                       1.20461                      90.72094
                      -4.83628                       1.26410                      90.79073
                      -5.21121                       1.24416                      90.81084
                      -5.57287                       1.14605                      90.78000
                      -5.89853                       0.97593                      90.70014
                      -6.16774                       0.74449                      90.57630
                      -6.36358                       0.46627                      90.41625
                      -6.47373                       0.15875                      90.23004
                      -6.49129                      -0.15875                      90.02937
                      -6.41514                      -0.46627                      89.82687
                      -6.25007                      -0.74449                      89.63524
                      -6.00646                      -0.97593                      89.46653
                      -5.69961                      -1.14605                      89.33134
                      -5.34880                      -1.24416                      89.23816
                      -4.97607                      -1.26410                      89.19286
                      -4.60485                      -1.20461                      89.19827
                      -4.25845                      -1.06942                      89.25405
                      -3.95865                      -0.86705                      89.35671
                      -3.72428                      -0.61019                      89.49979
                      -3.57007                      -0.31499                      89.67430
                      -3.50171                      -0.06696                      89.97487
                      -3.53113                       0.24693                      90.17735
                      -3.65228                       0.54110                      90.37530
                      -3.85752                       0.79707                      90.55627
                      -4.13398                       0.99874                      90.70889
                      -4.46427                       1.13345                      90.82358
                      -4.82765                       1.19274                      90.89313
                      -5.20127                       1.17287                      90.91317
                      -5.56168                       1.07510                      90.88243
                      -5.88621                       0.90557                      90.80286
                      -6.15448                       0.67493                      90.67944
                      -6.34963                       0.39768                      90.51995
                      -6.45941                       0.09123                      90.33439
                      -6.47690                      -0.22516                      90.13442
                      -6.40102                      -0.53161                      89.93262
                      -6.23653                      -0.80886                      89.74165
                      -5.99376                      -1.03950                      89.57353
                      -5.68798                      -1.20903                      89.43881
                      -5.33839                      -1.30680                      89.34596
                      -4.96696                      -1.32667                      89.30081
                      -4.59702                      -1.26738                      89.30621
                      -4.25183                      -1.13267                      89.36180
                      -3.95307                      -0.93099                      89.46410
                      -3.71952                      -0.67503                      89.60668
                      -3.56585                      -0.38086                      89.78058
                      -3.50821                      -0.13393                      90.08139
                      -3.53733                       0.17666                      90.28174
                      -3.65719                       0.46772                      90.47760
                      -3.86027                       0.72099                      90.65666
                      -4.13381                       0.92054                      90.80767
                      -4.46062                       1.05383                      90.92115
                      -4.82017                       1.11249                      90.98997
                      -5.18986                       1.09283                      91.00979
                      -5.54646                       0.99609                      90.97938
                      -5.86757                       0.82835                      90.90065
                      -6.13301                       0.60015                      90.77854
                      -6.32611                       0.32582                      90.62072
                      -6.43472                       0.02260                      90.43712
                      -6.45203                      -0.29046                      90.23926
                      -6.37695                      -0.59367                      90.03958
                      -6.21419                      -0.86800                      89.85064
                      -5.97399                      -1.09621                      89.68429
                      -5.67143                      -1.26395                      89.55099
                      -5.32552                      -1.36069                      89.45912
                      -4.95801                      -1.38035                      89.41444
                      -4.59198                      -1.32169                      89.41978
                      -4.25043                      -1.18839                      89.47478
                      -3.95482                      -0.98885                      89.57601
                      -3.72373                      -0.73558                      89.71708
                      -3.57167                      -0.44451                      89.88915
                      -3.52556                      -0.20089                      90.18887
                      -3.55415                       0.10409                      90.38560
                      -3.67186                       0.38992                      90.57793
                      -3.87128                       0.63862                      90.75376
                      -4.13989                       0.83457                      90.90206
                      -4.46081                       0.96546                      91.01349
                      -4.81388                       1.02306                      91.08107
                      -5.17690                       1.00376                      91.10053
                      -5.52708                       0.90877                      91.07067
                      -5.84240                       0.74405                      90.99336
                      -6.10306                       0.51995                      90.87345
                      -6.29268                       0.25057                      90.71847
                      -6.39934                      -0.04719                      90.53818
                      -6.41634                      -0.35460                      90.34389
                      -6.34261                      -0.65235                      90.14781
                      -6.18278                      -0.92174                      89.96226
                      -5.94690                      -1.14583                      89.79891
                      -5.64980                      -1.31055                      89.66802
                      -5.31013                      -1.40555                      89.57780
                      -4.94923                      -1.42485                      89.53393
                      -4.58980                      -1.36725                      89.53917
                      -4.25440                      -1.23636                      89.59319
                      -3.96412                      -1.04041                      89.69258
                      -3.73719                      -0.79171                      89.83112
                      -3.58788                      -0.50588                      90.00008
                      -3.55437                      -0.26786                      90.29734
                      -3.58221                       0.02912                      90.48891
                      -3.69682                       0.30743                      90.67618
                      -3.89101                       0.54960                      90.84740
                      -4.15256                       0.74040                      90.99179
                      -4.46505                       0.86785                      91.10030
                      -4.80884                       0.92394                      91.16610
                      -5.16233                       0.90515                      91.18506
                      -5.50331                       0.81265                      91.15598
                      -5.81035                       0.65226                      91.08070
                      -6.06416                       0.43405                      90.96393
                      -6.24880                       0.17174                      90.81303
                      -6.35265                      -0.11819                      90.63747
                      -6.36920                      -0.41753                      90.44829
                      -6.29741                      -0.70746                      90.25736
                      -6.14178                      -0.96977                      90.07669
                      -5.91210                      -1.18797                      89.91763
                      -5.62280                      -1.34837                      89.79017
                      -5.29205                      -1.44087                      89.70233
                      -4.94064                      -1.45966                      89.65961
                      -4.59065                      -1.40357                      89.66471
                      -4.26407                      -1.27612                      89.71731
                      -3.98141                      -1.08532                      89.81409
                      -3.76045                      -0.84315                      89.94899
                      -3.61505                      -0.56483                      90.11352
                      -3.59560                      -0.33482                      90.40690
                      -3.62245                      -0.04848                      90.59161
                      -3.73296                       0.21987                      90.77218
                      -3.92019                       0.45337                      90.93727
                      -4.17238                       0.63735                      91.07650
                      -4.47368                       0.76024                      91.18112
                      -4.80517                       0.81432                      91.24456
                      -5.14600                       0.79619                      91.26284
                      -5.47478                       0.70701                      91.23480
                      -5.77083                       0.55236                      91.16221
                      -6.01555                       0.34196                      91.04963
                      -6.19358                       0.08904                      90.90413
                      -6.29371                      -0.19051                      90.73486
                      -6.30967                      -0.47913                      90.55244
                      -6.24045                      -0.75869                      90.36835
                      -6.09040                      -1.01161                      90.19415
                      -5.86894                      -1.22200                      90.04078
                      -5.58999                      -1.37665                      89.91789
                      -5.27108                      -1.46584                      89.83319
                      -4.93225                      -1.48396                      89.79200
                      -4.59479                      -1.42988                      89.79692
                      -4.27989                      -1.30699                      89.84763
                      -4.00736                      -1.12302                      89.94095
                      -3.79430                      -0.88952                      90.07102
                      -3.65411                      -0.62117                      90.22966
                      -3.65071                      -0.40179                      90.51767
                      -3.67628                      -0.12900                      90.69364
                      -3.78156                       0.12665                      90.86566
                      -3.95993                       0.34910                      91.02293
                      -4.20018                       0.52436                      91.15557
                      -4.48722                       0.64143                      91.25524
                      -4.80301                       0.69295                      91.31568
                      -5.12772                       0.67569                      91.33309
                      -5.44092                       0.59072                      91.30639
                      -5.72296                       0.44339                      91.23723
                      -5.95610                       0.24296                      91.12998
                      -6.12570                       0.00201                      90.99137
                      -6.22109                      -0.26431                      90.83011
                      -6.23630                      -0.53927                      90.65633
                      -6.17035                      -0.80558                      90.48095
                      -6.02740                      -1.04653                      90.31500
                      -5.81643                      -1.24697                      90.16889
                      -5.55068                      -1.39430                      90.05181
                      -5.24687                      -1.47926                      89.97112
                      -4.92408                      -1.49653                      89.93188
                      -4.60259                      -1.44501                      89.93657
                      -4.30261                      -1.32794                      89.98488
                      -4.04297                      -1.15267                      90.07379
                      -3.84000                      -0.93023                      90.19769
                      -3.70645                      -0.67458                      90.34882
                      -3.72189                      -0.46875                      90.62985
                      -3.74588                      -0.21291                      90.79489
                      -3.84462                       0.02686                      90.95623
                      -4.01191                       0.23549                      91.10373
                      -4.23724                       0.39987                      91.22813
                      -4.50645                       0.50967                      91.32161
                      -4.80262                       0.55799                      91.37830
                      -5.10716                       0.54180                      91.39463
                      -5.40091                       0.46211                      91.36958
                      -5.66542                       0.32393                      91.30472
                      -5.88408                       0.13595                      91.20413
                      -6.04315                      -0.09004                      91.07413
                      -6.13262                      -0.33981                      90.92288
                      -6.14688                      -0.59769                      90.75990
                      -6.08503                      -0.84747                      90.59541
                      -5.95096                      -1.07345                      90.43977
                      -5.75309                      -1.26143                      90.30273
                      -5.50385                      -1.39961                      90.19293
                      -5.21891                      -1.47930                      90.11725
                      -4.91617                      -1.49549                      90.08045
                      -4.61465                      -1.44717                      90.08484
                      -4.33330                      -1.33737                      90.13016
                      -4.08979                      -1.17299                      90.21354
                      -3.89943                      -0.96437                      90.32975
                      -3.77417                      -0.72460                      90.47149
                      -3.81263                      -0.53572                      90.74375
                      -3.83464                      -0.30094                      90.89519
                      -3.92525                      -0.08091                      91.04325
                      -4.07876                       0.11054                      91.17860
                      -4.28554                       0.26139                      91.29276
                      -4.53258                       0.36214                      91.37854
                      -4.80437                       0.40649                      91.43056
                      -5.08383                       0.39163                      91.44555
                      -5.35340                       0.31850                      91.42256
                      -5.59613                       0.19170                      91.36304
                      -5.79679                       0.01919                      91.27073
                      -5.94276                      -0.18818                      91.15144
                      -6.02486                      -0.41739                      91.01265
                      -6.03795                      -0.65404                      90.86308
                      -5.98119                      -0.88325                      90.71214
                      -5.85816                      -1.09062                      90.56931
                      -5.67658                      -1.26313                      90.44356
                      -5.44786                      -1.38993                      90.34279
                      -5.18639                      -1.46306                      90.27335
                      -4.90857                      -1.47792                      90.23958
                      -4.63188                      -1.43358                      90.24361
                      -4.37369                      -1.33282                      90.28519
                      -4.15023                      -1.18197                      90.36171
                      -3.97554                      -0.99052                      90.46835
                      -3.86060                      -0.77050                      90.59842
                      -3.92883                      -0.60268                      90.85986
                      -3.94836                      -0.39433                      90.99426
                      -4.02877                      -0.19908                      91.12565
                      -4.16500                      -0.02918                      91.24576
                      -4.34849                       0.10468                      91.34707
                      -4.56772                       0.19409                      91.42319
                      -4.80891                       0.23344                      91.46935
                      -5.05691                       0.22026                      91.48265
                      -5.29612                       0.15536                      91.46225
                      -5.51153                       0.04284                      91.40944
                      -5.68960                      -0.11025                      91.32752
                      -5.81913                      -0.29427                      91.22166
                      -5.89199                      -0.49768                      91.09849
                      -5.90360                      -0.70768                      90.96576
                      -5.85323                      -0.91109                      90.83182
                      -5.74405                      -1.09511                      90.70507
                      -5.58292                      -1.24820                      90.59348
                      -5.37996                      -1.36072                      90.50406
                      -5.14792                      -1.42562                      90.44243
                      -4.90138                      -1.43880                      90.41246
                      -4.65584                      -1.39945                      90.41604
                      -4.42672                      -1.31004                      90.45294
                      -4.22842                      -1.17618                      90.52084
                      -4.07340                      -1.00628                      90.61548
                      -3.97140                      -0.81103                      90.73090
                      -4.08201                      -0.66965                      90.97922
                      -4.09833                      -0.49553                      91.09154
                      -4.16553                      -0.33235                      91.20133
                      -4.27938                      -0.19037                      91.30172
                      -4.43273                      -0.07850                      91.38638
                      -4.61594                      -0.00377                      91.45000
                      -4.81751                       0.02911                      91.48858
                      -5.02476                       0.01809                      91.49969
                      -5.22467                      -0.03614                      91.48264
                      -5.40469                      -0.13018                      91.43850
                      -5.55350                      -0.25811                      91.37004
                      -5.66175                      -0.41191                      91.28157
                      -5.72264                      -0.58189                      91.17864
                      -5.73235                      -0.75740                      91.06772
                      -5.69026                      -0.92738                      90.95578
                      -5.59901                      -1.08118                      90.84985
                      -5.46435                      -1.20911                      90.75659
                      -5.29473                      -1.30315                      90.68187
                      -5.10081                      -1.35738                      90.63036
                      -4.89478                      -1.36840                      90.60532
                      -4.68958                      -1.33552                      90.60831
                      -4.49810                      -1.26079                      90.63915
                      -4.33238                      -1.14892                      90.69589
                      -4.20283                      -1.00694                      90.77498
                      -4.11759                      -0.84376                      90.87144
                      -4.30161                      -0.73661                      91.10438
                      -4.31341                      -0.61072                      91.18559
                      -4.36200                      -0.49275                      91.26497
                      -4.44431                      -0.39009                      91.33755
                      -4.55518                      -0.30921                      91.39876
                      -4.68764                      -0.25519                      91.44476
                      -4.83338                      -0.23141                      91.47265
                      -4.98322                      -0.23938                      91.48068
                      -5.12776                      -0.27859                      91.46836
                      -5.25791                      -0.34658                      91.43645
                      -5.36550                      -0.43907                      91.38695
                      -5.44377                      -0.55027                      91.32299
                      -5.48779                      -0.67317                      91.24857
                      -5.49481                      -0.80005                      91.16837
                      -5.46437                      -0.92295                      91.08744
                      -5.39840                      -1.03415                      91.01085
                      -5.30104                      -1.12664                      90.94343
                      -5.17841                      -1.19463                      90.88940
                      -5.03821                      -1.23384                      90.85216
                      -4.88925                      -1.24181                      90.83405
                      -4.74088                      -1.21803                      90.83622
                      -4.60245                      -1.16401                      90.85851
                      -4.48263                      -1.08313                      90.89954
                      -4.38896                      -0.98047                      90.95672
                      -4.32733                      -0.86250                      91.02646
                      -4.88961                      -0.80357                      91.26178
                      -4.88961                      -0.80357                      91.26178
                      -4.88961                      -0.80357                      91.26178
                      -4.88961                      -0.80357                      91.26178
                      -4.88961                      -0.80357                      91.26178
                      -4.88961                      -0.80357                      91.26178
                      -4.88961                      -0.80357                      91.26178
                      -4.88961                      -0.80357                      91.26178
                      -4.88961                      -0.80357                      91.26178
                      -4.88961                      -0.80357                      91.26178
                      -4.88961                      -0.80357                      91.26178
                      -4.88961                      -0.80357                      91.26178
                      -4.88961                      -0.80357                      91.26178
                      -4.88961                      -0.80357                      91.26178
                      -4.88961                      -0.80357                      91.26178
                      -4.88961                      -0.80357                      91.26178
                      -4.88961                      -0.80357                      91.26178
                      -4.88961                      -0.80357                      91.26178
                      -4.88961                      -0.80357                      91.26178
                      -4.88961                      -0.80357                      91.26178
                      -4.88961                      -0.80357                      91.26178
                      -4.88961                      -0.80357                      91.26178
                      -4.88961                      -0.80357                      91.26178
                      -4.88961                      -0.80357                      91.26178
                      -4.88961                      -0.80357                      91.26178
        </DataArray>
      </Points>
      <Polys>
        <DataArray type="Int32" Name="connectivity" format="ascii">
      0      1     26     25
      1      2     27     26
      2      3     28     27
      3      4     29     28
      4      5     30     29
      5      6     31     30
      6      7     32     31
      7      8     33     32
      8      9     34     33
      9     10     35     34
     10     11     36     35
     11     12     37     36
     12     13     38     37
     13     14     39     38
     14     15     40     39
     15     16     41     40
     16     17     42     41
     17     18     43     42
     18     19     44     43
     19     20     45     44
     20     21     46     45
     21     22     47     46
     22     23     48     47
     23     24     49     48
     24      0     25     49
     25     26     51     50
     26     27     52     51
     27     28     53     52
     28     29     54     53
     29     30     55     54
     30     31     56     55
     31     32     57     56
     32     33     58     57
     33     34     59     58
     34     35     60     59
     35     36     61     60
     36     37     62     61
     37     38     63     62
     38     39     64     63
     39     40     65     64
     40     41     66     65
     41     42     67     66
     42     43     68     67
     43     44     69     68
     44     45     70     69
     45     46     71     70
     46     47     72     71
     47     48     73     72
     48     49     74     73
     49     25     50     74
     50     51     76     75
     51     52     77     76
     52     53     78     77
     53     54     79     78
     54     55     80     79
     55     56     81     80
     56     57     82     81
     57     58     83     82
     58     59     84     83
     59     60     85     84
     60     61     86     85
     61     62     87     86
     62     63     88     87
     63     64     89     88
     64     65     90     89
     65     66     91     90
     66     67     92     91
     67     68     93     92
     68     69     94     93
     69     70     95     94
     70     71     96     95
     71     72     97     96
     72     73     98     97
     73     74     99     98
     74     50     75     99
     75     76    101    100
     76     77    102    101
     77     78    103    102
     78     79    104    103
     79     80    105    104
     80     81    106    105
     81     82    107    106
     82     83    108    107
     83     84    109    108
     84     85    110    109
     85     86    111    110
     86     87    112    111
     87     88    113    112
     88     89    114    113
     89     90    115    114
     90     91    116    115
     91     92    117    116
     92     93    118    117
     93     94    119    118
     94     95    120    119
     95     96    121    120
     96     97    122    121
     97     98    123    122
     98     99    124    123
     99     75    100    124
    100    101    126    125
    101    102    127    126
    102    103    128    127
    103    104    129    128
    104    105    130    129
    105    106    131    130
    106    107    132    131
    107    108    133    132
    108    109    134    133
    109    110    135    134
    110    111    136    135
    111    112    137    136
    112    113    138    137
    113    114    139    138
    114    115    140    139
    115    116    141    140
    116    117    142    141
    117    118    143    142
    118    119    144    143
    119    120    145    144
    120    121    146    145
    121    122    147    146
    122    123    148    147
    123    124    149    148
    124    100    125    149
    125    126    151    150
    126    127    152    151
    127    128    153    152
    128    129    154    153
    129    130    155    154
    130    131    156    155
    131    132    157    156
    132    133    158    157
    133    134    159    158
    134    135    160    159
    135    136    161    160
    136    137    162    161
    137    138    163    162
    138    139    164    163
    139    140    165    164
    140    141    166    165
    141    142    167    166
    142    143    168    167
    143    144    169    168
    144    145    170    169
    145    146    171    170
    146    147    172    171
    147    148    173    172
    148    149    174    173
    149    125    150    174
    150    151    176    175
    151    152    177    176
    152    153    178    177
    153    154    179    178
    154    155    180    179
    155    156    181    180
    156    157    182    181
    157    158    183    182
    158    159    184    183
    159    160    185    184
    160    161    186    185
    161    162    187    186
    162    163    188    187
    163    164    189    188
    164    165    190    189
    165    166    191    190
    166    167    192    191
    167    168    193    192
    168    169    194    193
    169    170    195    194
    170    171    196    195
    171    172    197    196
    172    173    198    197
    173    174    199    198
    174    150    175    199
    175    176    201    200
    176    177    202    201
    177    178    203    202
    178    179    204    203
    179    180    205    204
    180    181    206    205
    181    182    207    206
    182    183    208    207
    183    184    209    208
    184    185    210    209
    185    186    211    210
    186    187    212    211
    187    188    213    212
    188    189    214    213
    189    190    215    214
    190    191    216    215
    191    192    217    216
    192    193    218    217
    193    194    219    218
    194    195    220    219
    195    196    221    220
    196    197    222    221
    197    198    223    222
    198    199    224    223
    199    175    200    224
    200    201    226    225
    201    202    227    226
    202    203    228    227
    203    204    229    228
    204    205    230    229
    205    206    231    230
    206    207    232    231
    207    208    233    232
    208    209    234    233
    209    210    235    234
    210    211    236    235
    211    212    237    236
    212    213    238    237
    213    214    239    238
    214    215    240    239
    215    216    241    240
    216    217    242    241
    217    218    243    242
    218    219    244    243
    219    220    245    244
    220    221    246    245
    221    222    247    246
    222    223    248    247
    223    224    249    248
    224    200    225    249
    225    226    251    250
    226    227    252    251
    227    228    253    252
    228    229    254    253
    229    230    255    254
    230    231    256    255
    231    232    257    256
    232    233    258    257
    233    234    259    258
    234    235    260    259
    235    236    261    260
    236    237    262    261
    237    238    263    262
    238    239    264    263
    239    240    265    264
    240    241    266    265
    241    242    267    266
    242    243    268    267
    243    244    269    268
    244    245    270    269
    245    246    271    270
    246    247    272    271
    247    248    273    272
    248    249    274    273
    249    225    250    274
    250    251    276    275
    251    252    277    276
    252    253    278    277
    253    254    279    278
    254    255    280    279
    255    256    281    280
    256    257    282    281
    257    258    283    282
    258    259    284    283
    259    260    285    284
    260    261    286    285
    261    262    287    286
    262    263    288    287
    263    264    289    288
    264    265    290    289
    265    266    291    290
    266    267    292    291
    267    268    293    292
    268    269    294    293
    269    270    295    294
    270    271    296    295
    271    272    297    296
    272    273    298    297
    273    274    299    298
    274    250    275    299
    275    276    301    300
    276    277    302    301
    277    278    303    302
    278    279    304    303
    279    280    305    304
    280    281    306    305
    281    282    307    306
    282    283    308    307
    283    284    309    308
    284    285    310    309
    285    286    311    310
    286    287    312    311
    287    288    313    312
    288    289    314    313
    289    290    315    314
    290    291    316    315
    291    292    317    316
    292    293    318    317
    293    294    319    318
    294    295    320    319
    295    296    321    320
    296    297    322    321
    297    298    323    322
    298    299    324    323
    299    275    300    324
    300    301    326    325
    301    302    327    326
    302    303    328    327
    303    304    329    328
    304    305    330    329
    305    306    331    330
    306    307    332    331
    307    308    333    332
    308    309    334    333
    309    310    335    334
    310    311    336    335
    311    312    337    336
    312    313    338    337
    313    314    339    338
    314    315    340    339
    315    316    341    340
    316    317    342    341
    317    318    343    342
    318    319    344    343
    319    320    345    344
    320    321    346    345
    321    322    347    346
    322    323    348    347
    323    324    349    348
    324    300    325    349
    325    326    351    350
    326    327    352    351
    327    328    353    352
    328    329    354    353
    329    330    355    354
    330    331    356    355
    331    332    357    356
    332    333    358    357
    333    334    359    358
    334    335    360    359
    335    336    361    360
    336    337    362    361
    337    338    363    362
    338    339    364    363
    339    340    365    364
    340    341    366    365
    341    342    367    366
    342    343    368    367
    343    344    369    368
    344    345    370    369
    345    346    371    370
    346    347    372    371
    347    348    373    372
    348    349    374    373
    349    325    350    374
    350    351    376    375
    351    352    377    376
    352    353    378    377
    353    354    379    378
    354    355    380    379
    355    356    381    380
    356    357    382    381
    357    358    383    382
    358    359    384    383
    359    360    385    384
    360    361    386    385
    361    362    387    386
    362    363    388    387
    363    364    389    388
    364    365    390    389
    365    366    391    390
    366    367    392    391
    367    368    393    392
    368    369    394    393
    369    370    395    394
    370    371    396    395
    371    372    397    396
    372    373    398    397
    373    374    399    398
    374    350    375    399
    375    376    401    400
    376    377    402    401
    377    378    403    402
    378    379    404    403
    379    380    405    404
    380    381    406    405
    381    382    407    406
    382    383    408    407
    383    384    409    408
    384    385    410    409
    385    386    411    410
    386    387    412    411
    387    388    413    412
    388    389    414    413
    389    390    415    414
    390    391    416    415
    391    392    417    416
    392    393    418    417
    393    394    419    418
    394    395    420    419
    395    396    421    420
    396    397    422    421
    397    398    423    422
    398    399    424    423
    399    375    400    424
    400    401    426    425
    401    402    427    426
    402    403    428    427
    403    404    429    428
    404    405    430    429
    405    406    431    430
    406    407    432    431
    407    408    433    432
    408    409    434    433
    409    410    435    434
    410    411    436    435
    411    412    437    436
    412    413    438    437
    413    414    439    438
    414    415    440    439
    415    416    441    440
    416    417    442    441
    417    418    443    442
    418    419    444    443
    419    420    445    444
    420    421    446    445
    421    422    447    446
    422    423    448    447
    423    424    449    448
    424    400    425    449
    425    426    451    450
    426    427    452    451
    427    428    453    452
    428    429    454    453
    429    430    455    454
    430    431    456    455
    431    432    457    456
    432    433    458    457
    433    434    459    458
    434    435    460    459
    435    436    461    460
    436    437    462    461
    437    438    463    462
    438    439    464    463
    439    440    465    464
    440    441    466    465
    441    442    467    466
    442    443    468    467
    443    444    469    468
    444    445    470    469
    445    446    471    470
    446    447    472    471
    447    448    473    472
    448    449    474    473
    449    425    450    474
    450    451    476    475
    451    452    477    476
    452    453    478    477
    453    454    479    478
    454    455    480    479
    455    456    481    480
    456    457    482    481
    457    458    483    482
    458    459    484    483
    459    460    485    484
    460    461    486    485
    461    462    487    486
    462    463    488    487
    463    464    489    488
    464    465    490    489
    465    466    491    490
    466    467    492    491
    467    468    493    492
    468    469    494    493
    469    470    495    494
    470    471    496    495
    471    472    497    496
    472    473    498    497
    473    474    499    498
    474    450    475    499
    475    476    501    500
    476    477    502    501
    477    478    503    502
    478    479    504    503
    479    480    505    504
    480    481    506    505
    481    482    507    506
    482    483    508    507
    483    484    509    508
    484    485    510    509
    485    486    511    510
    486    487    512    511
    487    488    513    512
    488    489    514    513
    489    490    515    514
    490    491    516    515
    491    492    517    516
    492    493    518    517
    493    494    519    518
    494    495    520    519
    495    496    521    520
    496    497    522    521
    497    498    523    522
    498    499    524    523
    499    475    500    524
    500    501    526    525
    501    502    527    526
    502    503    528    527
    503    504    529    528
    504    505    530    529
    505    506    531    530
    506    507    532    531
    507    508    533    532
    508    509    534    533
    509    510    535    534
    510    511    536    535
    511    512    537    536
    512    513    538    537
    513    514    539    538
    514    515    540    539
    515    516    541    540
    516    517    542    541
    517    518    543    542
    518    519    544    543
    519    520    545    544
    520    521    546    545
    521    522    547    546
    522    523    548    547
    523    524    549    548
    524    500    525    549
    525    526    551    550
    526    527    552    551
    527    528    553    552
    528    529    554    553
    529    530    555    554
    530    531    556    555
    531    532    557    556
    532    533    558    557
    533    534    559    558
    534    535    560    559
    535    536    561    560
    536    537    562    561
    537    538    563    562
    538    539    564    563
    539    540    565    564
    540    541    566    565
    541    542    567    566
    542    543    568    567
    543    544    569    568
    544    545    570    569
    545    546    571    570
    546    547    572    571
    547    548    573    572
    548    549    574    573
    549    525    550    574
    550    551    576    575
    551    552    577    576
    552    553    578    577
    553    554    579    578
    554    555    580    579
    555    556    581    580
    556    557    582    581
    557    558    583    582
    558    559    584    583
    559    560    585    584
    560    561    586    585
    561    562    587    586
    562    563    588    587
    563    564    589    588
    564    565    590    589
    565    566    591    590
    566    567    592    591
    567    568    593    592
    568    569    594    593
    569    570    595    594
    570    571    596    595
    571    572    597    596
    572    573    598    597
    573    574    599    598
    574    550    575    599
    575    576    601    600
    576    577    602    601
    577    578    603    602
    578    579    604    603
    579    580    605    604
    580    581    606    605
    581    582    607    606
    582    583    608    607
    583    584    609    608
    584    585    610    609
    585    586    611    610
    586    587    612    611
    587    588    613    612
    588    589    614    613
    589    590    615    614
    590    591    616    615
    591    592    617    616
    592    593    618    617
    593    594    619    618
    594    595    620    619
    595    596    621    620
    596    597    622    621
    597    598    623    622
    598    599    624    623
    599    575    600    624
        </DataArray>
        <DataArray type="Int32" Name="offsets" format="ascii">
      4
      8
     12
     16
     20
     24
     28
     32
     36
     40
     44
     48
     52
     56
     60
     64
     68
     72
     76
     80
     84
     88
     92
     96
    100
    104
    108
    112
    116
    120
    124
    128
    132
    136
    140
    144
    148
    152
    156
    160
    164
    168
    172
    176
    180
    184
    188
    192
    196
    200
    204
    208
    212
    216
    220
    224
    228
    232
    236
    240
    244
    248
    252
    256
    260
    264
    268
    272
    276
    280
    284
    288
    292
    296
    300
    304
    308
    312
    316
    320
    324
    328
    332
    336
    340
    344
    348
    352
    356
    360
    364
    368
    372
    376
    380
    384
    388
    392
    396
    400
    404
    408
    412
    416
    420
    424
    428
    432
    436
    440
    444
    448
    452
    456
    460
    464
    468
    472
    476
    480
    484
    488
    492
    496
    500
    504
    508
    512
    516
    520
    524
    528
    532
    536
    540
    544
    548
    552
    556
    560
    564
    568
    572
    576
    580
    584
    588
    592
    596
    600
    604
    608
    612
    616
    620
    624
    628
    632
    636
    640
    644
    648
    652
    656
    660
    664
    668
    672
    676
    680
    684
    688
    692
    696
    700
    704
    708
    712
    716
    720
    724
    728
    732
    736
    740
    744
    748
    752
    756
    760
    764
    768
    772
    776
    780
    784
    788
    792
    796
    800
    804
    808
    812
    816
    820
    824
    828
    832
    836
    840
    844
    848
    852
    856
    860
    864
    868
    872
    876
    880
    884
    888
    892
    896
    900
    904
    908
    912
    916
    920
    924
    928
    932
    936
    940
    944
    948
    952
    956
    960
    964
    968
    972
    976
    980
    984
    988
    992
    996
   1000
   1004
   1008
   1012
   1016
   1020
   1024
   1028
   1032
   1036
   1040
   1044
   1048
   1052
   1056
   1060
   1064
   1068
   1072
   1076
   1080
   1084
   1088
   1092
   1096
   1100
   1104
   1108
   1112
   1116
   1120
   1124
   1128
   1132
   1136
   1140
   1144
   1148
   1152
   1156
   1160
   1164
   1168
   1172
   1176
   1180
   1184
   1188
   1192
   1196
   1200
   1204
   1208
   1212
   1216
   1220
   1224
   1228
   1232
   1236
   1240
   1244
   1248
   1252
   1256
   1260
   1264
   1268
   1272
   1276
   1280
   1284
   1288
   1292
   1296
   1300
   1304
   1308
   1312
   1316
   1320
   1324
   1328
   1332
   1336
   1340
   1344
   1348
   1352
   1356
   1360
   1364
   1368
   1372
   1376
   1380
   1384
   1388
   1392
   1396
   1400
   1404
   1408
   1412
   1416
   1420
   1424
   1428
   1432
   1436
   1440
   1444
   1448
   1452
   1456
   1460
   1464
   1468
   1472
   1476
   1480
   1484
   1488
   1492
   1496
   1500
   1504
   1508
   1512
   1516
   1520
   1524
   1528
   1532
   1536
   1540
   1544
   1548
   1552
   1556
   1560
   1564
   1568
   1572
   1576
   1580
   1584
   1588
   1592
   1596
   1600
   1604
   1608
   1612
   1616
   1620
   1624
   1628
   1632
   1636
   1640
   1644
   1648
   1652
   1656
   1660
   1664
   1668
   1672
   1676
   1680
   1684
   1688
   1692
   1696
   1700
   1704
   1708
   1712
   1716
   1720
   1724
   1728
   1732
   1736
   1740
   1744
   1748
   1752
   1756
   1760
   1764
   1768
   1772
   1776
   1780
   1784
   1788
   1792
   1796
   1800
   1804
   1808
   1812
   1816
   1820
   1824
   1828
   1832
   1836
   1840
   1844
   1848
   1852
   1856
   1860
   1864
   1868
   1872
   1876
   1880
   1884
   1888
   1892
   1896
   1900
   1904
   1908
   1912
   1916
   1920
   1924
   1928
   1932
   1936
   1940
   1944
   1948
   1952
   1956
   1960
   1964
   1968
   1972
   1976
   1980
   1984
   1988
   1992
   1996
   2000
   2004
   2008
   2012
   2016
   2020
   2024
   2028
   2032
   2036
   2040
   2044
   2048
   2052
   2056
   2060
   2064
   2068
   2072
   2076
   2080
   2084
   2088
   2092
   2096
   2100
   2104
   2108
   2112
   2116
   2120
   2124
   2128
   2132
   2136
   2140
   2144
   2148
   2152
   2156
   2160
   2164
   2168
   2172
   2176
   2180
   2184
   2188
   2192
   2196
   2200
   2204
   2208
   2212
   2216
   2220
   2224
   2228
   2232
   2236
   2240
   2244
   2248
   2252
   2256
   2260
   2264
   2268
   2272
   2276
   2280
   2284
   2288
   2292
   2296
   2300
   2304
   2308
   2312
   2316
   2320
   2324
   2328
   2332
   2336
   2340
   2344
   2348
   2352
   2356
   2360
   2364
   2368
   2372
   2376
   2380
   2384
   2388
   2392
   2396
   2400
        </DataArray>
      </Polys>
    </Piece>
  </PolyData>
</VTKFile>
