<?xml version="1.0"?>
<VTKFile type="PolyData" version="0.1" byte_order="LittleEndian">
  <PolyData>
    <Piece NumberOfPoints="     19" NumberOfVerts="  0" NumberOfLines="     18"
           NumberOfStrips="  0" NumberOfPolys="      0">
      <Points>
        <DataArray type="Float32" NumberOfComponents="3" format="ascii">
                      -4.94535                      -0.59606                      91.37540
                      -4.89649                      -1.14231                      92.62725
                      -4.82441                      -2.32123                      95.09438
                      -4.76449                      -3.54110                      97.54426
                      -4.69683                      -5.09043                     100.59636
                      -4.55785                      -6.81926                     104.31304
                      -4.39033                      -8.42921                     108.08010
                      -4.22500                     -10.03675                     111.84829
                      -4.05940                     -11.64027                     115.61822
                      -3.89443                     -13.24151                     119.38915
                      -3.73154                     -14.84380                     123.15972
                      -3.56996                     -16.44578                     126.93047
                      -3.41032                     -18.04746                     130.70143
                      -3.25336                     -19.64885                     134.47262
                      -3.09733                     -21.25014                     138.24389
                      -2.96793                     -22.58448                     141.38671
                      -2.86469                     -23.64467                     143.90407
                      -2.76086                     -24.65435                     146.44329
                      -2.71107                     -25.19741                     147.69637
        </DataArray>
      </Points>
      <PointData>
        <DataArray type="Float32" Name="TranslationalVelocity" NumberOfComponents="3" format="ascii">
                      -0.14131                      -3.73991                      -1.61517
                      -0.27081                      -7.14365                      -3.09534
                      -0.55029                     -13.84600                      -6.28989
                      -0.83949                     -20.49870                      -9.59540
                      -1.20679                     -28.78509                     -13.79367
                      -1.61664                     -38.88922                     -18.47831
                      -1.99831                     -49.13664                     -22.84084
                      -2.37941                     -59.38660                     -27.19684
                      -2.75956                     -69.64132                     -31.54194
                      -3.13917                     -79.89865                     -35.88086
                      -3.51902                     -90.15446                     -40.22262
                      -3.89881                    -100.41047                     -44.56356
                      -4.27852                    -110.66659                     -48.90366
                      -4.65816                    -120.92269                     -53.24301
                      -5.03778                    -131.17880                     -57.58205
                      -5.35411                    -139.72564                     -61.19777
                      -5.60545                    -146.57146                     -64.07058
                      -5.84482                    -153.47667                     -66.80654
                      -5.97356                    -156.88398                     -68.27807
        </DataArray>
        <DataArray type="Float32" Name="RotationalVelocity" NumberOfComponents="3" format="ascii">
                       2.70973                      -0.00000                      -0.23707
                       2.70973                      -0.00000                      -0.23707
                       2.70973                      -0.00000                      -0.23707
                       2.70973                      -0.00000                      -0.23707
                       2.70973                      -0.00000                      -0.23707
                       2.70973                      -0.00000                      -0.23707
                       2.70973                      -0.00000                      -0.23707
                       2.70973                      -0.00000                      -0.23707
                       2.70973                      -0.00000                      -0.23707
                       2.70973                      -0.00000                      -0.23707
                       2.70973                      -0.00000                      -0.23707
                       2.70973                      -0.00000                      -0.23707
                       2.70973                      -0.00000                      -0.23707
                       2.70973                      -0.00000                      -0.23707
                       2.70973                      -0.00000                      -0.23707
                       2.70973                      -0.00000                      -0.23707
                       2.70973                      -0.00000                      -0.23707
                       2.70973                      -0.00000                      -0.23707
                       2.70973                      -0.00000                      -0.23707
        </DataArray>
        <DataArray type="Float32" Name="TranslationalAcceleration" NumberOfComponents="3" format="ascii">
                      -0.88673                       4.40737                     -10.13534
                      -1.69375                       8.44637                     -19.35964
                      -3.28289                      17.16395                     -37.52359
                      -4.86026                      26.18457                     -55.55305
                      -6.82499                      37.64158                     -78.01005
                      -9.22069                      50.42528                    -105.39298
                     -11.65034                      62.32932                    -133.16395
                     -14.08058                      74.21555                    -160.94181
                     -16.51196                      86.07203                    -188.73255
                     -18.94395                      97.91160                    -216.53034
                     -21.37558                     109.75897                    -244.32404
                     -23.80726                     121.60407                    -272.11826
                     -26.23897                     133.44688                    -299.91279
                     -28.67067                     145.28764                    -327.70726
                     -31.10237                     157.12756                    -355.50176
                     -33.12881                     166.99375                    -378.66407
                     -34.75194                     174.83274                    -397.21652
                     -36.38914                     182.29802                    -415.92980
                     -37.19701                     186.31342                    -425.16377
        </DataArray>
        <DataArray type="Float32" Name="OrientationX" NumberOfComponents="3" format="ascii">
                       0.99873                      -0.01735                      -0.04720
                       0.99873                      -0.01735                      -0.04720
                       0.99873                      -0.01735                      -0.04720
                       0.99873                      -0.01735                      -0.04720
                       0.99873                      -0.01735                      -0.04720
                       0.99873                      -0.01735                      -0.04720
                       0.99873                      -0.01735                      -0.04720
                       0.99873                      -0.01735                      -0.04720
                       0.99873                      -0.01735                      -0.04720
                       0.99873                      -0.01735                      -0.04720
                       0.99873                      -0.01735                      -0.04720
                       0.99873                      -0.01735                      -0.04720
                       0.99873                      -0.01735                      -0.04720
                       0.99873                      -0.01735                      -0.04720
                       0.99873                      -0.01735                      -0.04720
                       0.99873                      -0.01735                      -0.04720
                       0.99873                      -0.01735                      -0.04720
                       0.99873                      -0.01735                      -0.04720
                       0.99873                      -0.01735                      -0.04720
        </DataArray>
        <DataArray type="Float32" Name="OrientationY" NumberOfComponents="3" format="ascii">
                       0.03467                       0.91749                       0.39624
                       0.03467                       0.91749                       0.39624
                       0.03467                       0.91749                       0.39624
                       0.03467                       0.91749                       0.39624
                       0.03467                       0.91749                       0.39624
                       0.03467                       0.91749                       0.39624
                       0.03467                       0.91749                       0.39624
                       0.03467                       0.91749                       0.39624
                       0.03467                       0.91749                       0.39624
                       0.03467                       0.91749                       0.39624
                       0.03467                       0.91749                       0.39624
                       0.03467                       0.91749                       0.39624
                       0.03467                       0.91749                       0.39624
                       0.03467                       0.91749                       0.39624
                       0.03467                       0.91749                       0.39624
                       0.03467                       0.91749                       0.39624
                       0.03467                       0.91749                       0.39624
                       0.03467                       0.91749                       0.39624
                       0.03467                       0.91749                       0.39624
        </DataArray>
        <DataArray type="Float32" Name="OrientationZ" NumberOfComponents="3" format="ascii">
                       0.03644                      -0.39738                       0.91693
                       0.03644                      -0.39738                       0.91693
                       0.03644                      -0.39738                       0.91693
                       0.03644                      -0.39738                       0.91693
                       0.03644                      -0.39738                       0.91693
                       0.03644                      -0.39738                       0.91693
                       0.03644                      -0.39738                       0.91693
                       0.03644                      -0.39738                       0.91693
                       0.03644                      -0.39738                       0.91693
                       0.03644                      -0.39738                       0.91693
                       0.03644                      -0.39738                       0.91693
                       0.03644                      -0.39738                       0.91693
                       0.03644                      -0.39738                       0.91693
                       0.03644                      -0.39738                       0.91693
                       0.03644                      -0.39738                       0.91693
                       0.03644                      -0.39738                       0.91693
                       0.03644                      -0.39738                       0.91693
                       0.03644                      -0.39738                       0.91693
                       0.03644                      -0.39738                       0.91693
        </DataArray>
        <DataArray type="Float32" Name="Force" NumberOfComponents="3" format="ascii">
                       0.75928                      20.09534                       8.67867
                     194.95641                     115.83314                      42.45253
                     295.61940                     330.15027                     131.33250
                     302.86602                     488.26152                     199.56617
                    3065.08109                    -297.95270                    -250.91943
                    3779.78112                    -244.77400                    -256.27233
                    4732.86558                    -229.60876                    -287.57179
                    6717.39085                    -262.77416                    -380.80185
                    7485.20965                    -185.50860                    -377.82681
                    8732.70591                    -180.83229                    -425.37065
                   11280.76620                    -156.29991                    -515.98847
                   12838.09903                    -158.56943                    -578.85411
                   14319.34547                    -259.82900                    -681.59630
                   15585.54850                    -280.24308                    -740.75703
                   16731.00715                    -310.84560                    -799.53531
                   17562.25920                    -345.20168                    -847.45499
                   17834.50833                    -394.17304                    -879.49608
                   14513.63080                    -435.70043                    -765.53487
                   11312.41413                     -43.67927                    -468.43894
        </DataArray>
        <DataArray type="Float32" Name="Moment" NumberOfComponents="3" format="ascii">
                       0.00000                       0.00000                       0.00000
                       0.00000                       0.00000                       0.00000
                       0.00000                       0.00000                       0.00000
                       0.00000                       0.00000                       0.00000
                     -50.38229                     549.48940                   -1267.92752
                     -95.93656                    1046.32251                   -2414.35251
                    -132.35413                    1443.50702                   -3330.84184
                    -206.49159                    2252.07977                   -5196.59513
                    -290.75295                    3171.06792                   -7317.12806
                    -330.59499                    3605.60113                   -8319.79822
                    -364.98261                    3980.64628                   -9185.20175
                    -389.24439                    4245.25491                   -9795.77690
                    -318.36046                    3472.16644                   -8011.90235
                    -319.16718                    3480.96482                   -8032.20430
                    -311.24924                    3394.60862                   -7832.94040
                    -298.15375                    3251.78394                   -7503.37746
                    -268.25704                    2925.71852                   -6750.99292
                    -138.90106                    1514.91047                   -3495.60280
                    -134.26872                    1464.38835                   -3379.02479
        </DataArray>
      </PointData>
      <Lines>
        <DataArray type="Int32" Name="connectivity" format="ascii">
      0      1
      1      2
      2      3
      3      4
      4      5
      5      6
      6      7
      7      8
      8      9
      9     10
     10     11
     11     12
     12     13
     13     14
     14     15
     15     16
     16     17
     17     18
        </DataArray>
        <DataArray type="Int32" Name="offsets" format="ascii">
      2
      4
      6
      8
     10
     12
     14
     16
     18
     20
     22
     24
     26
     28
     30
     32
     34
     36
        </DataArray>
      </Lines>
    </Piece>
  </PolyData>
</VTKFile>
