<?xml version="1.0"?>
<VTKFile type="PolyData" version="0.1" byte_order="LittleEndian">
  <PolyData>
    <Piece NumberOfPoints="     19" NumberOfVerts="  0" NumberOfLines="     18"
           NumberOfStrips="  0" NumberOfPolys="      0">
      <Points>
        <DataArray type="Float32" NumberOfComponents="3" format="ascii">
                      -4.94366                      -0.54919                      91.39472
                      -4.89325                      -1.05276                      92.66426
                      -4.81782                      -2.14760                      95.16975
                      -4.75442                      -3.28399                      97.65936
                      -4.68234                      -4.72933                     100.76196
                      -4.53844                      -6.33143                     104.53481
                      -4.36636                      -7.81294                     108.35401
                      -4.19648                      -9.29202                     112.17425
                      -4.02634                     -10.76702                     115.99609
                      -3.85683                     -12.23970                     119.81887
                      -3.68941                     -13.71346                     123.64131
                      -3.52328                     -15.18690                     127.46393
                      -3.35912                     -16.66004                     131.28674
                      -3.19762                     -18.13290                     135.10977
                      -3.03705                     -19.60564                     138.93289
                      -2.90387                     -20.83287                     142.11890
                      -2.79763                     -21.80726                     144.67057
                      -2.69095                     -22.73044                     147.24239
                      -2.63961                     -23.23079                     148.51306
        </DataArray>
      </Points>
      <PointData>
        <DataArray type="Float32" Name="TranslationalVelocity" NumberOfComponents="3" format="ascii">
                      -0.13031                      -3.79586                      -1.48940
                      -0.24979                      -7.25086                      -2.85511
                      -0.50956                     -14.06369                      -5.82435
                      -0.77920                     -20.83061                      -8.90626
                      -1.12213                     -29.26203                     -12.82603
                      -1.50227                     -39.52823                     -17.17098
                      -1.85379                     -49.92681                     -21.18888
                      -2.20473                     -60.32771                     -25.20017
                      -2.55470                     -70.73299                     -29.20039
                      -2.90413                     -81.14067                     -33.19434
                      -3.25381                     -91.54694                     -37.19120
                      -3.60341                    -101.95337                     -41.18722
                      -3.95295                    -112.35988                     -45.18239
                      -4.30241                    -122.76635                     -49.17681
                      -4.65185                    -133.17282                     -53.17093
                      -4.94304                    -141.84496                     -56.49921
                      -5.17424                    -148.79035                     -59.14178
                      -5.39328                    -155.79048                     -61.64546
                      -5.51200                    -159.24876                     -63.00241
        </DataArray>
        <DataArray type="Float32" Name="RotationalVelocity" NumberOfComponents="3" format="ascii">
                       2.71202                      -0.00000                      -0.23727
                       2.71202                      -0.00000                      -0.23727
                       2.71202                      -0.00000                      -0.23727
                       2.71202                      -0.00000                      -0.23727
                       2.71202                      -0.00000                      -0.23727
                       2.71202                      -0.00000                      -0.23727
                       2.71202                      -0.00000                      -0.23727
                       2.71202                      -0.00000                      -0.23727
                       2.71202                      -0.00000                      -0.23727
                       2.71202                      -0.00000                      -0.23727
                       2.71202                      -0.00000                      -0.23727
                       2.71202                      -0.00000                      -0.23727
                       2.71202                      -0.00000                      -0.23727
                       2.71202                      -0.00000                      -0.23727
                       2.71202                      -0.00000                      -0.23727
                       2.71202                      -0.00000                      -0.23727
                       2.71202                      -0.00000                      -0.23727
                       2.71202                      -0.00000                      -0.23727
                       2.71202                      -0.00000                      -0.23727
        </DataArray>
        <DataArray type="Float32" Name="TranslationalAcceleration" NumberOfComponents="3" format="ascii">
                      -0.90073                       4.06770                     -10.29543
                      -1.72059                       7.79760                     -19.66638
                      -3.33724                      15.90738                     -38.14488
                      -4.94302                      24.32510                     -56.49896
                      -6.94378                      35.03140                     -79.36776
                      -9.37990                      46.89841                    -107.21279
                     -11.84742                      57.87157                    -135.41661
                     -14.31548                      68.82666                    -163.62673
                     -16.78459                      79.75153                    -191.84874
                     -19.25426                      90.65925                    -220.07723
                     -21.72360                     101.57490                    -248.30190
                     -24.19298                     112.48826                    -276.52702
                     -26.66238                     123.39932                    -304.75236
                     -29.13176                     134.30833                    -332.97757
                     -31.60115                     145.21650                    -361.20278
                     -33.65899                     154.30622                    -384.72401
                     -35.30708                     161.52321                    -403.56180
                     -36.96816                     168.36059                    -422.54799
                     -37.78879                     172.06654                    -431.92781
        </DataArray>
        <DataArray type="Float32" Name="OrientationX" NumberOfComponents="3" format="ascii">
                       0.99878                      -0.01599                      -0.04664
                       0.99878                      -0.01599                      -0.04664
                       0.99878                      -0.01599                      -0.04664
                       0.99878                      -0.01599                      -0.04664
                       0.99878                      -0.01599                      -0.04664
                       0.99878                      -0.01599                      -0.04664
                       0.99878                      -0.01599                      -0.04664
                       0.99878                      -0.01599                      -0.04664
                       0.99878                      -0.01599                      -0.04664
                       0.99878                      -0.01599                      -0.04664
                       0.99878                      -0.01599                      -0.04664
                       0.99878                      -0.01599                      -0.04664
                       0.99878                      -0.01599                      -0.04664
                       0.99878                      -0.01599                      -0.04664
                       0.99878                      -0.01599                      -0.04664
                       0.99878                      -0.01599                      -0.04664
                       0.99878                      -0.01599                      -0.04664
                       0.99878                      -0.01599                      -0.04664
                       0.99878                      -0.01599                      -0.04664
        </DataArray>
        <DataArray type="Float32" Name="OrientationY" NumberOfComponents="3" format="ascii">
                       0.03194                       0.93043                       0.36508
                       0.03194                       0.93043                       0.36508
                       0.03194                       0.93043                       0.36508
                       0.03194                       0.93043                       0.36508
                       0.03194                       0.93043                       0.36508
                       0.03194                       0.93043                       0.36508
                       0.03194                       0.93043                       0.36508
                       0.03194                       0.93043                       0.36508
                       0.03194                       0.93043                       0.36508
                       0.03194                       0.93043                       0.36508
                       0.03194                       0.93043                       0.36508
                       0.03194                       0.93043                       0.36508
                       0.03194                       0.93043                       0.36508
                       0.03194                       0.93043                       0.36508
                       0.03194                       0.93043                       0.36508
                       0.03194                       0.93043                       0.36508
                       0.03194                       0.93043                       0.36508
                       0.03194                       0.93043                       0.36508
                       0.03194                       0.93043                       0.36508
        </DataArray>
        <DataArray type="Float32" Name="OrientationZ" NumberOfComponents="3" format="ascii">
                       0.03756                      -0.36612                       0.92981
                       0.03756                      -0.36612                       0.92981
                       0.03756                      -0.36612                       0.92981
                       0.03756                      -0.36612                       0.92981
                       0.03756                      -0.36612                       0.92981
                       0.03756                      -0.36612                       0.92981
                       0.03756                      -0.36612                       0.92981
                       0.03756                      -0.36612                       0.92981
                       0.03756                      -0.36612                       0.92981
                       0.03756                      -0.36612                       0.92981
                       0.03756                      -0.36612                       0.92981
                       0.03756                      -0.36612                       0.92981
                       0.03756                      -0.36612                       0.92981
                       0.03756                      -0.36612                       0.92981
                       0.03756                      -0.36612                       0.92981
                       0.03756                      -0.36612                       0.92981
                       0.03756                      -0.36612                       0.92981
                       0.03756                      -0.36612                       0.92981
                       0.03756                      -0.36612                       0.92981
        </DataArray>
        <DataArray type="Float32" Name="Force" NumberOfComponents="3" format="ascii">
                       0.69046                      20.11338                       7.89201
                     194.44313                     117.27766                      38.32462
                     294.46794                     334.58045                     119.84965
                     301.36170                     495.09661                     182.77645
                    3065.23274                    -297.42022                    -240.93985
                    3780.77643                    -242.16056                    -248.08661
                    4734.58347                    -225.20779                    -279.94238
                    6720.61374                    -255.62036                    -372.14779
                    7489.29655                    -175.98640                    -371.84354
                    8738.11045                    -169.20301                    -419.62108
                   11288.87215                    -140.14542                    -511.22292
                   12848.33068                    -139.91587                    -574.13030
                   14331.40892                    -240.34121                    -673.58628
                   15599.85311                    -259.05091                    -732.19506
                   16747.71042                    -288.32646                    -790.09291
                   17581.05879                    -321.93769                    -836.99271
                   17855.00642                    -371.33625                    -867.51074
                   14531.81932                    -418.86464                    -751.97818
                   11326.95181                     -26.11127                    -467.85883
        </DataArray>
        <DataArray type="Float32" Name="Moment" NumberOfComponents="3" format="ascii">
                       0.00000                       0.00000                       0.00000
                       0.00000                       0.00000                       0.00000
                       0.00000                       0.00000                       0.00000
                       0.00000                       0.00000                       0.00000
                     -51.96425                     506.51006                   -1286.33295
                     -98.94042                     964.39977                   -2449.18968
                    -136.52715                    1330.76811                   -3379.61870
                    -213.03084                    2076.47093                   -5273.40559
                    -299.99059                    2924.09175                   -7426.02346
                    -341.13270                    3325.11545                   -8444.46324
                    -376.64745                    3671.28755                   -9323.60191
                    -401.71069                    3915.58591                   -9944.02202
                    -328.55263                    3202.49399                   -8133.05377
                    -329.40191                    3210.77213                   -8154.07696
                    -321.24499                    3131.26433                   -7952.15894
                    -307.74019                    2999.62927                   -7617.85854
                    -276.89088                    2698.93253                   -6854.20909
                    -143.37581                    1397.52396                   -3549.15187
                    -138.59647                    1350.93843                   -3430.84325
        </DataArray>
      </PointData>
      <Lines>
        <DataArray type="Int32" Name="connectivity" format="ascii">
      0      1
      1      2
      2      3
      3      4
      4      5
      5      6
      6      7
      7      8
      8      9
      9     10
     10     11
     11     12
     12     13
     13     14
     14     15
     15     16
     16     17
     17     18
        </DataArray>
        <DataArray type="Int32" Name="offsets" format="ascii">
      2
      4
      6
      8
     10
     12
     14
     16
     18
     20
     22
     24
     26
     28
     30
     32
     34
     36
        </DataArray>
      </Lines>
    </Piece>
  </PolyData>
</VTKFile>
