<?xml version="1.0"?>
<VTKFile type="PolyData" version="0.1" byte_order="LittleEndian">
  <PolyData>
    <Piece NumberOfPoints="     19" NumberOfVerts="  0" NumberOfLines="     18"
           NumberOfStrips="  0" NumberOfPolys="      0">
      <Points>
        <DataArray type="Float32" NumberOfComponents="3" format="ascii">
                      -5.04812                      -1.48573                      90.20074
                      -5.09307                      -2.83984                      90.38030
                      -5.21345                      -5.55937                      90.64772
                      -5.34826                      -8.28429                      90.87173
                      -5.52540                     -11.69374                      91.12581
                      -5.67292                     -15.76864                      91.56770
                      -5.78525                     -19.82760                      92.13606
                      -5.89963                     -23.88612                      92.70715
                      -6.01352                     -27.94407                      93.28256
                      -6.12790                     -32.00167                      93.86048
                      -6.24442                     -36.05933                      94.43739
                      -6.36222                     -40.11689                      95.01471
                      -6.48196                     -44.17434                      95.59249
                      -6.60434                     -48.23163                      96.17073
                      -6.72764                     -52.28887                      96.74916
                      -6.83103                     -55.66990                      97.23130
                      -6.91360                     -58.37360                      97.62486
                      -6.99272                     -61.07007                      98.07287
                      -7.03656                     -62.42366                      98.25576
        </DataArray>
      </Points>
      <PointData>
        <DataArray type="Float32" Name="TranslationalVelocity" NumberOfComponents="3" format="ascii">
                      -0.34540                      -0.52222                      -3.94797
                      -0.66021                      -0.98891                      -7.54620
                      -1.29244                      -1.67154                     -14.77269
                      -1.92593                      -2.23544                     -22.01352
                      -2.71856                      -2.86942                     -31.07333
                      -3.66590                      -4.00935                     -41.90140
                      -4.60952                      -5.49351                     -52.68711
                      -5.55305                      -6.98445                     -63.47165
                      -6.49644                      -8.48700                     -74.25468
                      -7.43975                      -9.99608                     -85.03678
                      -8.38308                     -11.50199                     -95.81905
                      -9.32638                     -13.00869                    -106.60106
                     -10.26966                     -14.51617                    -117.38274
                     -11.21290                     -16.02426                    -128.16403
                     -12.15613                     -17.53262                    -138.94517
                     -12.94215                     -18.78976                    -147.92945
                     -13.57071                     -19.81636                    -155.11390
                     -14.19758                     -20.98845                    -162.27911
                     -14.51227                     -21.46423                    -165.87597
        </DataArray>
        <DataArray type="Float32" Name="RotationalVelocity" NumberOfComponents="3" format="ascii">
                       2.65726                      -0.00000                      -0.23248
                       2.65726                      -0.00000                      -0.23248
                       2.65726                      -0.00000                      -0.23248
                       2.65726                      -0.00000                      -0.23248
                       2.65726                      -0.00000                      -0.23248
                       2.65726                      -0.00000                      -0.23248
                       2.65726                      -0.00000                      -0.23248
                       2.65726                      -0.00000                      -0.23248
                       2.65726                      -0.00000                      -0.23248
                       2.65726                      -0.00000                      -0.23248
                       2.65726                      -0.00000                      -0.23248
                       2.65726                      -0.00000                      -0.23248
                       2.65726                      -0.00000                      -0.23248
                       2.65726                      -0.00000                      -0.23248
                       2.65726                      -0.00000                      -0.23248
                       2.65726                      -0.00000                      -0.23248
                       2.65726                      -0.00000                      -0.23248
                       2.65726                      -0.00000                      -0.23248
                       2.65726                      -0.00000                      -0.23248
        </DataArray>
        <DataArray type="Float32" Name="TranslationalAcceleration" NumberOfComponents="3" format="ascii">
                      -0.12218                      10.56991                      -1.39653
                      -0.23138                      20.20349                      -2.64470
                      -0.39150                      39.55160                      -4.47482
                      -0.52401                      58.93840                      -5.98948
                      -0.67318                      83.19553                      -7.69443
                      -0.94031                     112.18623                     -10.74781
                      -1.28746                     141.06270                     -14.71577
                      -1.63619                     169.93606                     -18.70177
                      -1.98762                     198.80535                     -22.71859
                      -2.34056                     227.67211                     -26.75277
                      -2.69277                     256.53935                     -30.77853
                      -3.04517                     285.40589                     -34.80641
                      -3.39774                     314.27155                     -38.83633
                      -3.75046                     343.13615                     -42.86790
                      -4.10323                     372.00036                     -46.90017
                      -4.39725                     396.05385                     -50.26085
                      -4.63733                     415.28864                     -53.00490
                      -4.91122                     434.47157                     -56.13551
                      -5.02254                     444.10146                     -57.40784
        </DataArray>
        <DataArray type="Float32" Name="OrientationX" NumberOfComponents="3" format="ascii">
                       0.99574                      -0.04325                      -0.08140
                       0.99574                      -0.04325                      -0.08140
                       0.99574                      -0.04325                      -0.08140
                       0.99574                      -0.04325                      -0.08140
                       0.99574                      -0.04325                      -0.08140
                       0.99574                      -0.04325                      -0.08140
                       0.99574                      -0.04325                      -0.08140
                       0.99574                      -0.04325                      -0.08140
                       0.99574                      -0.04325                      -0.08140
                       0.99574                      -0.04325                      -0.08140
                       0.99574                      -0.04325                      -0.08140
                       0.99574                      -0.04325                      -0.08140
                       0.99574                      -0.04325                      -0.08140
                       0.99574                      -0.04325                      -0.08140
                       0.99574                      -0.04325                      -0.08140
                       0.99574                      -0.04325                      -0.08140
                       0.99574                      -0.04325                      -0.08140
                       0.99574                      -0.04325                      -0.08140
                       0.99574                      -0.04325                      -0.08140
        </DataArray>
        <DataArray type="Float32" Name="OrientationY" NumberOfComponents="3" format="ascii">
                       0.08641                       0.13064                       0.98766
                       0.08641                       0.13064                       0.98766
                       0.08641                       0.13064                       0.98766
                       0.08641                       0.13064                       0.98766
                       0.08641                       0.13064                       0.98766
                       0.08641                       0.13064                       0.98766
                       0.08641                       0.13064                       0.98766
                       0.08641                       0.13064                       0.98766
                       0.08641                       0.13064                       0.98766
                       0.08641                       0.13064                       0.98766
                       0.08641                       0.13064                       0.98766
                       0.08641                       0.13064                       0.98766
                       0.08641                       0.13064                       0.98766
                       0.08641                       0.13064                       0.98766
                       0.08641                       0.13064                       0.98766
                       0.08641                       0.13064                       0.98766
                       0.08641                       0.13064                       0.98766
                       0.08641                       0.13064                       0.98766
                       0.08641                       0.13064                       0.98766
        </DataArray>
        <DataArray type="Float32" Name="OrientationZ" NumberOfComponents="3" format="ascii">
                      -0.03208                      -0.99049                       0.13382
                      -0.03208                      -0.99049                       0.13382
                      -0.03208                      -0.99049                       0.13382
                      -0.03208                      -0.99049                       0.13382
                      -0.03208                      -0.99049                       0.13382
                      -0.03208                      -0.99049                       0.13382
                      -0.03208                      -0.99049                       0.13382
                      -0.03208                      -0.99049                       0.13382
                      -0.03208                      -0.99049                       0.13382
                      -0.03208                      -0.99049                       0.13382
                      -0.03208                      -0.99049                       0.13382
                      -0.03208                      -0.99049                       0.13382
                      -0.03208                      -0.99049                       0.13382
                      -0.03208                      -0.99049                       0.13382
                      -0.03208                      -0.99049                       0.13382
                      -0.03208                      -0.99049                       0.13382
                      -0.03208                      -0.99049                       0.13382
                      -0.03208                      -0.99049                       0.13382
                      -0.03208                      -0.99049                       0.13382
        </DataArray>
        <DataArray type="Float32" Name="Force" NumberOfComponents="3" format="ascii">
                       2.37589                       3.59216                      27.15650
                     202.88250                       9.87967                     121.75459
                     313.38229                      36.90292                     348.25130
                     326.12456                      58.80920                     513.44269
                    3015.36721                    -166.01149                    -505.92752
                    3720.91099                    -187.81702                    -498.19876
                    4665.30122                    -224.54545                    -543.66830
                    6629.27117                    -310.21835                    -707.00011
                    7420.29445                    -332.19979                    -680.08372
                    8655.01608                    -382.33970                    -755.22395
                   11174.64882                    -482.82951                    -895.02824
                   12697.96961                    -545.72317                    -995.38627
                   14040.25738                    -613.79042                   -1177.43005
                   15236.15191                    -665.17204                   -1271.06758
                   16293.26963                    -711.96308                   -1363.99348
                   17035.46506                    -746.18657                   -1439.38944
                   17211.40628                    -758.93579                   -1491.57805
                   13994.95907                    -633.50360                   -1334.19310
                   10931.79874                    -453.10232                    -733.21717
        </DataArray>
        <DataArray type="Float32" Name="Moment" NumberOfComponents="3" format="ascii">
                       0.00000                       0.00000                       0.00000
                       0.00000                       0.00000                       0.00000
                       0.00000                       0.00000                       0.00000
                       0.00000                       0.00000                       0.00000
                      44.26394                    1366.76031                    -184.66256
                      83.88501                    2590.16023                    -349.95574
                     115.13979                    3555.23012                    -480.34603
                     178.86367                    5522.86478                    -746.19253
                     250.97685                    7749.54020                   -1047.03795
                     284.64616                    8789.16442                   -1187.50126
                     313.61304                    9683.58979                   -1308.34679
                     333.86947                   10309.05786                   -1392.85359
                     273.07410                    8431.84830                   -1139.22439
                     273.33154                    8439.79734                   -1140.29838
                     266.11743                    8217.04347                   -1110.20218
                     254.54985                    7859.86547                   -1061.94397
                     228.64304                    7059.92770                    -953.86463
                     118.35564                    3654.52730                    -493.76204
                     114.49598                    3535.35079                    -477.66014
        </DataArray>
      </PointData>
      <Lines>
        <DataArray type="Int32" Name="connectivity" format="ascii">
      0      1
      1      2
      2      3
      3      4
      4      5
      5      6
      6      7
      7      8
      8      9
      9     10
     10     11
     11     12
     12     13
     13     14
     14     15
     15     16
     16     17
     17     18
        </DataArray>
        <DataArray type="Int32" Name="offsets" format="ascii">
      2
      4
      6
      8
     10
     12
     14
     16
     18
     20
     22
     24
     26
     28
     30
     32
     34
     36
        </DataArray>
      </Lines>
    </Piece>
  </PolyData>
</VTKFile>
