<?xml version="1.0"?>
<VTKFile type="PolyData" version="0.1" byte_order="LittleEndian">
  <PolyData>
    <Piece NumberOfPoints="     19" NumberOfVerts="  0" NumberOfLines="     18"
           NumberOfStrips="  0" NumberOfPolys="      0">
      <Points>
        <DataArray type="Float32" NumberOfComponents="3" format="ascii">
                      -5.19462                       0.20020                      88.52622
                      -5.37271                       0.38602                      87.18397
                      -5.74998                       0.85133                      84.51508
                      -6.13725                       1.36102                      81.85354
                      -6.62730                       2.02464                      78.53092
                      -7.16458                       2.67950                      74.51790
                      -7.67952                       3.20564                      70.48444
                      -8.19676                       3.72921                      66.45094
                      -8.71392                       4.24844                      62.41684
                      -9.23182                       4.76521                      58.38250
                      -9.75173                       5.28314                      54.34859
                     -10.27296                       5.80076                      50.31480
                     -10.79613                       6.31806                      46.28123
                     -11.32197                       6.83511                      42.24798
                     -11.84873                       7.35204                      38.21483
                     -12.28834                       7.78276                      34.85392
                     -12.64066                       8.11948                      32.16427
                     -12.99492                       8.40166                      29.46746
                     -13.17223                       8.58406                      28.12475
        </DataArray>
      </Points>
      <PointData>
        <DataArray type="Float32" Name="TranslationalVelocity" NumberOfComponents="3" format="ascii">
                       0.04750                       4.04316                       0.54295
                       0.09159                       7.72567                       1.04689
                       0.20200                      15.05336                       2.30886
                       0.32293                      22.36348                       3.69115
                       0.48040                      31.49086                       5.49094
                       0.63578                      42.50187                       7.26695
                       0.76062                      53.56300                       8.69387
                       0.88484                      64.62479                      10.11382
                       1.00804                      75.68820                      11.52199
                       1.13066                      86.75242                      12.92349
                       1.25355                      97.81597                      14.32815
                       1.37637                     108.87948                      15.73195
                       1.49911                     119.94286                      17.13492
                       1.62179                     131.00602                      18.53717
                       1.74445                     142.06911                      19.93912
                       1.84664                     151.28839                      21.10724
                       1.92654                     158.66647                      22.02045
                       1.99349                     166.06440                      22.78575
                       2.03677                     169.74799                      23.28041
        </DataArray>
        <DataArray type="Float32" Name="RotationalVelocity" NumberOfComponents="3" format="ascii">
                       2.71205                      -0.00000                      -0.23727
                       2.71205                      -0.00000                      -0.23727
                       2.71205                      -0.00000                      -0.23727
                       2.71205                      -0.00000                      -0.23727
                       2.71205                      -0.00000                      -0.23727
                       2.71205                      -0.00000                      -0.23727
                       2.71205                      -0.00000                      -0.23727
                       2.71205                      -0.00000                      -0.23727
                       2.71205                      -0.00000                      -0.23727
                       2.71205                      -0.00000                      -0.23727
                       2.71205                      -0.00000                      -0.23727
                       2.71205                      -0.00000                      -0.23727
                       2.71205                      -0.00000                      -0.23727
                       2.71205                      -0.00000                      -0.23727
                       2.71205                      -0.00000                      -0.23727
                       2.71205                      -0.00000                      -0.23727
                       2.71205                      -0.00000                      -0.23727
                       2.71205                      -0.00000                      -0.23727
                       2.71205                      -0.00000                      -0.23727
        </DataArray>
        <DataArray type="Float32" Name="TranslationalAcceleration" NumberOfComponents="3" format="ascii">
                       0.95928                      -1.48843                      10.96464
                       1.83299                      -2.86987                      20.95122
                       3.57153                      -6.32703                      40.82282
                       5.30590                     -10.11303                      60.64668
                       7.47140                     -15.04203                      85.39853
                      10.08385                     -19.90824                     115.25891
                      12.70822                     -23.82050                     145.25562
                      15.33275                     -27.71372                     175.25415
                      17.95767                     -31.57474                     205.25706
                      20.58277                     -35.41754                     235.26219
                      23.20772                     -39.26897                     265.26549
                      25.83266                     -43.11806                     295.26868
                      28.45757                     -46.96487                     325.27154
                      31.08243                     -50.80971                     355.27380
                      33.70727                     -54.65375                     385.27586
                      35.89465                     -57.85664                     410.27768
                      37.64518                     -60.36078                     430.28635
                      39.40044                     -62.46073                     450.34904
                      40.27440                     -63.81679                     460.33856
        </DataArray>
        <DataArray type="Float32" Name="OrientationX" NumberOfComponents="3" format="ascii">
                       0.99148                       0.00583                      -0.13014
                       0.99148                       0.00583                      -0.13014
                       0.99148                       0.00583                      -0.13014
                       0.99148                       0.00583                      -0.13014
                       0.99148                       0.00583                      -0.13014
                       0.99148                       0.00583                      -0.13014
                       0.99148                       0.00583                      -0.13014
                       0.99148                       0.00583                      -0.13014
                       0.99148                       0.00583                      -0.13014
                       0.99148                       0.00583                      -0.13014
                       0.99148                       0.00583                      -0.13014
                       0.99148                       0.00583                      -0.13014
                       0.99148                       0.00583                      -0.13014
                       0.99148                       0.00583                      -0.13014
                       0.99148                       0.00583                      -0.13014
                       0.99148                       0.00583                      -0.13014
                       0.99148                       0.00583                      -0.13014
                       0.99148                       0.00583                      -0.13014
                       0.99148                       0.00583                      -0.13014
        </DataArray>
        <DataArray type="Float32" Name="OrientationY" NumberOfComponents="3" format="ascii">
                      -0.01164                      -0.99104                      -0.13308
                      -0.01164                      -0.99104                      -0.13308
                      -0.01164                      -0.99104                      -0.13308
                      -0.01164                      -0.99104                      -0.13308
                      -0.01164                      -0.99104                      -0.13308
                      -0.01164                      -0.99104                      -0.13308
                      -0.01164                      -0.99104                      -0.13308
                      -0.01164                      -0.99104                      -0.13308
                      -0.01164                      -0.99104                      -0.13308
                      -0.01164                      -0.99104                      -0.13308
                      -0.01164                      -0.99104                      -0.13308
                      -0.01164                      -0.99104                      -0.13308
                      -0.01164                      -0.99104                      -0.13308
                      -0.01164                      -0.99104                      -0.13308
                      -0.01164                      -0.99104                      -0.13308
                      -0.01164                      -0.99104                      -0.13308
                      -0.01164                      -0.99104                      -0.13308
                      -0.01164                      -0.99104                      -0.13308
                      -0.01164                      -0.99104                      -0.13308
        </DataArray>
        <DataArray type="Float32" Name="OrientationZ" NumberOfComponents="3" format="ascii">
                      -0.12975                       0.13346                      -0.98252
                      -0.12975                       0.13346                      -0.98252
                      -0.12975                       0.13346                      -0.98252
                      -0.12975                       0.13346                      -0.98252
                      -0.12975                       0.13346                      -0.98252
                      -0.12975                       0.13346                      -0.98252
                      -0.12975                       0.13346                      -0.98252
                      -0.12975                       0.13346                      -0.98252
                      -0.12975                       0.13346                      -0.98252
                      -0.12975                       0.13346                      -0.98252
                      -0.12975                       0.13346                      -0.98252
                      -0.12975                       0.13346                      -0.98252
                      -0.12975                       0.13346                      -0.98252
                      -0.12975                       0.13346                      -0.98252
                      -0.12975                       0.13346                      -0.98252
                      -0.12975                       0.13346                      -0.98252
                      -0.12975                       0.13346                      -0.98252
                      -0.12975                       0.13346                      -0.98252
                      -0.12975                       0.13346                      -0.98252
        </DataArray>
        <DataArray type="Float32" Name="Force" NumberOfComponents="3" format="ascii">
                      -0.19047                     -16.21227                      -2.17710
                     139.98833                    -101.21135                     -32.23438
                     218.70928                    -310.21597                     -71.02069
                     225.58004                    -476.54351                     -94.52174
                    2516.72003                     208.52808                    -304.01546
                    3167.46047                     160.26403                    -396.50413
                    4024.31668                     132.63724                    -513.40778
                    5869.39045                     141.49795                    -755.85258
                    6679.24400                      64.37142                    -873.27334
                    7836.16330                      40.02759                   -1029.35541
                    7543.03008                    -225.46565                   -1026.71043
                    8746.90422                    -246.65248                   -1188.56421
                   10078.20811                     -71.35616                   -1340.55549
                   10863.94535                    -218.89923                   -1464.35691
                   11658.33908                    -225.84378                   -1570.20272
                   12256.39514                    -226.57213                   -1649.27704
                   12411.49601                    -211.88147                   -1667.76309
                   12434.29820                      86.48200                   -1630.24486
                   11131.71173                     -98.26734                   -1483.32990
        </DataArray>
        <DataArray type="Float32" Name="Moment" NumberOfComponents="3" format="ascii">
                       0.00000                       0.00000                       0.00000
                       0.00000                       0.00000                       0.00000
                       0.00000                       0.00000                       0.00000
                       0.00000                       0.00000                       0.00000
                     159.87285                    -164.45562                    1210.66738
                     311.53302                    -320.46313                    2359.14261
                     437.45999                    -449.99982                    3312.74841
                     696.35651                    -716.31763                    5273.29122
                     997.34566                   -1025.93465                    7552.58840
                    1141.27005                   -1173.98465                    8642.48308
                    1229.74661                   -1264.99739                    9312.48850
                    1325.86920                   -1363.87535                   10040.39497
                    1062.27703                   -1092.72729                    8044.29348
                    1046.46713                   -1076.46420                    7924.57003
                    1022.72820                   -1052.04479                    7744.80252
                     979.75122                   -1007.83587                    7419.35121
                     878.97638                    -904.17231                    6656.21471
                     474.03822                    -487.62656                    3589.74397
                     474.41108                    -488.01011                    3592.56751
        </DataArray>
      </PointData>
      <Lines>
        <DataArray type="Int32" Name="connectivity" format="ascii">
      0      1
      1      2
      2      3
      3      4
      4      5
      5      6
      6      7
      7      8
      8      9
      9     10
     10     11
     11     12
     12     13
     13     14
     14     15
     15     16
     16     17
     17     18
        </DataArray>
        <DataArray type="Int32" Name="offsets" format="ascii">
      2
      4
      6
      8
     10
     12
     14
     16
     18
     20
     22
     24
     26
     28
     30
     32
     34
     36
        </DataArray>
      </Lines>
    </Piece>
  </PolyData>
</VTKFile>
