<?xml version="1.0"?>
<VTKFile type="PolyData" version="0.1" byte_order="LittleEndian">
  <PolyData>
    <Piece NumberOfPoints="     19" NumberOfVerts="  0" NumberOfLines="     18"
           NumberOfStrips="  0" NumberOfPolys="      0">
      <Points>
        <DataArray type="Float32" NumberOfComponents="3" format="ascii">
                      -4.93627                       0.24069                      91.47920
                      -4.87896                       0.45658                      92.82752
                      -4.78541                       0.79474                      95.54022
                      -4.70182                       1.08857                      98.26056
                      -4.60328                       1.42940                     101.66562
                      -4.43419                       1.97998                     105.72642
                      -4.24289                       2.65905                     109.76536
                      -4.05390                       3.34067                     113.80398
                      -3.86485                       4.02660                     117.84190
                      -3.67656                       4.71498                     121.87945
                      -3.49028                       5.40217                     125.91729
                      -3.30533                       6.08966                     129.95513
                      -3.12235                       6.77743                     133.99301
                      -2.94204                       7.46543                     138.03097
                      -2.76268                       8.15353                     142.06896
                      -2.61384                       8.72701                     145.43399
                      -2.49543                       9.19359                     148.12472
                      -2.37911                       9.71446                     150.80671
                      -2.32104                       9.93375                     152.15435
        </DataArray>
      </Points>
      <PointData>
        <DataArray type="Float32" Name="TranslationalVelocity" NumberOfComponents="3" format="ascii">
                       0.05716                      -4.03013                       0.65330
                       0.10842                      -7.70353                       1.23929
                       0.18873                     -15.08887                       2.15717
                       0.25851                     -22.49258                       2.95473
                       0.33944                     -31.75840                       3.87985
                       0.47019                     -42.82087                       5.37428
                       0.63145                     -53.82926                       7.21752
                       0.79331                     -64.83625                       9.06763
                       0.95621                     -75.84134                      10.92949
                       1.11968                     -86.84526                      12.79796
                       1.28287                     -97.84946                      14.66322
                       1.44612                    -108.85337                      16.52928
                       1.60945                    -119.85692                      18.39611
                       1.77283                    -130.86004                      20.26356
                       1.93624                    -141.86301                      22.13128
                       2.07242                    -151.03214                      23.68788
                       2.18322                    -158.36375                      24.95432
                       2.30691                    -165.67114                      26.36815
                       2.35899                    -169.34285                      26.96335
        </DataArray>
        <DataArray type="Float32" Name="RotationalVelocity" NumberOfComponents="3" format="ascii">
                       2.71432                      -0.00000                      -0.23747
                       2.71432                      -0.00000                      -0.23747
                       2.71432                      -0.00000                      -0.23747
                       2.71432                      -0.00000                      -0.23747
                       2.71432                      -0.00000                      -0.23747
                       2.71432                      -0.00000                      -0.23747
                       2.71432                      -0.00000                      -0.23747
                       2.71432                      -0.00000                      -0.23747
                       2.71432                      -0.00000                      -0.23747
                       2.71432                      -0.00000                      -0.23747
                       2.71432                      -0.00000                      -0.23747
                       2.71432                      -0.00000                      -0.23747
                       2.71432                      -0.00000                      -0.23747
                       2.71432                      -0.00000                      -0.23747
                       2.71432                      -0.00000                      -0.23747
                       2.71432                      -0.00000                      -0.23747
                       2.71432                      -0.00000                      -0.23747
                       2.71432                      -0.00000                      -0.23747
                       2.71432                      -0.00000                      -0.23747
        </DataArray>
        <DataArray type="Float32" Name="TranslationalAcceleration" NumberOfComponents="3" format="ascii">
                      -0.95701                      -1.78911                     -10.93869
                      -1.82931                      -3.39393                     -20.90914
                      -3.58308                      -5.90858                     -40.95477
                      -5.34121                      -8.09417                     -61.05035
                      -7.54154                     -10.62966                     -86.20021
                     -10.16849                     -14.72333                    -116.22642
                     -12.78259                     -19.77097                    -146.10566
                     -15.39635                     -24.83740                    -175.98110
                     -18.00966                     -29.93596                    -205.85136
                     -20.62269                     -35.05262                    -235.71845
                     -23.23579                     -40.16049                    -265.58630
                     -25.84882                     -45.27055                    -295.45336
                     -28.46176                     -50.38272                    -325.31944
                     -31.07461                     -55.49658                    -355.18437
                     -33.68741                     -60.61117                    -385.04888
                     -35.86475                     -64.87380                    -409.93593
                     -37.60574                     -68.34177                    -429.83555
                     -39.34097                     -72.21283                    -449.66931
                     -40.21287                     -73.84283                    -459.63519
        </DataArray>
        <DataArray type="Float32" Name="OrientationX" NumberOfComponents="3" format="ascii">
                       0.99900                       0.00701                      -0.04418
                       0.99900                       0.00701                      -0.04418
                       0.99900                       0.00701                      -0.04418
                       0.99900                       0.00701                      -0.04418
                       0.99900                       0.00701                      -0.04418
                       0.99900                       0.00701                      -0.04418
                       0.99900                       0.00701                      -0.04418
                       0.99900                       0.00701                      -0.04418
                       0.99900                       0.00701                      -0.04418
                       0.99900                       0.00701                      -0.04418
                       0.99900                       0.00701                      -0.04418
                       0.99900                       0.00701                      -0.04418
                       0.99900                       0.00701                      -0.04418
                       0.99900                       0.00701                      -0.04418
                       0.99900                       0.00701                      -0.04418
                       0.99900                       0.00701                      -0.04418
                       0.99900                       0.00701                      -0.04418
                       0.99900                       0.00701                      -0.04418
                       0.99900                       0.00701                      -0.04418
        </DataArray>
        <DataArray type="Float32" Name="OrientationY" NumberOfComponents="3" format="ascii">
                      -0.01400                       0.98702                      -0.16000
                      -0.01400                       0.98702                      -0.16000
                      -0.01400                       0.98702                      -0.16000
                      -0.01400                       0.98702                      -0.16000
                      -0.01400                       0.98702                      -0.16000
                      -0.01400                       0.98702                      -0.16000
                      -0.01400                       0.98702                      -0.16000
                      -0.01400                       0.98702                      -0.16000
                      -0.01400                       0.98702                      -0.16000
                      -0.01400                       0.98702                      -0.16000
                      -0.01400                       0.98702                      -0.16000
                      -0.01400                       0.98702                      -0.16000
                      -0.01400                       0.98702                      -0.16000
                      -0.01400                       0.98702                      -0.16000
                      -0.01400                       0.98702                      -0.16000
                      -0.01400                       0.98702                      -0.16000
                      -0.01400                       0.98702                      -0.16000
                      -0.01400                       0.98702                      -0.16000
                      -0.01400                       0.98702                      -0.16000
        </DataArray>
        <DataArray type="Float32" Name="OrientationZ" NumberOfComponents="3" format="ascii">
                       0.04249                       0.16046                       0.98613
                       0.04249                       0.16046                       0.98613
                       0.04249                       0.16046                       0.98613
                       0.04249                       0.16046                       0.98613
                       0.04249                       0.16046                       0.98613
                       0.04249                       0.16046                       0.98613
                       0.04249                       0.16046                       0.98613
                       0.04249                       0.16046                       0.98613
                       0.04249                       0.16046                       0.98613
                       0.04249                       0.16046                       0.98613
                       0.04249                       0.16046                       0.98613
                       0.04249                       0.16046                       0.98613
                       0.04249                       0.16046                       0.98613
                       0.04249                       0.16046                       0.98613
                       0.04249                       0.16046                       0.98613
                       0.04249                       0.16046                       0.98613
                       0.04249                       0.16046                       0.98613
                       0.04249                       0.16046                       0.98613
                       0.04249                       0.16046                       0.98613
        </DataArray>
        <DataArray type="Float32" Name="Force" NumberOfComponents="3" format="ascii">
                      -0.23269                      16.40694                      -2.65963
                     184.95422                     117.99353                     -27.16838
                     272.33959                     341.75892                     -67.34349
                     272.35677                     510.24369                     -94.75922
                    3045.22268                    -260.05415                     -88.89391
                    3775.54107                    -178.59723                    -133.61518
                    4728.13610                    -135.96387                    -181.59645
                    6702.91672                    -120.14619                    -269.25701
                    7469.48448                     -16.99005                    -319.07093
                    8715.58261                      20.85246                    -378.91873
                   11247.55354                     111.85623                    -502.82069
                   12801.86280                     149.95589                    -575.99013
                   14287.35454                      78.75849                    -628.41019
                   15556.94469                      89.47676                    -684.85667
                   16708.11647                      85.94227                    -733.88175
                   17545.93034                      70.21101                    -767.42068
                   17825.81243                      24.87618                    -772.10322
                   14506.80015                    -100.94478                    -608.62498
                   11260.24476                     242.53977                    -524.63167
        </DataArray>
        <DataArray type="Float32" Name="Moment" NumberOfComponents="3" format="ascii">
                       0.00000                       0.00000                       0.00000
                       0.00000                       0.00000                       0.00000
                       0.00000                       0.00000                       0.00000
                       0.00000                       0.00000                       0.00000
                     -58.06589                    -219.28311                   -1347.65212
                    -114.58327                    -432.71837                   -2659.36496
                    -158.23468                    -597.56588                   -3672.47123
                    -238.70224                    -901.44785                   -5540.04406
                    -341.94780                   -1291.34989                   -7936.27193
                    -388.91460                   -1468.71783                   -9026.32524
                    -426.08357                   -1609.08472                   -9888.98050
                    -454.29092                   -1715.60845                  -10543.64529
                    -369.34103                   -1394.79916                   -8572.04198
                    -370.51159                   -1399.21971                   -8599.20940
                    -361.52673                   -1365.28883                   -8390.67977
                    -346.46840                   -1308.42173                   -8041.19066
                    -311.83161                   -1177.61753                   -7237.30495
                    -161.44121                    -609.67519                   -3746.89165
                    -155.92706                    -588.85128                   -3618.91374
        </DataArray>
      </PointData>
      <Lines>
        <DataArray type="Int32" Name="connectivity" format="ascii">
      0      1
      1      2
      2      3
      3      4
      4      5
      5      6
      6      7
      7      8
      8      9
      9     10
     10     11
     11     12
     12     13
     13     14
     14     15
     15     16
     16     17
     17     18
        </DataArray>
        <DataArray type="Int32" Name="offsets" format="ascii">
      2
      4
      6
      8
     10
     12
     14
     16
     18
     20
     22
     24
     26
     28
     30
     32
     34
     36
        </DataArray>
      </Lines>
    </Piece>
  </PolyData>
</VTKFile>
