<?xml version="1.0"?>
<VTKFile type="PolyData" version="0.1" byte_order="LittleEndian">
  <PolyData>
    <Piece NumberOfPoints="    625" NumberOfVerts="  0" NumberOfLines="      0"
           NumberOfStrips="  0" NumberOfPolys="    600">
      <Points>
        <DataArray type="Float32" NumberOfComponents="3" format="ascii">
                      -5.03427                       1.44756                      89.60833
                      -5.03427                       1.44756                      89.60833
                      -5.03427                       1.44756                      89.60833
                      -5.03427                       1.44756                      89.60833
                      -5.03427                       1.44756                      89.60833
                      -5.03427                       1.44756                      89.60833
                      -5.03427                       1.44756                      89.60833
                      -5.03427                       1.44756                      89.60833
                      -5.03427                       1.44756                      89.60833
                      -5.03427                       1.44756                      89.60833
                      -5.03427                       1.44756                      89.60833
                      -5.03427                       1.44756                      89.60833
                      -5.03427                       1.44756                      89.60833
                      -5.03427                       1.44756                      89.60833
                      -5.03427                       1.44756                      89.60833
                      -5.03427                       1.44756                      89.60833
                      -5.03427                       1.44756                      89.60833
                      -5.03427                       1.44756                      89.60833
                      -5.03427                       1.44756                      89.60833
                      -5.03427                       1.44756                      89.60833
                      -5.03427                       1.44756                      89.60833
                      -5.03427                       1.44756                      89.60833
                      -5.03427                       1.44756                      89.60833
                      -5.03427                       1.44756                      89.60833
                      -5.03427                       1.44756                      89.60833
                      -4.43421                       1.32693                      89.58872
                      -4.44044                       1.36600                      89.73369
                      -4.48379                       1.40262                      89.87283
                      -4.56156                       1.43449                      89.99740
                      -4.66885                       1.45960                      90.09958
                      -4.79891                       1.47637                      90.17294
                      -4.94359                       1.48375                      90.21287
                      -5.09379                       1.48127                      90.21687
                      -5.24006                       1.46910                      90.18469
                      -5.37323                       1.44800                      90.11834
                      -5.48492                       1.41929                      90.02199
                      -5.56811                       1.38477                      89.90171
                      -5.61758                       1.34662                      89.76504
                      -5.63022                       1.30723                      89.62058
                      -5.60523                       1.26908                      89.47739
                      -5.54419                       1.23457                      89.34449
                      -5.45093                       1.20586                      89.23021
                      -5.33131                       1.18475                      89.14175
                      -5.19284                       1.17258                      89.08465
                      -5.04424                       1.17011                      89.06251
                      -4.89482                       1.17749                      89.07671
                      -4.75399                       1.19426                      89.12637
                      -4.63059                       1.21936                      89.20837
                      -4.53237                       1.25123                      89.31754
                      -4.46552                       1.28785                      89.44704
                      -4.20256                       1.20630                      89.60134
                      -4.21116                       1.26035                      89.80185
                      -4.27113                       1.31100                      89.99430
                      -4.37869                       1.35507                      90.16660
                      -4.52708                       1.38980                      90.30792
                      -4.70698                       1.41299                      90.40939
                      -4.90709                       1.42320                      90.46462
                      -5.11483                       1.41978                      90.47015
                      -5.31715                       1.40294                      90.42564
                      -5.50133                       1.37375                      90.33387
                      -5.65581                       1.33404                      90.20061
                      -5.77088                       1.28630                      90.03424
                      -5.83930                       1.23354                      89.84521
                      -5.85678                       1.17906                      89.64540
                      -5.82223                       1.12629                      89.44736
                      -5.73780                       1.07855                      89.26354
                      -5.60880                       1.03884                      89.10548
                      -5.44335                       1.00965                      88.98312
                      -5.25184                       0.99281                      88.90415
                      -5.04629                       0.98939                      88.87352
                      -4.83963                       0.99960                      88.89317
                      -4.64485                       1.02280                      88.96186
                      -4.47417                       1.05752                      89.07526
                      -4.33832                       1.10160                      89.22627
                      -4.24585                       1.15225                      89.40538
                      -4.03732                       1.08567                      89.61978
                      -4.04762                       1.15034                      89.85970
                      -4.11937                       1.21095                      90.08998
                      -4.24808                       1.26369                      90.29615
                      -4.42564                       1.30524                      90.46526
                      -4.64091                       1.33300                      90.58667
                      -4.88036                       1.34521                      90.65276
                      -5.12893                       1.34112                      90.65938
                      -5.37103                       1.32097                      90.60611
                      -5.59142                       1.28604                      90.49630
                      -5.77627                       1.23852                      90.33685
                      -5.91396                       1.18140                      90.13778
                      -5.99583                       1.11826                      89.91159
                      -6.01675                       1.05307                      89.67249
                      -5.97539                       0.98993                      89.43552
                      -5.87437                       0.93281                      89.21556
                      -5.72002                       0.88529                      89.02643
                      -5.52204                       0.85036                      88.88002
                      -5.29288                       0.83022                      88.78552
                      -5.04692                       0.82612                      88.74888
                      -4.79964                       0.83834                      88.77239
                      -4.56656                       0.86609                      88.85457
                      -4.36233                       0.90765                      88.99028
                      -4.19978                       0.96038                      89.17096
                      -4.08912                       1.02099                      89.38529
                      -3.90907                       0.96504                      89.64145
                      -3.92067                       1.03792                      89.91181
                      -4.00153                       1.10622                      90.17131
                      -4.14656                       1.16564                      90.40363
                      -4.34666                       1.21247                      90.59419
                      -4.58923                       1.24374                      90.73101
                      -4.85906                       1.25751                      90.80549
                      -5.13918                       1.25290                      90.81295
                      -5.41198                       1.23020                      90.75292
                      -5.66034                       1.19084                      90.62918
                      -5.86864                       1.13729                      90.44950
                      -6.02379                       1.07292                      90.22516
                      -6.11606                       1.00177                      89.97028
                      -6.13963                       0.92831                      89.70085
                      -6.09303                       0.85716                      89.43381
                      -5.97919                       0.79279                      89.18595
                      -5.80525                       0.73924                      88.97282
                      -5.58216                       0.69988                      88.80783
                      -5.32392                       0.67718                      88.70135
                      -5.04676                       0.67257                      88.66005
                      -4.76810                       0.68633                      88.68654
                      -4.50545                       0.71761                      88.77916
                      -4.27531                       0.76443                      88.93208
                      -4.09214                       0.82386                      89.13569
                      -3.96744                       0.89216                      89.37721
                      -3.80628                       0.84441                      89.66534
                      -3.81892                       0.92383                      89.95996
                      -3.90704                       0.99825                      90.24274
                      -4.06508                       1.06301                      90.49592
                      -4.28313                       1.11404                      90.70357
                      -4.54747                       1.14812                      90.85267
                      -4.84151                       1.16312                      90.93383
                      -5.14676                       1.15810                      90.94196
                      -5.44404                       1.13336                      90.87654
                      -5.71468                       1.09047                      90.74170
                      -5.94167                       1.03211                      90.54589
                      -6.11075                       0.96197                      90.30143
                      -6.21129                       0.88443                      90.02368
                      -6.23698                       0.80438                      89.73008
                      -6.18619                       0.72685                      89.43908
                      -6.06214                       0.65670                      89.16897
                      -5.87260                       0.59835                      88.93673
                      -5.62948                       0.55546                      88.75694
                      -5.34808                       0.53072                      88.64089
                      -5.04605                       0.52569                      88.59589
                      -4.74239                       0.54069                      88.62476
                      -4.45617                       0.57478                      88.72569
                      -4.20538                       0.62580                      88.89233
                      -4.00577                       0.69056                      89.11421
                      -3.86989                       0.76499                      89.37739
                      -3.72304                       0.72378                      89.69095
                      -3.73652                       0.80846                      90.00508
                      -3.83047                       0.88781                      90.30659
                      -3.99899                       0.95686                      90.57653
                      -4.23147                       1.01127                      90.79794
                      -4.51332                       1.04761                      90.95691
                      -4.82683                       1.06360                      91.04344
                      -5.15230                       1.05824                      91.05211
                      -5.46927                       1.03187                      90.98237
                      -5.75783                       0.98613                      90.83859
                      -5.99986                       0.92391                      90.62982
                      -6.18013                       0.84912                      90.36917
                      -6.28733                       0.76645                      90.07302
                      -6.31472                       0.68110                      89.75997
                      -6.26057                       0.59843                      89.44970
                      -6.12830                       0.52364                      89.16171
                      -5.92621                       0.46142                      88.91408
                      -5.66699                       0.41569                      88.72238
                      -5.36695                       0.38932                      88.59865
                      -5.04492                       0.38396                      88.55067
                      -4.72115                       0.39995                      88.58145
                      -4.41598                       0.43629                      88.68906
                      -4.14857                       0.49069                      88.86674
                      -3.93575                       0.55974                      89.10332
                      -3.79087                       0.63910                      89.38393
                      -3.65588                       0.60315                      89.71796
                      -3.67003                       0.69203                      90.04771
                      -3.76865                       0.77533                      90.36420
                      -3.94554                       0.84781                      90.64755
                      -4.18958                       0.90492                      90.87996
                      -4.48543                       0.94307                      91.04683
                      -4.81452                       0.95986                      91.13766
                      -5.15616                       0.95423                      91.14676
                      -5.48888                       0.92655                      91.07355
                      -5.79179                       0.87854                      90.92263
                      -6.04583                       0.81323                      90.70349
                      -6.23507                       0.73472                      90.42988
                      -6.34759                       0.64794                      90.11901
                      -6.37634                       0.55835                      89.79041
                      -6.31951                       0.47158                      89.46473
                      -6.18066                       0.39307                      89.16242
                      -5.96853                       0.32776                      88.90249
                      -5.69643                       0.27975                      88.70126
                      -5.38148                       0.25207                      88.57139
                      -5.04345                       0.24644                      88.52102
                      -4.70359                       0.26323                      88.55334
                      -4.38325                       0.30137                      88.66629
                      -4.10256                       0.35848                      88.85280
                      -3.87916                       0.43096                      89.10113
                      -3.72708                       0.51426                      89.39569
                      -3.60259                       0.48252                      89.74619
                      -3.61727                       0.57470                      90.08817
                      -3.71955                       0.66110                      90.41642
                      -3.90300                       0.73627                      90.71029
                      -4.15610                       0.79550                      90.95133
                      -4.46294                       0.83506                      91.12439
                      -4.80425                       0.85247                      91.21860
                      -5.15857                       0.84663                      91.22804
                      -5.50365                       0.81792                      91.15211
                      -5.81780                       0.76813                      90.99558
                      -6.08128                       0.70040                      90.76830
                      -6.27753                       0.61898                      90.48454
                      -6.39424                       0.52898                      90.16213
                      -6.42405                       0.43606                      89.82133
                      -6.36511                       0.34606                      89.48355
                      -6.22111                       0.26464                      89.17002
                      -6.00110                       0.19690                      88.90044
                      -5.71890                       0.14712                      88.69175
                      -5.39225                       0.11840                      88.55705
                      -5.04167                       0.11257                      88.50481
                      -4.68920                       0.12998                      88.53832
                      -4.35696                       0.16954                      88.65547
                      -4.06585                       0.22877                      88.84890
                      -3.83416                       0.30394                      89.10645
                      -3.67643                       0.39033                      89.41195
                      -3.56173                       0.36189                      89.77550
                      -3.57680                       0.45656                      90.12672
                      -3.68184                       0.54528                      90.46381
                      -3.87024                       0.62248                      90.76561
                      -4.13017                       0.68331                      91.01316
                      -4.44529                       0.72394                      91.19089
                      -4.79580                       0.74182                      91.28764
                      -5.15969                       0.73583                      91.29733
                      -5.51407                       0.70634                      91.21935
                      -5.83670                       0.65521                      91.05861
                      -6.10729                       0.58565                      90.82519
                      -6.30884                       0.50203                      90.53378
                      -6.42869                       0.40960                      90.20267
                      -6.45931                       0.31418                      89.85267
                      -6.39878                       0.22175                      89.50578
                      -6.25089                       0.13813                      89.18379
                      -6.02494                       0.06857                      88.90694
                      -5.73513                       0.01744                      88.69261
                      -5.39967                      -0.01205                      88.55428
                      -5.03964                      -0.01804                      88.50064
                      -4.67765                      -0.00016                      88.53505
                      -4.33645                       0.04047                      88.65536
                      -4.03749                       0.10129                      88.85401
                      -3.79954                       0.17849                      89.11851
                      -3.63756                       0.26722                      89.43225
                      -3.53232                       0.24126                      89.80582
                      -3.54767                       0.33767                      90.16348
                      -3.65464                       0.42802                      90.50676
                      -3.84650                       0.50664                      90.81410
                      -4.11120                       0.56858                      91.06619
                      -4.43210                       0.60995                      91.24718
                      -4.78904                       0.62816                      91.34570
                      -5.15960                       0.62206                      91.35557
                      -5.52049                       0.59203                      91.27616
                      -5.84904                       0.53996                      91.11247
                      -6.12459                       0.46913                      90.87477
                      -6.32984                       0.38397                      90.57801
                      -6.45189                       0.28985                      90.24082
                      -6.48308                       0.19267                      89.88440
                      -6.42143                       0.09855                      89.53115
                      -6.27083                       0.01339                      89.20325
                      -6.04074                      -0.05744                      88.92132
                      -5.74561                      -0.10951                      88.70306
                      -5.40399                      -0.13954                      88.56219
                      -5.03735                      -0.14564                      88.50756
                      -4.66872                      -0.12744                      88.54260
                      -4.32126                      -0.08606                      88.66512
                      -4.01681                      -0.02412                      88.86741
                      -3.77450                       0.05450                      89.13677
                      -3.60955                       0.14485                      89.45626
                      -3.51376                       0.12063                      89.83709
                      -3.52928                       0.21807                      90.19855
                      -3.63738                       0.30938                      90.54550
                      -3.83129                       0.38884                      90.85611
                      -4.09881                       0.45144                      91.11088
                      -4.42313                       0.49325                      91.29380
                      -4.78388                       0.51166                      91.39338
                      -5.15839                       0.50549                      91.40335
                      -5.52312                       0.47514                      91.32310
                      -5.85517                       0.42252                      91.15766
                      -6.13366                       0.35092                      90.91743
                      -6.34110                       0.26486                      90.61750
                      -6.46445                       0.16974                      90.27672
                      -6.49597                       0.07152                      89.91651
                      -6.43366                      -0.02360                      89.55949
                      -6.28146                      -0.10966                      89.22810
                      -6.04891                      -0.18126                      88.94315
                      -5.75064                      -0.23388                      88.72257
                      -5.40538                      -0.26423                      88.58020
                      -5.03483                      -0.27040                      88.52499
                      -4.66227                      -0.25199                      88.56041
                      -4.31111                      -0.21018                      88.68423
                      -4.00342                      -0.14758                      88.88868
                      -3.75852                      -0.06812                      89.16090
                      -3.59181                       0.02319                      89.48380
                      -3.50571                       0.00000                      89.86927
                      -3.52128                       0.09778                      90.23200
                      -3.62976                       0.18941                      90.58015
                      -3.82434                       0.26914                      90.89185
                      -4.09280                       0.33196                      91.14751
                      -4.41825                       0.37392                      91.33107
                      -4.78026                       0.39239                      91.43100
                      -5.15608                       0.38620                      91.44101
                      -5.52208                       0.35575                      91.36047
                      -5.85529                       0.30294                      91.19445
                      -6.13475                       0.23110                      90.95338
                      -6.34291                       0.14473                      90.65241
                      -6.46670                       0.04928                      90.31044
                      -6.49832                      -0.04928                      89.94897
                      -6.43580                      -0.14473                      89.59070
                      -6.28307                      -0.23110                      89.25815
                      -6.04971                      -0.30294                      88.97222
                      -5.75040                      -0.35575                      88.75086
                      -5.40393                      -0.38620                      88.60800
                      -5.03209                      -0.39239                      88.55259
                      -4.65823                      -0.37392                      88.58814
                      -4.30584                      -0.33196                      88.71239
                      -3.99707                      -0.26914                      88.91755
                      -3.75132                      -0.18941                      89.19073
                      -3.58403                      -0.09778                      89.51475
                      -3.50805                      -0.12063                      89.90236
                      -3.52357                      -0.02319                      90.26383
                      -3.63167                       0.06812                      90.61077
                      -3.82558                       0.14758                      90.92139
                      -4.09310                       0.21018                      91.17616
                      -4.41742                       0.25199                      91.35908
                      -4.77817                       0.27040                      91.45866
                      -5.15268                       0.26423                      91.46863
                      -5.51741                       0.23388                      91.38838
                      -5.84946                       0.18126                      91.22294
                      -6.12795                       0.10966                      90.98271
                      -6.33539                       0.02360                      90.68278
                      -6.45874                      -0.07152                      90.34200
                      -6.49026                      -0.16974                      89.98179
                      -6.42795                      -0.26486                      89.62477
                      -6.27575                      -0.35092                      89.29337
                      -6.04320                      -0.42252                      89.00843
                      -5.74493                      -0.47514                      88.78785
                      -5.39967                      -0.50549                      88.64548
                      -5.02912                      -0.51166                      88.59027
                      -4.65656                      -0.49325                      88.62569
                      -4.30540                      -0.45144                      88.74951
                      -3.99771                      -0.38884                      88.95396
                      -3.75281                      -0.30938                      89.22618
                      -3.58610                      -0.21807                      89.54908
                      -3.52090                      -0.24126                      89.93638
                      -3.53625                      -0.14485                      90.29403
                      -3.64322                      -0.05450                      90.63732
                      -3.83508                       0.02412                      90.94466
                      -4.09977                       0.08606                      91.19674
                      -4.42068                       0.12744                      91.37773
                      -4.77762                       0.14564                      91.47626
                      -5.14818                       0.13954                      91.48613
                      -5.50907                       0.10951                      91.40672
                      -5.83761                       0.05744                      91.24303
                      -6.11317                      -0.01339                      91.00533
                      -6.31842                      -0.09855                      90.70856
                      -6.44047                      -0.19267                      90.37138
                      -6.47165                      -0.28985                      90.01496
                      -6.41001                      -0.38397                      89.66171
                      -6.25941                      -0.46913                      89.33381
                      -6.02932                      -0.53996                      89.05187
                      -5.73419                      -0.59203                      88.83361
                      -5.39257                      -0.62206                      88.69274
                      -5.02593                      -0.62816                      88.63812
                      -4.65730                      -0.60995                      88.67316
                      -4.30984                      -0.56858                      88.79568
                      -4.00539                      -0.50664                      88.99797
                      -3.76308                      -0.42802                      89.26733
                      -3.59812                      -0.33767                      89.58682
                      -3.54459                      -0.36189                      89.97134
                      -3.55967                      -0.26722                      90.32255
                      -3.66471                      -0.17849                      90.65965
                      -3.85311                      -0.10129                      90.96145
                      -4.11304                      -0.04047                      91.20899
                      -4.42816                       0.00016                      91.38672
                      -4.77867                       0.01804                      91.48347
                      -5.14255                       0.01205                      91.49317
                      -5.49694                      -0.01744                      91.41519
                      -5.81956                      -0.06857                      91.25444
                      -6.09015                      -0.13813                      91.02103
                      -6.29170                      -0.22175                      90.72961
                      -6.41156                      -0.31418                      90.39850
                      -6.44218                      -0.40960                      90.04851
                      -6.38164                      -0.50203                      89.70162
                      -6.23376                      -0.58565                      89.37963
                      -6.00781                      -0.65521                      89.10277
                      -5.71800                      -0.70634                      88.88845
                      -5.38254                      -0.73583                      88.75012
                      -5.02250                      -0.74182                      88.69647
                      -4.66051                      -0.72394                      88.73089
                      -4.31932                      -0.68331                      88.85120
                      -4.02035                      -0.62248                      89.04984
                      -3.78241                      -0.54528                      89.31434
                      -3.62043                      -0.45656                      89.62808
                      -3.57975                      -0.48252                      90.00730
                      -3.59443                      -0.39033                      90.34929
                      -3.69671                      -0.30394                      90.67753
                      -3.88016                      -0.22877                      90.97140
                      -4.13326                      -0.16954                      91.21244
                      -4.44010                      -0.12998                      91.38551
                      -4.78140                      -0.11257                      91.47971
                      -5.13573                      -0.11840                      91.48915
                      -5.48080                      -0.14712                      91.41322
                      -5.79495                      -0.19690                      91.25670
                      -6.05843                      -0.26464                      91.02942
                      -6.25469                      -0.34606                      90.74566
                      -6.37139                      -0.43606                      90.42325
                      -6.40121                      -0.52898                      90.08245
                      -6.34226                      -0.61898                      89.74467
                      -6.19826                      -0.70040                      89.43114
                      -5.97825                      -0.76813                      89.16156
                      -5.69606                      -0.81792                      88.95286
                      -5.36941                      -0.84664                      88.81816
                      -5.01883                      -0.85247                      88.76593
                      -4.66635                      -0.83506                      88.79944
                      -4.33412                      -0.79550                      88.91659
                      -4.04301                      -0.73627                      89.11002
                      -3.81131                      -0.66110                      89.36757
                      -3.65359                      -0.57470                      89.67306
                      -3.62732                      -0.60315                      90.04436
                      -3.64148                      -0.51426                      90.37410
                      -3.74010                      -0.43096                      90.69059
                      -3.91698                      -0.35848                      90.97394
                      -4.16102                      -0.30137                      91.20636
                      -4.45688                      -0.26323                      91.37322
                      -4.78597                      -0.24644                      91.46406
                      -5.12760                      -0.25207                      91.47316
                      -5.46033                      -0.27975                      91.39995
                      -5.76323                      -0.32776                      91.24903
                      -6.01728                      -0.39307                      91.02988
                      -6.20651                      -0.47158                      90.75628
                      -6.31904                      -0.55835                      90.44541
                      -6.34779                      -0.64794                      90.11681
                      -6.29095                      -0.73472                      89.79112
                      -6.15210                      -0.81323                      89.48882
                      -5.93997                      -0.87854                      89.22888
                      -5.66788                      -0.92655                      89.02766
                      -5.35292                      -0.95423                      88.89778
                      -5.01489                      -0.95986                      88.84742
                      -4.67503                      -0.94307                      88.87973
                      -4.35469                      -0.90492                      88.99268
                      -4.07400                      -0.84781                      89.17919
                      -3.85060                      -0.77533                      89.42752
                      -3.69852                      -0.69203                      89.72208
                      -3.68877                      -0.72378                      90.08262
                      -3.70226                      -0.63910                      90.39675
                      -3.79621                      -0.55974                      90.69826
                      -3.96472                      -0.49069                      90.96820
                      -4.19721                      -0.43629                      91.18961
                      -4.47906                      -0.39995                      91.34858
                      -4.79257                      -0.38396                      91.43512
                      -5.11803                      -0.38932                      91.44378
                      -5.43500                      -0.41569                      91.37404
                      -5.72357                      -0.46142                      91.23026
                      -5.96559                      -0.52364                      91.02149
                      -6.14586                      -0.59843                      90.76084
                      -6.25306                      -0.68110                      90.46469
                      -6.28045                      -0.76645                      90.15164
                      -6.22631                      -0.84912                      89.84137
                      -6.09403                      -0.92392                      89.55338
                      -5.89194                      -0.98613                      89.30575
                      -5.63273                      -1.03187                      89.11405
                      -5.33268                      -1.05824                      88.99032
                      -5.01066                      -1.06360                      88.94234
                      -4.68688                      -1.04761                      88.97313
                      -4.38171                      -1.01127                      89.08073
                      -4.11431                      -0.95686                      89.25841
                      -3.90148                      -0.88781                      89.49499
                      -3.75660                      -0.80846                      89.77560
                      -3.76630                      -0.84441                      90.12229
                      -3.77895                      -0.76499                      90.41691
                      -3.86706                      -0.69056                      90.69969
                      -4.02511                      -0.62580                      90.95287
                      -4.24315                      -0.57478                      91.16052
                      -4.50750                      -0.54069                      91.30962
                      -4.80153                      -0.52569                      91.39078
                      -5.10678                      -0.53072                      91.39891
                      -5.40406                      -0.55546                      91.33349
                      -5.67470                      -0.59835                      91.19865
                      -5.90169                      -0.65670                      91.00285
                      -6.07077                      -0.72685                      90.75838
                      -6.17131                      -0.80438                      90.48063
                      -6.19700                      -0.88443                      90.18703
                      -6.14622                      -0.96197                      89.89603
                      -6.02216                      -1.03211                      89.62592
                      -5.83262                      -1.09047                      89.39368
                      -5.58951                      -1.13336                      89.21389
                      -5.30810                      -1.15810                      89.09784
                      -5.00607                      -1.16312                      89.05284
                      -4.70241                      -1.14812                      89.08171
                      -4.41619                      -1.11404                      89.18264
                      -4.16540                      -1.06301                      89.34928
                      -3.96579                      -0.99825                      89.57116
                      -3.82991                      -0.92383                      89.83434
                      -3.86338                      -0.96504                      90.16367
                      -3.87498                      -0.89216                      90.43404
                      -3.95584                      -0.82386                      90.69354
                      -4.10087                      -0.76443                      90.92586
                      -4.30097                      -0.71761                      91.11642
                      -4.54355                      -0.68633                      91.25324
                      -4.81337                      -0.67257                      91.32772
                      -5.09349                      -0.67718                      91.33518
                      -5.36629                      -0.69988                      91.27515
                      -5.61465                      -0.73924                      91.15141
                      -5.82295                      -0.79279                      90.97173
                      -5.97811                      -0.85716                      90.74739
                      -6.07037                      -0.92831                      90.49251
                      -6.09394                      -1.00177                      90.22308
                      -6.04734                      -1.07292                      89.95604
                      -5.93350                      -1.13729                      89.70818
                      -5.75956                      -1.19084                      89.49505
                      -5.53647                      -1.23020                      89.33006
                      -5.27823                      -1.25290                      89.22358
                      -5.00107                      -1.25751                      89.18228
                      -4.72241                      -1.24374                      89.20877
                      -4.45976                      -1.21247                      89.30139
                      -4.22962                      -1.16564                      89.45431
                      -4.04645                      -1.10622                      89.65792
                      -3.92175                      -1.03792                      89.89943
                      -3.98592                      -1.08567                      90.20728
                      -3.99622                      -1.02099                      90.44721
                      -4.06797                      -0.96038                      90.67749
                      -4.19668                      -0.90765                      90.88366
                      -4.37424                      -0.86609                      91.05276
                      -4.58951                      -0.83834                      91.17418
                      -4.82896                      -0.82612                      91.24027
                      -5.07753                      -0.83022                      91.24689
                      -5.31963                      -0.85036                      91.19362
                      -5.54002                      -0.88529                      91.08381
                      -5.72487                      -0.93281                      90.92436
                      -5.86255                      -0.98993                      90.72528
                      -5.94443                      -1.05307                      90.49909
                      -5.96535                      -1.11826                      90.26000
                      -5.92399                      -1.18140                      90.02303
                      -5.82297                      -1.23852                      89.80307
                      -5.66862                      -1.28604                      89.61394
                      -5.47064                      -1.32097                      89.46753
                      -5.24148                      -1.34112                      89.37303
                      -4.99552                      -1.34521                      89.33638
                      -4.74824                      -1.33300                      89.35989
                      -4.51516                      -1.30524                      89.44208
                      -4.31093                      -1.26369                      89.57778
                      -4.14838                      -1.21095                      89.75847
                      -4.03772                      -1.15034                      89.97280
                      -4.14544                      -1.20630                      90.25413
                      -4.15405                      -1.15225                      90.45464
                      -4.21402                      -1.10160                      90.64709
                      -4.32158                      -1.05752                      90.81938
                      -4.46997                      -1.02280                      90.96071
                      -4.64987                      -0.99960                      91.06217
                      -4.84998                      -0.98939                      91.11741
                      -5.05772                      -0.99281                      91.12294
                      -5.26004                      -1.00965                      91.07842
                      -5.44422                      -1.03884                      90.98665
                      -5.59870                      -1.07855                      90.85340
                      -5.71377                      -1.12629                      90.68703
                      -5.78219                      -1.17906                      90.49800
                      -5.79967                      -1.23354                      90.29819
                      -5.76511                      -1.28630                      90.10015
                      -5.68069                      -1.33404                      89.91632
                      -5.55169                      -1.37375                      89.75827
                      -5.38624                      -1.40294                      89.63591
                      -5.19473                      -1.41978                      89.55693
                      -4.98918                      -1.42320                      89.52631
                      -4.78252                      -1.41299                      89.54596
                      -4.58773                      -1.38980                      89.61464
                      -4.41706                      -1.35507                      89.72805
                      -4.28121                      -1.31100                      89.87905
                      -4.18874                      -1.26035                      90.05816
                      -4.37139                      -1.32693                      90.30679
                      -4.37761                      -1.28785                      90.45175
                      -4.42097                      -1.25123                      90.59089
                      -4.49874                      -1.21936                      90.71547
                      -4.60602                      -1.19426                      90.81764
                      -4.73609                      -1.17749                      90.89100
                      -4.88077                      -1.17011                      90.93094
                      -5.03097                      -1.17258                      90.93494
                      -5.17724                      -1.18475                      90.90275
                      -5.31041                      -1.20586                      90.83640
                      -5.42210                      -1.23457                      90.74006
                      -5.50529                      -1.26908                      90.61977
                      -5.55476                      -1.30723                      90.48310
                      -5.56740                      -1.34662                      90.33864
                      -5.54241                      -1.38477                      90.19546
                      -5.48137                      -1.41929                      90.06255
                      -5.38811                      -1.44800                      89.94828
                      -5.26849                      -1.46910                      89.85981
                      -5.13002                      -1.48127                      89.80272
                      -4.98141                      -1.48375                      89.78057
                      -4.83200                      -1.47637                      89.79478
                      -4.69117                      -1.45960                      89.84444
                      -4.56777                      -1.43449                      89.92643
                      -4.46955                      -1.40262                      90.03561
                      -4.40269                      -1.36600                      90.16510
                      -4.96573                      -1.44756                      90.39167
                      -4.96573                      -1.44756                      90.39167
                      -4.96573                      -1.44756                      90.39167
                      -4.96573                      -1.44756                      90.39167
                      -4.96573                      -1.44756                      90.39167
                      -4.96573                      -1.44756                      90.39167
                      -4.96573                      -1.44756                      90.39167
                      -4.96573                      -1.44756                      90.39167
                      -4.96573                      -1.44756                      90.39167
                      -4.96573                      -1.44756                      90.39167
                      -4.96573                      -1.44756                      90.39167
                      -4.96573                      -1.44756                      90.39167
                      -4.96573                      -1.44756                      90.39167
                      -4.96573                      -1.44756                      90.39167
                      -4.96573                      -1.44756                      90.39167
                      -4.96573                      -1.44756                      90.39167
                      -4.96573                      -1.44756                      90.39167
                      -4.96573                      -1.44756                      90.39167
                      -4.96573                      -1.44756                      90.39167
                      -4.96573                      -1.44756                      90.39167
                      -4.96573                      -1.44756                      90.39167
                      -4.96573                      -1.44756                      90.39167
                      -4.96573                      -1.44756                      90.39167
                      -4.96573                      -1.44756                      90.39167
                      -4.96573                      -1.44756                      90.39167
        </DataArray>
      </Points>
      <Polys>
        <DataArray type="Int32" Name="connectivity" format="ascii">
      0      1     26     25
      1      2     27     26
      2      3     28     27
      3      4     29     28
      4      5     30     29
      5      6     31     30
      6      7     32     31
      7      8     33     32
      8      9     34     33
      9     10     35     34
     10     11     36     35
     11     12     37     36
     12     13     38     37
     13     14     39     38
     14     15     40     39
     15     16     41     40
     16     17     42     41
     17     18     43     42
     18     19     44     43
     19     20     45     44
     20     21     46     45
     21     22     47     46
     22     23     48     47
     23     24     49     48
     24      0     25     49
     25     26     51     50
     26     27     52     51
     27     28     53     52
     28     29     54     53
     29     30     55     54
     30     31     56     55
     31     32     57     56
     32     33     58     57
     33     34     59     58
     34     35     60     59
     35     36     61     60
     36     37     62     61
     37     38     63     62
     38     39     64     63
     39     40     65     64
     40     41     66     65
     41     42     67     66
     42     43     68     67
     43     44     69     68
     44     45     70     69
     45     46     71     70
     46     47     72     71
     47     48     73     72
     48     49     74     73
     49     25     50     74
     50     51     76     75
     51     52     77     76
     52     53     78     77
     53     54     79     78
     54     55     80     79
     55     56     81     80
     56     57     82     81
     57     58     83     82
     58     59     84     83
     59     60     85     84
     60     61     86     85
     61     62     87     86
     62     63     88     87
     63     64     89     88
     64     65     90     89
     65     66     91     90
     66     67     92     91
     67     68     93     92
     68     69     94     93
     69     70     95     94
     70     71     96     95
     71     72     97     96
     72     73     98     97
     73     74     99     98
     74     50     75     99
     75     76    101    100
     76     77    102    101
     77     78    103    102
     78     79    104    103
     79     80    105    104
     80     81    106    105
     81     82    107    106
     82     83    108    107
     83     84    109    108
     84     85    110    109
     85     86    111    110
     86     87    112    111
     87     88    113    112
     88     89    114    113
     89     90    115    114
     90     91    116    115
     91     92    117    116
     92     93    118    117
     93     94    119    118
     94     95    120    119
     95     96    121    120
     96     97    122    121
     97     98    123    122
     98     99    124    123
     99     75    100    124
    100    101    126    125
    101    102    127    126
    102    103    128    127
    103    104    129    128
    104    105    130    129
    105    106    131    130
    106    107    132    131
    107    108    133    132
    108    109    134    133
    109    110    135    134
    110    111    136    135
    111    112    137    136
    112    113    138    137
    113    114    139    138
    114    115    140    139
    115    116    141    140
    116    117    142    141
    117    118    143    142
    118    119    144    143
    119    120    145    144
    120    121    146    145
    121    122    147    146
    122    123    148    147
    123    124    149    148
    124    100    125    149
    125    126    151    150
    126    127    152    151
    127    128    153    152
    128    129    154    153
    129    130    155    154
    130    131    156    155
    131    132    157    156
    132    133    158    157
    133    134    159    158
    134    135    160    159
    135    136    161    160
    136    137    162    161
    137    138    163    162
    138    139    164    163
    139    140    165    164
    140    141    166    165
    141    142    167    166
    142    143    168    167
    143    144    169    168
    144    145    170    169
    145    146    171    170
    146    147    172    171
    147    148    173    172
    148    149    174    173
    149    125    150    174
    150    151    176    175
    151    152    177    176
    152    153    178    177
    153    154    179    178
    154    155    180    179
    155    156    181    180
    156    157    182    181
    157    158    183    182
    158    159    184    183
    159    160    185    184
    160    161    186    185
    161    162    187    186
    162    163    188    187
    163    164    189    188
    164    165    190    189
    165    166    191    190
    166    167    192    191
    167    168    193    192
    168    169    194    193
    169    170    195    194
    170    171    196    195
    171    172    197    196
    172    173    198    197
    173    174    199    198
    174    150    175    199
    175    176    201    200
    176    177    202    201
    177    178    203    202
    178    179    204    203
    179    180    205    204
    180    181    206    205
    181    182    207    206
    182    183    208    207
    183    184    209    208
    184    185    210    209
    185    186    211    210
    186    187    212    211
    187    188    213    212
    188    189    214    213
    189    190    215    214
    190    191    216    215
    191    192    217    216
    192    193    218    217
    193    194    219    218
    194    195    220    219
    195    196    221    220
    196    197    222    221
    197    198    223    222
    198    199    224    223
    199    175    200    224
    200    201    226    225
    201    202    227    226
    202    203    228    227
    203    204    229    228
    204    205    230    229
    205    206    231    230
    206    207    232    231
    207    208    233    232
    208    209    234    233
    209    210    235    234
    210    211    236    235
    211    212    237    236
    212    213    238    237
    213    214    239    238
    214    215    240    239
    215    216    241    240
    216    217    242    241
    217    218    243    242
    218    219    244    243
    219    220    245    244
    220    221    246    245
    221    222    247    246
    222    223    248    247
    223    224    249    248
    224    200    225    249
    225    226    251    250
    226    227    252    251
    227    228    253    252
    228    229    254    253
    229    230    255    254
    230    231    256    255
    231    232    257    256
    232    233    258    257
    233    234    259    258
    234    235    260    259
    235    236    261    260
    236    237    262    261
    237    238    263    262
    238    239    264    263
    239    240    265    264
    240    241    266    265
    241    242    267    266
    242    243    268    267
    243    244    269    268
    244    245    270    269
    245    246    271    270
    246    247    272    271
    247    248    273    272
    248    249    274    273
    249    225    250    274
    250    251    276    275
    251    252    277    276
    252    253    278    277
    253    254    279    278
    254    255    280    279
    255    256    281    280
    256    257    282    281
    257    258    283    282
    258    259    284    283
    259    260    285    284
    260    261    286    285
    261    262    287    286
    262    263    288    287
    263    264    289    288
    264    265    290    289
    265    266    291    290
    266    267    292    291
    267    268    293    292
    268    269    294    293
    269    270    295    294
    270    271    296    295
    271    272    297    296
    272    273    298    297
    273    274    299    298
    274    250    275    299
    275    276    301    300
    276    277    302    301
    277    278    303    302
    278    279    304    303
    279    280    305    304
    280    281    306    305
    281    282    307    306
    282    283    308    307
    283    284    309    308
    284    285    310    309
    285    286    311    310
    286    287    312    311
    287    288    313    312
    288    289    314    313
    289    290    315    314
    290    291    316    315
    291    292    317    316
    292    293    318    317
    293    294    319    318
    294    295    320    319
    295    296    321    320
    296    297    322    321
    297    298    323    322
    298    299    324    323
    299    275    300    324
    300    301    326    325
    301    302    327    326
    302    303    328    327
    303    304    329    328
    304    305    330    329
    305    306    331    330
    306    307    332    331
    307    308    333    332
    308    309    334    333
    309    310    335    334
    310    311    336    335
    311    312    337    336
    312    313    338    337
    313    314    339    338
    314    315    340    339
    315    316    341    340
    316    317    342    341
    317    318    343    342
    318    319    344    343
    319    320    345    344
    320    321    346    345
    321    322    347    346
    322    323    348    347
    323    324    349    348
    324    300    325    349
    325    326    351    350
    326    327    352    351
    327    328    353    352
    328    329    354    353
    329    330    355    354
    330    331    356    355
    331    332    357    356
    332    333    358    357
    333    334    359    358
    334    335    360    359
    335    336    361    360
    336    337    362    361
    337    338    363    362
    338    339    364    363
    339    340    365    364
    340    341    366    365
    341    342    367    366
    342    343    368    367
    343    344    369    368
    344    345    370    369
    345    346    371    370
    346    347    372    371
    347    348    373    372
    348    349    374    373
    349    325    350    374
    350    351    376    375
    351    352    377    376
    352    353    378    377
    353    354    379    378
    354    355    380    379
    355    356    381    380
    356    357    382    381
    357    358    383    382
    358    359    384    383
    359    360    385    384
    360    361    386    385
    361    362    387    386
    362    363    388    387
    363    364    389    388
    364    365    390    389
    365    366    391    390
    366    367    392    391
    367    368    393    392
    368    369    394    393
    369    370    395    394
    370    371    396    395
    371    372    397    396
    372    373    398    397
    373    374    399    398
    374    350    375    399
    375    376    401    400
    376    377    402    401
    377    378    403    402
    378    379    404    403
    379    380    405    404
    380    381    406    405
    381    382    407    406
    382    383    408    407
    383    384    409    408
    384    385    410    409
    385    386    411    410
    386    387    412    411
    387    388    413    412
    388    389    414    413
    389    390    415    414
    390    391    416    415
    391    392    417    416
    392    393    418    417
    393    394    419    418
    394    395    420    419
    395    396    421    420
    396    397    422    421
    397    398    423    422
    398    399    424    423
    399    375    400    424
    400    401    426    425
    401    402    427    426
    402    403    428    427
    403    404    429    428
    404    405    430    429
    405    406    431    430
    406    407    432    431
    407    408    433    432
    408    409    434    433
    409    410    435    434
    410    411    436    435
    411    412    437    436
    412    413    438    437
    413    414    439    438
    414    415    440    439
    415    416    441    440
    416    417    442    441
    417    418    443    442
    418    419    444    443
    419    420    445    444
    420    421    446    445
    421    422    447    446
    422    423    448    447
    423    424    449    448
    424    400    425    449
    425    426    451    450
    426    427    452    451
    427    428    453    452
    428    429    454    453
    429    430    455    454
    430    431    456    455
    431    432    457    456
    432    433    458    457
    433    434    459    458
    434    435    460    459
    435    436    461    460
    436    437    462    461
    437    438    463    462
    438    439    464    463
    439    440    465    464
    440    441    466    465
    441    442    467    466
    442    443    468    467
    443    444    469    468
    444    445    470    469
    445    446    471    470
    446    447    472    471
    447    448    473    472
    448    449    474    473
    449    425    450    474
    450    451    476    475
    451    452    477    476
    452    453    478    477
    453    454    479    478
    454    455    480    479
    455    456    481    480
    456    457    482    481
    457    458    483    482
    458    459    484    483
    459    460    485    484
    460    461    486    485
    461    462    487    486
    462    463    488    487
    463    464    489    488
    464    465    490    489
    465    466    491    490
    466    467    492    491
    467    468    493    492
    468    469    494    493
    469    470    495    494
    470    471    496    495
    471    472    497    496
    472    473    498    497
    473    474    499    498
    474    450    475    499
    475    476    501    500
    476    477    502    501
    477    478    503    502
    478    479    504    503
    479    480    505    504
    480    481    506    505
    481    482    507    506
    482    483    508    507
    483    484    509    508
    484    485    510    509
    485    486    511    510
    486    487    512    511
    487    488    513    512
    488    489    514    513
    489    490    515    514
    490    491    516    515
    491    492    517    516
    492    493    518    517
    493    494    519    518
    494    495    520    519
    495    496    521    520
    496    497    522    521
    497    498    523    522
    498    499    524    523
    499    475    500    524
    500    501    526    525
    501    502    527    526
    502    503    528    527
    503    504    529    528
    504    505    530    529
    505    506    531    530
    506    507    532    531
    507    508    533    532
    508    509    534    533
    509    510    535    534
    510    511    536    535
    511    512    537    536
    512    513    538    537
    513    514    539    538
    514    515    540    539
    515    516    541    540
    516    517    542    541
    517    518    543    542
    518    519    544    543
    519    520    545    544
    520    521    546    545
    521    522    547    546
    522    523    548    547
    523    524    549    548
    524    500    525    549
    525    526    551    550
    526    527    552    551
    527    528    553    552
    528    529    554    553
    529    530    555    554
    530    531    556    555
    531    532    557    556
    532    533    558    557
    533    534    559    558
    534    535    560    559
    535    536    561    560
    536    537    562    561
    537    538    563    562
    538    539    564    563
    539    540    565    564
    540    541    566    565
    541    542    567    566
    542    543    568    567
    543    544    569    568
    544    545    570    569
    545    546    571    570
    546    547    572    571
    547    548    573    572
    548    549    574    573
    549    525    550    574
    550    551    576    575
    551    552    577    576
    552    553    578    577
    553    554    579    578
    554    555    580    579
    555    556    581    580
    556    557    582    581
    557    558    583    582
    558    559    584    583
    559    560    585    584
    560    561    586    585
    561    562    587    586
    562    563    588    587
    563    564    589    588
    564    565    590    589
    565    566    591    590
    566    567    592    591
    567    568    593    592
    568    569    594    593
    569    570    595    594
    570    571    596    595
    571    572    597    596
    572    573    598    597
    573    574    599    598
    574    550    575    599
    575    576    601    600
    576    577    602    601
    577    578    603    602
    578    579    604    603
    579    580    605    604
    580    581    606    605
    581    582    607    606
    582    583    608    607
    583    584    609    608
    584    585    610    609
    585    586    611    610
    586    587    612    611
    587    588    613    612
    588    589    614    613
    589    590    615    614
    590    591    616    615
    591    592    617    616
    592    593    618    617
    593    594    619    618
    594    595    620    619
    595    596    621    620
    596    597    622    621
    597    598    623    622
    598    599    624    623
    599    575    600    624
        </DataArray>
        <DataArray type="Int32" Name="offsets" format="ascii">
      4
      8
     12
     16
     20
     24
     28
     32
     36
     40
     44
     48
     52
     56
     60
     64
     68
     72
     76
     80
     84
     88
     92
     96
    100
    104
    108
    112
    116
    120
    124
    128
    132
    136
    140
    144
    148
    152
    156
    160
    164
    168
    172
    176
    180
    184
    188
    192
    196
    200
    204
    208
    212
    216
    220
    224
    228
    232
    236
    240
    244
    248
    252
    256
    260
    264
    268
    272
    276
    280
    284
    288
    292
    296
    300
    304
    308
    312
    316
    320
    324
    328
    332
    336
    340
    344
    348
    352
    356
    360
    364
    368
    372
    376
    380
    384
    388
    392
    396
    400
    404
    408
    412
    416
    420
    424
    428
    432
    436
    440
    444
    448
    452
    456
    460
    464
    468
    472
    476
    480
    484
    488
    492
    496
    500
    504
    508
    512
    516
    520
    524
    528
    532
    536
    540
    544
    548
    552
    556
    560
    564
    568
    572
    576
    580
    584
    588
    592
    596
    600
    604
    608
    612
    616
    620
    624
    628
    632
    636
    640
    644
    648
    652
    656
    660
    664
    668
    672
    676
    680
    684
    688
    692
    696
    700
    704
    708
    712
    716
    720
    724
    728
    732
    736
    740
    744
    748
    752
    756
    760
    764
    768
    772
    776
    780
    784
    788
    792
    796
    800
    804
    808
    812
    816
    820
    824
    828
    832
    836
    840
    844
    848
    852
    856
    860
    864
    868
    872
    876
    880
    884
    888
    892
    896
    900
    904
    908
    912
    916
    920
    924
    928
    932
    936
    940
    944
    948
    952
    956
    960
    964
    968
    972
    976
    980
    984
    988
    992
    996
   1000
   1004
   1008
   1012
   1016
   1020
   1024
   1028
   1032
   1036
   1040
   1044
   1048
   1052
   1056
   1060
   1064
   1068
   1072
   1076
   1080
   1084
   1088
   1092
   1096
   1100
   1104
   1108
   1112
   1116
   1120
   1124
   1128
   1132
   1136
   1140
   1144
   1148
   1152
   1156
   1160
   1164
   1168
   1172
   1176
   1180
   1184
   1188
   1192
   1196
   1200
   1204
   1208
   1212
   1216
   1220
   1224
   1228
   1232
   1236
   1240
   1244
   1248
   1252
   1256
   1260
   1264
   1268
   1272
   1276
   1280
   1284
   1288
   1292
   1296
   1300
   1304
   1308
   1312
   1316
   1320
   1324
   1328
   1332
   1336
   1340
   1344
   1348
   1352
   1356
   1360
   1364
   1368
   1372
   1376
   1380
   1384
   1388
   1392
   1396
   1400
   1404
   1408
   1412
   1416
   1420
   1424
   1428
   1432
   1436
   1440
   1444
   1448
   1452
   1456
   1460
   1464
   1468
   1472
   1476
   1480
   1484
   1488
   1492
   1496
   1500
   1504
   1508
   1512
   1516
   1520
   1524
   1528
   1532
   1536
   1540
   1544
   1548
   1552
   1556
   1560
   1564
   1568
   1572
   1576
   1580
   1584
   1588
   1592
   1596
   1600
   1604
   1608
   1612
   1616
   1620
   1624
   1628
   1632
   1636
   1640
   1644
   1648
   1652
   1656
   1660
   1664
   1668
   1672
   1676
   1680
   1684
   1688
   1692
   1696
   1700
   1704
   1708
   1712
   1716
   1720
   1724
   1728
   1732
   1736
   1740
   1744
   1748
   1752
   1756
   1760
   1764
   1768
   1772
   1776
   1780
   1784
   1788
   1792
   1796
   1800
   1804
   1808
   1812
   1816
   1820
   1824
   1828
   1832
   1836
   1840
   1844
   1848
   1852
   1856
   1860
   1864
   1868
   1872
   1876
   1880
   1884
   1888
   1892
   1896
   1900
   1904
   1908
   1912
   1916
   1920
   1924
   1928
   1932
   1936
   1940
   1944
   1948
   1952
   1956
   1960
   1964
   1968
   1972
   1976
   1980
   1984
   1988
   1992
   1996
   2000
   2004
   2008
   2012
   2016
   2020
   2024
   2028
   2032
   2036
   2040
   2044
   2048
   2052
   2056
   2060
   2064
   2068
   2072
   2076
   2080
   2084
   2088
   2092
   2096
   2100
   2104
   2108
   2112
   2116
   2120
   2124
   2128
   2132
   2136
   2140
   2144
   2148
   2152
   2156
   2160
   2164
   2168
   2172
   2176
   2180
   2184
   2188
   2192
   2196
   2200
   2204
   2208
   2212
   2216
   2220
   2224
   2228
   2232
   2236
   2240
   2244
   2248
   2252
   2256
   2260
   2264
   2268
   2272
   2276
   2280
   2284
   2288
   2292
   2296
   2300
   2304
   2308
   2312
   2316
   2320
   2324
   2328
   2332
   2336
   2340
   2344
   2348
   2352
   2356
   2360
   2364
   2368
   2372
   2376
   2380
   2384
   2388
   2392
   2396
   2400
        </DataArray>
      </Polys>
    </Piece>
  </PolyData>
</VTKFile>
