<?xml version="1.0"?>
<VTKFile type="PolyData" version="0.1" byte_order="LittleEndian">
  <PolyData>
    <Piece NumberOfPoints="     19" NumberOfVerts="  0" NumberOfLines="     18"
           NumberOfStrips="  0" NumberOfPolys="      0">
      <Points>
        <DataArray type="Float32" NumberOfComponents="3" format="ascii">
                      -4.94556                       0.60173                      91.37294
                      -4.89666                       1.14682                      92.62528
                      -4.81790                       2.14986                      95.16881
                      -4.74817                       3.11165                      97.73078
                      -4.66639                       4.28928                     100.94431
                      -4.52042                       5.83438                     104.74079
                      -4.35498                       7.49898                     108.48411
                      -4.19191                       9.16591                     112.22651
                      -4.02887                      10.83685                     115.96715
                      -3.86663                      12.51005                     119.70684
                      -3.70640                      14.18213                     123.44709
                      -3.54749                      15.85447                     127.18729
                      -3.39055                      17.52705                     130.92746
                      -3.23630                      19.19981                     134.66765
                      -3.08298                      20.87265                     138.40785
                      -2.95586                      22.26674                     141.52471
                      -2.85498                      23.38923                     144.01501
                      -2.75735                      24.56209                     146.48336
                      -2.70776                      25.11031                     147.73420
        </DataArray>
      </Points>
      <PointData>
        <DataArray type="Float32" Name="TranslationalVelocity" NumberOfComponents="3" format="ascii">
                       0.11061                      -2.89471                       1.26431
                       0.21081                      -5.53502                       2.40961
                       0.39520                     -10.89375                       4.51711
                       0.57200                     -16.28956                       6.53794
                       0.78847                     -23.05661                       9.01228
                       1.07250                     -31.06029                      12.25872
                       1.37849                     -38.95587                      15.75625
                       1.68491                     -46.84907                      19.25866
                       1.99207                     -54.73857                      22.76951
                       2.29965                     -62.62592                      26.28510
                       2.60702                     -70.51409                      29.79834
                       2.91443                     -78.40190                      33.31211
                       3.22189                     -86.28928                      36.82640
                       3.52939                     -94.17622                      40.34107
                       3.83689                    -102.06300                      43.85590
                       4.09316                    -108.63527                      46.78506
                       4.29950                    -113.88623                      49.14354
                       4.51510                    -119.09047                      51.60785
                       4.61588                    -121.72774                      52.75972
        </DataArray>
        <DataArray type="Float32" Name="RotationalVelocity" NumberOfComponents="3" format="ascii">
                       2.10112                      -0.00000                      -0.18382
                       2.10112                      -0.00000                      -0.18382
                       2.10112                      -0.00000                      -0.18382
                       2.10112                      -0.00000                      -0.18382
                       2.10112                      -0.00000                      -0.18382
                       2.10112                      -0.00000                      -0.18382
                       2.10112                      -0.00000                      -0.18382
                       2.10112                      -0.00000                      -0.18382
                       2.10112                      -0.00000                      -0.18382
                       2.10112                      -0.00000                      -0.18382
                       2.10112                      -0.00000                      -0.18382
                       2.10112                      -0.00000                      -0.18382
                       2.10112                      -0.00000                      -0.18382
                       2.10112                      -0.00000                      -0.18382
                       2.10112                      -0.00000                      -0.18382
                       2.10112                      -0.00000                      -0.18382
                       2.10112                      -0.00000                      -0.18382
                       2.10112                      -0.00000                      -0.18382
                       2.10112                      -0.00000                      -0.18382
        </DataArray>
        <DataArray type="Float32" Name="TranslationalAcceleration" NumberOfComponents="3" format="ascii">
                      -0.53014                      -2.72856                      -6.05952
                      -1.01370                      -5.20059                     -11.58666
                      -1.99547                      -9.75840                     -22.80830
                      -2.98419                     -14.13339                     -34.10940
                      -4.22426                     -19.49305                     -48.28354
                      -5.69045                     -26.50952                     -65.04216
                      -7.13638                     -34.05566                     -81.56918
                      -8.58186                     -41.61210                     -98.09111
                     -10.02665                     -49.18634                    -114.60511
                     -11.47103                     -56.77057                    -131.11450
                     -12.91557                     -64.34982                    -147.62568
                     -14.36004                     -71.93023                    -164.13606
                     -15.80444                     -79.51170                    -180.64555
                     -17.24875                     -87.09397                    -197.15412
                     -18.69303                     -94.67660                    -213.66233
                     -19.89659                    -100.99573                    -227.41907
                     -20.85815                    -106.08298                    -238.40978
                     -21.81096                    -111.39347                    -249.30046
                     -22.29396                    -113.87937                    -254.82108
        </DataArray>
        <DataArray type="Float32" Name="OrientationX" NumberOfComponents="3" format="ascii">
                       0.99873                       0.01751                      -0.04728
                       0.99873                       0.01751                      -0.04728
                       0.99873                       0.01751                      -0.04728
                       0.99873                       0.01751                      -0.04728
                       0.99873                       0.01751                      -0.04728
                       0.99873                       0.01751                      -0.04728
                       0.99873                       0.01751                      -0.04728
                       0.99873                       0.01751                      -0.04728
                       0.99873                       0.01751                      -0.04728
                       0.99873                       0.01751                      -0.04728
                       0.99873                       0.01751                      -0.04728
                       0.99873                       0.01751                      -0.04728
                       0.99873                       0.01751                      -0.04728
                       0.99873                       0.01751                      -0.04728
                       0.99873                       0.01751                      -0.04728
                       0.99873                       0.01751                      -0.04728
                       0.99873                       0.01751                      -0.04728
                       0.99873                       0.01751                      -0.04728
                       0.99873                       0.01751                      -0.04728
        </DataArray>
        <DataArray type="Float32" Name="OrientationY" NumberOfComponents="3" format="ascii">
                      -0.03500                       0.91584                      -0.40001
                      -0.03500                       0.91584                      -0.40001
                      -0.03500                       0.91584                      -0.40001
                      -0.03500                       0.91584                      -0.40001
                      -0.03500                       0.91584                      -0.40001
                      -0.03500                       0.91584                      -0.40001
                      -0.03500                       0.91584                      -0.40001
                      -0.03500                       0.91584                      -0.40001
                      -0.03500                       0.91584                      -0.40001
                      -0.03500                       0.91584                      -0.40001
                      -0.03500                       0.91584                      -0.40001
                      -0.03500                       0.91584                      -0.40001
                      -0.03500                       0.91584                      -0.40001
                      -0.03500                       0.91584                      -0.40001
                      -0.03500                       0.91584                      -0.40001
                      -0.03500                       0.91584                      -0.40001
                      -0.03500                       0.91584                      -0.40001
                      -0.03500                       0.91584                      -0.40001
                      -0.03500                       0.91584                      -0.40001
        </DataArray>
        <DataArray type="Float32" Name="OrientationZ" NumberOfComponents="3" format="ascii">
                       0.03629                       0.40116                       0.91529
                       0.03629                       0.40116                       0.91529
                       0.03629                       0.40116                       0.91529
                       0.03629                       0.40116                       0.91529
                       0.03629                       0.40116                       0.91529
                       0.03629                       0.40116                       0.91529
                       0.03629                       0.40116                       0.91529
                       0.03629                       0.40116                       0.91529
                       0.03629                       0.40116                       0.91529
                       0.03629                       0.40116                       0.91529
                       0.03629                       0.40116                       0.91529
                       0.03629                       0.40116                       0.91529
                       0.03629                       0.40116                       0.91529
                       0.03629                       0.40116                       0.91529
                       0.03629                       0.40116                       0.91529
                       0.03629                       0.40116                       0.91529
                       0.03629                       0.40116                       0.91529
                       0.03629                       0.40116                       0.91529
                       0.03629                       0.40116                       0.91529
        </DataArray>
        <DataArray type="Float32" Name="Force" NumberOfComponents="3" format="ascii">
                      -0.28489                       7.45556                      -3.25634
                     170.83633                      77.27156                     -40.64045
                     229.91412                     208.57734                    -100.53188
                     217.79184                     298.71722                    -139.55792
                    2769.70487                    -337.01254                      37.88691
                    3561.65952                    -305.07146                      -7.51354
                    4401.30750                    -270.78335                     -55.83370
                    5943.87484                    -266.54626                    -118.85401
                    6454.57519                    -171.16626                    -180.90678
                    7425.88394                    -145.76521                    -230.55229
                    9103.24610                     -97.41888                    -318.24954
                   10199.57461                     -74.96770                    -371.55925
                   11609.68650                    -157.31575                    -391.37895
                   12540.31013                    -153.47958                    -429.95979
                   13367.15782                    -158.31949                    -460.62330
                   13909.67692                    -164.50925                    -479.42149
                   13797.54459                    -164.04714                    -475.17794
                   10484.93600                    -147.09991                    -351.25967
                    6710.87120                     208.26148                    -357.36537
        </DataArray>
        <DataArray type="Float32" Name="Moment" NumberOfComponents="3" format="ascii">
                       0.00000                       0.00000                       0.00000
                       0.00000                       0.00000                       0.00000
                       0.00000                       0.00000                       0.00000
                       0.00000                       0.00000                       0.00000
                     -30.74258                    -339.81882                    -775.34274
                     -64.39920                    -711.84864                   -1624.17925
                     -89.14667                    -985.39942                   -2248.32244
                    -130.15767                   -1438.72219                   -3282.63984
                    -182.61968                   -2018.62078                   -4605.75714
                    -207.11294                   -2289.36159                   -5223.48902
                    -224.22615                   -2478.52567                   -5655.09255
                    -238.74799                   -2639.04558                   -6021.34050
                    -202.71947                   -2240.79758                   -5112.68365
                    -203.16127                   -2245.68107                   -5123.82599
                    -197.90827                   -2187.61610                   -4991.34289
                    -189.20351                   -2091.39637                   -4771.80452
                    -169.17304                   -1869.98578                   -4266.62622
                     -85.99335                    -950.54359                   -2168.79415
                     -79.42099                    -877.89481                   -2003.03611
        </DataArray>
      </PointData>
      <Lines>
        <DataArray type="Int32" Name="connectivity" format="ascii">
      0      1
      1      2
      2      3
      3      4
      4      5
      5      6
      6      7
      7      8
      8      9
      9     10
     10     11
     11     12
     12     13
     13     14
     14     15
     15     16
     16     17
     17     18
        </DataArray>
        <DataArray type="Int32" Name="offsets" format="ascii">
      2
      4
      6
      8
     10
     12
     14
     16
     18
     20
     22
     24
     26
     28
     30
     32
     34
     36
        </DataArray>
      </Lines>
    </Piece>
  </PolyData>
</VTKFile>
