<?xml version="1.0"?>
<VTKFile type="PolyData" version="0.1" byte_order="LittleEndian">
  <PolyData>
    <Piece NumberOfPoints="     19" NumberOfVerts="  0" NumberOfLines="     18"
           NumberOfStrips="  0" NumberOfPolys="      0">
      <Points>
        <DataArray type="Float32" NumberOfComponents="3" format="ascii">
                      -4.98637                       1.19502                      90.90650
                      -4.97453                       2.28174                      91.73522
                      -4.96660                       4.39719                      93.46918
                      -4.96613                       6.48522                      95.23941
                      -4.97001                       9.07894                      97.47390
                      -4.93183                      12.27954                     100.03838
                      -4.87869                      15.55943                     102.49810
                      -4.82801                      18.84080                     104.95591
                      -4.77751                      22.12482                     107.41024
                      -4.72789                      25.41031                     109.86264
                      -4.68023                      28.69501                     112.31610
                      -4.63391                      31.97985                     114.76940
                      -4.58957                      35.26481                     117.22259
                      -4.54792                      38.54982                     119.67573
                      -4.50721                      41.83486                     122.12885
                      -4.47392                      44.57244                     124.17312
                      -4.44839                      46.76721                     125.80226
                      -4.42800                      48.99514                     127.38776
                      -4.41558                      50.08389                     128.21364
        </DataArray>
      </Points>
      <PointData>
        <DataArray type="Float32" Name="TranslationalVelocity" NumberOfComponents="3" format="ascii">
                       0.26583                      -2.30791                       3.03850
                       0.50758                      -4.41769                       5.80163
                       0.97816                      -8.82828                      11.18044
                       1.44265                     -13.32941                      16.48952
                       2.01962                     -19.01002                      23.08438
                       2.73160                     -25.53904                      31.22233
                       3.46122                     -31.80503                      39.56188
                       4.19116                     -38.06561                      47.90519
                       4.92170                     -44.31728                      56.25524
                       5.65256                     -50.56387                      64.60902
                       6.38324                     -56.81273                      72.96080
                       7.11396                     -63.06087                      81.31294
                       7.84470                     -69.30827                      89.66537
                       8.57546                     -75.55497                      98.01794
                       9.30622                     -81.80140                     106.37059
                       9.91520                     -87.00664                     113.33125
                      10.40343                     -91.15460                     118.91174
                      10.89903                     -95.19048                     124.57653
                      11.14123                     -97.29314                     127.34481
        </DataArray>
        <DataArray type="Float32" Name="RotationalVelocity" NumberOfComponents="3" format="ascii">
                       2.54263                      -0.00000                      -0.22245
                       2.54263                      -0.00000                      -0.22245
                       2.54263                      -0.00000                      -0.22245
                       2.54263                      -0.00000                      -0.22245
                       2.54263                      -0.00000                      -0.22245
                       2.54263                      -0.00000                      -0.22245
                       2.54263                      -0.00000                      -0.22245
                       2.54263                      -0.00000                      -0.22245
                       2.54263                      -0.00000                      -0.22245
                       2.54263                      -0.00000                      -0.22245
                       2.54263                      -0.00000                      -0.22245
                       2.54263                      -0.00000                      -0.22245
                       2.54263                      -0.00000                      -0.22245
                       2.54263                      -0.00000                      -0.22245
                       2.54263                      -0.00000                      -0.22245
                       2.54263                      -0.00000                      -0.22245
                       2.54263                      -0.00000                      -0.22245
                       2.54263                      -0.00000                      -0.22245
                       2.54263                      -0.00000                      -0.22245
        </DataArray>
        <DataArray type="Float32" Name="TranslationalAcceleration" NumberOfComponents="3" format="ascii">
                      -0.51247                      -7.79296                      -5.85759
                      -0.98095                     -14.87968                     -11.21236
                      -1.96046                     -28.67604                     -22.40813
                      -2.96012                     -42.29407                     -33.83436
                      -4.22177                     -59.21048                     -48.25511
                      -5.67169                     -80.08336                     -64.82766
                      -7.06302                    -101.47187                     -80.73074
                      -8.45316                    -122.86999                     -96.62006
                      -9.84131                    -144.28534                    -112.48668
                     -11.22833                    -165.71024                    -128.34036
                     -12.61585                    -187.13002                    -144.19983
                     -14.00321                    -208.55072                    -160.05748
                     -15.39041                    -229.97215                    -175.91323
                     -16.77746                    -251.39396                    -191.76723
                     -18.16444                    -272.81597                    -207.62052
                     -19.32023                    -290.66792                    -220.83129
                     -20.24125                    -304.98009                    -231.35860
                     -21.13732                    -319.50784                    -241.60064
                     -21.60421                    -326.60775                    -246.93729
        </DataArray>
        <DataArray type="Float32" Name="OrientationX" NumberOfComponents="3" format="ascii">
                       0.99754                       0.03478                      -0.06085
                       0.99754                       0.03478                      -0.06085
                       0.99754                       0.03478                      -0.06085
                       0.99754                       0.03478                      -0.06085
                       0.99754                       0.03478                      -0.06085
                       0.99754                       0.03478                      -0.06085
                       0.99754                       0.03478                      -0.06085
                       0.99754                       0.03478                      -0.06085
                       0.99754                       0.03478                      -0.06085
                       0.99754                       0.03478                      -0.06085
                       0.99754                       0.03478                      -0.06085
                       0.99754                       0.03478                      -0.06085
                       0.99754                       0.03478                      -0.06085
                       0.99754                       0.03478                      -0.06085
                       0.99754                       0.03478                      -0.06085
                       0.99754                       0.03478                      -0.06085
                       0.99754                       0.03478                      -0.06085
                       0.99754                       0.03478                      -0.06085
                       0.99754                       0.03478                      -0.06085
        </DataArray>
        <DataArray type="Float32" Name="OrientationY" NumberOfComponents="3" format="ascii">
                      -0.06950                       0.60340                      -0.79441
                      -0.06950                       0.60340                      -0.79441
                      -0.06950                       0.60340                      -0.79441
                      -0.06950                       0.60340                      -0.79441
                      -0.06950                       0.60340                      -0.79441
                      -0.06950                       0.60340                      -0.79441
                      -0.06950                       0.60340                      -0.79441
                      -0.06950                       0.60340                      -0.79441
                      -0.06950                       0.60340                      -0.79441
                      -0.06950                       0.60340                      -0.79441
                      -0.06950                       0.60340                      -0.79441
                      -0.06950                       0.60340                      -0.79441
                      -0.06950                       0.60340                      -0.79441
                      -0.06950                       0.60340                      -0.79441
                      -0.06950                       0.60340                      -0.79441
                      -0.06950                       0.60340                      -0.79441
                      -0.06950                       0.60340                      -0.79441
                      -0.06950                       0.60340                      -0.79441
                      -0.06950                       0.60340                      -0.79441
        </DataArray>
        <DataArray type="Float32" Name="OrientationZ" NumberOfComponents="3" format="ascii">
                       0.00909                       0.79668                       0.60433
                       0.00909                       0.79668                       0.60433
                       0.00909                       0.79668                       0.60433
                       0.00909                       0.79668                       0.60433
                       0.00909                       0.79668                       0.60433
                       0.00909                       0.79668                       0.60433
                       0.00909                       0.79668                       0.60433
                       0.00909                       0.79668                       0.60433
                       0.00909                       0.79668                       0.60433
                       0.00909                       0.79668                       0.60433
                       0.00909                       0.79668                       0.60433
                       0.00909                       0.79668                       0.60433
                       0.00909                       0.79668                       0.60433
                       0.00909                       0.79668                       0.60433
                       0.00909                       0.79668                       0.60433
                       0.00909                       0.79668                       0.60433
                       0.00909                       0.79668                       0.60433
                       0.00909                       0.79668                       0.60433
                       0.00909                       0.79668                       0.60433
        </DataArray>
        <DataArray type="Float32" Name="Force" NumberOfComponents="3" format="ascii">
                      -0.67363                       5.84831                      -7.69965
                     170.81553                      64.01162                     -86.95415
                     236.85853                     181.80724                    -243.23607
                     226.59771                     269.93028                    -359.25367
                    2894.90528                     -92.31413                      78.17258
                    3649.09310                     -24.03831                     -23.17394
                    4570.08960                      25.72701                    -102.62614
                    6403.56010                      85.16420                    -208.54758
                    7107.06569                     166.18372                    -325.93200
                    8266.70901                     220.36072                    -414.78811
                   10512.79854                     332.65904                    -596.59956
                   11904.08436                     394.01034                    -698.39619
                   13316.89733                     392.34970                    -717.44836
                   14447.70922                     431.80308                    -786.46096
                   15457.99482                     460.47464                    -839.44789
                   16179.98090                     475.28822                    -869.83144
                   16367.13276                     462.34017                    -855.57593
                   13125.39335                     313.26209                    -610.30861
                    9769.82438                     427.98672                    -711.09876
        </DataArray>
        <DataArray type="Float32" Name="Moment" NumberOfComponents="3" format="ascii">
                       0.00000                       0.00000                       0.00000
                       0.00000                       0.00000                       0.00000
                       0.00000                       0.00000                       0.00000
                       0.00000                       0.00000                       0.00000
                     -10.74906                    -942.50554                    -714.94469
                     -21.52853                   -1887.67753                   -1431.91204
                     -29.70914                   -2604.97446                   -1976.02304
                     -44.56807                   -3907.84458                   -2964.32500
                     -63.66393                   -5582.21865                   -4234.43409
                     -72.46987                   -6354.34645                   -4820.13746
                     -79.31453                   -6954.50376                   -5275.39132
                     -84.62891                   -7420.48295                   -5628.86334
                     -69.75007                   -6115.86756                   -4639.23749
                     -69.99103                   -6136.99507                   -4655.26393
                     -68.28328                   -5987.25560                   -4541.67792
                     -65.40870                   -5735.20485                   -4350.48292
                     -58.77860                   -5153.86071                   -3909.49994
                     -30.31686                   -2658.26126                   -2016.44414
                     -28.99714                   -2542.54425                   -1928.66613
        </DataArray>
      </PointData>
      <Lines>
        <DataArray type="Int32" Name="connectivity" format="ascii">
      0      1
      1      2
      2      3
      3      4
      4      5
      5      6
      6      7
      7      8
      8      9
      9     10
     10     11
     11     12
     12     13
     13     14
     14     15
     15     16
     16     17
     17     18
        </DataArray>
        <DataArray type="Int32" Name="offsets" format="ascii">
      2
      4
      6
      8
     10
     12
     14
     16
     18
     20
     22
     24
     26
     28
     30
     32
     34
     36
        </DataArray>
      </Lines>
    </Piece>
  </PolyData>
</VTKFile>
