<?xml version="1.0"?>
<VTKFile type="PolyData" version="0.1" byte_order="LittleEndian">
  <PolyData>
    <Piece NumberOfPoints="     19" NumberOfVerts="  0" NumberOfLines="     18"
           NumberOfStrips="  0" NumberOfPolys="      0">
      <Points>
        <DataArray type="Float32" NumberOfComponents="3" format="ascii">
                      -5.19225                      -0.34647                      88.55328
                      -5.36830                      -0.65879                      87.23444
                      -5.74448                      -1.19108                      84.57794
                      -6.13209                      -1.67964                      81.91249
                      -6.62343                      -2.26424                      78.57526
                      -7.15769                      -3.10547                      74.59672
                      -7.66547                      -4.07346                      70.64502
                      -8.17547                      -5.04393                      66.69421
                      -8.68526                      -6.01866                      62.74440
                      -9.19571                      -6.99580                      58.79525
                      -9.70821                      -7.97176                      54.84609
                     -10.22201                      -8.94802                      50.89717
                     -10.73775                      -9.92454                      46.94857
                     -11.25614                     -10.90128                      43.00038
                     -11.77546                     -11.87811                      39.05233
                     -12.20886                     -12.69221                      35.76236
                     -12.55596                     -13.35116                      33.13233
                     -12.90326                     -14.06362                      30.51515
                     -13.07841                     -14.37928                      29.19709
        </DataArray>
      </Points>
      <PointData>
        <DataArray type="Float32" Name="TranslationalVelocity" NumberOfComponents="3" format="ascii">
                      -0.03216                       1.55288                      -0.36762
                      -0.06116                       2.96856                      -0.69901
                      -0.11057                       5.82214                      -1.26379
                      -0.15592                       8.68627                      -1.78217
                      -0.21019                      12.27283                      -2.40245
                      -0.28828                      16.54381                      -3.29504
                      -0.37814                      20.78387                      -4.32211
                      -0.46822                      25.02318                      -5.35181
                      -0.55871                      29.26142                      -6.38605
                      -0.64941                      33.49902                      -7.42283
                      -0.74001                      37.73682                      -8.45837
                      -0.83064                      41.97448                      -9.49421
                      -0.92129                      46.21198                     -10.53035
                      -1.01196                      50.44930                     -11.56671
                      -1.10263                      54.68654                     -12.60317
                      -1.17821                      58.21757                     -13.46695
                      -1.23938                      61.04036                     -14.16613
                      -1.30551                      63.84954                     -14.92209
                      -1.33482                      65.26432                     -15.25701
        </DataArray>
        <DataArray type="Float32" Name="RotationalVelocity" NumberOfComponents="3" format="ascii">
                       1.06104                      -0.00000                      -0.09283
                       1.06104                      -0.00000                      -0.09283
                       1.06104                      -0.00000                      -0.09283
                       1.06104                      -0.00000                      -0.09283
                       1.06104                      -0.00000                      -0.09283
                       1.06104                      -0.00000                      -0.09283
                       1.06104                      -0.00000                      -0.09283
                       1.06104                      -0.00000                      -0.09283
                       1.06104                      -0.00000                      -0.09283
                       1.06104                      -0.00000                      -0.09283
                       1.06104                      -0.00000                      -0.09283
                       1.06104                      -0.00000                      -0.09283
                       1.06104                      -0.00000                      -0.09283
                       1.06104                      -0.00000                      -0.09283
                       1.06104                      -0.00000                      -0.09283
                       1.06104                      -0.00000                      -0.09283
                       1.06104                      -0.00000                      -0.09283
                       1.06104                      -0.00000                      -0.09283
                       1.06104                      -0.00000                      -0.09283
        </DataArray>
        <DataArray type="Float32" Name="TranslationalAcceleration" NumberOfComponents="3" format="ascii">
                       0.14130                       0.53054                       1.61512
                       0.27015                       1.01019                       3.08788
                       0.53067                       1.86668                       6.06563
                       0.79253                       2.67450                       9.05870
                       1.12067                       3.65523                      12.80927
                       1.51022                       4.98770                      17.26193
                       1.89587                       6.46122                      21.66987
                       2.28142                       7.93749                      26.07679
                       2.66684                       9.41850                      30.48216
                       3.05219                      10.90219                      34.88663
                       3.43755                      12.38456                      39.29143
                       3.82291                      13.86724                      43.69605
                       4.20825                      15.35022                      48.10047
                       4.59356                      16.83343                      52.50468
                       4.97888                      18.31673                      56.90881
                       5.29997                      19.55289                      60.57890
                       5.55659                      20.55035                      63.51209
                       5.81151                      21.60731                      66.42582
                       5.94024                      22.09067                      67.89730
        </DataArray>
        <DataArray type="Float32" Name="OrientationX" NumberOfComponents="3" format="ascii">
                       0.99155                      -0.01008                      -0.12935
                       0.99155                      -0.01008                      -0.12935
                       0.99155                      -0.01008                      -0.12935
                       0.99155                      -0.01008                      -0.12935
                       0.99155                      -0.01008                      -0.12935
                       0.99155                      -0.01008                      -0.12935
                       0.99155                      -0.01008                      -0.12935
                       0.99155                      -0.01008                      -0.12935
                       0.99155                      -0.01008                      -0.12935
                       0.99155                      -0.01008                      -0.12935
                       0.99155                      -0.01008                      -0.12935
                       0.99155                      -0.01008                      -0.12935
                       0.99155                      -0.01008                      -0.12935
                       0.99155                      -0.01008                      -0.12935
                       0.99155                      -0.01008                      -0.12935
                       0.99155                      -0.01008                      -0.12935
                       0.99155                      -0.01008                      -0.12935
                       0.99155                      -0.01008                      -0.12935
                       0.99155                      -0.01008                      -0.12935
        </DataArray>
        <DataArray type="Float32" Name="OrientationY" NumberOfComponents="3" format="ascii">
                       0.02015                      -0.97291                       0.23032
                       0.02015                      -0.97291                       0.23032
                       0.02015                      -0.97291                       0.23032
                       0.02015                      -0.97291                       0.23032
                       0.02015                      -0.97291                       0.23032
                       0.02015                      -0.97291                       0.23032
                       0.02015                      -0.97291                       0.23032
                       0.02015                      -0.97291                       0.23032
                       0.02015                      -0.97291                       0.23032
                       0.02015                      -0.97291                       0.23032
                       0.02015                      -0.97291                       0.23032
                       0.02015                      -0.97291                       0.23032
                       0.02015                      -0.97291                       0.23032
                       0.02015                      -0.97291                       0.23032
                       0.02015                      -0.97291                       0.23032
                       0.02015                      -0.97291                       0.23032
                       0.02015                      -0.97291                       0.23032
                       0.02015                      -0.97291                       0.23032
                       0.02015                      -0.97291                       0.23032
        </DataArray>
        <DataArray type="Float32" Name="OrientationZ" NumberOfComponents="3" format="ascii">
                      -0.12817                      -0.23098                      -0.96448
                      -0.12817                      -0.23098                      -0.96448
                      -0.12817                      -0.23098                      -0.96448
                      -0.12817                      -0.23098                      -0.96448
                      -0.12817                      -0.23098                      -0.96448
                      -0.12817                      -0.23098                      -0.96448
                      -0.12817                      -0.23098                      -0.96448
                      -0.12817                      -0.23098                      -0.96448
                      -0.12817                      -0.23098                      -0.96448
                      -0.12817                      -0.23098                      -0.96448
                      -0.12817                      -0.23098                      -0.96448
                      -0.12817                      -0.23098                      -0.96448
                      -0.12817                      -0.23098                      -0.96448
                      -0.12817                      -0.23098                      -0.96448
                      -0.12817                      -0.23098                      -0.96448
                      -0.12817                      -0.23098                      -0.96448
                      -0.12817                      -0.23098                      -0.96448
                      -0.12817                      -0.23098                      -0.96448
                      -0.12817                      -0.23098                      -0.96448
        </DataArray>
        <DataArray type="Float32" Name="Force" NumberOfComponents="3" format="ascii">
                       0.08137                      -3.92866                       0.93006
                     123.14923                     -43.16733                      -6.02686
                     156.84058                     -97.46162                       2.49887
                     139.49767                    -122.31530                      10.75571
                    1596.16144                     132.57160                    -243.85896
                    1840.15633                     143.27514                    -278.84615
                    2393.03101                     269.84753                    -382.62885
                    2765.91984                     394.35553                    -461.99932
                    3137.64283                     485.62264                    -533.25404
                    3611.95791                     539.61094                    -609.21407
                    4186.73459                     662.86664                    -715.11295
                    4887.16077                     684.86973                    -813.46016
                    5591.44221                     748.71988                    -922.34160
                    5798.00403                     692.91670                    -936.42679
                    5892.01099                     621.84981                    -931.89938
                    5834.46965                     544.54340                    -905.73883
                    5506.13965                     453.60480                    -840.32916
                    3882.46129                     282.01182                    -583.46836
                    1731.03022                     -42.55969                    -219.83928
        </DataArray>
        <DataArray type="Float32" Name="Moment" NumberOfComponents="3" format="ascii">
                       0.00000                       0.00000                       0.00000
                       0.00000                       0.00000                       0.00000
                       0.00000                       0.00000                       0.00000
                       0.00000                       0.00000                       0.00000
                      89.26022                     160.86450                     671.69887
                     115.43527                     208.03710                     868.67075
                     120.08843                     216.42301                     903.68658
                     139.57496                     251.54158                    1050.32617
                     125.66308                     226.46963                     945.63683
                     132.91965                     239.54739                    1000.24376
                     142.35069                     256.54399                    1071.21402
                     174.62764                     314.71341                    1314.10376
                     192.73653                     347.34919                    1450.37630
                     193.31360                     348.38919                    1454.71887
                     190.30081                     342.95954                    1432.04707
                     185.89848                     335.02568                    1398.91877
                     169.77874                     305.97473                    1277.61490
                      86.32064                     155.56680                     649.57802
                      72.81281                     131.22303                     547.92922
        </DataArray>
      </PointData>
      <Lines>
        <DataArray type="Int32" Name="connectivity" format="ascii">
      0      1
      1      2
      2      3
      3      4
      4      5
      5      6
      6      7
      7      8
      8      9
      9     10
     10     11
     11     12
     12     13
     13     14
     14     15
     15     16
     16     17
     17     18
        </DataArray>
        <DataArray type="Int32" Name="offsets" format="ascii">
      2
      4
      6
      8
     10
     12
     14
     16
     18
     20
     22
     24
     26
     28
     30
     32
     34
     36
        </DataArray>
      </Lines>
    </Piece>
  </PolyData>
</VTKFile>
