<?xml version="1.0"?>
<VTKFile type="PolyData" version="0.1" byte_order="LittleEndian">
  <PolyData>
    <Piece NumberOfPoints="     19" NumberOfVerts="  0" NumberOfLines="     18"
           NumberOfStrips="  0" NumberOfPolys="      0">
      <Points>
        <DataArray type="Float32" NumberOfComponents="3" format="ascii">
                      -5.05693                      -1.49558                      90.09996
                      -5.10992                      -2.85844                      90.18767
                      -5.24642                      -5.58906                      90.27086
                      -5.39737                      -8.32204                      90.31036
                      -5.59470                     -11.73977                      90.33365
                      -5.76638                     -15.83426                      90.49939
                      -5.90281                     -19.92160                      90.79236
                      -6.04128                     -24.00867                      91.08810
                      -6.17926                     -28.09547                      91.38818
                      -6.31772                     -32.18209                      91.69078
                      -6.45833                     -36.26869                      91.99238
                      -6.60022                     -40.35521                      92.29440
                      -6.74404                     -44.44163                      92.59688
                      -6.89051                     -48.52792                      92.89983
                      -7.03790                     -52.61416                      93.20297
                      -7.16135                     -56.01936                      93.45571
                      -7.25997                     -58.74294                      93.66580
                      -7.35511                     -61.46298                      93.93071
                      -7.40698                     -62.82556                      94.02178
        </DataArray>
      </Points>
      <PointData>
        <DataArray type="Float32" Name="TranslationalVelocity" NumberOfComponents="3" format="ascii">
                      -0.34589                      -0.25106                      -3.95350
                      -0.66108                      -0.47067                      -7.55614
                      -1.29259                      -0.65900                     -14.77440
                      -1.92466                      -0.72851                     -21.99891
                      -2.71508                      -0.74445                     -31.03349
                      -3.66202                      -1.14285                     -41.85709
                      -4.60731                      -1.88577                     -52.66176
                      -5.55253                      -2.63550                     -63.46574
                      -6.49770                      -3.39684                     -74.26899
                      -7.44281                      -4.16474                     -85.07176
                      -8.38793                      -4.92948                     -95.87448
                      -9.33303                      -5.69503                    -106.67700
                     -10.27810                      -6.46136                    -117.47925
                     -11.22315                      -7.22833                    -128.28115
                     -12.16818                      -7.99558                    -139.08292
                     -12.95571                      -8.63512                    -148.08440
                     -13.58559                      -9.16769                    -155.28404
                     -14.21466                      -9.84597                    -162.47434
                     -14.52979                     -10.07470                    -166.07624
        </DataArray>
        <DataArray type="Float32" Name="RotationalVelocity" NumberOfComponents="3" format="ascii">
                       2.64345                      -0.00000                      -0.23127
                       2.64345                      -0.00000                      -0.23127
                       2.64345                      -0.00000                      -0.23127
                       2.64345                      -0.00000                      -0.23127
                       2.64345                      -0.00000                      -0.23127
                       2.64345                      -0.00000                      -0.23127
                       2.64345                      -0.00000                      -0.23127
                       2.64345                      -0.00000                      -0.23127
                       2.64345                      -0.00000                      -0.23127
                       2.64345                      -0.00000                      -0.23127
                       2.64345                      -0.00000                      -0.23127
                       2.64345                      -0.00000                      -0.23127
                       2.64345                      -0.00000                      -0.23127
                       2.64345                      -0.00000                      -0.23127
                       2.64345                      -0.00000                      -0.23127
                       2.64345                      -0.00000                      -0.23127
                       2.64345                      -0.00000                      -0.23127
                       2.64345                      -0.00000                      -0.23127
                       2.64345                      -0.00000                      -0.23127
        </DataArray>
        <DataArray type="Float32" Name="TranslationalAcceleration" NumberOfComponents="3" format="ascii">
                      -0.05877                      10.53036                      -0.67173
                      -0.11020                      20.12622                      -1.25962
                      -0.15505                      39.35298                      -1.77219
                      -0.17241                      58.59666                      -1.97070
                      -0.17771                      82.66190                      -2.03126
                      -0.27179                     111.49174                      -3.10652
                      -0.44553                     140.27045                      -5.09244
                      -0.62085                     169.04729                      -7.09637
                      -0.79886                     197.82220                      -9.13100
                      -0.97838                     226.59578                     -11.18295
                      -1.15717                     255.36927                     -13.22655
                      -1.33615                     284.14221                     -15.27229
                      -1.51531                     312.91442                     -17.32010
                      -1.69462                     341.68569                     -19.36961
                      -1.87399                     370.45663                     -21.41984
                      -2.02351                     394.43242                     -23.12882
                      -2.14796                     413.60890                     -24.55133
                      -2.30611                     432.76023                     -26.35899
                      -2.35966                     442.35408                     -26.97099
        </DataArray>
        <DataArray type="Float32" Name="OrientationX" NumberOfComponents="3" format="ascii">
                       0.99549                      -0.04353                      -0.08433
                       0.99549                      -0.04353                      -0.08433
                       0.99549                      -0.04353                      -0.08433
                       0.99549                      -0.04353                      -0.08433
                       0.99549                      -0.04353                      -0.08433
                       0.99549                      -0.04353                      -0.08433
                       0.99549                      -0.04353                      -0.08433
                       0.99549                      -0.04353                      -0.08433
                       0.99549                      -0.04353                      -0.08433
                       0.99549                      -0.04353                      -0.08433
                       0.99549                      -0.04353                      -0.08433
                       0.99549                      -0.04353                      -0.08433
                       0.99549                      -0.04353                      -0.08433
                       0.99549                      -0.04353                      -0.08433
                       0.99549                      -0.04353                      -0.08433
                       0.99549                      -0.04353                      -0.08433
                       0.99549                      -0.04353                      -0.08433
                       0.99549                      -0.04353                      -0.08433
                       0.99549                      -0.04353                      -0.08433
        </DataArray>
        <DataArray type="Float32" Name="OrientationY" NumberOfComponents="3" format="ascii">
                       0.08698                       0.06313                       0.99421
                       0.08698                       0.06313                       0.99421
                       0.08698                       0.06313                       0.99421
                       0.08698                       0.06313                       0.99421
                       0.08698                       0.06313                       0.99421
                       0.08698                       0.06313                       0.99421
                       0.08698                       0.06313                       0.99421
                       0.08698                       0.06313                       0.99421
                       0.08698                       0.06313                       0.99421
                       0.08698                       0.06313                       0.99421
                       0.08698                       0.06313                       0.99421
                       0.08698                       0.06313                       0.99421
                       0.08698                       0.06313                       0.99421
                       0.08698                       0.06313                       0.99421
                       0.08698                       0.06313                       0.99421
                       0.08698                       0.06313                       0.99421
                       0.08698                       0.06313                       0.99421
                       0.08698                       0.06313                       0.99421
                       0.08698                       0.06313                       0.99421
        </DataArray>
        <DataArray type="Float32" Name="OrientationZ" NumberOfComponents="3" format="ascii">
                      -0.03796                      -0.99706                       0.06664
                      -0.03796                      -0.99706                       0.06664
                      -0.03796                      -0.99706                       0.06664
                      -0.03796                      -0.99706                       0.06664
                      -0.03796                      -0.99706                       0.06664
                      -0.03796                      -0.99706                       0.06664
                      -0.03796                      -0.99706                       0.06664
                      -0.03796                      -0.99706                       0.06664
                      -0.03796                      -0.99706                       0.06664
                      -0.03796                      -0.99706                       0.06664
                      -0.03796                      -0.99706                       0.06664
                      -0.03796                      -0.99706                       0.06664
                      -0.03796                      -0.99706                       0.06664
                      -0.03796                      -0.99706                       0.06664
                      -0.03796                      -0.99706                       0.06664
                      -0.03796                      -0.99706                       0.06664
                      -0.03796                      -0.99706                       0.06664
                      -0.03796                      -0.99706                       0.06664
                      -0.03796                      -0.99706                       0.06664
        </DataArray>
        <DataArray type="Float32" Name="Force" NumberOfComponents="3" format="ascii">
                       2.37824                       1.72622                      27.18340
                     202.37731                       0.40737                     121.36914
                     312.05071                      11.31877                     347.10169
                     324.40283                      21.84146                     511.58419
                    3016.53752                    -150.36437                    -531.62531
                    3721.46264                    -176.36523                    -519.14138
                    4658.43963                    -215.11565                    -565.24738
                    6606.27981                    -300.44041                    -732.44000
                    7386.90827                    -328.34177                    -705.27180
                    8612.26465                    -380.21900                    -783.52845
                   11106.97720                    -484.91029                    -928.99693
                   12616.50420                    -549.34899                   -1033.34261
                   13952.47142                    -612.81830                   -1222.04303
                   15133.48340                    -664.21856                   -1318.42137
                   16173.83765                    -710.16487                   -1413.31305
                   16901.16182                    -742.95431                   -1489.64524
                   17064.78085                    -752.59412                   -1540.68475
                   13860.79927                    -619.14249                   -1368.88551
                   10816.08540                    -462.30309                    -756.42622
        </DataArray>
        <DataArray type="Float32" Name="Moment" NumberOfComponents="3" format="ascii">
                       0.00000                       0.00000                       0.00000
                       0.00000                       0.00000                       0.00000
                       0.00000                       0.00000                       0.00000
                       0.00000                       0.00000                       0.00000
                      52.66134                    1383.34298                     -92.45345
                     102.56269                    2694.18478                    -180.06140
                     140.24205                    3683.97121                    -246.21214
                     210.13847                    5520.05699                    -368.92390
                     299.57708                    7869.48958                    -525.94436
                     339.34068                    8914.02621                    -595.75424
                     370.61692                    9735.61130                    -650.66352
                     394.11672                   10352.91981                    -691.92032
                     320.10707                    8408.78496                    -561.98727
                     320.37416                    8415.80126                    -562.45620
                     311.87512                    8192.54285                    -547.53509
                     298.27770                    7835.35671                    -523.66314
                     267.87922                    7036.82933                    -470.29488
                     138.63583                    3641.77793                    -243.39222
                     134.07721                    3522.02923                    -235.38901
        </DataArray>
      </PointData>
      <Lines>
        <DataArray type="Int32" Name="connectivity" format="ascii">
      0      1
      1      2
      2      3
      3      4
      4      5
      5      6
      6      7
      7      8
      8      9
      9     10
     10     11
     11     12
     12     13
     13     14
     14     15
     15     16
     16     17
     17     18
        </DataArray>
        <DataArray type="Int32" Name="offsets" format="ascii">
      2
      4
      6
      8
     10
     12
     14
     16
     18
     20
     22
     24
     26
     28
     30
     32
     34
     36
        </DataArray>
      </Lines>
    </Piece>
  </PolyData>
</VTKFile>
