<?xml version="1.0"?>
<VTKFile type="PolyData" version="0.1" byte_order="LittleEndian">
  <PolyData>
    <Piece NumberOfPoints="     19" NumberOfVerts="  0" NumberOfLines="     18"
           NumberOfStrips="  0" NumberOfPolys="      0">
      <Points>
        <DataArray type="Float32" NumberOfComponents="3" format="ascii">
                      -5.14693                       1.16870                      89.07127
                      -5.28138                       2.23568                      88.22785
                      -5.56607                       4.42805                      86.61717
                      -5.85824                       6.64812                      85.04253
                      -6.22794                       9.43982                      83.09572
                      -6.62876                      12.70207                      80.64238
                      -7.01453                      15.88375                      78.08526
                      -7.40276                      19.06374                      75.52640
                      -7.79115                      22.24099                      72.96412
                      -8.18042                      25.41667                      70.40000
                      -8.57165                      28.59302                      67.83704
                      -8.96420                      31.76913                      65.27399
                      -9.35872                      34.94498                      62.71092
                      -9.75592                      38.12059                      60.14797
                     -10.15406                      41.29610                      57.58504
                     -10.48648                      43.94232                      55.44927
                     -10.75350                      46.05428                      53.73461
                     -11.02556                      48.13175                      51.97735
                     -11.15942                      49.19652                      51.13121
        </DataArray>
      </Points>
      <PointData>
        <DataArray type="Float32" Name="TranslationalVelocity" NumberOfComponents="3" format="ascii">
                       0.25228                       2.32318                       2.88355
                       0.48260                       4.43320                       5.51611
                       0.95585                       8.46869                      10.92536
                       1.43507                      12.41687                      16.40296
                       2.03769                      17.30004                      23.29094
                       2.74189                      23.43973                      31.33991
                       3.42869                      29.83219                      39.19010
                       4.11513                      36.22948                      47.03611
                       4.80097                      42.63525                      54.87536
                       5.48648                      49.04575                      62.71073
                       6.17213                      55.45383                      70.54776
                       6.85773                      61.86241                      78.38420
                       7.54327                      68.27143                      86.22001
                       8.22876                      74.68077                      94.05521
                       8.91423                      81.09024                     101.89016
                       9.48545                      86.43160                     108.41921
                       9.94134                      90.71983                     113.63006
                      10.38979                      95.11426                     118.75583
                      10.61963                      97.23083                     121.38294
        </DataArray>
        <DataArray type="Float32" Name="RotationalVelocity" NumberOfComponents="3" format="ascii">
                       2.46731                      -0.00000                      -0.21586
                       2.46731                      -0.00000                      -0.21586
                       2.46731                      -0.00000                      -0.21586
                       2.46731                      -0.00000                      -0.21586
                       2.46731                      -0.00000                      -0.21586
                       2.46731                      -0.00000                      -0.21586
                       2.46731                      -0.00000                      -0.21586
                       2.46731                      -0.00000                      -0.21586
                       2.46731                      -0.00000                      -0.21586
                       2.46731                      -0.00000                      -0.21586
                       2.46731                      -0.00000                      -0.21586
                       2.46731                      -0.00000                      -0.21586
                       2.46731                      -0.00000                      -0.21586
                       2.46731                      -0.00000                      -0.21586
                       2.46731                      -0.00000                      -0.21586
                       2.46731                      -0.00000                      -0.21586
                       2.46731                      -0.00000                      -0.21586
                       2.46731                      -0.00000                      -0.21586
                       2.46731                      -0.00000                      -0.21586
        </DataArray>
        <DataArray type="Float32" Name="TranslationalAcceleration" NumberOfComponents="3" format="ascii">
                       0.50315                      -7.15377                       5.75099
                       0.96013                     -13.68492                      10.97438
                       1.83436                     -27.10679                      20.96681
                       2.68977                     -40.69916                      30.74424
                       3.74783                     -57.79185                      42.83790
                       5.07779                     -77.76271                      58.03940
                       6.46220                     -97.23770                      73.86326
                       7.84765                    -116.70228                      89.69900
                       9.23492                    -136.14998                     105.55563
                      10.62321                    -155.58800                     121.42390
                      12.01099                    -175.03017                     137.28619
                      13.39887                    -194.47087                     153.14973
                      14.78684                    -213.91000                     169.01438
                      16.17488                    -233.34761                     184.87976
                      17.56295                    -252.78462                     200.74549
                      18.71971                    -268.98190                     213.96726
                      19.64838                    -281.90886                     224.58197
                      20.59992                    -294.62357                     235.45812
                      21.05832                    -301.14113                     240.69766
        </DataArray>
        <DataArray type="Float32" Name="OrientationX" NumberOfComponents="3" format="ascii">
                       0.99287                       0.03402                      -0.11427
                       0.99287                       0.03402                      -0.11427
                       0.99287                       0.03402                      -0.11427
                       0.99287                       0.03402                      -0.11427
                       0.99287                       0.03402                      -0.11427
                       0.99287                       0.03402                      -0.11427
                       0.99287                       0.03402                      -0.11427
                       0.99287                       0.03402                      -0.11427
                       0.99287                       0.03402                      -0.11427
                       0.99287                       0.03402                      -0.11427
                       0.99287                       0.03402                      -0.11427
                       0.99287                       0.03402                      -0.11427
                       0.99287                       0.03402                      -0.11427
                       0.99287                       0.03402                      -0.11427
                       0.99287                       0.03402                      -0.11427
                       0.99287                       0.03402                      -0.11427
                       0.99287                       0.03402                      -0.11427
                       0.99287                       0.03402                      -0.11427
                       0.99287                       0.03402                      -0.11427
        </DataArray>
        <DataArray type="Float32" Name="OrientationY" NumberOfComponents="3" format="ascii">
                      -0.06797                      -0.62593                      -0.77691
                      -0.06797                      -0.62593                      -0.77691
                      -0.06797                      -0.62593                      -0.77691
                      -0.06797                      -0.62593                      -0.77691
                      -0.06797                      -0.62593                      -0.77691
                      -0.06797                      -0.62593                      -0.77691
                      -0.06797                      -0.62593                      -0.77691
                      -0.06797                      -0.62593                      -0.77691
                      -0.06797                      -0.62593                      -0.77691
                      -0.06797                      -0.62593                      -0.77691
                      -0.06797                      -0.62593                      -0.77691
                      -0.06797                      -0.62593                      -0.77691
                      -0.06797                      -0.62593                      -0.77691
                      -0.06797                      -0.62593                      -0.77691
                      -0.06797                      -0.62593                      -0.77691
                      -0.06797                      -0.62593                      -0.77691
                      -0.06797                      -0.62593                      -0.77691
                      -0.06797                      -0.62593                      -0.77691
                      -0.06797                      -0.62593                      -0.77691
        </DataArray>
        <DataArray type="Float32" Name="OrientationZ" NumberOfComponents="3" format="ascii">
                      -0.09795                       0.77914                      -0.61915
                      -0.09795                       0.77914                      -0.61915
                      -0.09795                       0.77914                      -0.61915
                      -0.09795                       0.77914                      -0.61915
                      -0.09795                       0.77914                      -0.61915
                      -0.09795                       0.77914                      -0.61915
                      -0.09795                       0.77914                      -0.61915
                      -0.09795                       0.77914                      -0.61915
                      -0.09795                       0.77914                      -0.61915
                      -0.09795                       0.77914                      -0.61915
                      -0.09795                       0.77914                      -0.61915
                      -0.09795                       0.77914                      -0.61915
                      -0.09795                       0.77914                      -0.61915
                      -0.09795                       0.77914                      -0.61915
                      -0.09795                       0.77914                      -0.61915
                      -0.09795                       0.77914                      -0.61915
                      -0.09795                       0.77914                      -0.61915
                      -0.09795                       0.77914                      -0.61915
                      -0.09795                       0.77914                      -0.61915
        </DataArray>
        <DataArray type="Float32" Name="Force" NumberOfComponents="3" format="ascii">
                      -0.59984                      -5.52380                      -6.85619
                     146.48968                     -45.05427                     -79.87159
                     216.79946                    -150.28150                    -223.41192
                     213.66108                    -239.70902                    -335.44999
                    2663.78160                     263.19499                     -90.22932
                    3419.27661                     257.72997                    -216.63161
                    4307.86494                     275.31790                    -335.08074
                    6029.83794                     340.07193                    -526.02449
                    6706.73158                     310.24011                    -670.65435
                    7750.84392                     330.01444                    -810.95725
                    9836.55537                     367.45337                   -1093.82027
                   11074.15978                     393.54770                   -1256.78209
                   12187.34537                     464.08284                   -1344.13607
                   13113.77465                     486.61234                   -1462.35350
                   13899.91810                     508.56482                   -1559.10275
                   14421.91384                     526.07250                   -1619.65506
                   14460.61673                     539.37541                   -1609.03792
                   11735.29334                     500.34723                   -1226.98322
                    9171.72662                     229.44134                   -1162.31199
        </DataArray>
        <DataArray type="Float32" Name="Moment" NumberOfComponents="3" format="ascii">
                       0.00000                       0.00000                       0.00000
                       0.00000                       0.00000                       0.00000
                       0.00000                       0.00000                       0.00000
                       0.00000                       0.00000                       0.00000
                     115.63957                    -919.80024                     730.93484
                     223.37451                   -1776.72680                    1411.90606
                     305.61930                   -2430.90407                    1931.75911
                     455.83689                   -3625.73881                    2881.25478
                     649.71149                   -5167.82251                    4106.69773
                     738.62174                   -5875.01701                    4668.68182
                     808.34158                   -6429.57052                    5109.36715
                     862.02258                   -6856.55065                    5448.67415
                     706.56290                   -5620.02015                    4466.04424
                     706.94363                   -5623.04851                    4468.45078
                     687.72911                   -5470.21572                    4346.99961
                     657.20061                   -5227.39124                    4154.03503
                     589.51888                   -4689.04895                    3726.23220
                     304.88135                   -2425.03440                    1927.09468
                     294.87297                   -2345.42750                    1863.83370
        </DataArray>
      </PointData>
      <Lines>
        <DataArray type="Int32" Name="connectivity" format="ascii">
      0      1
      1      2
      2      3
      3      4
      4      5
      5      6
      6      7
      7      8
      8      9
      9     10
     10     11
     11     12
     12     13
     13     14
     14     15
     15     16
     16     17
     17     18
        </DataArray>
        <DataArray type="Int32" Name="offsets" format="ascii">
      2
      4
      6
      8
     10
     12
     14
     16
     18
     20
     22
     24
     26
     28
     30
     32
     34
     36
        </DataArray>
      </Lines>
    </Piece>
  </PolyData>
</VTKFile>
