<?xml version="1.0"?>
<VTKFile type="PolyData" version="0.1" byte_order="LittleEndian">
  <PolyData>
    <Piece NumberOfPoints="     19" NumberOfVerts="  0" NumberOfLines="     18"
           NumberOfStrips="  0" NumberOfPolys="      0">
      <Points>
        <DataArray type="Float32" NumberOfComponents="3" format="ascii">
                      -4.94387                      -0.55530                      91.39230
                      -4.89365                      -1.06444                      92.65964
                      -4.81864                      -2.17025                      95.16031
                      -4.75568                      -3.31753                      97.64493
                      -4.68416                      -4.77644                     100.74119
                      -4.54088                      -6.39508                     104.50700
                      -4.36937                      -7.89333                     108.31968
                      -4.20006                      -9.38916                     112.13343
                      -4.03048                     -10.88091                     115.94878
                      -3.86154                     -12.37035                     119.76509
                      -3.69468                     -13.86086                     123.58105
                      -3.52912                     -15.35107                     127.39719
                      -3.36552                     -16.84096                     131.21353
                      -3.20459                     -18.33057                     135.03009
                      -3.04458                     -19.82008                     138.84673
                      -2.91188                     -21.06127                     142.02735
                      -2.80602                     -22.04685                     144.57473
                      -2.69969                     -22.98130                     147.14249
                      -2.64855                     -23.48721                     148.41096
        </DataArray>
      </Points>
      <PointData>
        <DataArray type="Float32" Name="TranslationalVelocity" NumberOfComponents="3" format="ascii">
                      -0.13190                      -3.79354                      -1.50768
                      -0.25285                      -7.24639                      -2.89003
                      -0.51552                     -14.05375                      -5.89241
                      -0.78804                     -20.81465                      -9.00738
                      -1.13459                     -29.23823                     -12.96843
                      -1.51908                     -39.49676                     -17.36316
                      -1.87497                     -49.88926                     -21.43106
                      -2.23029                     -60.28411                     -25.49235
                      -2.58464                     -70.68340                     -29.54258
                      -2.93844                     -81.08512                     -33.58654
                      -3.29250                     -91.48541                     -37.63340
                      -3.64648                    -101.88587                     -41.67943
                      -4.00038                    -112.28641                     -45.72461
                      -4.35423                    -122.68692                     -49.76904
                      -4.70804                    -133.08742                     -53.81316
                      -5.00287                    -141.75459                     -57.18311
                      -5.23699                    -148.69610                     -59.85904
                      -5.45896                    -155.69303                     -62.39615
                      -5.57913                    -159.14920                     -63.76974
        </DataArray>
        <DataArray type="Float32" Name="RotationalVelocity" NumberOfComponents="3" format="ascii">
                       2.71508                      -0.00000                      -0.23754
                       2.71508                      -0.00000                      -0.23754
                       2.71508                      -0.00000                      -0.23754
                       2.71508                      -0.00000                      -0.23754
                       2.71508                      -0.00000                      -0.23754
                       2.71508                      -0.00000                      -0.23754
                       2.71508                      -0.00000                      -0.23754
                       2.71508                      -0.00000                      -0.23754
                       2.71508                      -0.00000                      -0.23754
                       2.71508                      -0.00000                      -0.23754
                       2.71508                      -0.00000                      -0.23754
                       2.71508                      -0.00000                      -0.23754
                       2.71508                      -0.00000                      -0.23754
                       2.71508                      -0.00000                      -0.23754
                       2.71508                      -0.00000                      -0.23754
                       2.71508                      -0.00000                      -0.23754
                       2.71508                      -0.00000                      -0.23754
                       2.71508                      -0.00000                      -0.23754
                       2.71508                      -0.00000                      -0.23754
        </DataArray>
        <DataArray type="Float32" Name="TranslationalAcceleration" NumberOfComponents="3" format="ascii">
                      -0.90120                       4.12230                     -10.30077
                      -1.72147                       7.90195                     -19.67646
                      -3.33865                      16.11154                     -38.16099
                      -4.94481                      24.62921                     -56.51948
                      -6.94597                      35.46055                     -79.39281
                      -9.38303                      47.47716                    -107.24848
                     -11.85189                      58.59950                    -135.46767
                     -14.32130                      69.70376                    -163.69325
                     -16.79178                      80.77779                    -191.93088
                     -19.26282                      91.83464                    -220.17508
                     -21.73353                     102.89944                    -248.41541
                     -24.20428                     113.96194                    -276.65620
                     -26.67505                     125.02213                    -304.89723
                     -29.14581                     136.08027                    -333.13813
                     -31.61657                     147.13757                    -361.37905
                     -33.67556                     156.35156                    -384.91336
                     -35.32459                     163.66794                    -403.76191
                     -36.98678                     170.60451                    -422.76084
                     -37.80783                     174.36020                    -432.14553
        </DataArray>
        <DataArray type="Float32" Name="OrientationX" NumberOfComponents="3" format="ascii">
                       0.99878                      -0.01616                      -0.04671
                       0.99878                      -0.01616                      -0.04671
                       0.99878                      -0.01616                      -0.04671
                       0.99878                      -0.01616                      -0.04671
                       0.99878                      -0.01616                      -0.04671
                       0.99878                      -0.01616                      -0.04671
                       0.99878                      -0.01616                      -0.04671
                       0.99878                      -0.01616                      -0.04671
                       0.99878                      -0.01616                      -0.04671
                       0.99878                      -0.01616                      -0.04671
                       0.99878                      -0.01616                      -0.04671
                       0.99878                      -0.01616                      -0.04671
                       0.99878                      -0.01616                      -0.04671
                       0.99878                      -0.01616                      -0.04671
                       0.99878                      -0.01616                      -0.04671
                       0.99878                      -0.01616                      -0.04671
                       0.99878                      -0.01616                      -0.04671
                       0.99878                      -0.01616                      -0.04671
                       0.99878                      -0.01616                      -0.04671
        </DataArray>
        <DataArray type="Float32" Name="OrientationY" NumberOfComponents="3" format="ascii">
                       0.03230                       0.92881                       0.36914
                       0.03230                       0.92881                       0.36914
                       0.03230                       0.92881                       0.36914
                       0.03230                       0.92881                       0.36914
                       0.03230                       0.92881                       0.36914
                       0.03230                       0.92881                       0.36914
                       0.03230                       0.92881                       0.36914
                       0.03230                       0.92881                       0.36914
                       0.03230                       0.92881                       0.36914
                       0.03230                       0.92881                       0.36914
                       0.03230                       0.92881                       0.36914
                       0.03230                       0.92881                       0.36914
                       0.03230                       0.92881                       0.36914
                       0.03230                       0.92881                       0.36914
                       0.03230                       0.92881                       0.36914
                       0.03230                       0.92881                       0.36914
                       0.03230                       0.92881                       0.36914
                       0.03230                       0.92881                       0.36914
                       0.03230                       0.92881                       0.36914
        </DataArray>
        <DataArray type="Float32" Name="OrientationZ" NumberOfComponents="3" format="ascii">
                       0.03742                      -0.37020                       0.92820
                       0.03742                      -0.37020                       0.92820
                       0.03742                      -0.37020                       0.92820
                       0.03742                      -0.37020                       0.92820
                       0.03742                      -0.37020                       0.92820
                       0.03742                      -0.37020                       0.92820
                       0.03742                      -0.37020                       0.92820
                       0.03742                      -0.37020                       0.92820
                       0.03742                      -0.37020                       0.92820
                       0.03742                      -0.37020                       0.92820
                       0.03742                      -0.37020                       0.92820
                       0.03742                      -0.37020                       0.92820
                       0.03742                      -0.37020                       0.92820
                       0.03742                      -0.37020                       0.92820
                       0.03742                      -0.37020                       0.92820
                       0.03742                      -0.37020                       0.92820
                       0.03742                      -0.37020                       0.92820
                       0.03742                      -0.37020                       0.92820
                       0.03742                      -0.37020                       0.92820
        </DataArray>
        <DataArray type="Float32" Name="Force" NumberOfComponents="3" format="ascii">
                       0.70093                      20.15841                       8.01163
                     194.58756                     117.28472                      38.93240
                     294.85515                     334.69088                     121.59934
                     301.86734                     495.32270                     185.38230
                    3085.94560                    -312.69977                    -249.12740
                    3800.57071                    -250.92774                    -253.30104
                    4752.08079                    -231.79372                    -284.03038
                    6739.08378                    -261.62864                    -376.03675
                    7506.05201                    -181.33786                    -374.93470
                    8754.97914                    -173.99730                    -422.35822
                   11309.40653                    -145.21710                    -513.86284
                   12870.55788                    -144.76808                    -576.62246
                   14347.91736                    -245.55732                    -676.38136
                   15617.53818                    -264.17539                    -734.99238
                   16766.57760                    -293.40675                    -792.97506
                   17600.85358                    -326.99705                    -840.00637
                   17875.47219                    -376.38945                    -870.77722
                   14552.34530                    -422.02528                    -755.00467
                   11352.74390                     -28.52250                    -469.06807
        </DataArray>
        <DataArray type="Float32" Name="Moment" NumberOfComponents="3" format="ascii">
                       0.00000                       0.00000                       0.00000
                       0.00000                       0.00000                       0.00000
                       0.00000                       0.00000                       0.00000
                       0.00000                       0.00000                       0.00000
                     -52.40614                     518.44558                   -1299.89844
                    -102.98667                    1018.83068                   -2554.51381
                    -141.74491                    1402.25975                   -3515.88541
                    -213.43272                    2111.45589                   -5294.05263
                    -305.32996                    3020.58065                   -7573.50084
                    -346.71740                    3430.01991                   -8600.08775
                    -379.48319                    3754.16668                   -9412.82085
                    -404.21738                    3998.85813                  -10026.33563
                    -327.96168                    3244.47257                   -8134.86498
                    -328.80903                    3252.85526                   -8155.88291
                    -320.66699                    3172.30737                   -7953.92519
                    -307.18675                    3038.94951                   -7619.55709
                    -276.39418                    2734.32356                   -6855.76854
                    -143.13908                    1416.05214                   -3550.46705
                    -138.39339                    1369.10377                   -3432.75343
        </DataArray>
      </PointData>
      <Lines>
        <DataArray type="Int32" Name="connectivity" format="ascii">
      0      1
      1      2
      2      3
      3      4
      4      5
      5      6
      6      7
      7      8
      8      9
      9     10
     10     11
     11     12
     12     13
     13     14
     14     15
     15     16
     16     17
     17     18
        </DataArray>
        <DataArray type="Int32" Name="offsets" format="ascii">
      2
      4
      6
      8
     10
     12
     14
     16
     18
     20
     22
     24
     26
     28
     30
     32
     34
     36
        </DataArray>
      </Lines>
    </Piece>
  </PolyData>
</VTKFile>
