<?xml version="1.0"?>
<VTKFile type="PolyData" version="0.1" byte_order="LittleEndian">
  <PolyData>
    <Piece NumberOfPoints="     19" NumberOfVerts="  0" NumberOfLines="     18"
           NumberOfStrips="  0" NumberOfPolys="      0">
      <Points>
        <DataArray type="Float32" NumberOfComponents="3" format="ascii">
                      -4.93548                      -0.17640                      91.48820
                      -4.87754                      -0.34054                      92.84377
                      -4.78501                      -0.76271                      95.54470
                      -4.70354                      -1.22935                      98.24084
                      -4.60830                      -1.83922                     101.60823
                      -4.43969                      -2.42925                     105.66351
                      -4.24572                      -2.89028                     109.73298
                      -4.05400                      -3.34874                     113.80285
                      -3.86211                      -3.80285                     117.87323
                      -3.67091                      -4.25449                     121.94394
                      -3.48177                      -4.70730                     126.01459
                      -3.29394                      -5.15980                     130.08534
                      -3.10807                      -5.61199                     134.15621
                      -2.92488                      -6.06391                     138.22722
                      -2.74261                      -6.51573                     142.29829
                      -2.59136                      -6.89218                     145.69092
                      -2.47083                      -7.18548                     148.40591
                      -2.35105                      -7.42412                     151.12742
                      -2.29227                      -7.58483                     152.48326
        </DataArray>
      </Points>
      <PointData>
        <DataArray type="Float32" Name="TranslationalVelocity" NumberOfComponents="3" format="ascii">
                      -0.04190                      -4.05558                      -0.47890
                      -0.08088                      -7.74955                      -0.92452
                      -0.18116                     -15.10420                      -2.07065
                      -0.29199                     -22.44322                      -3.33752
                      -0.43685                     -31.60786                      -4.99324
                      -0.57700                     -42.65747                      -6.59509
                      -0.68650                     -53.75162                      -7.84674
                      -0.79539                     -64.84633                      -9.09139
                      -0.90325                     -75.94246                     -10.32423
                      -1.01053                     -87.03930                     -11.55039
                      -1.11808                     -98.13552                     -12.77971
                      -1.22556                    -109.23168                     -14.00818
                      -1.33296                    -120.32771                     -15.23581
                      -1.44030                    -131.42350                     -16.46273
                      -1.54762                    -142.51922                     -17.68936
                      -1.63703                    -151.76568                     -18.71137
                      -1.70670                    -159.16516                     -19.50763
                      -1.76338                    -166.58214                     -20.15553
                      -1.80155                    -170.27704                     -20.59184
        </DataArray>
        <DataArray type="Float32" Name="RotationalVelocity" NumberOfComponents="3" format="ascii">
                       2.71487                      -0.00000                      -0.23752
                       2.71487                      -0.00000                      -0.23752
                       2.71487                      -0.00000                      -0.23752
                       2.71487                      -0.00000                      -0.23752
                       2.71487                      -0.00000                      -0.23752
                       2.71487                      -0.00000                      -0.23752
                       2.71487                      -0.00000                      -0.23752
                       2.71487                      -0.00000                      -0.23752
                       2.71487                      -0.00000                      -0.23752
                       2.71487                      -0.00000                      -0.23752
                       2.71487                      -0.00000                      -0.23752
                       2.71487                      -0.00000                      -0.23752
                       2.71487                      -0.00000                      -0.23752
                       2.71487                      -0.00000                      -0.23752
                       2.71487                      -0.00000                      -0.23752
                       2.71487                      -0.00000                      -0.23752
                       2.71487                      -0.00000                      -0.23752
                       2.71487                      -0.00000                      -0.23752
                       2.71487                      -0.00000                      -0.23752
        </DataArray>
        <DataArray type="Float32" Name="TranslationalAcceleration" NumberOfComponents="3" format="ascii">
                      -0.96331                       1.30757                     -11.01066
                      -1.84073                       2.52433                     -21.03959
                      -3.58767                       5.65517                     -41.00723
                      -5.33090                       9.11629                     -60.93251
                      -7.50778                      13.64005                     -85.81434
                     -10.13237                      18.01527                    -115.81357
                     -12.76753                      21.43242                    -145.93353
                     -15.40282                      24.83046                    -176.05500
                     -18.03844                      28.19616                    -206.18032
                     -20.67423                      31.54357                    -236.30756
                     -23.30988                      34.89965                    -266.43312
                     -25.94551                      38.25341                    -296.55852
                     -28.58111                      41.60487                    -326.68356
                     -31.21665                      44.95437                    -356.80795
                     -33.85218                      48.30307                    -386.93214
                     -36.04845                      51.09318                    -412.03572
                     -37.80603                      53.26686                    -432.12485
                     -39.56774                      55.03466                    -452.26138
                     -40.44538                      56.22594                    -462.29283
        </DataArray>
        <DataArray type="Float32" Name="OrientationX" NumberOfComponents="3" format="ascii">
                       0.99902                      -0.00513                      -0.04392
                       0.99902                      -0.00513                      -0.04392
                       0.99902                      -0.00513                      -0.04392
                       0.99902                      -0.00513                      -0.04392
                       0.99902                      -0.00513                      -0.04392
                       0.99902                      -0.00513                      -0.04392
                       0.99902                      -0.00513                      -0.04392
                       0.99902                      -0.00513                      -0.04392
                       0.99902                      -0.00513                      -0.04392
                       0.99902                      -0.00513                      -0.04392
                       0.99902                      -0.00513                      -0.04392
                       0.99902                      -0.00513                      -0.04392
                       0.99902                      -0.00513                      -0.04392
                       0.99902                      -0.00513                      -0.04392
                       0.99902                      -0.00513                      -0.04392
                       0.99902                      -0.00513                      -0.04392
                       0.99902                      -0.00513                      -0.04392
                       0.99902                      -0.00513                      -0.04392
                       0.99902                      -0.00513                      -0.04392
        </DataArray>
        <DataArray type="Float32" Name="OrientationY" NumberOfComponents="3" format="ascii">
                       0.01026                       0.99305                       0.11726
                       0.01026                       0.99305                       0.11726
                       0.01026                       0.99305                       0.11726
                       0.01026                       0.99305                       0.11726
                       0.01026                       0.99305                       0.11726
                       0.01026                       0.99305                       0.11726
                       0.01026                       0.99305                       0.11726
                       0.01026                       0.99305                       0.11726
                       0.01026                       0.99305                       0.11726
                       0.01026                       0.99305                       0.11726
                       0.01026                       0.99305                       0.11726
                       0.01026                       0.99305                       0.11726
                       0.01026                       0.99305                       0.11726
                       0.01026                       0.99305                       0.11726
                       0.01026                       0.99305                       0.11726
                       0.01026                       0.99305                       0.11726
                       0.01026                       0.99305                       0.11726
                       0.01026                       0.99305                       0.11726
                       0.01026                       0.99305                       0.11726
        </DataArray>
        <DataArray type="Float32" Name="OrientationZ" NumberOfComponents="3" format="ascii">
                       0.04301                      -0.11760                       0.99213
                       0.04301                      -0.11760                       0.99213
                       0.04301                      -0.11760                       0.99213
                       0.04301                      -0.11760                       0.99213
                       0.04301                      -0.11760                       0.99213
                       0.04301                      -0.11760                       0.99213
                       0.04301                      -0.11760                       0.99213
                       0.04301                      -0.11760                       0.99213
                       0.04301                      -0.11760                       0.99213
                       0.04301                      -0.11760                       0.99213
                       0.04301                      -0.11760                       0.99213
                       0.04301                      -0.11760                       0.99213
                       0.04301                      -0.11760                       0.99213
                       0.04301                      -0.11760                       0.99213
                       0.04301                      -0.11760                       0.99213
                       0.04301                      -0.11760                       0.99213
                       0.04301                      -0.11760                       0.99213
                       0.04301                      -0.11760                       0.99213
                       0.04301                      -0.11760                       0.99213
        </DataArray>
        <DataArray type="Float32" Name="Force" NumberOfComponents="3" format="ascii">
                       0.19701                      19.06952                       2.25180
                     189.99238                     122.32467                       6.26215
                     284.15511                     351.39855                      29.33215
                     287.86461                     522.12687                      49.40800
                    3070.97012                    -298.56178                    -168.53177
                    3793.70953                    -224.39963                    -191.07580
                    4747.10959                    -192.75150                    -228.65944
                    6729.75342                    -200.72561                    -315.56273
                    7496.33262                    -105.78475                    -337.54452
                    8745.47758                     -82.92540                    -388.99201
                   11290.13053                     -21.68143                    -492.05685
                   12849.98711                      -2.38034                    -557.39710
                   14337.29962                     -92.85016                    -632.60349
                   15610.05198                     -97.71221                    -688.36035
                   16763.62184                    -115.48338                    -740.48015
                   17602.87522                    -141.75646                    -779.98041
                   17882.32378                    -191.00918                    -797.93398
                   14549.13089                    -277.84084                    -663.71471
                   11311.59405                     107.12783                    -477.71946
        </DataArray>
        <DataArray type="Float32" Name="Moment" NumberOfComponents="3" format="ascii">
                       0.00000                       0.00000                       0.00000
                       0.00000                       0.00000                       0.00000
                       0.00000                       0.00000                       0.00000
                       0.00000                       0.00000                       0.00000
                     -59.54775                     162.80092                   -1373.48284
                    -117.28885                     320.66253                   -2705.29481
                    -161.68728                     442.04588                   -3729.35508
                    -243.65677                     666.14683                   -5620.00054
                    -348.77289                     953.52965                   -8044.52846
                    -396.33662                    1083.56680                   -9141.59716
                    -433.97812                    1186.47700                  -10009.80720
                    -462.47560                    1264.38784                  -10667.10818
                    -375.66991                    1027.06492                   -8664.91460
                    -376.75643                    1030.03543                   -8689.97553
                    -367.53199                    1004.81620                   -8477.21149
                    -352.16160                     962.79423                   -8122.68983
                    -316.91749                     866.43841                   -7309.77633
                    -164.07537                     448.57481                   -3784.43694
                    -158.51478                     433.37240                   -3656.18059
        </DataArray>
      </PointData>
      <Lines>
        <DataArray type="Int32" Name="connectivity" format="ascii">
      0      1
      1      2
      2      3
      3      4
      4      5
      5      6
      6      7
      7      8
      8      9
      9     10
     10     11
     11     12
     12     13
     13     14
     14     15
     15     16
     16     17
     17     18
        </DataArray>
        <DataArray type="Int32" Name="offsets" format="ascii">
      2
      4
      6
      8
     10
     12
     14
     16
     18
     20
     22
     24
     26
     28
     30
     32
     34
     36
        </DataArray>
      </Lines>
    </Piece>
  </PolyData>
</VTKFile>
