<?xml version="1.0"?>
<VTKFile type="PolyData" version="0.1" byte_order="LittleEndian">
  <PolyData>
    <Piece NumberOfPoints="     19" NumberOfVerts="  0" NumberOfLines="     18"
           NumberOfStrips="  0" NumberOfPolys="      0">
      <Points>
        <DataArray type="Float32" NumberOfComponents="3" format="ascii">
                      -5.19057                       0.41942                      88.57250
                      -5.36493                       0.80486                      87.27292
                      -5.73353                       1.66634                      84.70313
                      -6.11155                       2.57073                      82.14721
                      -6.58972                       3.72687                      78.96051
                      -7.11455                       4.97752                      75.08982
                      -7.61869                       6.10364                      71.17977
                      -8.12516                       7.22725                      67.26930
                      -8.63161                       8.34665                      63.35759
                      -9.13884                       9.46367                      59.44528
                      -9.64806                      10.58180                      55.53357
                     -10.15860                      11.69962                      51.62194
                     -10.67109                      12.81712                      47.71047
                     -11.18625                      13.93435                      43.79929
                     -11.70233                      15.05147                      39.88819
                     -12.13304                      15.98234                      36.62898
                     -12.47834                      16.71942                      34.01953
                     -12.82629                      17.40366                      31.39491
                     -12.99991                      17.78578                      30.09436
        </DataArray>
      </Points>
      <PointData>
        <DataArray type="Float32" Name="TranslationalVelocity" NumberOfComponents="3" format="ascii">
                       0.09959                       3.91958                       1.13832
                       0.19111                       7.48811                       2.18444
                       0.39567                      14.55018                       4.52253
                       0.61042                      21.57684                       6.97710
                       0.88494                      30.33923                      10.11493
                       1.18191                      40.96912                      13.50926
                       1.44930                      51.70090                      16.56559
                       1.71610                      62.43439                      19.61513
                       1.98190                      73.17123                      22.65325
                       2.24714                      83.90988                      25.68489
                       2.51264                      94.64739                      28.71956
                       2.77806                     105.38499                      31.75337
                       3.04341                     116.12259                      34.78634
                       3.30870                     126.86008                      37.81856
                       3.57395                     137.59755                      40.85048
                       3.79499                     146.54549                      43.37692
                       3.97001                     153.70966                      45.37739
                       4.13248                     160.91564                      47.23446
                       4.22321                     164.48663                      48.27155
        </DataArray>
        <DataArray type="Float32" Name="RotationalVelocity" NumberOfComponents="3" format="ascii">
                       2.71405                      -0.00000                      -0.23745
                       2.71405                      -0.00000                      -0.23745
                       2.71405                      -0.00000                      -0.23745
                       2.71405                      -0.00000                      -0.23745
                       2.71405                      -0.00000                      -0.23745
                       2.71405                      -0.00000                      -0.23745
                       2.71405                      -0.00000                      -0.23745
                       2.71405                      -0.00000                      -0.23745
                       2.71405                      -0.00000                      -0.23745
                       2.71405                      -0.00000                      -0.23745
                       2.71405                      -0.00000                      -0.23745
                       2.71405                      -0.00000                      -0.23745
                       2.71405                      -0.00000                      -0.23745
                       2.71405                      -0.00000                      -0.23745
                       2.71405                      -0.00000                      -0.23745
                       2.71405                      -0.00000                      -0.23745
                       2.71405                      -0.00000                      -0.23745
                       2.71405                      -0.00000                      -0.23745
                       2.71405                      -0.00000                      -0.23745
        </DataArray>
        <DataArray type="Float32" Name="TranslationalAcceleration" NumberOfComponents="3" format="ascii">
                       0.93060                      -3.11715                      10.63676
                       1.77785                      -5.98177                      20.32087
                       3.45451                     -12.38334                      39.48528
                       5.12277                     -19.10339                      58.55349
                       7.20310                     -27.69386                      82.33183
                       9.72685                     -36.98771                     111.17842
                      12.27482                     -45.35732                     140.30188
                      14.82320                     -53.70834                     169.42999
                      17.37238                     -62.02813                     198.56721
                      19.92199                     -70.33021                     227.70935
                      22.47132                     -78.64056                     256.84839
                      25.02068                     -86.94859                     285.98767
                      27.57004                     -95.25430                     315.12696
                      30.11937                    -103.55797                     344.26595
                      32.66869                    -111.86082                     373.40486
                      34.79314                    -118.77941                     397.68745
                      36.49409                    -124.25774                     417.12933
                      38.20497                    -129.34392                     436.68481
                      39.05281                    -132.18385                     446.37561
        </DataArray>
        <DataArray type="Float32" Name="OrientationX" NumberOfComponents="3" format="ascii">
                       0.99160                       0.01221                      -0.12879
                       0.99160                       0.01221                      -0.12879
                       0.99160                       0.01221                      -0.12879
                       0.99160                       0.01221                      -0.12879
                       0.99160                       0.01221                      -0.12879
                       0.99160                       0.01221                      -0.12879
                       0.99160                       0.01221                      -0.12879
                       0.99160                       0.01221                      -0.12879
                       0.99160                       0.01221                      -0.12879
                       0.99160                       0.01221                      -0.12879
                       0.99160                       0.01221                      -0.12879
                       0.99160                       0.01221                      -0.12879
                       0.99160                       0.01221                      -0.12879
                       0.99160                       0.01221                      -0.12879
                       0.99160                       0.01221                      -0.12879
                       0.99160                       0.01221                      -0.12879
                       0.99160                       0.01221                      -0.12879
                       0.99160                       0.01221                      -0.12879
                       0.99160                       0.01221                      -0.12879
        </DataArray>
        <DataArray type="Float32" Name="OrientationY" NumberOfComponents="3" format="ascii">
                      -0.02439                      -0.96004                      -0.27881
                      -0.02439                      -0.96004                      -0.27881
                      -0.02439                      -0.96004                      -0.27881
                      -0.02439                      -0.96004                      -0.27881
                      -0.02439                      -0.96004                      -0.27881
                      -0.02439                      -0.96004                      -0.27881
                      -0.02439                      -0.96004                      -0.27881
                      -0.02439                      -0.96004                      -0.27881
                      -0.02439                      -0.96004                      -0.27881
                      -0.02439                      -0.96004                      -0.27881
                      -0.02439                      -0.96004                      -0.27881
                      -0.02439                      -0.96004                      -0.27881
                      -0.02439                      -0.96004                      -0.27881
                      -0.02439                      -0.96004                      -0.27881
                      -0.02439                      -0.96004                      -0.27881
                      -0.02439                      -0.96004                      -0.27881
                      -0.02439                      -0.96004                      -0.27881
                      -0.02439                      -0.96004                      -0.27881
                      -0.02439                      -0.96004                      -0.27881
        </DataArray>
        <DataArray type="Float32" Name="OrientationZ" NumberOfComponents="3" format="ascii">
                      -0.12705                       0.27961                      -0.95167
                      -0.12705                       0.27961                      -0.95167
                      -0.12705                       0.27961                      -0.95167
                      -0.12705                       0.27961                      -0.95167
                      -0.12705                       0.27961                      -0.95167
                      -0.12705                       0.27961                      -0.95167
                      -0.12705                       0.27961                      -0.95167
                      -0.12705                       0.27961                      -0.95167
                      -0.12705                       0.27961                      -0.95167
                      -0.12705                       0.27961                      -0.95167
                      -0.12705                       0.27961                      -0.95167
                      -0.12705                       0.27961                      -0.95167
                      -0.12705                       0.27961                      -0.95167
                      -0.12705                       0.27961                      -0.95167
                      -0.12705                       0.27961                      -0.95167
                      -0.12705                       0.27961                      -0.95167
                      -0.12705                       0.27961                      -0.95167
                      -0.12705                       0.27961                      -0.95167
                      -0.12705                       0.27961                      -0.95167
        </DataArray>
        <DataArray type="Float32" Name="Force" NumberOfComponents="3" format="ascii">
                      -0.35924                     -14.13860                      -4.10612
                     138.47157                     -91.67271                     -45.42020
                     217.33434                    -287.90328                    -113.60301
                     225.42850                    -449.40104                    -162.13344
                    2526.31332                     217.41655                    -273.37908
                    3220.34341                     174.90232                    -378.52208
                    4112.94308                     154.26874                    -503.74499
                    6001.20989                     174.88867                    -749.76702
                    6850.91846                     106.04251                    -883.42945
                    8044.98438                      91.07144                   -1047.23388
                    7671.71735                    -149.13500                   -1067.97874
                    8762.37676                    -179.63900                   -1222.54234
                   12235.40201                     -13.44996                   -1637.35707
                   12612.38442                     -59.45227                   -1701.19958
                   11545.18692                    -142.42952                   -1583.11018
                   12220.91322                    -138.90126                   -1672.28185
                   13883.61018                     -60.79278                   -1871.29991
                   12661.91716                     183.33950                   -1636.47714
                   11149.30813                     -21.48804                   -1494.72707
        </DataArray>
        <DataArray type="Float32" Name="Moment" NumberOfComponents="3" format="ascii">
                       0.00000                       0.00000                       0.00000
                       0.00000                       0.00000                       0.00000
                       0.00000                       0.00000                       0.00000
                       0.00000                       0.00000                       0.00000
                     164.91508                    -362.95534                    1235.33475
                     328.33192                    -722.61324                    2459.44649
                     458.83754                   -1009.83811                    3437.02921
                     699.14351                   -1538.71839                    5237.09689
                    1009.00370                   -2220.67790                    7558.17661
                    1150.32937                   -2531.71621                    8616.80940
                    1287.33901                   -2833.25551                    9643.11194
                    1307.64997                   -2877.95713                    9795.25589
                    1092.50561                   -2404.45410                    8183.66712
                    1092.38815                   -2404.19557                    8182.78721
                    1086.29953                   -2390.79535                    8137.17898
                     959.55588                   -2111.85009                    7187.77628
                     902.93643                   -1987.23848                    6763.65511
                     466.34179                   -1026.35393                    3493.24153
                     465.20189                   -1023.84516                    3484.70281
        </DataArray>
      </PointData>
      <Lines>
        <DataArray type="Int32" Name="connectivity" format="ascii">
      0      1
      1      2
      2      3
      3      4
      4      5
      5      6
      6      7
      7      8
      8      9
      9     10
     10     11
     11     12
     12     13
     13     14
     14     15
     15     16
     16     17
     17     18
        </DataArray>
        <DataArray type="Int32" Name="offsets" format="ascii">
      2
      4
      6
      8
     10
     12
     14
     16
     18
     20
     22
     24
     26
     28
     30
     32
     34
     36
        </DataArray>
      </Lines>
    </Piece>
  </PolyData>
</VTKFile>
