<?xml version="1.0"?>
<VTKFile type="PolyData" version="0.1" byte_order="LittleEndian">
  <PolyData>
    <Piece NumberOfPoints="     19" NumberOfVerts="  0" NumberOfLines="     18"
           NumberOfStrips="  0" NumberOfPolys="      0">
      <Points>
        <DataArray type="Float32" NumberOfComponents="3" format="ascii">
                      -5.18071                       0.69910                      88.68524
                      -5.34602                       1.33911                      87.48902
                      -5.69500                       2.70236                      85.14348
                      -6.05268                       4.10506                      82.82010
                      -6.50498                       5.88202                      79.92906
                      -7.00108                       7.88888                      76.38671
                      -7.47861                       9.78123                      72.78091
                      -7.95850                      11.67124                      69.17420
                      -8.43845                      13.55738                      65.56544
                      -8.91921                      15.44131                      61.95562
                      -9.40195                      17.32625                      58.34660
                      -9.88601                      19.21089                      54.73761
                     -10.37203                      21.09523                      51.12872
                     -10.86072                      22.97929                      47.52005
                     -11.35034                      24.86324                      43.91146
                     -11.75900                      26.43314                      40.90431
                     -12.08679                      27.68202                      38.49504
                     -12.41811                      28.88221                      36.06037
                     -12.58275                      29.51914                      34.86253
        </DataArray>
      </Points>
      <PointData>
        <DataArray type="Float32" Name="TranslationalVelocity" NumberOfComponents="3" format="ascii">
                       0.16192                       3.52242                       1.85073
                       0.31015                       6.72747                       3.54503
                       0.62589                      13.01765                       7.15397
                       0.95077                      19.25116                      10.86732
                       1.36233                      27.00938                      15.57148
                       1.82713                      36.50194                      20.88424
                       2.26542                      46.15817                      25.89384
                       2.70316                      55.81735                      30.89727
                       3.14001                      65.48199                      35.89044
                       3.57634                      75.14962                      40.87778
                       4.01291                      84.81557                      45.86779
                       4.44941                      94.48177                      50.85700
                       4.88584                     104.14814                      55.84540
                       5.32220                     113.81455                      60.83306
                       5.75854                     123.48099                      65.82043
                       6.12214                     131.53645                      69.97643
                       6.41140                     137.99043                      73.28261
                       6.68937                     144.51249                      76.45987
                       6.83689                     147.72165                      78.14601
        </DataArray>
        <DataArray type="Float32" Name="RotationalVelocity" NumberOfComponents="3" format="ascii">
                       2.64730                      -0.00000                      -0.23161
                       2.64730                      -0.00000                      -0.23161
                       2.64730                      -0.00000                      -0.23161
                       2.64730                      -0.00000                      -0.23161
                       2.64730                      -0.00000                      -0.23161
                       2.64730                      -0.00000                      -0.23161
                       2.64730                      -0.00000                      -0.23161
                       2.64730                      -0.00000                      -0.23161
                       2.64730                      -0.00000                      -0.23161
                       2.64730                      -0.00000                      -0.23161
                       2.64730                      -0.00000                      -0.23161
                       2.64730                      -0.00000                      -0.23161
                       2.64730                      -0.00000                      -0.23161
                       2.64730                      -0.00000                      -0.23161
                       2.64730                      -0.00000                      -0.23161
                       2.64730                      -0.00000                      -0.23161
                       2.64730                      -0.00000                      -0.23161
                       2.64730                      -0.00000                      -0.23161
                       2.64730                      -0.00000                      -0.23161
        </DataArray>
        <DataArray type="Float32" Name="TranslationalAcceleration" NumberOfComponents="3" format="ascii">
                       0.81615                      -4.92987                       9.32863
                       1.55876                      -9.44305                      17.81675
                       3.01626                     -19.05748                      34.47600
                       4.46065                     -28.95055                      50.98545
                       6.25835                     -41.48358                      71.53323
                       8.45784                     -55.63662                      96.67358
                      10.69519                     -68.98062                     122.24657
                      12.93322                     -82.30817                     147.82739
                      15.17251                     -95.60833                     173.42262
                      17.41250                    -108.89293                     199.02577
                      19.65210                    -122.18464                     224.62447
                      21.89175                    -135.47424                     250.22383
                      24.13144                    -148.76167                     275.82365
                      26.37114                    -162.04715                     301.42355
                      28.61085                    -175.33184                     327.02355
                      30.47730                    -186.40203                     348.35713
                      31.97268                    -195.20848                     365.44939
                      33.48380                    -203.67091                     382.72161
                      34.22737                    -208.16235                     391.22062
        </DataArray>
        <DataArray type="Float32" Name="OrientationX" NumberOfComponents="3" format="ascii">
                       0.99188                       0.02035                      -0.12551
                       0.99188                       0.02035                      -0.12551
                       0.99188                       0.02035                      -0.12551
                       0.99188                       0.02035                      -0.12551
                       0.99188                       0.02035                      -0.12551
                       0.99188                       0.02035                      -0.12551
                       0.99188                       0.02035                      -0.12551
                       0.99188                       0.02035                      -0.12551
                       0.99188                       0.02035                      -0.12551
                       0.99188                       0.02035                      -0.12551
                       0.99188                       0.02035                      -0.12551
                       0.99188                       0.02035                      -0.12551
                       0.99188                       0.02035                      -0.12551
                       0.99188                       0.02035                      -0.12551
                       0.99188                       0.02035                      -0.12551
                       0.99188                       0.02035                      -0.12551
                       0.99188                       0.02035                      -0.12551
                       0.99188                       0.02035                      -0.12551
                       0.99188                       0.02035                      -0.12551
        </DataArray>
        <DataArray type="Float32" Name="OrientationY" NumberOfComponents="3" format="ascii">
                      -0.04066                      -0.88451                      -0.46474
                      -0.04066                      -0.88451                      -0.46474
                      -0.04066                      -0.88451                      -0.46474
                      -0.04066                      -0.88451                      -0.46474
                      -0.04066                      -0.88451                      -0.46474
                      -0.04066                      -0.88451                      -0.46474
                      -0.04066                      -0.88451                      -0.46474
                      -0.04066                      -0.88451                      -0.46474
                      -0.04066                      -0.88451                      -0.46474
                      -0.04066                      -0.88451                      -0.46474
                      -0.04066                      -0.88451                      -0.46474
                      -0.04066                      -0.88451                      -0.46474
                      -0.04066                      -0.88451                      -0.46474
                      -0.04066                      -0.88451                      -0.46474
                      -0.04066                      -0.88451                      -0.46474
                      -0.04066                      -0.88451                      -0.46474
                      -0.04066                      -0.88451                      -0.46474
                      -0.04066                      -0.88451                      -0.46474
                      -0.04066                      -0.88451                      -0.46474
        </DataArray>
        <DataArray type="Float32" Name="OrientationZ" NumberOfComponents="3" format="ascii">
                      -0.12047                       0.46607                      -0.87651
                      -0.12047                       0.46607                      -0.87651
                      -0.12047                       0.46607                      -0.87651
                      -0.12047                       0.46607                      -0.87651
                      -0.12047                       0.46607                      -0.87651
                      -0.12047                       0.46607                      -0.87651
                      -0.12047                       0.46607                      -0.87651
                      -0.12047                       0.46607                      -0.87651
                      -0.12047                       0.46607                      -0.87651
                      -0.12047                       0.46607                      -0.87651
                      -0.12047                       0.46607                      -0.87651
                      -0.12047                       0.46607                      -0.87651
                      -0.12047                       0.46607                      -0.87651
                      -0.12047                       0.46607                      -0.87651
                      -0.12047                       0.46607                      -0.87651
                      -0.12047                       0.46607                      -0.87651
                      -0.12047                       0.46607                      -0.87651
                      -0.12047                       0.46607                      -0.87651
                      -0.12047                       0.46607                      -0.87651
        </DataArray>
        <DataArray type="Float32" Name="Force" NumberOfComponents="3" format="ascii">
                      -0.49986                     -10.87421                      -5.71347
                     137.74999                     -75.43887                     -59.04619
                     217.00020                    -245.81633                    -160.53391
                     223.76099                    -390.14202                    -238.20584
                    2570.72372                     238.99803                    -226.24667
                    3312.92335                     209.65133                    -343.86193
                    4236.45940                     204.39353                    -473.59187
                    6110.09658                     245.57669                    -709.21305
                    6924.70906                     190.88142                    -850.25966
                    8080.55339                     190.36130                   -1009.39974
                   10137.00047                     129.71928                   -1324.29076
                   10952.74020                      65.79486                   -1470.39975
                   12737.57967                     219.28463                   -1634.09913
                   13649.56193                     213.07419                   -1762.74763
                   14447.61699                     213.90693                   -1871.99247
                   14988.57430                     218.98914                   -1943.64126
                   15104.22776                     243.21672                   -1946.65450
                   12448.26301                     315.83638                   -1542.99465
                   10596.01572                      78.46750                   -1414.63176
        </DataArray>
        <DataArray type="Float32" Name="Moment" NumberOfComponents="3" format="ascii">
                       0.00000                       0.00000                       0.00000
                       0.00000                       0.00000                       0.00000
                       0.00000                       0.00000                       0.00000
                       0.00000                       0.00000                       0.00000
                     155.53918                    -601.73940                    1131.65750
                     305.35180                   -1181.32423                    2221.65015
                     423.61295                   -1638.84491                    3082.08361
                     639.23937                   -2473.04572                    4650.91823
                     916.52774                   -3545.80009                    6668.38715
                    1042.06617                   -4031.47462                    7581.76796
                    1153.98443                   -4464.45634                    8396.05238
                    1244.67325                   -4815.30711                    9055.87771
                     979.62631                   -3789.91154                    7127.47384
                     978.61660                   -3786.00525                    7120.12750
                     951.03146                   -3679.28575                    6919.42613
                     908.33892                   -3514.11976                    6608.80772
                     815.24062                   -3153.94738                    5931.45175
                     424.07566                   -1640.63501                    3085.45015
                     419.22161                   -1621.85599                    3050.13350
        </DataArray>
      </PointData>
      <Lines>
        <DataArray type="Int32" Name="connectivity" format="ascii">
      0      1
      1      2
      2      3
      3      4
      4      5
      5      6
      6      7
      7      8
      8      9
      9     10
     10     11
     11     12
     12     13
     13     14
     14     15
     15     16
     16     17
     17     18
        </DataArray>
        <DataArray type="Int32" Name="offsets" format="ascii">
      2
      4
      6
      8
     10
     12
     14
     16
     18
     20
     22
     24
     26
     28
     30
     32
     34
     36
        </DataArray>
      </Lines>
    </Piece>
  </PolyData>
</VTKFile>
