<?xml version="1.0"?>
<VTKFile type="PolyData" version="0.1" byte_order="LittleEndian">
  <PolyData>
    <Piece NumberOfPoints="     19" NumberOfVerts="  0" NumberOfLines="     18"
           NumberOfStrips="  0" NumberOfPolys="      0">
      <Points>
        <DataArray type="Float32" NumberOfComponents="3" format="ascii">
                      -4.94381                       0.55360                      91.39298
                      -4.89332                       1.05478                      92.66347
                      -4.81165                       1.96878                      95.24024
                      -4.73914                       2.84094                      97.83401
                      -4.65395                       3.90618                     101.08644
                      -4.50350                       5.31826                     104.93420
                      -4.33321                       6.85155                     108.73299
                      -4.16528                       8.38721                     112.53093
                      -3.99737                       9.92694                     116.32725
                      -3.83025                      11.46896                     120.12269
                      -3.66514                      13.00985                     123.91867
                      -3.50135                      14.55100                     127.71460
                      -3.33954                      16.09240                     131.51050
                      -3.18041                      17.63399                     135.30644
                      -3.02222                      19.17566                     139.10238
                      -2.89103                      20.46045                     142.26571
                      -2.78688                      21.49560                     144.79343
                      -2.68582                      22.58186                     147.30096
                      -2.63463                      23.08623                     148.57005
        </DataArray>
      </Points>
      <PointData>
        <DataArray type="Float32" Name="TranslationalVelocity" NumberOfComponents="3" format="ascii">
                       0.12451                      -3.59346                       1.42310
                       0.23722                      -6.87079                       2.71146
                       0.44278                     -13.51311                       5.06101
                       0.63893                     -20.19706                       7.30303
                       0.87851                     -28.57704                      10.04137
                       1.19609                     -38.50207                      13.67132
                       1.54093                     -48.30567                      17.61286
                       1.88630                     -58.10657                      21.56048
                       2.23259                     -67.90330                      25.51857
                       2.57939                     -77.69760                      29.48255
                       2.92594                     -87.49281                      33.44361
                       3.27254                     -97.28760                      37.40535
                       3.61921                    -107.08189                      41.36773
                       3.96591                    -116.87566                      45.33060
                       4.31264                    -126.66923                      49.29368
                       4.60159                    -134.83049                      52.59641
                       4.83440                    -141.35176                      55.25741
                       5.07870                    -147.82044                      58.04979
                       5.19213                    -151.09433                      59.34632
        </DataArray>
        <DataArray type="Float32" Name="RotationalVelocity" NumberOfComponents="3" format="ascii">
                       2.57064                      -0.00000                      -0.22490
                       2.57064                      -0.00000                      -0.22490
                       2.57064                      -0.00000                      -0.22490
                       2.57064                      -0.00000                      -0.22490
                       2.57064                      -0.00000                      -0.22490
                       2.57064                      -0.00000                      -0.22490
                       2.57064                      -0.00000                      -0.22490
                       2.57064                      -0.00000                      -0.22490
                       2.57064                      -0.00000                      -0.22490
                       2.57064                      -0.00000                      -0.22490
                       2.57064                      -0.00000                      -0.22490
                       2.57064                      -0.00000                      -0.22490
                       2.57064                      -0.00000                      -0.22490
                       2.57064                      -0.00000                      -0.22490
                       2.57064                      -0.00000                      -0.22490
                       2.57064                      -0.00000                      -0.22490
                       2.57064                      -0.00000                      -0.22490
                       2.57064                      -0.00000                      -0.22490
                       2.57064                      -0.00000                      -0.22490
        </DataArray>
        <DataArray type="Float32" Name="TranslationalAcceleration" NumberOfComponents="3" format="ascii">
                      -0.80767                      -3.70097                      -9.23167
                      -1.54428                      -7.05165                     -17.65122
                      -3.03731                     -13.16490                     -34.71660
                      -4.53974                     -18.99976                     -51.88944
                      -6.42343                     -26.12721                     -73.42014
                      -8.65429                     -35.57052                     -98.91894
                     -10.85772                     -45.82047                    -124.10431
                     -13.06055                     -56.08613                    -149.28272
                     -15.26243                     -66.37891                    -174.45037
                     -17.46376                     -76.68693                    -199.61174
                     -19.66531                     -86.98739                    -224.77549
                     -21.86675                     -97.28962                    -249.93811
                     -24.06809                    -107.59350                    -275.09947
                     -26.26930                    -117.89864                    -300.25949
                     -28.47047                    -128.20434                    -325.41900
                     -30.30477                    -136.79282                    -346.38514
                     -31.77046                    -143.71232                    -363.13807
                     -33.22428                    -150.97193                    -379.75528
                     -33.96012                    -154.34376                    -388.16595
        </DataArray>
        <DataArray type="Float32" Name="OrientationX" NumberOfComponents="3" format="ascii">
                       0.99878                       0.01611                      -0.04669
                       0.99878                       0.01611                      -0.04669
                       0.99878                       0.01611                      -0.04669
                       0.99878                       0.01611                      -0.04669
                       0.99878                       0.01611                      -0.04669
                       0.99878                       0.01611                      -0.04669
                       0.99878                       0.01611                      -0.04669
                       0.99878                       0.01611                      -0.04669
                       0.99878                       0.01611                      -0.04669
                       0.99878                       0.01611                      -0.04669
                       0.99878                       0.01611                      -0.04669
                       0.99878                       0.01611                      -0.04669
                       0.99878                       0.01611                      -0.04669
                       0.99878                       0.01611                      -0.04669
                       0.99878                       0.01611                      -0.04669
                       0.99878                       0.01611                      -0.04669
                       0.99878                       0.01611                      -0.04669
                       0.99878                       0.01611                      -0.04669
                       0.99878                       0.01611                      -0.04669
        </DataArray>
        <DataArray type="Float32" Name="OrientationY" NumberOfComponents="3" format="ascii">
                      -0.03220                       0.92926                      -0.36801
                      -0.03220                       0.92926                      -0.36801
                      -0.03220                       0.92926                      -0.36801
                      -0.03220                       0.92926                      -0.36801
                      -0.03220                       0.92926                      -0.36801
                      -0.03220                       0.92926                      -0.36801
                      -0.03220                       0.92926                      -0.36801
                      -0.03220                       0.92926                      -0.36801
                      -0.03220                       0.92926                      -0.36801
                      -0.03220                       0.92926                      -0.36801
                      -0.03220                       0.92926                      -0.36801
                      -0.03220                       0.92926                      -0.36801
                      -0.03220                       0.92926                      -0.36801
                      -0.03220                       0.92926                      -0.36801
                      -0.03220                       0.92926                      -0.36801
                      -0.03220                       0.92926                      -0.36801
                      -0.03220                       0.92926                      -0.36801
                      -0.03220                       0.92926                      -0.36801
                      -0.03220                       0.92926                      -0.36801
        </DataArray>
        <DataArray type="Float32" Name="OrientationZ" NumberOfComponents="3" format="ascii">
                       0.03746                       0.36907                       0.92865
                       0.03746                       0.36907                       0.92865
                       0.03746                       0.36907                       0.92865
                       0.03746                       0.36907                       0.92865
                       0.03746                       0.36907                       0.92865
                       0.03746                       0.36907                       0.92865
                       0.03746                       0.36907                       0.92865
                       0.03746                       0.36907                       0.92865
                       0.03746                       0.36907                       0.92865
                       0.03746                       0.36907                       0.92865
                       0.03746                       0.36907                       0.92865
                       0.03746                       0.36907                       0.92865
                       0.03746                       0.36907                       0.92865
                       0.03746                       0.36907                       0.92865
                       0.03746                       0.36907                       0.92865
                       0.03746                       0.36907                       0.92865
                       0.03746                       0.36907                       0.92865
                       0.03746                       0.36907                       0.92865
                       0.03746                       0.36907                       0.92865
        </DataArray>
        <DataArray type="Float32" Name="Force" NumberOfComponents="3" format="ascii">
                      -0.42282                      12.20352                      -4.83289
                     178.68791                     101.33316                     -47.47999
                     255.55748                     290.14021                    -125.61682
                     250.78990                     430.74705                    -181.30472
                    2971.41835                    -247.44368                     -21.52278
                    3711.09945                    -167.89463                     -82.97486
                    4636.44925                    -123.04200                    -138.12741
                    6500.23953                     -97.16523                    -223.59373
                    7202.80438                       4.38854                    -292.29376
                    8384.44328                      45.66117                    -356.36183
                   10688.69519                     138.95796                    -486.38986
                   12119.50759                     182.12956                    -561.26389
                   13597.28415                     121.54594                    -596.79779
                   14776.40127                     138.07787                    -650.93165
                   15840.51967                     141.29335                    -695.13439
                   16610.42896                     133.33655                    -723.02910
                   16828.81216                     102.92804                    -719.75333
                   13489.67634                      -8.40904                    -540.81013
                   10063.62363                     300.12509                    -525.22680
        </DataArray>
        <DataArray type="Float32" Name="Moment" NumberOfComponents="3" format="ascii">
                       0.00000                       0.00000                       0.00000
                       0.00000                       0.00000                       0.00000
                       0.00000                       0.00000                       0.00000
                       0.00000                       0.00000                       0.00000
                     -46.00124                    -453.21303                   -1140.38303
                     -92.00534                    -906.45431                   -2280.83714
                    -126.76091                   -1248.87289                   -3142.43713
                    -190.16026                   -1873.49554                   -4714.12421
                    -271.44890                   -2674.36678                   -6729.29129
                    -308.68330                   -3041.20735                   -7652.34232
                    -337.69496                   -3327.03573                   -8371.54900
                    -360.02526                   -3547.03819                   -8925.12327
                    -296.12628                   -2917.49313                   -7341.05033
                    -296.98557                   -2925.95900                   -7362.35230
                    -289.68497                   -2854.03205                   -7181.36837
                    -277.47308                   -2733.71825                   -6878.63256
                    -249.32636                   -2456.41132                   -6180.86771
                    -128.52999                   -1266.30218                   -3186.29302
                    -122.92310                   -1211.06208                   -3047.29687
        </DataArray>
      </PointData>
      <Lines>
        <DataArray type="Int32" Name="connectivity" format="ascii">
      0      1
      1      2
      2      3
      3      4
      4      5
      5      6
      6      7
      7      8
      8      9
      9     10
     10     11
     11     12
     12     13
     13     14
     14     15
     15     16
     16     17
     17     18
        </DataArray>
        <DataArray type="Int32" Name="offsets" format="ascii">
      2
      4
      6
      8
     10
     12
     14
     16
     18
     20
     22
     24
     26
     28
     30
     32
     34
     36
        </DataArray>
      </Lines>
    </Piece>
  </PolyData>
</VTKFile>
