<?xml version="1.0"?>
<VTKFile type="PolyData" version="0.1" byte_order="LittleEndian">
  <PolyData>
    <Piece NumberOfPoints="    625" NumberOfVerts="  0" NumberOfLines="      0"
           NumberOfStrips="  0" NumberOfPolys="    600">
      <Points>
        <DataArray type="Float32" NumberOfComponents="3" format="ascii">
                      -5.09941                      -0.97415                      88.86372
                      -5.09941                      -0.97415                      88.86372
                      -5.09941                      -0.97415                      88.86372
                      -5.09941                      -0.97415                      88.86372
                      -5.09941                      -0.97415                      88.86372
                      -5.09941                      -0.97415                      88.86372
                      -5.09941                      -0.97415                      88.86372
                      -5.09941                      -0.97415                      88.86372
                      -5.09941                      -0.97415                      88.86372
                      -5.09941                      -0.97415                      88.86372
                      -5.09941                      -0.97415                      88.86372
                      -5.09941                      -0.97415                      88.86372
                      -5.09941                      -0.97415                      88.86372
                      -5.09941                      -0.97415                      88.86372
                      -5.09941                      -0.97415                      88.86372
                      -5.09941                      -0.97415                      88.86372
                      -5.09941                      -0.97415                      88.86372
                      -5.09941                      -0.97415                      88.86372
                      -5.09941                      -0.97415                      88.86372
                      -5.09941                      -0.97415                      88.86372
                      -5.09941                      -0.97415                      88.86372
                      -5.09941                      -0.97415                      88.86372
                      -5.09941                      -0.97415                      88.86372
                      -5.09941                      -0.97415                      88.86372
                      -5.09941                      -0.97415                      88.86372
                      -4.49393                      -0.89297                      88.90616
                      -4.52113                      -0.77961                      88.81135
                      -4.58415                      -0.67336                      88.72578
                      -4.67902                      -0.58092                      88.65483
                      -4.79978                      -0.50808                      88.60295
                      -4.93886                      -0.45943                      88.57340
                      -5.08749                      -0.43802                      88.56805
                      -5.23636                      -0.44519                      88.58723
                      -5.37611                      -0.48050                      88.62973
                      -5.49794                      -0.54173                      88.69288
                      -5.59422                      -0.62503                      88.77271
                      -5.65888                      -0.72516                      88.86421
                      -5.68787                      -0.83584                      88.96163
                      -5.67936                      -0.95011                      89.05885
                      -5.63390                      -1.06078                      89.14976
                      -5.55433                      -1.16092                      89.22864
                      -5.44565                      -1.24421                      89.29055
                      -5.31470                      -1.30544                      89.33158
                      -5.16970                      -1.34075                      89.34917
                      -5.01977                      -1.34793                      89.34220
                      -4.87431                      -1.32652                      89.31112
                      -4.74248                      -1.27786                      89.25788
                      -4.63256                      -1.20503                      89.18582
                      -4.55145                      -1.11258                      89.09947
                      -4.50425                      -1.00634                      89.00425
                      -4.25684                      -0.81179                      88.98083
                      -4.29447                      -0.65499                      88.84970
                      -4.38162                      -0.50804                      88.73134
                      -4.51284                      -0.38018                      88.63320
                      -4.67988                      -0.27944                      88.56145
                      -4.87223                      -0.21215                      88.52059
                      -5.07782                      -0.18253                      88.51319
                      -5.28372                      -0.19246                      88.53971
                      -5.47700                      -0.24129                      88.59849
                      -5.64552                      -0.32598                      88.68583
                      -5.77868                      -0.44119                      88.79625
                      -5.86812                      -0.57969                      88.92281
                      -5.90821                      -0.73277                      89.05756
                      -5.89645                      -0.89082                      89.19203
                      -5.83356                      -1.04390                      89.31776
                      -5.72351                      -1.18239                      89.42687
                      -5.57320                      -1.29761                      89.51249
                      -5.39207                      -1.38229                      89.56925
                      -5.19152                      -1.43113                      89.59357
                      -4.98414                      -1.44105                      89.58394
                      -4.78296                      -1.41144                      89.54094
                      -4.60063                      -1.34415                      89.46730
                      -4.44859                      -1.24340                      89.36763
                      -4.33640                      -1.11554                      89.24820
                      -4.27112                      -0.96859                      89.11651
                      -4.08618                      -0.73061                      89.06132
                      -4.13120                      -0.54299                      88.90440
                      -4.23549                      -0.36715                      88.76278
                      -4.39250                      -0.21415                      88.64535
                      -4.59237                      -0.09361                      88.55949
                      -4.82254                      -0.01309                      88.51059
                      -5.06855                       0.02235                      88.50174
                      -5.31493                       0.01048                      88.53347
                      -5.54621                      -0.04796                      88.60381
                      -5.74785                      -0.14930                      88.70832
                      -5.90719                      -0.28716                      88.84045
                      -6.01421                      -0.45288                      88.99189
                      -6.06219                      -0.63606                      89.15313
                      -6.04811                      -0.82517                      89.31403
                      -5.97286                      -1.00835                      89.46448
                      -5.84117                      -1.17407                      89.59504
                      -5.66131                      -1.31193                      89.69749
                      -5.44458                      -1.41326                      89.76540
                      -5.20460                      -1.47170                      89.79451
                      -4.95645                      -1.48358                      89.78298
                      -4.71572                      -1.44814                      89.73154
                      -4.49754                      -1.36762                      89.64342
                      -4.31562                      -1.24707                      89.52416
                      -4.18138                      -1.09407                      89.38124
                      -4.10326                      -0.91824                      89.22366
                      -3.95250                      -0.64943                      89.14504
                      -4.00323                      -0.43800                      88.96821
                      -4.12075                      -0.23986                      88.80862
                      -4.29769                      -0.06745                      88.67630
                      -4.52291                       0.06839                      88.57954
                      -4.78228                       0.15913                      88.52444
                      -5.05950                       0.19906                      88.51446
                      -5.33714                       0.18568                      88.55022
                      -5.59776                       0.11983                      88.62948
                      -5.82499                       0.00564                      88.74726
                      -6.00454                      -0.14971                      88.89615
                      -6.12514                      -0.33646                      89.06681
                      -6.17920                      -0.54288                      89.24850
                      -6.16334                      -0.75599                      89.42981
                      -6.07855                      -0.96240                      89.59935
                      -5.93015                      -1.14915                      89.74647
                      -5.72746                      -1.30450                      89.86192
                      -5.48324                      -1.41869                      89.93845
                      -5.21282                      -1.48455                      89.97125
                      -4.93318                      -1.49793                      89.95826
                      -4.66191                      -1.45800                      89.90029
                      -4.41605                      -1.36726                      89.80099
                      -4.21105                      -1.23142                      89.66660
                      -4.05978                      -1.05901                      89.50555
                      -3.97175                      -0.86086                      89.32798
                      -3.84428                      -0.56825                      89.23098
                      -3.89956                      -0.33785                      89.03830
                      -4.02763                      -0.12193                      88.86439
                      -4.22044                       0.06595                      88.72018
                      -4.46588                       0.21398                      88.61475
                      -4.74852                       0.31286                      88.55471
                      -5.05061                       0.35637                      88.54383
                      -5.35316                       0.34179                      88.58280
                      -5.63716                       0.27003                      88.66917
                      -5.88478                       0.14559                      88.79752
                      -6.08044                      -0.02370                      88.95977
                      -6.21186                      -0.22720                      89.14573
                      -6.27078                      -0.45214                      89.34373
                      -6.25349                      -0.68437                      89.54131
                      -6.16109                      -0.90931                      89.72606
                      -5.99937                      -1.11281                      89.88638
                      -5.77851                      -1.28210                      90.01219
                      -5.51237                      -1.40654                      90.09559
                      -5.21768                      -1.47830                      90.13133
                      -4.91296                      -1.49288                      90.11717
                      -4.61735                      -1.44937                      90.05400
                      -4.34943                      -1.35049                      89.94579
                      -4.12603                      -1.20246                      89.79934
                      -3.96118                      -1.01458                      89.62385
                      -3.86526                      -0.79865                      89.43034
                      -3.75561                      -0.48708                      89.31864
                      -3.81455                      -0.24142                      89.11319
                      -3.95111                      -0.01119                      88.92777
                      -4.15669                       0.18913                      88.77401
                      -4.41838                       0.34696                      88.66160
                      -4.71974                       0.45239                      88.59758
                      -5.04183                       0.49879                      88.58598
                      -5.36442                       0.48324                      88.62753
                      -5.66724                       0.40672                      88.71962
                      -5.93125                       0.27405                      88.85647
                      -6.13987                       0.09355                      89.02946
                      -6.27999                      -0.12344                      89.22775
                      -6.34281                      -0.36327                      89.43885
                      -6.32438                      -0.61088                      89.64952
                      -6.22586                      -0.85071                      89.84651
                      -6.05343                      -1.06770                      90.01745
                      -5.81794                      -1.24820                      90.15159
                      -5.53418                      -1.38087                      90.24051
                      -5.21997                      -1.45739                      90.27862
                      -4.89507                      -1.47294                      90.26352
                      -4.57988                      -1.42654                      90.19617
                      -4.29421                      -1.32111                      90.08079
                      -4.05602                      -1.16328                      89.92464
                      -3.88026                      -0.96296                      89.73753
                      -3.77798                      -0.73273                      89.53120
                      -3.68302                      -0.40590                      89.40771
                      -3.74489                      -0.14803                      89.19205
                      -3.88823                       0.09363                      88.99741
                      -4.10403                       0.30391                      88.83602
                      -4.37872                       0.46959                      88.71801
                      -4.69506                       0.58025                      88.65081
                      -5.03316                       0.62896                      88.63864
                      -5.37178                       0.61263                      88.68225
                      -5.68964                       0.53232                      88.77892
                      -5.96677                       0.39305                      88.92257
                      -6.18576                       0.20358                      89.10416
                      -6.33284                      -0.02419                      89.31229
                      -6.39878                      -0.27594                      89.53389
                      -6.37944                      -0.53585                      89.75503
                      -6.27602                      -0.78760                      89.96181
                      -6.09502                      -1.01537                      90.14124
                      -5.84783                      -1.20484                      90.28205
                      -5.54997                      -1.34411                      90.37538
                      -5.22015                      -1.42443                      90.41539
                      -4.87910                      -1.44075                      90.39954
                      -4.54825                      -1.39204                      90.32884
                      -4.24839                      -1.28138                      90.20773
                      -3.99836                      -1.11570                      90.04382
                      -3.81386                      -0.90543                      89.84741
                      -3.70650                      -0.66376                      89.63083
                      -3.62431                      -0.32472                      89.49798
                      -3.68847                      -0.05728                      89.27432
                      -3.83713                       0.19336                      89.07245
                      -4.06094                       0.41144                      88.90507
                      -4.34583                       0.58327                      88.78268
                      -4.67391                       0.69804                      88.71299
                      -5.02457                       0.74855                      88.70036
                      -5.37576                       0.73163                      88.74560
                      -5.70542                       0.64833                      88.84586
                      -5.99284                       0.50389                      88.99483
                      -6.21996                       0.30738                      89.18317
                      -6.37250                       0.07116                      89.39903
                      -6.44089                      -0.18993                      89.62885
                      -6.42083                      -0.45950                      89.85820
                      -6.31357                      -0.72060                      90.07266
                      -6.12586                      -0.95682                      90.25875
                      -5.86948                      -1.15332                      90.40478
                      -5.56056                      -1.29776                      90.50159
                      -5.21850                      -1.38106                      90.54307
                      -4.86479                      -1.39799                      90.52664
                      -4.52166                      -1.34748                      90.45332
                      -4.21066                      -1.23270                      90.32771
                      -3.95135                      -1.06087                      90.15771
                      -3.76001                      -0.84279                      89.95401
                      -3.64866                      -0.59216                      89.72939
                      -3.57801                      -0.24354                      89.58935
                      -3.64391                       0.03112                      89.35965
                      -3.79658                       0.28851                      89.15234
                      -4.02643                       0.51248                      88.98044
                      -4.31901                       0.68894                      88.85475
                      -4.65594                       0.80682                      88.78318
                      -5.01605                       0.85869                      88.77021
                      -5.37672                       0.84131                      88.81667
                      -5.71527                       0.75576                      88.91963
                      -6.01045                       0.60742                      89.07262
                      -6.24369                       0.40562                      89.26604
                      -6.40036                       0.16302                      89.48772
                      -6.47059                      -0.10512                      89.72375
                      -6.44998                      -0.38196                      89.95928
                      -6.33983                      -0.65010                      90.17953
                      -6.14705                      -0.89269                      90.37064
                      -5.88376                      -1.09450                      90.52061
                      -5.56651                      -1.24284                      90.62003
                      -5.21521                      -1.32838                      90.66264
                      -4.85196                      -1.34577                      90.64576
                      -4.49957                      -1.29389                      90.57046
                      -4.18019                      -1.17602                      90.44146
                      -3.91388                      -0.99956                      90.26688
                      -3.71737                      -0.77559                      90.05768
                      -3.60302                      -0.51819                      89.82700
                      -3.54318                      -0.16236                      89.68172
                      -3.61029                       0.11734                      89.44780
                      -3.76576                       0.37946                      89.23669
                      -3.99982                       0.60753                      89.06163
                      -4.29777                       0.78723                      88.93364
                      -4.64088                       0.90727                      88.86075
                      -5.00760                       0.96010                      88.84755
                      -5.37489                       0.94239                      88.89485
                      -5.71966                       0.85528                      88.99970
                      -6.02025                       0.70422                      89.15551
                      -6.25778                       0.49871                      89.35247
                      -6.41731                       0.25166                      89.57823
                      -6.48884                      -0.02140                      89.81858
                      -6.46785                      -0.30332                      90.05844
                      -6.35568                      -0.57638                      90.28272
                      -6.15936                      -0.82343                      90.47734
                      -5.89124                      -1.02893                      90.63007
                      -5.56816                      -1.17999                      90.73131
                      -5.21042                      -1.26711                      90.77470
                      -4.84050                      -1.28481                      90.75751
                      -4.48165                      -1.23199                      90.68083
                      -4.15640                      -1.11195                      90.54946
                      -3.88521                      -0.93225                      90.37168
                      -3.68510                      -0.70417                      90.15864
                      -3.56865                      -0.44205                      89.92373
                      -3.51919                      -0.08118                      89.77503
                      -3.58701                       0.20150                      89.53863
                      -3.74414                       0.46641                      89.32526
                      -3.98070                       0.69692                      89.14834
                      -4.28182                       0.87853                      89.01898
                      -4.62860                       0.99985                      88.94532
                      -4.99922                       1.05324                      88.93197
                      -5.37042                       1.03535                      88.97979
                      -5.71887                       0.94730                      89.08575
                      -6.02266                       0.79463                      89.24322
                      -6.26272                       0.58693                      89.44228
                      -6.42396                       0.33725                      89.67044
                      -6.49624                       0.06128                      89.91336
                      -6.47503                      -0.22364                      90.15577
                      -6.36166                      -0.49961                      90.38244
                      -6.16326                      -0.74929                      90.57914
                      -5.89228                      -0.95699                      90.73350
                      -5.56576                      -1.10966                      90.83581
                      -5.20420                      -1.19771                      90.87966
                      -4.83034                      -1.21560                      90.86229
                      -4.46766                      -1.16221                      90.78479
                      -4.13895                      -1.04089                      90.65203
                      -3.86486                      -0.85928                      90.47235
                      -3.66262                      -0.62877                      90.25704
                      -3.54493                      -0.36385                      90.01963
                      -3.50571                       0.00000                      89.86927
                      -3.57377                       0.28366                      89.63204
                      -3.73144                       0.54950                      89.41793
                      -3.96883                       0.78081                      89.24039
                      -4.27100                       0.96306                      89.11058
                      -4.61899                       1.08480                      89.03666
                      -4.99091                       1.13838                      89.02327
                      -5.36340                       1.12042                      89.07125
                      -5.71306                       1.03207                      89.17758
                      -6.01792                       0.87887                      89.33560
                      -6.25881                       0.67044                      89.53536
                      -6.42061                       0.41989                      89.76431
                      -6.49315                       0.14296                      90.00808
                      -6.47187                      -0.14296                      90.25133
                      -6.35810                      -0.41989                      90.47880
                      -6.15900                      -0.67044                      90.67618
                      -5.88708                      -0.87887                      90.83108
                      -5.55942                      -1.03207                      90.93375
                      -5.19660                      -1.12042                      90.97776
                      -4.82144                      -1.13838                      90.96032
                      -4.45749                      -1.08480                      90.88255
                      -4.12763                      -0.96306                      90.74933
                      -3.85259                      -0.78081                      90.56902
                      -3.64964                      -0.54950                      90.35296
                      -3.53154                      -0.28366                      90.11472
                      -3.50262                       0.08118                      89.96442
                      -3.57045                       0.36386                      89.72801
                      -3.72757                       0.62877                      89.51464
                      -3.96413                       0.85928                      89.33772
                      -4.26526                       1.04089                      89.20836
                      -4.61203                       1.16221                      89.13470
                      -4.98266                       1.21560                      89.12135
                      -5.35385                       1.19771                      89.16917
                      -5.70230                       1.10966                      89.27513
                      -6.00609                       0.95699                      89.43260
                      -6.24615                       0.74929                      89.63166
                      -6.40739                       0.49961                      89.85982
                      -6.47967                       0.22364                      90.10274
                      -6.45846                      -0.06128                      90.34515
                      -6.34510                      -0.33725                      90.57183
                      -6.14669                      -0.58693                      90.76852
                      -5.87571                      -0.79463                      90.92288
                      -5.54919                      -0.94730                      91.02519
                      -5.18764                      -1.03535                      91.06904
                      -4.81377                      -1.05324                      91.05167
                      -4.45109                      -0.99985                      90.97417
                      -4.12238                      -0.87853                      90.84141
                      -3.84830                      -0.69692                      90.66173
                      -3.64605                      -0.46641                      90.44642
                      -3.52836                      -0.20150                      90.20901
                      -3.51004                       0.16236                      90.06048
                      -3.57715                       0.44205                      89.82657
                      -3.73262                       0.70417                      89.61545
                      -3.96668                       0.93225                      89.44039
                      -4.26463                       1.11195                      89.31240
                      -4.60775                       1.23199                      89.23951
                      -4.97447                       1.28481                      89.22631
                      -5.34175                       1.26711                      89.27362
                      -5.68652                       1.17999                      89.37847
                      -5.98711                       1.02893                      89.53427
                      -6.22464                       0.82342                      89.73124
                      -6.38417                       0.57638                      89.95699
                      -6.45570                       0.30332                      90.19735
                      -6.43471                       0.02140                      90.43720
                      -6.32254                      -0.25166                      90.66148
                      -6.12622                      -0.49871                      90.85611
                      -5.85810                      -0.70422                      91.00883
                      -5.53502                      -0.85528                      91.11007
                      -5.17729                      -0.94239                      91.15346
                      -4.80737                      -0.96010                      91.13627
                      -4.44851                      -0.90727                      91.05959
                      -4.12327                      -0.78723                      90.92823
                      -3.85207                      -0.60753                      90.75044
                      -3.65196                      -0.37946                      90.53740
                      -3.53551                      -0.11734                      90.30249
                      -3.52831                       0.24354                      90.15749
                      -3.59420                       0.51819                      89.92779
                      -3.74687                       0.77559                      89.72048
                      -3.97672                       0.99956                      89.54858
                      -4.26930                       1.17602                      89.42289
                      -4.60623                       1.29389                      89.35132
                      -4.96634                       1.34577                      89.33835
                      -5.32701                       1.32838                      89.38481
                      -5.66557                       1.24284                      89.48777
                      -5.96074                       1.09450                      89.64077
                      -6.19399                       0.89269                      89.83418
                      -6.35065                       0.65010                      90.05587
                      -6.42088                       0.38196                      90.29189
                      -6.40028                       0.10512                      90.52743
                      -6.29013                      -0.16302                      90.74767
                      -6.09735                      -0.40562                      90.93878
                      -5.83406                      -0.60742                      91.08876
                      -5.51680                      -0.75576                      91.18817
                      -5.16551                      -0.84131                      91.23078
                      -4.80226                      -0.85869                      91.21390
                      -4.44987                      -0.80682                      91.13860
                      -4.13048                      -0.68894                      91.00960
                      -3.86417                      -0.51248                      90.83502
                      -3.66767                      -0.28851                      90.62582
                      -3.55332                      -0.03112                      90.39515
                      -3.55803                       0.32472                      90.25551
                      -3.62220                       0.59216                      90.03184
                      -3.77086                       0.84279                      89.82998
                      -3.99467                       1.06087                      89.66259
                      -4.27956                       1.23270                      89.54021
                      -4.60764                       1.34748                      89.47051
                      -4.95829                       1.39799                      89.45789
                      -5.30948                       1.38106                      89.50312
                      -5.63914                       1.29776                      89.60338
                      -5.92656                       1.15332                      89.75236
                      -6.15368                       0.95682                      89.94069
                      -6.30623                       0.72060                      90.15655
                      -6.37462                       0.45950                      90.38638
                      -6.35455                       0.18993                      90.61572
                      -6.24729                      -0.07116                      90.83018
                      -6.05958                      -0.30738                      91.01627
                      -5.80321                      -0.50389                      91.16231
                      -5.49429                      -0.64833                      91.25911
                      -5.15222                      -0.73163                      91.30060
                      -4.79851                      -0.74855                      91.28416
                      -4.45538                      -0.69804                      91.21084
                      -4.14439                      -0.58327                      91.08523
                      -3.88507                      -0.41144                      90.91524
                      -3.69373                      -0.19336                      90.71153
                      -3.58239                       0.05728                      90.48692
                      -3.60018                       0.40590                      90.35461
                      -3.66205                       0.66376                      90.13895
                      -3.80539                       0.90543                      89.94431
                      -4.02118                       1.11570                      89.78292
                      -4.29588                       1.28138                      89.66492
                      -4.61221                       1.39204                      89.59772
                      -4.95031                       1.44075                      89.58554
                      -5.28893                       1.42443                      89.62916
                      -5.60679                       1.34411                      89.72583
                      -5.88393                       1.20484                      89.86947
                      -6.10291                       1.01537                      90.05106
                      -6.25000                       0.78760                      90.25920
                      -6.31594                       0.53585                      90.48080
                      -6.29659                       0.27594                      90.70193
                      -6.19318                       0.02419                      90.90871
                      -6.01218                      -0.20358                      91.08814
                      -5.76499                      -0.39305                      91.22895
                      -5.46712                      -0.53232                      91.32229
                      -5.13730                      -0.61263                      91.36229
                      -4.79625                      -0.62896                      91.34644
                      -4.46541                      -0.58025                      91.27574
                      -4.16555                      -0.46959                      91.15463
                      -3.91551                      -0.30391                      90.99072
                      -3.73102                      -0.09363                      90.79431
                      -3.62366                       0.14803                      90.57774
                      -3.65620                       0.48708                      90.45493
                      -3.71514                       0.73273                      90.24948
                      -3.85169                       0.96296                      90.06405
                      -4.05727                       1.16328                      89.91030
                      -4.31897                       1.32111                      89.79788
                      -4.62033                       1.42654                      89.73386
                      -4.94242                       1.47294                      89.72227
                      -5.26501                       1.45739                      89.76382
                      -5.56782                       1.38087                      89.85591
                      -5.83184                       1.24820                      89.99275
                      -6.04046                       1.06770                      90.16575
                      -6.18058                       0.85071                      90.36403
                      -6.24340                       0.61088                      90.57514
                      -6.22497                       0.36327                      90.78581
                      -6.12645                       0.12344                      90.98280
                      -5.95402                      -0.09355                      91.15373
                      -5.71853                      -0.27405                      91.28788
                      -5.43476                      -0.40672                      91.37680
                      -5.12056                      -0.48324                      91.41490
                      -4.79565                      -0.49879                      91.39981
                      -4.48047                      -0.45239                      91.33246
                      -4.19480                      -0.34696                      91.21708
                      -3.95661                      -0.18913                      91.06093
                      -3.78085                       0.01119                      90.87381
                      -3.67857                       0.24142                      90.66749
                      -3.72830                       0.56825                      90.55665
                      -3.78358                       0.79865                      90.36396
                      -3.91165                       1.01458                      90.19005
                      -4.10446                       1.20246                      90.04585
                      -4.34990                       1.35049                      89.94042
                      -4.63254                       1.44937                      89.88038
                      -4.93463                       1.49288                      89.86950
                      -5.23718                       1.47830                      89.90847
                      -5.52118                       1.40654                      89.99484
                      -5.76880                       1.28210                      90.12318
                      -5.96446                       1.11281                      90.28544
                      -6.09588                       0.90931                      90.47140
                      -6.15480                       0.68437                      90.66940
                      -6.13751                       0.45214                      90.86698
                      -6.04511                       0.22720                      91.05173
                      -5.88339                       0.02370                      91.21205
                      -5.66252                      -0.14559                      91.33786
                      -5.39639                      -0.27003                      91.42126
                      -5.10170                      -0.34179                      91.45700
                      -4.79698                      -0.35637                      91.44284
                      -4.50137                      -0.31286                      91.37967
                      -4.23345                      -0.21398                      91.27146
                      -4.01004                      -0.06595                      91.12501
                      -3.84520                       0.12193                      90.94952
                      -3.74928                       0.33786                      90.75601
                      -3.81995                       0.64943                      90.66008
                      -3.87068                       0.86086                      90.48326
                      -3.98820                       1.05901                      90.32367
                      -4.16514                       1.23142                      90.19134
                      -4.39036                       1.36726                      90.09459
                      -4.64973                       1.45800                      90.03949
                      -4.92695                       1.49793                      90.02951
                      -5.20459                       1.48455                      90.06527
                      -5.46521                       1.41869                      90.14453
                      -5.69244                       1.30450                      90.26231
                      -5.87199                       1.14915                      90.41120
                      -5.99259                       0.96240                      90.58185
                      -6.04665                       0.75599                      90.76355
                      -6.03079                       0.54288                      90.94486
                      -5.94600                       0.33646                      91.11440
                      -5.79760                       0.14971                      91.26152
                      -5.59492                      -0.00564                      91.37697
                      -5.35069                      -0.11983                      91.45350
                      -5.08027                      -0.18568                      91.48630
                      -4.80063                      -0.19906                      91.47331
                      -4.52936                      -0.15913                      91.41534
                      -4.28350                      -0.06839                      91.31604
                      -4.07850                       0.06745                      91.18165
                      -3.92723                       0.23986                      91.02060
                      -3.83920                       0.43800                      90.84303
                      -3.93706                       0.73061                      90.76575
                      -3.98208                       0.91824                      90.60883
                      -4.08637                       1.09407                      90.46721
                      -4.24339                       1.24707                      90.34978
                      -4.44326                       1.36762                      90.26392
                      -4.67342                       1.44814                      90.21502
                      -4.91943                       1.48358                      90.20617
                      -5.16581                       1.47170                      90.23790
                      -5.39709                       1.41326                      90.30824
                      -5.59873                       1.31193                      90.41275
                      -5.75807                       1.17407                      90.54488
                      -5.86509                       1.00835                      90.69632
                      -5.91307                       0.82517                      90.85756
                      -5.89899                       0.63606                      91.01846
                      -5.82374                       0.45288                      91.16891
                      -5.69205                       0.28716                      91.29947
                      -5.51219                       0.14930                      91.40192
                      -5.29546                       0.04796                      91.46983
                      -5.05548                      -0.01048                      91.49894
                      -4.80733                      -0.02235                      91.48741
                      -4.56661                       0.01309                      91.43597
                      -4.34842                       0.09361                      91.34785
                      -4.16650                       0.21415                      91.22859
                      -4.03226                       0.36715                      91.08567
                      -3.95415                       0.54299                      90.92809
                      -4.09116                       0.81179                      90.87464
                      -4.12878                       0.96859                      90.74351
                      -4.21594                       1.11554                      90.62515
                      -4.34716                       1.24340                      90.52702
                      -4.51419                       1.34415                      90.45526
                      -4.70654                       1.41144                      90.41440
                      -4.91213                       1.44105                      90.40700
                      -5.11803                       1.43113                      90.43352
                      -5.31132                       1.38229                      90.49230
                      -5.47983                       1.29761                      90.57964
                      -5.61299                       1.18239                      90.69007
                      -5.70243                       1.04390                      90.81663
                      -5.74253                       0.89082                      90.95137
                      -5.73076                       0.73277                      91.08584
                      -5.66788                       0.57969                      91.21157
                      -5.55782                       0.44119                      91.32068
                      -5.40751                       0.32598                      91.40630
                      -5.22639                       0.24129                      91.46306
                      -5.02583                       0.19246                      91.48738
                      -4.81845                       0.18253                      91.47775
                      -4.61727                       0.21215                      91.43476
                      -4.43494                       0.27944                      91.36111
                      -4.28290                       0.38018                      91.26144
                      -4.17072                       0.50804                      91.14201
                      -4.10544                       0.65499                      91.01032
                      -4.31168                       0.89297                      90.98935
                      -4.33888                       1.00634                      90.89454
                      -4.40189                       1.11258                      90.80897
                      -4.49676                       1.20503                      90.73802
                      -4.61753                       1.27786                      90.68614
                      -4.75660                       1.32652                      90.65660
                      -4.90524                       1.34793                      90.65124
                      -5.05411                       1.34075                      90.67042
                      -5.19385                       1.30544                      90.71292
                      -5.31569                       1.24421                      90.77607
                      -5.41196                       1.16092                      90.85590
                      -5.47662                       1.06078                      90.94740
                      -5.50561                       0.95011                      91.04483
                      -5.49711                       0.83584                      91.14204
                      -5.45164                       0.72516                      91.23295
                      -5.37207                       0.62503                      91.31184
                      -5.26340                       0.54173                      91.37374
                      -5.13245                       0.48050                      91.41477
                      -4.98745                       0.44519                      91.43236
                      -4.83751                       0.43802                      91.42539
                      -4.69206                       0.45943                      91.39431
                      -4.56023                       0.50808                      91.34107
                      -4.45031                       0.58092                      91.26901
                      -4.36920                       0.67336                      91.18266
                      -4.32200                       0.77961                      91.08744
                      -4.90059                       0.97415                      91.13629
                      -4.90059                       0.97415                      91.13629
                      -4.90059                       0.97415                      91.13629
                      -4.90059                       0.97415                      91.13629
                      -4.90059                       0.97415                      91.13629
                      -4.90059                       0.97415                      91.13629
                      -4.90059                       0.97415                      91.13629
                      -4.90059                       0.97415                      91.13629
                      -4.90059                       0.97415                      91.13629
                      -4.90059                       0.97415                      91.13629
                      -4.90059                       0.97415                      91.13629
                      -4.90059                       0.97415                      91.13629
                      -4.90059                       0.97415                      91.13629
                      -4.90059                       0.97415                      91.13629
                      -4.90059                       0.97415                      91.13629
                      -4.90059                       0.97415                      91.13629
                      -4.90059                       0.97415                      91.13629
                      -4.90059                       0.97415                      91.13629
                      -4.90059                       0.97415                      91.13629
                      -4.90059                       0.97415                      91.13629
                      -4.90059                       0.97415                      91.13629
                      -4.90059                       0.97415                      91.13629
                      -4.90059                       0.97415                      91.13629
                      -4.90059                       0.97415                      91.13629
                      -4.90059                       0.97415                      91.13629
        </DataArray>
      </Points>
      <Polys>
        <DataArray type="Int32" Name="connectivity" format="ascii">
      0      1     26     25
      1      2     27     26
      2      3     28     27
      3      4     29     28
      4      5     30     29
      5      6     31     30
      6      7     32     31
      7      8     33     32
      8      9     34     33
      9     10     35     34
     10     11     36     35
     11     12     37     36
     12     13     38     37
     13     14     39     38
     14     15     40     39
     15     16     41     40
     16     17     42     41
     17     18     43     42
     18     19     44     43
     19     20     45     44
     20     21     46     45
     21     22     47     46
     22     23     48     47
     23     24     49     48
     24      0     25     49
     25     26     51     50
     26     27     52     51
     27     28     53     52
     28     29     54     53
     29     30     55     54
     30     31     56     55
     31     32     57     56
     32     33     58     57
     33     34     59     58
     34     35     60     59
     35     36     61     60
     36     37     62     61
     37     38     63     62
     38     39     64     63
     39     40     65     64
     40     41     66     65
     41     42     67     66
     42     43     68     67
     43     44     69     68
     44     45     70     69
     45     46     71     70
     46     47     72     71
     47     48     73     72
     48     49     74     73
     49     25     50     74
     50     51     76     75
     51     52     77     76
     52     53     78     77
     53     54     79     78
     54     55     80     79
     55     56     81     80
     56     57     82     81
     57     58     83     82
     58     59     84     83
     59     60     85     84
     60     61     86     85
     61     62     87     86
     62     63     88     87
     63     64     89     88
     64     65     90     89
     65     66     91     90
     66     67     92     91
     67     68     93     92
     68     69     94     93
     69     70     95     94
     70     71     96     95
     71     72     97     96
     72     73     98     97
     73     74     99     98
     74     50     75     99
     75     76    101    100
     76     77    102    101
     77     78    103    102
     78     79    104    103
     79     80    105    104
     80     81    106    105
     81     82    107    106
     82     83    108    107
     83     84    109    108
     84     85    110    109
     85     86    111    110
     86     87    112    111
     87     88    113    112
     88     89    114    113
     89     90    115    114
     90     91    116    115
     91     92    117    116
     92     93    118    117
     93     94    119    118
     94     95    120    119
     95     96    121    120
     96     97    122    121
     97     98    123    122
     98     99    124    123
     99     75    100    124
    100    101    126    125
    101    102    127    126
    102    103    128    127
    103    104    129    128
    104    105    130    129
    105    106    131    130
    106    107    132    131
    107    108    133    132
    108    109    134    133
    109    110    135    134
    110    111    136    135
    111    112    137    136
    112    113    138    137
    113    114    139    138
    114    115    140    139
    115    116    141    140
    116    117    142    141
    117    118    143    142
    118    119    144    143
    119    120    145    144
    120    121    146    145
    121    122    147    146
    122    123    148    147
    123    124    149    148
    124    100    125    149
    125    126    151    150
    126    127    152    151
    127    128    153    152
    128    129    154    153
    129    130    155    154
    130    131    156    155
    131    132    157    156
    132    133    158    157
    133    134    159    158
    134    135    160    159
    135    136    161    160
    136    137    162    161
    137    138    163    162
    138    139    164    163
    139    140    165    164
    140    141    166    165
    141    142    167    166
    142    143    168    167
    143    144    169    168
    144    145    170    169
    145    146    171    170
    146    147    172    171
    147    148    173    172
    148    149    174    173
    149    125    150    174
    150    151    176    175
    151    152    177    176
    152    153    178    177
    153    154    179    178
    154    155    180    179
    155    156    181    180
    156    157    182    181
    157    158    183    182
    158    159    184    183
    159    160    185    184
    160    161    186    185
    161    162    187    186
    162    163    188    187
    163    164    189    188
    164    165    190    189
    165    166    191    190
    166    167    192    191
    167    168    193    192
    168    169    194    193
    169    170    195    194
    170    171    196    195
    171    172    197    196
    172    173    198    197
    173    174    199    198
    174    150    175    199
    175    176    201    200
    176    177    202    201
    177    178    203    202
    178    179    204    203
    179    180    205    204
    180    181    206    205
    181    182    207    206
    182    183    208    207
    183    184    209    208
    184    185    210    209
    185    186    211    210
    186    187    212    211
    187    188    213    212
    188    189    214    213
    189    190    215    214
    190    191    216    215
    191    192    217    216
    192    193    218    217
    193    194    219    218
    194    195    220    219
    195    196    221    220
    196    197    222    221
    197    198    223    222
    198    199    224    223
    199    175    200    224
    200    201    226    225
    201    202    227    226
    202    203    228    227
    203    204    229    228
    204    205    230    229
    205    206    231    230
    206    207    232    231
    207    208    233    232
    208    209    234    233
    209    210    235    234
    210    211    236    235
    211    212    237    236
    212    213    238    237
    213    214    239    238
    214    215    240    239
    215    216    241    240
    216    217    242    241
    217    218    243    242
    218    219    244    243
    219    220    245    244
    220    221    246    245
    221    222    247    246
    222    223    248    247
    223    224    249    248
    224    200    225    249
    225    226    251    250
    226    227    252    251
    227    228    253    252
    228    229    254    253
    229    230    255    254
    230    231    256    255
    231    232    257    256
    232    233    258    257
    233    234    259    258
    234    235    260    259
    235    236    261    260
    236    237    262    261
    237    238    263    262
    238    239    264    263
    239    240    265    264
    240    241    266    265
    241    242    267    266
    242    243    268    267
    243    244    269    268
    244    245    270    269
    245    246    271    270
    246    247    272    271
    247    248    273    272
    248    249    274    273
    249    225    250    274
    250    251    276    275
    251    252    277    276
    252    253    278    277
    253    254    279    278
    254    255    280    279
    255    256    281    280
    256    257    282    281
    257    258    283    282
    258    259    284    283
    259    260    285    284
    260    261    286    285
    261    262    287    286
    262    263    288    287
    263    264    289    288
    264    265    290    289
    265    266    291    290
    266    267    292    291
    267    268    293    292
    268    269    294    293
    269    270    295    294
    270    271    296    295
    271    272    297    296
    272    273    298    297
    273    274    299    298
    274    250    275    299
    275    276    301    300
    276    277    302    301
    277    278    303    302
    278    279    304    303
    279    280    305    304
    280    281    306    305
    281    282    307    306
    282    283    308    307
    283    284    309    308
    284    285    310    309
    285    286    311    310
    286    287    312    311
    287    288    313    312
    288    289    314    313
    289    290    315    314
    290    291    316    315
    291    292    317    316
    292    293    318    317
    293    294    319    318
    294    295    320    319
    295    296    321    320
    296    297    322    321
    297    298    323    322
    298    299    324    323
    299    275    300    324
    300    301    326    325
    301    302    327    326
    302    303    328    327
    303    304    329    328
    304    305    330    329
    305    306    331    330
    306    307    332    331
    307    308    333    332
    308    309    334    333
    309    310    335    334
    310    311    336    335
    311    312    337    336
    312    313    338    337
    313    314    339    338
    314    315    340    339
    315    316    341    340
    316    317    342    341
    317    318    343    342
    318    319    344    343
    319    320    345    344
    320    321    346    345
    321    322    347    346
    322    323    348    347
    323    324    349    348
    324    300    325    349
    325    326    351    350
    326    327    352    351
    327    328    353    352
    328    329    354    353
    329    330    355    354
    330    331    356    355
    331    332    357    356
    332    333    358    357
    333    334    359    358
    334    335    360    359
    335    336    361    360
    336    337    362    361
    337    338    363    362
    338    339    364    363
    339    340    365    364
    340    341    366    365
    341    342    367    366
    342    343    368    367
    343    344    369    368
    344    345    370    369
    345    346    371    370
    346    347    372    371
    347    348    373    372
    348    349    374    373
    349    325    350    374
    350    351    376    375
    351    352    377    376
    352    353    378    377
    353    354    379    378
    354    355    380    379
    355    356    381    380
    356    357    382    381
    357    358    383    382
    358    359    384    383
    359    360    385    384
    360    361    386    385
    361    362    387    386
    362    363    388    387
    363    364    389    388
    364    365    390    389
    365    366    391    390
    366    367    392    391
    367    368    393    392
    368    369    394    393
    369    370    395    394
    370    371    396    395
    371    372    397    396
    372    373    398    397
    373    374    399    398
    374    350    375    399
    375    376    401    400
    376    377    402    401
    377    378    403    402
    378    379    404    403
    379    380    405    404
    380    381    406    405
    381    382    407    406
    382    383    408    407
    383    384    409    408
    384    385    410    409
    385    386    411    410
    386    387    412    411
    387    388    413    412
    388    389    414    413
    389    390    415    414
    390    391    416    415
    391    392    417    416
    392    393    418    417
    393    394    419    418
    394    395    420    419
    395    396    421    420
    396    397    422    421
    397    398    423    422
    398    399    424    423
    399    375    400    424
    400    401    426    425
    401    402    427    426
    402    403    428    427
    403    404    429    428
    404    405    430    429
    405    406    431    430
    406    407    432    431
    407    408    433    432
    408    409    434    433
    409    410    435    434
    410    411    436    435
    411    412    437    436
    412    413    438    437
    413    414    439    438
    414    415    440    439
    415    416    441    440
    416    417    442    441
    417    418    443    442
    418    419    444    443
    419    420    445    444
    420    421    446    445
    421    422    447    446
    422    423    448    447
    423    424    449    448
    424    400    425    449
    425    426    451    450
    426    427    452    451
    427    428    453    452
    428    429    454    453
    429    430    455    454
    430    431    456    455
    431    432    457    456
    432    433    458    457
    433    434    459    458
    434    435    460    459
    435    436    461    460
    436    437    462    461
    437    438    463    462
    438    439    464    463
    439    440    465    464
    440    441    466    465
    441    442    467    466
    442    443    468    467
    443    444    469    468
    444    445    470    469
    445    446    471    470
    446    447    472    471
    447    448    473    472
    448    449    474    473
    449    425    450    474
    450    451    476    475
    451    452    477    476
    452    453    478    477
    453    454    479    478
    454    455    480    479
    455    456    481    480
    456    457    482    481
    457    458    483    482
    458    459    484    483
    459    460    485    484
    460    461    486    485
    461    462    487    486
    462    463    488    487
    463    464    489    488
    464    465    490    489
    465    466    491    490
    466    467    492    491
    467    468    493    492
    468    469    494    493
    469    470    495    494
    470    471    496    495
    471    472    497    496
    472    473    498    497
    473    474    499    498
    474    450    475    499
    475    476    501    500
    476    477    502    501
    477    478    503    502
    478    479    504    503
    479    480    505    504
    480    481    506    505
    481    482    507    506
    482    483    508    507
    483    484    509    508
    484    485    510    509
    485    486    511    510
    486    487    512    511
    487    488    513    512
    488    489    514    513
    489    490    515    514
    490    491    516    515
    491    492    517    516
    492    493    518    517
    493    494    519    518
    494    495    520    519
    495    496    521    520
    496    497    522    521
    497    498    523    522
    498    499    524    523
    499    475    500    524
    500    501    526    525
    501    502    527    526
    502    503    528    527
    503    504    529    528
    504    505    530    529
    505    506    531    530
    506    507    532    531
    507    508    533    532
    508    509    534    533
    509    510    535    534
    510    511    536    535
    511    512    537    536
    512    513    538    537
    513    514    539    538
    514    515    540    539
    515    516    541    540
    516    517    542    541
    517    518    543    542
    518    519    544    543
    519    520    545    544
    520    521    546    545
    521    522    547    546
    522    523    548    547
    523    524    549    548
    524    500    525    549
    525    526    551    550
    526    527    552    551
    527    528    553    552
    528    529    554    553
    529    530    555    554
    530    531    556    555
    531    532    557    556
    532    533    558    557
    533    534    559    558
    534    535    560    559
    535    536    561    560
    536    537    562    561
    537    538    563    562
    538    539    564    563
    539    540    565    564
    540    541    566    565
    541    542    567    566
    542    543    568    567
    543    544    569    568
    544    545    570    569
    545    546    571    570
    546    547    572    571
    547    548    573    572
    548    549    574    573
    549    525    550    574
    550    551    576    575
    551    552    577    576
    552    553    578    577
    553    554    579    578
    554    555    580    579
    555    556    581    580
    556    557    582    581
    557    558    583    582
    558    559    584    583
    559    560    585    584
    560    561    586    585
    561    562    587    586
    562    563    588    587
    563    564    589    588
    564    565    590    589
    565    566    591    590
    566    567    592    591
    567    568    593    592
    568    569    594    593
    569    570    595    594
    570    571    596    595
    571    572    597    596
    572    573    598    597
    573    574    599    598
    574    550    575    599
    575    576    601    600
    576    577    602    601
    577    578    603    602
    578    579    604    603
    579    580    605    604
    580    581    606    605
    581    582    607    606
    582    583    608    607
    583    584    609    608
    584    585    610    609
    585    586    611    610
    586    587    612    611
    587    588    613    612
    588    589    614    613
    589    590    615    614
    590    591    616    615
    591    592    617    616
    592    593    618    617
    593    594    619    618
    594    595    620    619
    595    596    621    620
    596    597    622    621
    597    598    623    622
    598    599    624    623
    599    575    600    624
        </DataArray>
        <DataArray type="Int32" Name="offsets" format="ascii">
      4
      8
     12
     16
     20
     24
     28
     32
     36
     40
     44
     48
     52
     56
     60
     64
     68
     72
     76
     80
     84
     88
     92
     96
    100
    104
    108
    112
    116
    120
    124
    128
    132
    136
    140
    144
    148
    152
    156
    160
    164
    168
    172
    176
    180
    184
    188
    192
    196
    200
    204
    208
    212
    216
    220
    224
    228
    232
    236
    240
    244
    248
    252
    256
    260
    264
    268
    272
    276
    280
    284
    288
    292
    296
    300
    304
    308
    312
    316
    320
    324
    328
    332
    336
    340
    344
    348
    352
    356
    360
    364
    368
    372
    376
    380
    384
    388
    392
    396
    400
    404
    408
    412
    416
    420
    424
    428
    432
    436
    440
    444
    448
    452
    456
    460
    464
    468
    472
    476
    480
    484
    488
    492
    496
    500
    504
    508
    512
    516
    520
    524
    528
    532
    536
    540
    544
    548
    552
    556
    560
    564
    568
    572
    576
    580
    584
    588
    592
    596
    600
    604
    608
    612
    616
    620
    624
    628
    632
    636
    640
    644
    648
    652
    656
    660
    664
    668
    672
    676
    680
    684
    688
    692
    696
    700
    704
    708
    712
    716
    720
    724
    728
    732
    736
    740
    744
    748
    752
    756
    760
    764
    768
    772
    776
    780
    784
    788
    792
    796
    800
    804
    808
    812
    816
    820
    824
    828
    832
    836
    840
    844
    848
    852
    856
    860
    864
    868
    872
    876
    880
    884
    888
    892
    896
    900
    904
    908
    912
    916
    920
    924
    928
    932
    936
    940
    944
    948
    952
    956
    960
    964
    968
    972
    976
    980
    984
    988
    992
    996
   1000
   1004
   1008
   1012
   1016
   1020
   1024
   1028
   1032
   1036
   1040
   1044
   1048
   1052
   1056
   1060
   1064
   1068
   1072
   1076
   1080
   1084
   1088
   1092
   1096
   1100
   1104
   1108
   1112
   1116
   1120
   1124
   1128
   1132
   1136
   1140
   1144
   1148
   1152
   1156
   1160
   1164
   1168
   1172
   1176
   1180
   1184
   1188
   1192
   1196
   1200
   1204
   1208
   1212
   1216
   1220
   1224
   1228
   1232
   1236
   1240
   1244
   1248
   1252
   1256
   1260
   1264
   1268
   1272
   1276
   1280
   1284
   1288
   1292
   1296
   1300
   1304
   1308
   1312
   1316
   1320
   1324
   1328
   1332
   1336
   1340
   1344
   1348
   1352
   1356
   1360
   1364
   1368
   1372
   1376
   1380
   1384
   1388
   1392
   1396
   1400
   1404
   1408
   1412
   1416
   1420
   1424
   1428
   1432
   1436
   1440
   1444
   1448
   1452
   1456
   1460
   1464
   1468
   1472
   1476
   1480
   1484
   1488
   1492
   1496
   1500
   1504
   1508
   1512
   1516
   1520
   1524
   1528
   1532
   1536
   1540
   1544
   1548
   1552
   1556
   1560
   1564
   1568
   1572
   1576
   1580
   1584
   1588
   1592
   1596
   1600
   1604
   1608
   1612
   1616
   1620
   1624
   1628
   1632
   1636
   1640
   1644
   1648
   1652
   1656
   1660
   1664
   1668
   1672
   1676
   1680
   1684
   1688
   1692
   1696
   1700
   1704
   1708
   1712
   1716
   1720
   1724
   1728
   1732
   1736
   1740
   1744
   1748
   1752
   1756
   1760
   1764
   1768
   1772
   1776
   1780
   1784
   1788
   1792
   1796
   1800
   1804
   1808
   1812
   1816
   1820
   1824
   1828
   1832
   1836
   1840
   1844
   1848
   1852
   1856
   1860
   1864
   1868
   1872
   1876
   1880
   1884
   1888
   1892
   1896
   1900
   1904
   1908
   1912
   1916
   1920
   1924
   1928
   1932
   1936
   1940
   1944
   1948
   1952
   1956
   1960
   1964
   1968
   1972
   1976
   1980
   1984
   1988
   1992
   1996
   2000
   2004
   2008
   2012
   2016
   2020
   2024
   2028
   2032
   2036
   2040
   2044
   2048
   2052
   2056
   2060
   2064
   2068
   2072
   2076
   2080
   2084
   2088
   2092
   2096
   2100
   2104
   2108
   2112
   2116
   2120
   2124
   2128
   2132
   2136
   2140
   2144
   2148
   2152
   2156
   2160
   2164
   2168
   2172
   2176
   2180
   2184
   2188
   2192
   2196
   2200
   2204
   2208
   2212
   2216
   2220
   2224
   2228
   2232
   2236
   2240
   2244
   2248
   2252
   2256
   2260
   2264
   2268
   2272
   2276
   2280
   2284
   2288
   2292
   2296
   2300
   2304
   2308
   2312
   2316
   2320
   2324
   2328
   2332
   2336
   2340
   2344
   2348
   2352
   2356
   2360
   2364
   2368
   2372
   2376
   2380
   2384
   2388
   2392
   2396
   2400
        </DataArray>
      </Polys>
    </Piece>
  </PolyData>
</VTKFile>
