<?xml version="1.0"?>
<VTKFile type="PolyData" version="0.1" byte_order="LittleEndian">
  <PolyData>
    <Piece NumberOfPoints="     19" NumberOfVerts="  0" NumberOfLines="     18"
           NumberOfStrips="  0" NumberOfPolys="      0">
      <Points>
        <DataArray type="Float32" NumberOfComponents="3" format="ascii">
                      -4.95966                       0.88305                      91.21186
                      -4.92353                       1.68482                      92.31809
                      -4.86879                       3.21123                      94.58721
                      -4.82232                       4.70114                      96.88319
                      -4.76919                       6.54178                      99.76929
                      -4.65996                       8.86748                     103.14583
                      -4.53340                      11.29885                     106.44480
                      -4.40925                      13.73224                     109.74237
                      -4.28520                      16.16918                     113.03737
                      -4.16199                      18.60810                     116.33094
                      -4.04076                      21.04601                     119.62532
                      -3.92086                      23.48414                     122.91959
                      -3.80294                      25.92246                     126.21378
                      -3.68771                      28.36091                     129.50796
                      -3.57342                      30.79942                     132.80213
                      -3.47881                      32.83157                     135.54729
                      -3.40409                      34.46364                     137.73876
                      -3.33350                      36.14012                     139.89800
                      -3.29674                      36.94463                     141.00208
        </DataArray>
      </Points>
      <PointData>
        <DataArray type="Float32" Name="TranslationalVelocity" NumberOfComponents="3" format="ascii">
                       0.20021                      -3.14966                       2.28840
                       0.38199                      -6.02462                       4.36617
                       0.72807                     -11.91742                       8.32185
                       1.06587                     -17.87796                      12.18294
                       1.48319                     -25.36928                      16.95292
                       2.01048                     -34.14430                      22.97992
                       2.56174                     -42.72222                      29.28078
                       3.11345                     -51.29598                      35.58688
                       3.66596                     -59.86302                      41.90217
                       4.21893                     -68.42620                      48.22259
                       4.77167                     -76.99102                      54.54040
                       5.32445                     -85.55523                      60.85876
                       5.87728                     -94.11881                      67.17763
                       6.43014                    -102.68176                      73.49684
                       6.98301                    -111.24446                      79.81621
                       7.44375                    -118.37996                      85.08249
                       7.81378                    -124.07605                      89.31195
                       8.19388                    -129.68769                      93.65653
                       8.37629                    -132.55723                      95.74142
        </DataArray>
        <DataArray type="Float32" Name="RotationalVelocity" NumberOfComponents="3" format="ascii">
                       2.59148                      -0.00000                      -0.22673
                       2.59148                      -0.00000                      -0.22673
                       2.59148                      -0.00000                      -0.22673
                       2.59148                      -0.00000                      -0.22673
                       2.59148                      -0.00000                      -0.22673
                       2.59148                      -0.00000                      -0.22673
                       2.59148                      -0.00000                      -0.22673
                       2.59148                      -0.00000                      -0.22673
                       2.59148                      -0.00000                      -0.22673
                       2.59148                      -0.00000                      -0.22673
                       2.59148                      -0.00000                      -0.22673
                       2.59148                      -0.00000                      -0.22673
                       2.59148                      -0.00000                      -0.22673
                       2.59148                      -0.00000                      -0.22673
                       2.59148                      -0.00000                      -0.22673
                       2.59148                      -0.00000                      -0.22673
                       2.59148                      -0.00000                      -0.22673
                       2.59148                      -0.00000                      -0.22673
                       2.59148                      -0.00000                      -0.22673
        </DataArray>
        <DataArray type="Float32" Name="TranslationalAcceleration" NumberOfComponents="3" format="ascii">
                      -0.71345                      -5.98612                      -8.15476
                      -1.36468                     -11.42130                     -15.59835
                      -2.69959                     -21.77021                     -30.85641
                      -4.04988                     -31.87236                     -46.29037
                      -5.74698                     -44.35295                     -65.68830
                      -7.73477                     -60.12027                     -88.40881
                      -9.67779                     -76.60202                    -110.61762
                     -11.61986                     -93.09748                    -132.81561
                     -13.56041                    -109.61691                    -154.99619
                     -15.50008                    -126.14973                    -177.16675
                     -17.44012                    -142.67572                    -199.34154
                     -19.38003                    -159.20317                    -221.51479
                     -21.31979                    -175.73192                    -243.68637
                     -23.25941                    -192.26158                    -265.85632
                     -25.19898                    -208.79164                    -288.02563
                     -26.81526                    -222.56707                    -306.49983
                     -28.10549                    -233.63029                    -321.24726
                     -29.37654                    -244.99383                    -335.77542
                     -30.02654                    -250.44758                    -343.20494
        </DataArray>
        <DataArray type="Float32" Name="OrientationX" NumberOfComponents="3" format="ascii">
                       0.99832                       0.02570                      -0.05196
                       0.99832                       0.02570                      -0.05196
                       0.99832                       0.02570                      -0.05196
                       0.99832                       0.02570                      -0.05196
                       0.99832                       0.02570                      -0.05196
                       0.99832                       0.02570                      -0.05196
                       0.99832                       0.02570                      -0.05196
                       0.99832                       0.02570                      -0.05196
                       0.99832                       0.02570                      -0.05196
                       0.99832                       0.02570                      -0.05196
                       0.99832                       0.02570                      -0.05196
                       0.99832                       0.02570                      -0.05196
                       0.99832                       0.02570                      -0.05196
                       0.99832                       0.02570                      -0.05196
                       0.99832                       0.02570                      -0.05196
                       0.99832                       0.02570                      -0.05196
                       0.99832                       0.02570                      -0.05196
                       0.99832                       0.02570                      -0.05196
                       0.99832                       0.02570                      -0.05196
        </DataArray>
        <DataArray type="Float32" Name="OrientationY" NumberOfComponents="3" format="ascii">
                      -0.05136                       0.80794                      -0.58702
                      -0.05136                       0.80794                      -0.58702
                      -0.05136                       0.80794                      -0.58702
                      -0.05136                       0.80794                      -0.58702
                      -0.05136                       0.80794                      -0.58702
                      -0.05136                       0.80794                      -0.58702
                      -0.05136                       0.80794                      -0.58702
                      -0.05136                       0.80794                      -0.58702
                      -0.05136                       0.80794                      -0.58702
                      -0.05136                       0.80794                      -0.58702
                      -0.05136                       0.80794                      -0.58702
                      -0.05136                       0.80794                      -0.58702
                      -0.05136                       0.80794                      -0.58702
                      -0.05136                       0.80794                      -0.58702
                      -0.05136                       0.80794                      -0.58702
                      -0.05136                       0.80794                      -0.58702
                      -0.05136                       0.80794                      -0.58702
                      -0.05136                       0.80794                      -0.58702
                      -0.05136                       0.80794                      -0.58702
        </DataArray>
        <DataArray type="Float32" Name="OrientationZ" NumberOfComponents="3" format="ascii">
                       0.02690                       0.58870                       0.80791
                       0.02690                       0.58870                       0.80791
                       0.02690                       0.58870                       0.80791
                       0.02690                       0.58870                       0.80791
                       0.02690                       0.58870                       0.80791
                       0.02690                       0.58870                       0.80791
                       0.02690                       0.58870                       0.80791
                       0.02690                       0.58870                       0.80791
                       0.02690                       0.58870                       0.80791
                       0.02690                       0.58870                       0.80791
                       0.02690                       0.58870                       0.80791
                       0.02690                       0.58870                       0.80791
                       0.02690                       0.58870                       0.80791
                       0.02690                       0.58870                       0.80791
                       0.02690                       0.58870                       0.80791
                       0.02690                       0.58870                       0.80791
                       0.02690                       0.58870                       0.80791
                       0.02690                       0.58870                       0.80791
                       0.02690                       0.58870                       0.80791
        </DataArray>
        <DataArray type="Float32" Name="Force" NumberOfComponents="3" format="ascii">
                      -0.59950                       9.43116                      -6.85227
                     175.25116                      87.52432                     -69.61101
                     247.82710                     251.94701                    -191.83755
                     240.66015                     375.56935                    -281.67921
                    2947.85231                    -175.78295                      29.94929
                    3691.39362                     -98.04497                     -51.45003
                    4618.40926                     -48.35976                    -118.51621
                    6487.60844                      -3.34474                    -213.54625
                    7200.09817                      92.86046                    -307.36837
                    8383.76000                     143.65786                    -383.78916
                   10704.68549                     253.91405                    -541.39740
                   12143.85523                     309.66433                    -629.93352
                   13599.29619                     277.72830                    -655.11670
                   14777.47455                     307.67743                    -716.16337
                   15838.41681                     324.77272                    -763.94081
                   16604.37118                     327.28135                    -791.26870
                   16827.25106                     303.07897                    -781.05313
                   13544.04280                     161.00915                    -568.22713
                   10189.37490                     383.85035                    -618.92291
        </DataArray>
        <DataArray type="Float32" Name="Moment" NumberOfComponents="3" format="ascii">
                       0.00000                       0.00000                       0.00000
                       0.00000                       0.00000                       0.00000
                       0.00000                       0.00000                       0.00000
                       0.00000                       0.00000                       0.00000
                     -33.21489                    -726.99198                    -997.69310
                     -66.24415                   -1449.92084                   -1989.81016
                     -91.41527                   -2000.85453                   -2745.88831
                    -137.41848                   -3007.75118                   -4127.71076
                    -196.44213                   -4299.63304                   -5900.63489
                    -223.60507                   -4894.16284                   -6716.54250
                    -244.84967                   -5359.15465                   -7354.67763
                    -261.21712                   -5717.39768                   -7846.31525
                    -214.54380                   -4695.83405                   -6444.36444
                    -215.19396                   -4710.06441                   -6463.89359
                    -209.94113                   -4595.09293                   -6306.11158
                    -201.16485                   -4403.00179                   -6042.49380
                    -180.84741                   -3958.30328                   -5432.20834
                     -93.29893                   -2042.08328                   -2802.46889
                     -89.42911                   -1957.38236                   -2686.22893
        </DataArray>
      </PointData>
      <Lines>
        <DataArray type="Int32" Name="connectivity" format="ascii">
      0      1
      1      2
      2      3
      3      4
      4      5
      5      6
      6      7
      7      8
      8      9
      9     10
     10     11
     11     12
     12     13
     13     14
     14     15
     15     16
     16     17
     17     18
        </DataArray>
        <DataArray type="Int32" Name="offsets" format="ascii">
      2
      4
      6
      8
     10
     12
     14
     16
     18
     20
     22
     24
     26
     28
     30
     32
     34
     36
        </DataArray>
      </Lines>
    </Piece>
  </PolyData>
</VTKFile>
