<?xml version="1.0"?>
<VTKFile type="PolyData" version="0.1" byte_order="LittleEndian">
  <PolyData>
    <Piece NumberOfPoints="    625" NumberOfVerts="  0" NumberOfLines="      0"
           NumberOfStrips="  0" NumberOfPolys="    600">
      <Points>
        <DataArray type="Float32" NumberOfComponents="3" format="ascii">
                      -5.08482                      -1.14146                      89.03054
                      -5.08482                      -1.14146                      89.03054
                      -5.08482                      -1.14146                      89.03054
                      -5.08482                      -1.14146                      89.03054
                      -5.08482                      -1.14146                      89.03054
                      -5.08482                      -1.14146                      89.03054
                      -5.08482                      -1.14146                      89.03054
                      -5.08482                      -1.14146                      89.03054
                      -5.08482                      -1.14146                      89.03054
                      -5.08482                      -1.14146                      89.03054
                      -5.08482                      -1.14146                      89.03054
                      -5.08482                      -1.14146                      89.03054
                      -5.08482                      -1.14146                      89.03054
                      -5.08482                      -1.14146                      89.03054
                      -5.08482                      -1.14146                      89.03054
                      -5.08482                      -1.14146                      89.03054
                      -5.08482                      -1.14146                      89.03054
                      -5.08482                      -1.14146                      89.03054
                      -5.08482                      -1.14146                      89.03054
                      -5.08482                      -1.14146                      89.03054
                      -5.08482                      -1.14146                      89.03054
                      -5.08482                      -1.14146                      89.03054
                      -5.08482                      -1.14146                      89.03054
                      -5.08482                      -1.14146                      89.03054
                      -5.08482                      -1.14146                      89.03054
                      -4.48055                      -1.04634                      89.05908
                      -4.50920                      -0.94962                      88.94770
                      -4.57358                      -0.85897                      88.84660
                      -4.66963                      -0.78010                      88.76214
                      -4.79133                      -0.71796                      88.69962
                      -4.93102                      -0.67645                      88.66297
                      -5.07993                      -0.65818                      88.65449
                      -5.22871                      -0.66430                      88.67471
                      -5.36800                      -0.69443                      88.72237
                      -5.48905                      -0.74666                      88.79447
                      -5.58426                      -0.81773                      88.88647
                      -5.64765                      -0.90317                      88.99261
                      -5.67522                      -0.99759                      89.10620
                      -5.66526                      -1.09509                      89.22012
                      -5.61837                      -1.18952                      89.32720
                      -5.53752                      -1.27495                      89.42071
                      -5.42778                      -1.34602                      89.49479
                      -5.29605                      -1.39826                      89.54477
                      -5.15060                      -1.42838                      89.56752
                      -5.00057                      -1.43450                      89.56160
                      -4.85539                      -1.41624                      89.52739
                      -4.72419                      -1.37473                      89.46704
                      -4.61519                      -1.31258                      89.38433
                      -4.53527                      -1.23371                      89.28447
                      -4.48943                      -1.14306                      89.17374
                      -4.24468                      -0.95122                      89.11985
                      -4.28431                      -0.81744                      88.96580
                      -4.37334                      -0.69206                      88.82597
                      -4.50620                      -0.58297                      88.70915
                      -4.67452                      -0.49702                      88.62268
                      -4.86773                      -0.43961                      88.57198
                      -5.07370                      -0.41434                      88.56025
                      -5.27948                      -0.42281                      88.58822
                      -5.47213                      -0.46448                      88.65414
                      -5.63957                      -0.53673                      88.75386
                      -5.77125                      -0.63503                      88.88112
                      -5.85892                      -0.75319                      89.02791
                      -5.89706                      -0.88380                      89.18503
                      -5.88328                      -1.01864                      89.34259
                      -5.81843                      -1.14925                      89.49069
                      -5.70661                      -1.26741                      89.62004
                      -5.55482                      -1.36571                      89.72250
                      -5.37262                      -1.43796                      89.79163
                      -5.17144                      -1.47963                      89.82309
                      -4.96393                      -1.48810                      89.81490
                      -4.76313                      -1.46283                      89.76758
                      -4.58166                      -1.40542                      89.68411
                      -4.43091                      -1.31946                      89.56972
                      -4.32036                      -1.21037                      89.43160
                      -4.25696                      -1.08500                      89.27844
                      -4.07523                      -0.85610                      89.18643
                      -4.12265                      -0.69602                      89.00210
                      -4.22919                      -0.54600                      88.83478
                      -4.38816                      -0.41546                      88.69500
                      -4.58957                      -0.31261                      88.59152
                      -4.82077                      -0.24391                      88.53086
                      -5.06723                      -0.21367                      88.51682
                      -5.31346                      -0.22381                      88.55029
                      -5.54399                      -0.27367                      88.62917
                      -5.74433                      -0.36012                      88.74849
                      -5.90191                      -0.47774                      88.90077
                      -6.00681                      -0.61914                      89.07642
                      -6.05245                      -0.77542                      89.26443
                      -6.03595                      -0.93677                      89.45296
                      -5.95836                      -1.09306                      89.63018
                      -5.82455                      -1.23445                      89.78495
                      -5.64293                      -1.35207                      89.90755
                      -5.42491                      -1.43853                      89.99027
                      -5.18418                      -1.48839                      90.02792
                      -4.93588                      -1.49852                      90.01812
                      -4.69560                      -1.46828                      89.96150
                      -4.47845                      -1.39958                      89.86162
                      -4.29807                      -1.29673                      89.72474
                      -4.16579                      -1.16620                      89.55947
                      -4.08992                      -1.01618                      89.37619
                      -3.94277                      -0.76098                      89.25625
                      -3.99620                      -0.58059                      89.04853
                      -4.11626                      -0.41153                      88.85999
                      -4.29540                      -0.26443                      88.70246
                      -4.52236                      -0.14853                      88.58586
                      -4.78289                      -0.07112                      88.51750
                      -5.06062                      -0.03705                      88.50169
                      -5.33809                      -0.04846                      88.53940
                      -5.59786                      -0.10465                      88.62829
                      -5.82363                      -0.20208                      88.76275
                      -6.00120                      -0.33462                      88.93434
                      -6.11941                      -0.49395                      89.13228
                      -6.17084                      -0.67006                      89.34414
                      -6.15225                      -0.85189                      89.55659
                      -6.06481                      -1.02800                      89.75630
                      -5.91403                      -1.18733                      89.93071
                      -5.70936                      -1.31987                      90.06886
                      -5.46368                      -1.41730                      90.16207
                      -5.19241                      -1.47349                      90.20450
                      -4.91261                      -1.48490                      90.19346
                      -4.64185                      -1.45083                      90.12966
                      -4.39714                      -1.37342                      90.01710
                      -4.19388                      -1.25752                      89.86285
                      -4.04481                      -1.11042                      89.67662
                      -3.95932                      -0.94136                      89.47009
                      -3.83576                      -0.66585                      89.32829
                      -3.89399                      -0.46928                      89.10194
                      -4.02482                      -0.28506                      88.89648
                      -4.22003                      -0.12476                      88.72482
                      -4.46736                       0.00154                      88.59776
                      -4.75127                       0.08590                      88.52327
                      -5.05391                       0.12303                      88.50603
                      -5.35628                       0.11059                      88.54713
                      -5.63937                       0.04936                      88.64399
                      -5.88539                      -0.05681                      88.79052
                      -6.07889                      -0.20124                      88.97750
                      -6.20771                      -0.37487                      89.19321
                      -6.26375                      -0.56678                      89.42407
                      -6.24349                      -0.76492                      89.65559
                      -6.14821                      -0.95683                      89.87321
                      -5.98390                      -1.13046                      90.06327
                      -5.76087                      -1.27490                      90.21382
                      -5.49314                      -1.38107                      90.31540
                      -5.19753                      -1.44229                      90.36162
                      -4.89262                      -1.45474                      90.34960
                      -4.59757                      -1.41761                      90.28007
                      -4.33091                      -1.33325                      90.15741
                      -4.10940                      -1.20695                      89.98933
                      -3.94696                      -1.04665                      89.78638
                      -3.85380                      -0.86243                      89.56132
                      -3.74831                      -0.57073                      89.40205
                      -3.81040                      -0.36114                      89.16070
                      -3.94989                      -0.16471                      88.94164
                      -4.15803                       0.00620                      88.75861
                      -4.42174                       0.14086                      88.62313
                      -4.72445                       0.23081                      88.54371
                      -5.04714                       0.27040                      88.52533
                      -5.36953                       0.25713                      88.56915
                      -5.67137                       0.19185                      88.67243
                      -5.93368                       0.07865                      88.82866
                      -6.14000                      -0.07535                      89.02803
                      -6.27734                      -0.26048                      89.25802
                      -6.33710                      -0.46510                      89.50417
                      -6.31550                      -0.67636                      89.75102
                      -6.21391                      -0.88098                      89.98306
                      -6.03871                      -1.06611                      90.18570
                      -5.80091                      -1.22011                      90.34622
                      -5.51545                      -1.33331                      90.45453
                      -5.20027                      -1.39859                      90.50382
                      -4.87517                      -1.41186                      90.49099
                      -4.56057                      -1.37227                      90.41686
                      -4.27625                      -1.28232                      90.28608
                      -4.04008                      -1.14766                      90.10686
                      -3.86688                      -0.97675                      89.89047
                      -3.76754                      -0.78032                      89.65051
                      -3.67694                      -0.47561                      89.47721
                      -3.74211                      -0.25560                      89.22387
                      -3.88854                      -0.04942                      88.99392
                      -4.10702                       0.12999                      88.80180
                      -4.38383                       0.27134                      88.65959
                      -4.70158                       0.36576                      88.57622
                      -5.04031                       0.40732                      88.55693
                      -5.37872                       0.39339                      88.60293
                      -5.69555                       0.32486                      88.71133
                      -5.97090                       0.20604                      88.87533
                      -6.18747                       0.04439                      89.08461
                      -6.33164                      -0.14994                      89.32602
                      -6.39436                      -0.36473                      89.58441
                      -6.37170                      -0.58649                      89.84352
                      -6.26506                      -0.80128                      90.08709
                      -6.08115                      -0.99561                      90.29980
                      -5.83153                      -1.15726                      90.46830
                      -5.53189                      -1.27608                      90.58199
                      -5.20104                      -1.34461                      90.63373
                      -4.85979                      -1.35853                      90.62026
                      -4.52956                      -1.31698                      90.54245
                      -4.23112                      -1.22256                      90.40517
                      -3.98320                      -1.08121                      90.21705
                      -3.80140                      -0.90180                      89.98991
                      -3.69713                      -0.69562                      89.73802
                      -3.61944                      -0.38049                      89.55359
                      -3.68703                      -0.15231                      89.29085
                      -3.83889                       0.06153                      89.05236
                      -4.06549                       0.24759                      88.85310
                      -4.35258                       0.39420                      88.70561
                      -4.68213                       0.49212                      88.61914
                      -5.03342                       0.53522                      88.59914
                      -5.38440                       0.52078                      88.64685
                      -5.71299                       0.44970                      88.75927
                      -5.99857                       0.32647                      88.92936
                      -6.22317                       0.15881                      89.14641
                      -6.37270                      -0.04273                      89.39679
                      -6.43775                      -0.26549                      89.66476
                      -6.41424                      -0.49548                      89.93350
                      -6.30364                      -0.71825                      90.18611
                      -6.11291                      -0.91979                      90.40672
                      -5.85403                      -1.08745                      90.58147
                      -5.54326                      -1.21068                      90.69938
                      -5.20013                      -1.28175                      90.75304
                      -4.84620                      -1.29619                      90.73908
                      -4.50372                      -1.25310                      90.65837
                      -4.19419                      -1.15517                      90.51600
                      -3.93707                      -1.00857                      90.32089
                      -3.74852                      -0.82250                      90.08532
                      -3.64038                      -0.60866                      89.82408
                      -3.57436                      -0.28537                      89.63105
                      -3.64377                      -0.05103                      89.36122
                      -3.79973                       0.16858                      89.11630
                      -4.03244                       0.35966                      88.91167
                      -4.32728                       0.51022                      88.76020
                      -4.66572                       0.61079                      88.67140
                      -5.02649                       0.65504                      88.65085
                      -5.38694                       0.64021                      88.69985
                      -5.72440                       0.56722                      88.81531
                      -6.01768                       0.44067                      88.98998
                      -6.24834                       0.26849                      89.21289
                      -6.40190                       0.06151                      89.47002
                      -6.46871                      -0.16727                      89.74523
                      -6.44457                      -0.40346                      90.02121
                      -6.33098                      -0.63224                      90.28064
                      -6.13511                      -0.83922                      90.50720
                      -5.86924                      -1.01140                      90.68667
                      -5.55008                      -1.13796                      90.80776
                      -5.19770                      -1.21094                      90.86286
                      -4.83422                      -1.22578                      90.84853
                      -4.48249                      -1.18152                      90.76564
                      -4.16462                      -1.08095                      90.61942
                      -3.90056                      -0.93039                      90.41906
                      -3.70692                      -0.73931                      90.17713
                      -3.59586                      -0.51970                      89.90884
                      -3.54075                      -0.19024                      89.70952
                      -3.61143                       0.04839                      89.43474
                      -3.77025                       0.27203                      89.18532
                      -4.00723                       0.46662                      88.97693
                      -4.30748                       0.61994                      88.82268
                      -4.65213                       0.72235                      88.73225
                      -5.01952                       0.76742                      88.71133
                      -5.38658                       0.75232                      88.76123
                      -5.73023                       0.67799                      88.87881
                      -6.02889                       0.54911                      89.05668
                      -6.26379                       0.37377                      89.28368
                      -6.42017                       0.16299                      89.54553
                      -6.48821                      -0.06998                      89.82579
                      -6.46362                      -0.31051                      90.10684
                      -6.34795                      -0.54348                      90.37102
                      -6.14848                      -0.75426                      90.60175
                      -5.87773                      -0.92960                      90.78450
                      -5.55272                      -1.05848                      90.90782
                      -5.19387                      -1.13281                      90.96393
                      -4.82372                      -1.14791                      90.94933
                      -4.46554                      -1.10284                      90.86493
                      -4.14183                      -1.00043                      90.71603
                      -3.87293                      -0.84711                      90.51198
                      -3.67574                      -0.65252                      90.26561
                      -3.56264                      -0.42888                      89.99240
                      -3.51797                      -0.09512                      89.78894
                      -3.58941                       0.14605                      89.51122
                      -3.74993                       0.37208                      89.25914
                      -3.98943                       0.56874                      89.04854
                      -4.29288                       0.72370                      88.89265
                      -4.64120                       0.82720                      88.80125
                      -5.01251                       0.87275                      88.78011
                      -5.38348                       0.85749                      88.83053
                      -5.73080                       0.78237                      88.94937
                      -6.03264                       0.65211                      89.12914
                      -6.27004                       0.47490                      89.35856
                      -6.42809                       0.26188                      89.62320
                      -6.49685                       0.02642                      89.90644
                      -6.47200                      -0.21667                      90.19049
                      -6.35510                      -0.45212                      90.45749
                      -6.15350                      -0.66515                      90.69067
                      -5.87987                      -0.84236                      90.87538
                      -5.55139                      -0.97261                      91.00000
                      -5.18871                      -1.04773                      91.05672
                      -4.81462                      -1.06299                      91.04196
                      -4.45263                      -1.01744                      90.95666
                      -4.12547                      -0.91394                      90.80617
                      -3.85370                      -0.75899                      90.59995
                      -3.65440                      -0.56232                      90.35096
                      -3.54010                      -0.33630                      90.07483
                      -3.50571                       0.00000                      89.86927
                      -3.57740                       0.24202                      89.59059
                      -3.73847                       0.46883                      89.33763
                      -3.97881                       0.66618                      89.12629
                      -4.28332                       0.82168                      88.96985
                      -4.63286                       0.92554                      88.87814
                      -5.00546                       0.97125                      88.85692
                      -5.37773                       0.95593                      88.90752
                      -5.72626                       0.88055                      89.02677
                      -6.02915                       0.74984                      89.20717
                      -6.26738                       0.57202                      89.43739
                      -6.42598                       0.35825                      89.70295
                      -6.49498                       0.12197                      89.98719
                      -6.47004                      -0.12197                      90.27222
                      -6.35274                      -0.35825                      90.54016
                      -6.15043                      -0.57202                      90.77415
                      -5.87584                      -0.74984                      90.95950
                      -5.54622                      -0.88055                      91.08456
                      -5.18228                      -0.95593                      91.14148
                      -4.80688                      -0.97125                      91.12667
                      -4.44362                      -0.92554                      91.04107
                      -4.11532                      -0.82168                      90.89005
                      -3.84261                      -0.66618                      90.68311
                      -3.64262                      -0.46883                      90.43325
                      -3.52791                      -0.24202                      90.15617
                      -3.50384                       0.09512                      89.95051
                      -3.57528                       0.33630                      89.67280
                      -3.73579                       0.56232                      89.42072
                      -3.97529                       0.75899                      89.21012
                      -4.27874                       0.91394                      89.05422
                      -4.62706                       1.01744                      88.96283
                      -4.99838                       1.06299                      88.94168
                      -5.36934                       1.04773                      88.99211
                      -5.71666                       0.97261                      89.11095
                      -6.01851                       0.84236                      89.29072
                      -6.25591                       0.66515                      89.52013
                      -6.41395                       0.45212                      89.78478
                      -6.48271                       0.21667                      90.06802
                      -6.45786                      -0.02642                      90.35207
                      -6.34096                      -0.26188                      90.61907
                      -6.13936                      -0.47490                      90.85225
                      -5.86573                      -0.65211                      91.03695
                      -5.53725                      -0.78237                      91.16158
                      -5.17458                      -0.85749                      91.21830
                      -4.80049                      -0.87275                      91.20354
                      -4.43849                      -0.82720                      91.11824
                      -4.11133                      -0.72370                      90.96775
                      -3.83956                      -0.56874                      90.76153
                      -3.64027                      -0.37208                      90.51253
                      -3.52597                      -0.14605                      90.23641
                      -3.51247                       0.19024                      90.03268
                      -3.58316                       0.42888                      89.75789
                      -3.74198                       0.65252                      89.50847
                      -3.97896                       0.84711                      89.30009
                      -4.27920                       1.00043                      89.14584
                      -4.62385                       1.10284                      89.05541
                      -4.99125                       1.14791                      89.03449
                      -5.35831                       1.13281                      89.08438
                      -5.70196                       1.05848                      89.20196
                      -6.00062                       0.92960                      89.37984
                      -6.23552                       0.75426                      89.60683
                      -6.39190                       0.54348                      89.86869
                      -6.45993                       0.31051                      90.14894
                      -6.43534                       0.06998                      90.43000
                      -6.31968                      -0.16299                      90.69418
                      -6.12021                      -0.37377                      90.92490
                      -5.84946                      -0.54911                      91.10766
                      -5.52445                      -0.67799                      91.23097
                      -5.16559                      -0.75232                      91.28709
                      -4.79545                      -0.76742                      91.27249
                      -4.43727                      -0.72235                      91.18809
                      -4.11356                      -0.61994                      91.03918
                      -3.84466                      -0.46662                      90.83514
                      -3.64746                      -0.27203                      90.58877
                      -3.53437                      -0.04839                      90.31556
                      -3.53195                       0.28537                      90.11579
                      -3.60136                       0.51970                      89.84595
                      -3.75732                       0.73931                      89.60103
                      -3.99003                       0.93039                      89.39640
                      -4.28487                       1.08095                      89.24493
                      -4.62331                       1.18152                      89.15613
                      -4.98408                       1.22578                      89.13558
                      -5.34453                       1.21094                      89.18458
                      -5.68199                       1.13796                      89.30004
                      -5.97527                       1.01140                      89.47471
                      -6.20594                       0.83922                      89.69762
                      -6.35950                       0.63224                      89.95475
                      -6.42630                       0.40346                      90.22996
                      -6.40216                       0.16727                      90.50595
                      -6.28858                      -0.06151                      90.76537
                      -6.09270                      -0.26849                      90.99194
                      -5.82683                      -0.44067                      91.17140
                      -5.50767                      -0.56722                      91.29249
                      -5.15529                      -0.64021                      91.34760
                      -4.79181                      -0.65504                      91.33326
                      -4.44009                      -0.61079                      91.25038
                      -4.12221                      -0.51022                      91.10416
                      -3.85815                      -0.35966                      90.90379
                      -3.66451                      -0.16858                      90.66186
                      -3.55345                       0.05103                      90.39358
                      -3.56290                       0.38049                      90.19990
                      -3.63048                       0.60866                      89.93716
                      -3.78235                       0.82250                      89.69867
                      -4.00894                       1.00857                      89.49942
                      -4.29603                       1.15517                      89.35192
                      -4.62558                       1.25310                      89.26546
                      -4.97688                       1.29619                      89.24545
                      -5.32785                       1.28175                      89.29316
                      -5.65645                       1.21068                      89.40559
                      -5.94202                       1.08744                      89.57567
                      -6.16663                       0.91979                      89.79272
                      -6.31616                       0.71825                      90.04310
                      -6.38121                       0.49548                      90.31108
                      -6.35770                       0.26549                      90.57981
                      -6.24710                       0.04273                      90.83242
                      -6.05637                      -0.15881                      91.05303
                      -5.79748                      -0.32647                      91.22778
                      -5.48671                      -0.44970                      91.34569
                      -5.14358                      -0.52078                      91.39935
                      -4.78966                      -0.53522                      91.38539
                      -4.44717                      -0.49212                      91.30469
                      -4.13764                      -0.39420                      91.16231
                      -3.88053                      -0.24759                      90.96720
                      -3.69197                      -0.06153                      90.73163
                      -3.58383                       0.15231                      90.47039
                      -3.60626                       0.47561                      90.28510
                      -3.67143                       0.69562                      90.03176
                      -3.81785                       0.90180                      89.80181
                      -4.03634                       1.08121                      89.60969
                      -4.31315                       1.22256                      89.46748
                      -4.63090                       1.31698                      89.38411
                      -4.96962                       1.35853                      89.36482
                      -5.30803                       1.34461                      89.41082
                      -5.62487                       1.27608                      89.51922
                      -5.90022                       1.15726                      89.68322
                      -6.11679                       0.99561                      89.89250
                      -6.26096                       0.80128                      90.13391
                      -6.32368                       0.58649                      90.39230
                      -6.30101                       0.36473                      90.65141
                      -6.19438                       0.14994                      90.89498
                      -6.01047                      -0.04439                      91.10769
                      -5.76085                      -0.20604                      91.27619
                      -5.46121                      -0.32486                      91.38988
                      -5.13036                      -0.39339                      91.44162
                      -4.78911                      -0.40732                      91.42816
                      -4.45888                      -0.36576                      91.35034
                      -4.16043                      -0.27134                      91.21306
                      -3.91252                      -0.12999                      91.02494
                      -3.73072                       0.04942                      90.79780
                      -3.62645                       0.25560                      90.54591
                      -3.66350                       0.57073                      90.37152
                      -3.72558                       0.78033                      90.13017
                      -3.86507                       0.97675                      89.91110
                      -4.07322                       1.14766                      89.72808
                      -4.33693                       1.28232                      89.59260
                      -4.63963                       1.37227                      89.51318
                      -4.96232                       1.41186                      89.49480
                      -5.28471                       1.39859                      89.53862
                      -5.58655                       1.33331                      89.64189
                      -5.84886                       1.22011                      89.79812
                      -6.05518                       1.06611                      89.99750
                      -6.19253                       0.88098                      90.22749
                      -6.25228                       0.67636                      90.47364
                      -6.23068                       0.46510                      90.72049
                      -6.12909                       0.26048                      90.95253
                      -5.95390                       0.07535                      91.15517
                      -5.71609                      -0.07865                      91.31569
                      -5.43063                      -0.19185                      91.42399
                      -5.11545                      -0.25713                      91.47328
                      -4.79035                      -0.27040                      91.46046
                      -4.47575                      -0.23081                      91.38633
                      -4.19144                      -0.14086                      91.25554
                      -3.95526                      -0.00620                      91.07633
                      -3.78206                       0.16471                      90.85994
                      -3.68273                       0.36114                      90.61998
                      -3.73681                       0.66585                      90.45934
                      -3.79504                       0.86243                      90.23299
                      -3.92587                       1.04665                      90.02752
                      -4.12108                       1.20695                      89.85587
                      -4.36841                       1.33325                      89.72880
                      -4.65232                       1.41761                      89.65431
                      -4.95496                       1.45474                      89.63708
                      -5.25732                       1.44229                      89.67818
                      -5.54041                       1.38107                      89.77504
                      -5.78644                       1.27490                      89.92156
                      -5.97993                       1.13046                      90.10855
                      -6.10875                       0.95683                      90.32425
                      -6.16479                       0.76492                      90.55512
                      -6.14454                       0.56678                      90.78663
                      -6.04926                       0.37487                      91.00426
                      -5.88494                       0.20124                      91.19431
                      -5.66191                       0.05681                      91.34486
                      -5.39418                      -0.04936                      91.44644
                      -5.09858                      -0.11059                      91.49267
                      -4.79367                      -0.12303                      91.48064
                      -4.49862                      -0.08590                      91.41111
                      -4.23196                      -0.00154                      91.28846
                      -4.01045                       0.12476                      91.12037
                      -3.84801                       0.28506                      90.91743
                      -3.75485                       0.46928                      90.69237
                      -3.82968                       0.76098                      90.54887
                      -3.88311                       0.94136                      90.34115
                      -4.00317                       1.11042                      90.15261
                      -4.18231                       1.25752                      89.99509
                      -4.40927                       1.37342                      89.87849
                      -4.66980                       1.45083                      89.81013
                      -4.94753                       1.48490                      89.79431
                      -5.22500                       1.47349                      89.83203
                      -5.48477                       1.41730                      89.92091
                      -5.71054                       1.31987                      90.05537
                      -5.88811                       1.18733                      90.22697
                      -6.00632                       1.02800                      90.42491
                      -6.05775                       0.85189                      90.63676
                      -6.03916                       0.67006                      90.84922
                      -5.95172                       0.49395                      91.04892
                      -5.80094                       0.33462                      91.22333
                      -5.59627                       0.20208                      91.36148
                      -5.35059                       0.10465                      91.45470
                      -5.07932                       0.04846                      91.49712
                      -4.79952                       0.03705                      91.48608
                      -4.52876                       0.07112                      91.42228
                      -4.28405                       0.14853                      91.30972
                      -4.08079                       0.26443                      91.15548
                      -3.93172                       0.41153                      90.96924
                      -3.84623                       0.58059                      90.76271
                      -3.94801                       0.85610                      90.64063
                      -3.99542                       1.01618                      90.45630
                      -4.10196                       1.16620                      90.28899
                      -4.26093                       1.29673                      90.14920
                      -4.46235                       1.39958                      90.04572
                      -4.69354                       1.46828                      89.98506
                      -4.94000                       1.49852                      89.97103
                      -5.18623                       1.48839                      90.00450
                      -5.41676                       1.43853                      90.08337
                      -5.61711                       1.35207                      90.20270
                      -5.77468                       1.23445                      90.35497
                      -5.87959                       1.09306                      90.53063
                      -5.92522                       0.93677                      90.71863
                      -5.90873                       0.77542                      90.90716
                      -5.83114                       0.61914                      91.08438
                      -5.69733                       0.47774                      91.23916
                      -5.51570                       0.36012                      91.36175
                      -5.29768                       0.27367                      91.44447
                      -5.05695                       0.22381                      91.48212
                      -4.80865                       0.21367                      91.47232
                      -4.56838                       0.24391                      91.41570
                      -4.35123                       0.31261                      91.31582
                      -4.17084                       0.41546                      91.17894
                      -4.03856                       0.54600                      91.01367
                      -3.96269                       0.69602                      90.83040
                      -4.10332                       0.95122                      90.73563
                      -4.14295                       1.08500                      90.58158
                      -4.23198                       1.21037                      90.44175
                      -4.36484                       1.31946                      90.32493
                      -4.53316                       1.40542                      90.23846
                      -4.72637                       1.46283                      90.18776
                      -4.93234                       1.48810                      90.17603
                      -5.13812                       1.47963                      90.20400
                      -5.33077                       1.43796                      90.26992
                      -5.49820                       1.36571                      90.36964
                      -5.62989                       1.26741                      90.49690
                      -5.71756                       1.14925                      90.64369
                      -5.75570                       1.01864                      90.80081
                      -5.74191                       0.88380                      90.95837
                      -5.67707                       0.75319                      91.10648
                      -5.56524                       0.63503                      91.23582
                      -5.41346                       0.53673                      91.33828
                      -5.23126                       0.46448                      91.40741
                      -5.03008                       0.42281                      91.43887
                      -4.82257                       0.41434                      91.43068
                      -4.62177                       0.43961                      91.38336
                      -4.44029                       0.49702                      91.29989
                      -4.28955                       0.58297                      91.18550
                      -4.17900                       0.69206                      91.04738
                      -4.11559                       0.81744                      90.89422
                      -4.32505                       1.04634                      90.83643
                      -4.35370                       1.14306                      90.72506
                      -4.41808                       1.23371                      90.62396
                      -4.51413                       1.31258                      90.53950
                      -4.63583                       1.37473                      90.47698
                      -4.77552                       1.41624                      90.44033
                      -4.92443                       1.43450                      90.43185
                      -5.07321                       1.42838                      90.45207
                      -5.21250                       1.39826                      90.49973
                      -5.33355                       1.34602                      90.57182
                      -5.42876                       1.27495                      90.66383
                      -5.49215                       1.18952                      90.76997
                      -5.51972                       1.09509                      90.88356
                      -5.50976                       0.99759                      90.99748
                      -5.46288                       0.90317                      91.10456
                      -5.38202                       0.81773                      91.19807
                      -5.27228                       0.74666                      91.27215
                      -5.14055                       0.69443                      91.32213
                      -4.99510                       0.66430                      91.34488
                      -4.84507                       0.65818                      91.33896
                      -4.69989                       0.67645                      91.30475
                      -4.56869                       0.71796                      91.24439
                      -4.45970                       0.78010                      91.16169
                      -4.37977                       0.85897                      91.06183
                      -4.33393                       0.94962                      90.95109
                      -4.91518                       1.14146                      90.96947
                      -4.91518                       1.14146                      90.96947
                      -4.91518                       1.14146                      90.96947
                      -4.91518                       1.14146                      90.96947
                      -4.91518                       1.14146                      90.96947
                      -4.91518                       1.14146                      90.96947
                      -4.91518                       1.14146                      90.96947
                      -4.91518                       1.14146                      90.96947
                      -4.91518                       1.14146                      90.96947
                      -4.91518                       1.14146                      90.96947
                      -4.91518                       1.14146                      90.96947
                      -4.91518                       1.14146                      90.96947
                      -4.91518                       1.14146                      90.96947
                      -4.91518                       1.14146                      90.96947
                      -4.91518                       1.14146                      90.96947
                      -4.91518                       1.14146                      90.96947
                      -4.91518                       1.14146                      90.96947
                      -4.91518                       1.14146                      90.96947
                      -4.91518                       1.14146                      90.96947
                      -4.91518                       1.14146                      90.96947
                      -4.91518                       1.14146                      90.96947
                      -4.91518                       1.14146                      90.96947
                      -4.91518                       1.14146                      90.96947
                      -4.91518                       1.14146                      90.96947
                      -4.91518                       1.14146                      90.96947
        </DataArray>
      </Points>
      <Polys>
        <DataArray type="Int32" Name="connectivity" format="ascii">
      0      1     26     25
      1      2     27     26
      2      3     28     27
      3      4     29     28
      4      5     30     29
      5      6     31     30
      6      7     32     31
      7      8     33     32
      8      9     34     33
      9     10     35     34
     10     11     36     35
     11     12     37     36
     12     13     38     37
     13     14     39     38
     14     15     40     39
     15     16     41     40
     16     17     42     41
     17     18     43     42
     18     19     44     43
     19     20     45     44
     20     21     46     45
     21     22     47     46
     22     23     48     47
     23     24     49     48
     24      0     25     49
     25     26     51     50
     26     27     52     51
     27     28     53     52
     28     29     54     53
     29     30     55     54
     30     31     56     55
     31     32     57     56
     32     33     58     57
     33     34     59     58
     34     35     60     59
     35     36     61     60
     36     37     62     61
     37     38     63     62
     38     39     64     63
     39     40     65     64
     40     41     66     65
     41     42     67     66
     42     43     68     67
     43     44     69     68
     44     45     70     69
     45     46     71     70
     46     47     72     71
     47     48     73     72
     48     49     74     73
     49     25     50     74
     50     51     76     75
     51     52     77     76
     52     53     78     77
     53     54     79     78
     54     55     80     79
     55     56     81     80
     56     57     82     81
     57     58     83     82
     58     59     84     83
     59     60     85     84
     60     61     86     85
     61     62     87     86
     62     63     88     87
     63     64     89     88
     64     65     90     89
     65     66     91     90
     66     67     92     91
     67     68     93     92
     68     69     94     93
     69     70     95     94
     70     71     96     95
     71     72     97     96
     72     73     98     97
     73     74     99     98
     74     50     75     99
     75     76    101    100
     76     77    102    101
     77     78    103    102
     78     79    104    103
     79     80    105    104
     80     81    106    105
     81     82    107    106
     82     83    108    107
     83     84    109    108
     84     85    110    109
     85     86    111    110
     86     87    112    111
     87     88    113    112
     88     89    114    113
     89     90    115    114
     90     91    116    115
     91     92    117    116
     92     93    118    117
     93     94    119    118
     94     95    120    119
     95     96    121    120
     96     97    122    121
     97     98    123    122
     98     99    124    123
     99     75    100    124
    100    101    126    125
    101    102    127    126
    102    103    128    127
    103    104    129    128
    104    105    130    129
    105    106    131    130
    106    107    132    131
    107    108    133    132
    108    109    134    133
    109    110    135    134
    110    111    136    135
    111    112    137    136
    112    113    138    137
    113    114    139    138
    114    115    140    139
    115    116    141    140
    116    117    142    141
    117    118    143    142
    118    119    144    143
    119    120    145    144
    120    121    146    145
    121    122    147    146
    122    123    148    147
    123    124    149    148
    124    100    125    149
    125    126    151    150
    126    127    152    151
    127    128    153    152
    128    129    154    153
    129    130    155    154
    130    131    156    155
    131    132    157    156
    132    133    158    157
    133    134    159    158
    134    135    160    159
    135    136    161    160
    136    137    162    161
    137    138    163    162
    138    139    164    163
    139    140    165    164
    140    141    166    165
    141    142    167    166
    142    143    168    167
    143    144    169    168
    144    145    170    169
    145    146    171    170
    146    147    172    171
    147    148    173    172
    148    149    174    173
    149    125    150    174
    150    151    176    175
    151    152    177    176
    152    153    178    177
    153    154    179    178
    154    155    180    179
    155    156    181    180
    156    157    182    181
    157    158    183    182
    158    159    184    183
    159    160    185    184
    160    161    186    185
    161    162    187    186
    162    163    188    187
    163    164    189    188
    164    165    190    189
    165    166    191    190
    166    167    192    191
    167    168    193    192
    168    169    194    193
    169    170    195    194
    170    171    196    195
    171    172    197    196
    172    173    198    197
    173    174    199    198
    174    150    175    199
    175    176    201    200
    176    177    202    201
    177    178    203    202
    178    179    204    203
    179    180    205    204
    180    181    206    205
    181    182    207    206
    182    183    208    207
    183    184    209    208
    184    185    210    209
    185    186    211    210
    186    187    212    211
    187    188    213    212
    188    189    214    213
    189    190    215    214
    190    191    216    215
    191    192    217    216
    192    193    218    217
    193    194    219    218
    194    195    220    219
    195    196    221    220
    196    197    222    221
    197    198    223    222
    198    199    224    223
    199    175    200    224
    200    201    226    225
    201    202    227    226
    202    203    228    227
    203    204    229    228
    204    205    230    229
    205    206    231    230
    206    207    232    231
    207    208    233    232
    208    209    234    233
    209    210    235    234
    210    211    236    235
    211    212    237    236
    212    213    238    237
    213    214    239    238
    214    215    240    239
    215    216    241    240
    216    217    242    241
    217    218    243    242
    218    219    244    243
    219    220    245    244
    220    221    246    245
    221    222    247    246
    222    223    248    247
    223    224    249    248
    224    200    225    249
    225    226    251    250
    226    227    252    251
    227    228    253    252
    228    229    254    253
    229    230    255    254
    230    231    256    255
    231    232    257    256
    232    233    258    257
    233    234    259    258
    234    235    260    259
    235    236    261    260
    236    237    262    261
    237    238    263    262
    238    239    264    263
    239    240    265    264
    240    241    266    265
    241    242    267    266
    242    243    268    267
    243    244    269    268
    244    245    270    269
    245    246    271    270
    246    247    272    271
    247    248    273    272
    248    249    274    273
    249    225    250    274
    250    251    276    275
    251    252    277    276
    252    253    278    277
    253    254    279    278
    254    255    280    279
    255    256    281    280
    256    257    282    281
    257    258    283    282
    258    259    284    283
    259    260    285    284
    260    261    286    285
    261    262    287    286
    262    263    288    287
    263    264    289    288
    264    265    290    289
    265    266    291    290
    266    267    292    291
    267    268    293    292
    268    269    294    293
    269    270    295    294
    270    271    296    295
    271    272    297    296
    272    273    298    297
    273    274    299    298
    274    250    275    299
    275    276    301    300
    276    277    302    301
    277    278    303    302
    278    279    304    303
    279    280    305    304
    280    281    306    305
    281    282    307    306
    282    283    308    307
    283    284    309    308
    284    285    310    309
    285    286    311    310
    286    287    312    311
    287    288    313    312
    288    289    314    313
    289    290    315    314
    290    291    316    315
    291    292    317    316
    292    293    318    317
    293    294    319    318
    294    295    320    319
    295    296    321    320
    296    297    322    321
    297    298    323    322
    298    299    324    323
    299    275    300    324
    300    301    326    325
    301    302    327    326
    302    303    328    327
    303    304    329    328
    304    305    330    329
    305    306    331    330
    306    307    332    331
    307    308    333    332
    308    309    334    333
    309    310    335    334
    310    311    336    335
    311    312    337    336
    312    313    338    337
    313    314    339    338
    314    315    340    339
    315    316    341    340
    316    317    342    341
    317    318    343    342
    318    319    344    343
    319    320    345    344
    320    321    346    345
    321    322    347    346
    322    323    348    347
    323    324    349    348
    324    300    325    349
    325    326    351    350
    326    327    352    351
    327    328    353    352
    328    329    354    353
    329    330    355    354
    330    331    356    355
    331    332    357    356
    332    333    358    357
    333    334    359    358
    334    335    360    359
    335    336    361    360
    336    337    362    361
    337    338    363    362
    338    339    364    363
    339    340    365    364
    340    341    366    365
    341    342    367    366
    342    343    368    367
    343    344    369    368
    344    345    370    369
    345    346    371    370
    346    347    372    371
    347    348    373    372
    348    349    374    373
    349    325    350    374
    350    351    376    375
    351    352    377    376
    352    353    378    377
    353    354    379    378
    354    355    380    379
    355    356    381    380
    356    357    382    381
    357    358    383    382
    358    359    384    383
    359    360    385    384
    360    361    386    385
    361    362    387    386
    362    363    388    387
    363    364    389    388
    364    365    390    389
    365    366    391    390
    366    367    392    391
    367    368    393    392
    368    369    394    393
    369    370    395    394
    370    371    396    395
    371    372    397    396
    372    373    398    397
    373    374    399    398
    374    350    375    399
    375    376    401    400
    376    377    402    401
    377    378    403    402
    378    379    404    403
    379    380    405    404
    380    381    406    405
    381    382    407    406
    382    383    408    407
    383    384    409    408
    384    385    410    409
    385    386    411    410
    386    387    412    411
    387    388    413    412
    388    389    414    413
    389    390    415    414
    390    391    416    415
    391    392    417    416
    392    393    418    417
    393    394    419    418
    394    395    420    419
    395    396    421    420
    396    397    422    421
    397    398    423    422
    398    399    424    423
    399    375    400    424
    400    401    426    425
    401    402    427    426
    402    403    428    427
    403    404    429    428
    404    405    430    429
    405    406    431    430
    406    407    432    431
    407    408    433    432
    408    409    434    433
    409    410    435    434
    410    411    436    435
    411    412    437    436
    412    413    438    437
    413    414    439    438
    414    415    440    439
    415    416    441    440
    416    417    442    441
    417    418    443    442
    418    419    444    443
    419    420    445    444
    420    421    446    445
    421    422    447    446
    422    423    448    447
    423    424    449    448
    424    400    425    449
    425    426    451    450
    426    427    452    451
    427    428    453    452
    428    429    454    453
    429    430    455    454
    430    431    456    455
    431    432    457    456
    432    433    458    457
    433    434    459    458
    434    435    460    459
    435    436    461    460
    436    437    462    461
    437    438    463    462
    438    439    464    463
    439    440    465    464
    440    441    466    465
    441    442    467    466
    442    443    468    467
    443    444    469    468
    444    445    470    469
    445    446    471    470
    446    447    472    471
    447    448    473    472
    448    449    474    473
    449    425    450    474
    450    451    476    475
    451    452    477    476
    452    453    478    477
    453    454    479    478
    454    455    480    479
    455    456    481    480
    456    457    482    481
    457    458    483    482
    458    459    484    483
    459    460    485    484
    460    461    486    485
    461    462    487    486
    462    463    488    487
    463    464    489    488
    464    465    490    489
    465    466    491    490
    466    467    492    491
    467    468    493    492
    468    469    494    493
    469    470    495    494
    470    471    496    495
    471    472    497    496
    472    473    498    497
    473    474    499    498
    474    450    475    499
    475    476    501    500
    476    477    502    501
    477    478    503    502
    478    479    504    503
    479    480    505    504
    480    481    506    505
    481    482    507    506
    482    483    508    507
    483    484    509    508
    484    485    510    509
    485    486    511    510
    486    487    512    511
    487    488    513    512
    488    489    514    513
    489    490    515    514
    490    491    516    515
    491    492    517    516
    492    493    518    517
    493    494    519    518
    494    495    520    519
    495    496    521    520
    496    497    522    521
    497    498    523    522
    498    499    524    523
    499    475    500    524
    500    501    526    525
    501    502    527    526
    502    503    528    527
    503    504    529    528
    504    505    530    529
    505    506    531    530
    506    507    532    531
    507    508    533    532
    508    509    534    533
    509    510    535    534
    510    511    536    535
    511    512    537    536
    512    513    538    537
    513    514    539    538
    514    515    540    539
    515    516    541    540
    516    517    542    541
    517    518    543    542
    518    519    544    543
    519    520    545    544
    520    521    546    545
    521    522    547    546
    522    523    548    547
    523    524    549    548
    524    500    525    549
    525    526    551    550
    526    527    552    551
    527    528    553    552
    528    529    554    553
    529    530    555    554
    530    531    556    555
    531    532    557    556
    532    533    558    557
    533    534    559    558
    534    535    560    559
    535    536    561    560
    536    537    562    561
    537    538    563    562
    538    539    564    563
    539    540    565    564
    540    541    566    565
    541    542    567    566
    542    543    568    567
    543    544    569    568
    544    545    570    569
    545    546    571    570
    546    547    572    571
    547    548    573    572
    548    549    574    573
    549    525    550    574
    550    551    576    575
    551    552    577    576
    552    553    578    577
    553    554    579    578
    554    555    580    579
    555    556    581    580
    556    557    582    581
    557    558    583    582
    558    559    584    583
    559    560    585    584
    560    561    586    585
    561    562    587    586
    562    563    588    587
    563    564    589    588
    564    565    590    589
    565    566    591    590
    566    567    592    591
    567    568    593    592
    568    569    594    593
    569    570    595    594
    570    571    596    595
    571    572    597    596
    572    573    598    597
    573    574    599    598
    574    550    575    599
    575    576    601    600
    576    577    602    601
    577    578    603    602
    578    579    604    603
    579    580    605    604
    580    581    606    605
    581    582    607    606
    582    583    608    607
    583    584    609    608
    584    585    610    609
    585    586    611    610
    586    587    612    611
    587    588    613    612
    588    589    614    613
    589    590    615    614
    590    591    616    615
    591    592    617    616
    592    593    618    617
    593    594    619    618
    594    595    620    619
    595    596    621    620
    596    597    622    621
    597    598    623    622
    598    599    624    623
    599    575    600    624
        </DataArray>
        <DataArray type="Int32" Name="offsets" format="ascii">
      4
      8
     12
     16
     20
     24
     28
     32
     36
     40
     44
     48
     52
     56
     60
     64
     68
     72
     76
     80
     84
     88
     92
     96
    100
    104
    108
    112
    116
    120
    124
    128
    132
    136
    140
    144
    148
    152
    156
    160
    164
    168
    172
    176
    180
    184
    188
    192
    196
    200
    204
    208
    212
    216
    220
    224
    228
    232
    236
    240
    244
    248
    252
    256
    260
    264
    268
    272
    276
    280
    284
    288
    292
    296
    300
    304
    308
    312
    316
    320
    324
    328
    332
    336
    340
    344
    348
    352
    356
    360
    364
    368
    372
    376
    380
    384
    388
    392
    396
    400
    404
    408
    412
    416
    420
    424
    428
    432
    436
    440
    444
    448
    452
    456
    460
    464
    468
    472
    476
    480
    484
    488
    492
    496
    500
    504
    508
    512
    516
    520
    524
    528
    532
    536
    540
    544
    548
    552
    556
    560
    564
    568
    572
    576
    580
    584
    588
    592
    596
    600
    604
    608
    612
    616
    620
    624
    628
    632
    636
    640
    644
    648
    652
    656
    660
    664
    668
    672
    676
    680
    684
    688
    692
    696
    700
    704
    708
    712
    716
    720
    724
    728
    732
    736
    740
    744
    748
    752
    756
    760
    764
    768
    772
    776
    780
    784
    788
    792
    796
    800
    804
    808
    812
    816
    820
    824
    828
    832
    836
    840
    844
    848
    852
    856
    860
    864
    868
    872
    876
    880
    884
    888
    892
    896
    900
    904
    908
    912
    916
    920
    924
    928
    932
    936
    940
    944
    948
    952
    956
    960
    964
    968
    972
    976
    980
    984
    988
    992
    996
   1000
   1004
   1008
   1012
   1016
   1020
   1024
   1028
   1032
   1036
   1040
   1044
   1048
   1052
   1056
   1060
   1064
   1068
   1072
   1076
   1080
   1084
   1088
   1092
   1096
   1100
   1104
   1108
   1112
   1116
   1120
   1124
   1128
   1132
   1136
   1140
   1144
   1148
   1152
   1156
   1160
   1164
   1168
   1172
   1176
   1180
   1184
   1188
   1192
   1196
   1200
   1204
   1208
   1212
   1216
   1220
   1224
   1228
   1232
   1236
   1240
   1244
   1248
   1252
   1256
   1260
   1264
   1268
   1272
   1276
   1280
   1284
   1288
   1292
   1296
   1300
   1304
   1308
   1312
   1316
   1320
   1324
   1328
   1332
   1336
   1340
   1344
   1348
   1352
   1356
   1360
   1364
   1368
   1372
   1376
   1380
   1384
   1388
   1392
   1396
   1400
   1404
   1408
   1412
   1416
   1420
   1424
   1428
   1432
   1436
   1440
   1444
   1448
   1452
   1456
   1460
   1464
   1468
   1472
   1476
   1480
   1484
   1488
   1492
   1496
   1500
   1504
   1508
   1512
   1516
   1520
   1524
   1528
   1532
   1536
   1540
   1544
   1548
   1552
   1556
   1560
   1564
   1568
   1572
   1576
   1580
   1584
   1588
   1592
   1596
   1600
   1604
   1608
   1612
   1616
   1620
   1624
   1628
   1632
   1636
   1640
   1644
   1648
   1652
   1656
   1660
   1664
   1668
   1672
   1676
   1680
   1684
   1688
   1692
   1696
   1700
   1704
   1708
   1712
   1716
   1720
   1724
   1728
   1732
   1736
   1740
   1744
   1748
   1752
   1756
   1760
   1764
   1768
   1772
   1776
   1780
   1784
   1788
   1792
   1796
   1800
   1804
   1808
   1812
   1816
   1820
   1824
   1828
   1832
   1836
   1840
   1844
   1848
   1852
   1856
   1860
   1864
   1868
   1872
   1876
   1880
   1884
   1888
   1892
   1896
   1900
   1904
   1908
   1912
   1916
   1920
   1924
   1928
   1932
   1936
   1940
   1944
   1948
   1952
   1956
   1960
   1964
   1968
   1972
   1976
   1980
   1984
   1988
   1992
   1996
   2000
   2004
   2008
   2012
   2016
   2020
   2024
   2028
   2032
   2036
   2040
   2044
   2048
   2052
   2056
   2060
   2064
   2068
   2072
   2076
   2080
   2084
   2088
   2092
   2096
   2100
   2104
   2108
   2112
   2116
   2120
   2124
   2128
   2132
   2136
   2140
   2144
   2148
   2152
   2156
   2160
   2164
   2168
   2172
   2176
   2180
   2184
   2188
   2192
   2196
   2200
   2204
   2208
   2212
   2216
   2220
   2224
   2228
   2232
   2236
   2240
   2244
   2248
   2252
   2256
   2260
   2264
   2268
   2272
   2276
   2280
   2284
   2288
   2292
   2296
   2300
   2304
   2308
   2312
   2316
   2320
   2324
   2328
   2332
   2336
   2340
   2344
   2348
   2352
   2356
   2360
   2364
   2368
   2372
   2376
   2380
   2384
   2388
   2392
   2396
   2400
        </DataArray>
      </Polys>
    </Piece>
  </PolyData>
</VTKFile>
