<?xml version="1.0"?>
<VTKFile type="PolyData" version="0.1" byte_order="LittleEndian">
  <PolyData>
    <Piece NumberOfPoints="     19" NumberOfVerts="  0" NumberOfLines="     18"
           NumberOfStrips="  0" NumberOfPolys="      0">
      <Points>
        <DataArray type="Float32" NumberOfComponents="3" format="ascii">
                      -5.00134                      -1.30736                      90.73540
                      -5.00364                      -2.50020                      91.40250
                      -5.03776                      -4.93120                      92.65584
                      -5.08586                      -7.38371                      93.87092
                      -5.15434                     -10.46227                      95.36695
                      -5.17289                     -14.08859                      97.28303
                      -5.15757                     -17.65227                      99.31052
                      -5.14432                     -21.21460                     101.34041
                      -5.13062                     -24.77479                     103.37409
                      -5.11745                     -28.33374                     105.40998
                      -5.10640                     -31.89319                     107.44497
                      -5.09665                     -35.45245                     109.48032
                      -5.08883                     -39.01148                     111.51606
                      -5.08366                     -42.57029                     113.55219
                      -5.07942                     -46.12901                     115.58847
                      -5.07651                     -49.09458                     117.28549
                      -5.07414                     -51.46310                     118.64999
                      -5.06889                     -53.80468                     120.06239
                      -5.07011                     -54.99577                     120.73238
        </DataArray>
      </Points>
      <PointData>
        <DataArray type="Float32" Name="TranslationalVelocity" NumberOfComponents="3" format="ascii">
                      -0.27822                      -1.78851                      -3.18007
                      -0.53207                      -3.41070                      -6.08155
                      -1.04941                      -6.45211                     -11.99480
                      -1.57133                      -9.39747                     -17.96037
                      -2.22648                     -13.02188                     -25.44875
                      -2.99819                     -17.67865                     -34.26951
                      -3.75658                     -22.61365                     -42.93791
                      -4.51468                     -27.55403                     -51.60303
                      -5.27232                     -32.50375                     -60.26294
                      -6.02971                     -37.45871                     -68.91985
                      -6.78719                     -42.41103                     -77.57798
                      -7.54464                     -47.36394                     -86.23561
                      -8.30204                     -52.31740                     -94.89271
                      -9.05939                     -57.27125                    -103.54926
                      -9.81672                     -62.22527                    -112.20560
                     -10.44782                     -66.35376                    -119.41916
                     -10.95187                     -69.67331                    -125.18042
                     -11.45018                     -73.11000                    -130.87613
                     -11.70365                     -74.73945                    -133.77339
        </DataArray>
        <DataArray type="Float32" Name="RotationalVelocity" NumberOfComponents="3" format="ascii">
                       2.43243                      -0.00000                      -0.21281
                       2.43243                      -0.00000                      -0.21281
                       2.43243                      -0.00000                      -0.21281
                       2.43243                      -0.00000                      -0.21281
                       2.43243                      -0.00000                      -0.21281
                       2.43243                      -0.00000                      -0.21281
                       2.43243                      -0.00000                      -0.21281
                       2.43243                      -0.00000                      -0.21281
                       2.43243                      -0.00000                      -0.21281
                       2.43243                      -0.00000                      -0.21281
                       2.43243                      -0.00000                      -0.21281
                       2.43243                      -0.00000                      -0.21281
                       2.43243                      -0.00000                      -0.21281
                       2.43243                      -0.00000                      -0.21281
                       2.43243                      -0.00000                      -0.21281
                       2.43243                      -0.00000                      -0.21281
                       2.43243                      -0.00000                      -0.21281
                       2.43243                      -0.00000                      -0.21281
                       2.43243                      -0.00000                      -0.21281
        </DataArray>
        <DataArray type="Float32" Name="TranslationalAcceleration" NumberOfComponents="3" format="ascii">
                      -0.38248                       7.78251                      -4.37174
                      -0.72940                      14.88332                      -8.33704
                      -1.38011                      29.35660                     -15.77471
                      -2.01041                      43.95876                     -22.97907
                      -2.78611                      62.28886                     -31.84538
                      -3.78229                      83.87776                     -43.23178
                      -4.83759                     105.09135                     -55.29391
                      -5.89403                     126.29686                     -67.36910
                      -6.95246                     147.48957                     -79.46700
                      -8.01200                     168.67486                     -91.57761
                      -9.07098                     189.86316                    -103.68182
                     -10.13009                     211.05025                    -115.78747
                     -11.18931                     232.23603                    -127.89442
                     -12.24862                     253.42046                    -140.00233
                     -13.30796                     274.60437                    -152.11067
                     -14.19077                     292.25747                    -162.20129
                     -14.90059                     306.35634                    -170.31447
                     -15.63529                     320.29380                    -178.71215
                     -15.98375                     327.38418                    -182.69509
        </DataArray>
        <DataArray type="Float32" Name="OrientationX" NumberOfComponents="3" format="ascii">
                       0.99710                      -0.03805                      -0.06583
                       0.99710                      -0.03805                      -0.06583
                       0.99710                      -0.03805                      -0.06583
                       0.99710                      -0.03805                      -0.06583
                       0.99710                      -0.03805                      -0.06583
                       0.99710                      -0.03805                      -0.06583
                       0.99710                      -0.03805                      -0.06583
                       0.99710                      -0.03805                      -0.06583
                       0.99710                      -0.03805                      -0.06583
                       0.99710                      -0.03805                      -0.06583
                       0.99710                      -0.03805                      -0.06583
                       0.99710                      -0.03805                      -0.06583
                       0.99710                      -0.03805                      -0.06583
                       0.99710                      -0.03805                      -0.06583
                       0.99710                      -0.03805                      -0.06583
                       0.99710                      -0.03805                      -0.06583
                       0.99710                      -0.03805                      -0.06583
                       0.99710                      -0.03805                      -0.06583
                       0.99710                      -0.03805                      -0.06583
        </DataArray>
        <DataArray type="Float32" Name="OrientationY" NumberOfComponents="3" format="ascii">
                       0.07604                       0.48878                       0.86908
                       0.07604                       0.48878                       0.86908
                       0.07604                       0.48878                       0.86908
                       0.07604                       0.48878                       0.86908
                       0.07604                       0.48878                       0.86908
                       0.07604                       0.48878                       0.86908
                       0.07604                       0.48878                       0.86908
                       0.07604                       0.48878                       0.86908
                       0.07604                       0.48878                       0.86908
                       0.07604                       0.48878                       0.86908
                       0.07604                       0.48878                       0.86908
                       0.07604                       0.48878                       0.86908
                       0.07604                       0.48878                       0.86908
                       0.07604                       0.48878                       0.86908
                       0.07604                       0.48878                       0.86908
                       0.07604                       0.48878                       0.86908
                       0.07604                       0.48878                       0.86908
                       0.07604                       0.48878                       0.86908
                       0.07604                       0.48878                       0.86908
        </DataArray>
        <DataArray type="Float32" Name="OrientationZ" NumberOfComponents="3" format="ascii">
                      -0.00089                      -0.87157                       0.49026
                      -0.00089                      -0.87157                       0.49026
                      -0.00089                      -0.87157                       0.49026
                      -0.00089                      -0.87157                       0.49026
                      -0.00089                      -0.87157                       0.49026
                      -0.00089                      -0.87157                       0.49026
                      -0.00089                      -0.87157                       0.49026
                      -0.00089                      -0.87157                       0.49026
                      -0.00089                      -0.87157                       0.49026
                      -0.00089                      -0.87157                       0.49026
                      -0.00089                      -0.87157                       0.49026
                      -0.00089                      -0.87157                       0.49026
                      -0.00089                      -0.87157                       0.49026
                      -0.00089                      -0.87157                       0.49026
                      -0.00089                      -0.87157                       0.49026
                      -0.00089                      -0.87157                       0.49026
                      -0.00089                      -0.87157                       0.49026
                      -0.00089                      -0.87157                       0.49026
                      -0.00089                      -0.87157                       0.49026
        </DataArray>
        <DataArray type="Float32" Name="Force" NumberOfComponents="3" format="ascii">
                       1.72481                      11.08780                      19.71469
                     195.97587                      53.14669                      94.83974
                     292.81011                     148.77463                     265.02063
                     298.55966                     216.66104                     385.71749
                    2961.97782                    -277.17294                    -487.35094
                    3678.24257                    -271.89377                    -476.66031
                    4570.38834                    -291.24975                    -509.44472
                    6352.57654                    -364.04032                    -635.60130
                    6999.06071                    -341.30934                    -594.01257
                    8115.63851                    -374.25371                    -650.54495
                   10263.77193                    -431.69461                    -748.74636
                   11591.63212                    -474.22635                    -821.93779
                   12995.52690                    -573.89981                    -996.57543
                   14075.16922                    -617.40684                   -1071.95310
                   15034.69673                    -661.33803                   -1148.30375
                   15714.13345                    -695.27545                   -1207.39830
                   15852.86800                    -715.55182                   -1243.19214
                   12575.35290                    -608.20029                   -1058.31958
                    9171.63369                    -283.61369                    -487.48323
        </DataArray>
        <DataArray type="Float32" Name="Moment" NumberOfComponents="3" format="ascii">
                       0.00000                       0.00000                       0.00000
                       0.00000                       0.00000                       0.00000
                       0.00000                       0.00000                       0.00000
                       0.00000                       0.00000                       0.00000
                       1.05519                    1029.22407                    -578.94133
                       2.11717                    2065.06019                   -1161.60196
                       2.88489                    2813.89215                   -1582.82197
                       4.27772                    4172.43947                   -2347.00853
                       6.06219                    5912.99707                   -3326.07690
                       6.86021                    6691.37012                   -3763.91385
                       7.47028                    7286.43405                   -4098.63893
                       7.94091                    7745.48107                   -4356.85413
                       6.55024                    6389.03106                   -3593.84732
                       6.55463                    6393.31685                   -3596.25808
                       6.37900                    6222.00644                   -3499.89551
                       6.09915                    5949.04674                   -3346.35494
                       5.47222                    5337.54188                   -3002.38180
                       2.81437                    2745.11056                   -1544.13214
                       2.67257                    2606.79777                   -1466.33082
        </DataArray>
      </PointData>
      <Lines>
        <DataArray type="Int32" Name="connectivity" format="ascii">
      0      1
      1      2
      2      3
      3      4
      4      5
      5      6
      6      7
      7      8
      8      9
      9     10
     10     11
     11     12
     12     13
     13     14
     14     15
     15     16
     16     17
     17     18
        </DataArray>
        <DataArray type="Int32" Name="offsets" format="ascii">
      2
      4
      6
      8
     10
     12
     14
     16
     18
     20
     22
     24
     26
     28
     30
     32
     34
     36
        </DataArray>
      </Lines>
    </Piece>
  </PolyData>
</VTKFile>
