<?xml version="1.0"?>
<VTKFile type="PolyData" version="0.1" byte_order="LittleEndian">
  <PolyData>
    <Piece NumberOfPoints="     19" NumberOfVerts="  0" NumberOfLines="     18"
           NumberOfStrips="  0" NumberOfPolys="      0">
      <Points>
        <DataArray type="Float32" NumberOfComponents="3" format="ascii">
                      -4.99353                       1.25295                      90.82468
                      -4.98820                       2.39263                      91.57899
                      -4.99297                       4.61915                      93.16782
                      -5.00504                       6.82069                      94.79467
                      -5.02451                       9.55775                      96.85098
                      -5.00553                      12.92261                      99.19602
                      -4.97203                      16.35968                     101.43123
                      -4.94100                      19.79809                     103.66444
                      -4.91016                      23.23890                     105.89399
                      -4.88022                      26.68104                     108.12153
                      -4.85223                      30.12246                     110.35018
                      -4.82558                      33.56400                     112.57866
                      -4.80091                      37.00563                     114.80701
                      -4.77893                      40.44731                     117.03532
                      -4.75789                      43.88900                     119.26360
                      -4.74099                      46.75712                     121.12051
                      -4.72860                      49.05589                     122.59945
                      -4.72154                      51.38479                     124.03264
                      -4.71564                      52.52631                     124.78398
        </DataArray>
      </Points>
      <PointData>
        <DataArray type="Float32" Name="TranslationalVelocity" NumberOfComponents="3" format="ascii">
                       0.29764                      -2.24075                       3.40209
                       0.56838                      -4.29017                       6.49663
                       1.09730                      -8.60316                      12.54225
                       1.62029                     -13.01763                      18.52003
                       2.27050                     -18.59645                      25.95191
                       3.06984                     -24.96837                      35.08843
                       3.88634                     -31.04555                      44.42101
                       4.70315                     -37.11670                      53.75721
                       5.52053                     -43.17787                      63.09996
                       6.33823                     -49.23335                      72.44632
                       7.15576                     -55.29139                      81.79071
                       7.97332                     -61.34865                      91.13543
                       8.79090                     -67.40509                     100.48041
                       9.60849                     -73.46079                     109.82549
                      10.42608                     -79.51619                     119.17064
                      11.10742                     -84.56221                     126.95837
                      11.65350                     -88.58088                     133.20015
                      12.20675                     -92.47407                     139.52375
                      12.47792                     -94.51554                     142.62328
        </DataArray>
        <DataArray type="Float32" Name="RotationalVelocity" NumberOfComponents="3" format="ascii">
                       2.71527                      -0.00000                      -0.23756
                       2.71527                      -0.00000                      -0.23756
                       2.71527                      -0.00000                      -0.23756
                       2.71527                      -0.00000                      -0.23756
                       2.71527                      -0.00000                      -0.23756
                       2.71527                      -0.00000                      -0.23756
                       2.71527                      -0.00000                      -0.23756
                       2.71527                      -0.00000                      -0.23756
                       2.71527                      -0.00000                      -0.23756
                       2.71527                      -0.00000                      -0.23756
                       2.71527                      -0.00000                      -0.23756
                       2.71527                      -0.00000                      -0.23756
                       2.71527                      -0.00000                      -0.23756
                       2.71527                      -0.00000                      -0.23756
                       2.71527                      -0.00000                      -0.23756
                       2.71527                      -0.00000                      -0.23756
                       2.71527                      -0.00000                      -0.23756
                       2.71527                      -0.00000                      -0.23756
                       2.71527                      -0.00000                      -0.23756
        </DataArray>
        <DataArray type="Float32" Name="TranslationalAcceleration" NumberOfComponents="3" format="ascii">
                      -0.53272                      -9.30518                      -6.08901
                      -1.01995                     -17.76915                     -11.65808
                      -2.04526                     -34.30427                     -23.37748
                      -3.09468                     -50.65365                     -35.37233
                      -4.42087                     -70.97988                     -50.53075
                      -5.93567                     -95.96902                     -67.84502
                      -7.38048                    -121.49500                     -84.35928
                      -8.82386                    -147.03088                    -100.85717
                     -10.26487                    -172.58468                    -117.32795
                     -11.70452                    -198.14839                    -133.78329
                     -13.14479                    -223.70670                    -150.24562
                     -14.58487                    -249.26592                    -166.70579
                     -16.02475                    -274.82583                    -183.16376
                     -17.46446                    -300.38604                    -199.61970
                     -18.90410                    -325.94643                    -216.07482
                     -20.10376                    -347.24704                    -229.78705
                     -21.05918                    -364.31928                    -240.70756
                     -21.98481                    -381.61558                    -251.28748
                     -22.47015                    -390.09322                    -256.83497
        </DataArray>
        <DataArray type="Float32" Name="OrientationX" NumberOfComponents="3" format="ascii">
                       0.99733                       0.03647                      -0.06323
                       0.99733                       0.03647                      -0.06323
                       0.99733                       0.03647                      -0.06323
                       0.99733                       0.03647                      -0.06323
                       0.99733                       0.03647                      -0.06323
                       0.99733                       0.03647                      -0.06323
                       0.99733                       0.03647                      -0.06323
                       0.99733                       0.03647                      -0.06323
                       0.99733                       0.03647                      -0.06323
                       0.99733                       0.03647                      -0.06323
                       0.99733                       0.03647                      -0.06323
                       0.99733                       0.03647                      -0.06323
                       0.99733                       0.03647                      -0.06323
                       0.99733                       0.03647                      -0.06323
                       0.99733                       0.03647                      -0.06323
                       0.99733                       0.03647                      -0.06323
                       0.99733                       0.03647                      -0.06323
                       0.99733                       0.03647                      -0.06323
                       0.99733                       0.03647                      -0.06323
        </DataArray>
        <DataArray type="Float32" Name="OrientationY" NumberOfComponents="3" format="ascii">
                      -0.07287                       0.54859                      -0.83291
                      -0.07287                       0.54859                      -0.83291
                      -0.07287                       0.54859                      -0.83291
                      -0.07287                       0.54859                      -0.83291
                      -0.07287                       0.54859                      -0.83291
                      -0.07287                       0.54859                      -0.83291
                      -0.07287                       0.54859                      -0.83291
                      -0.07287                       0.54859                      -0.83291
                      -0.07287                       0.54859                      -0.83291
                      -0.07287                       0.54859                      -0.83291
                      -0.07287                       0.54859                      -0.83291
                      -0.07287                       0.54859                      -0.83291
                      -0.07287                       0.54859                      -0.83291
                      -0.07287                       0.54859                      -0.83291
                      -0.07287                       0.54859                      -0.83291
                      -0.07287                       0.54859                      -0.83291
                      -0.07287                       0.54859                      -0.83291
                      -0.07287                       0.54859                      -0.83291
                      -0.07287                       0.54859                      -0.83291
        </DataArray>
        <DataArray type="Float32" Name="OrientationZ" NumberOfComponents="3" format="ascii">
                       0.00431                       0.83530                       0.54978
                       0.00431                       0.83530                       0.54978
                       0.00431                       0.83530                       0.54978
                       0.00431                       0.83530                       0.54978
                       0.00431                       0.83530                       0.54978
                       0.00431                       0.83530                       0.54978
                       0.00431                       0.83530                       0.54978
                       0.00431                       0.83530                       0.54978
                       0.00431                       0.83530                       0.54978
                       0.00431                       0.83530                       0.54978
                       0.00431                       0.83530                       0.54978
                       0.00431                       0.83530                       0.54978
                       0.00431                       0.83530                       0.54978
                       0.00431                       0.83530                       0.54978
                       0.00431                       0.83530                       0.54978
                       0.00431                       0.83530                       0.54978
                       0.00431                       0.83530                       0.54978
                       0.00431                       0.83530                       0.54978
                       0.00431                       0.83530                       0.54978
        </DataArray>
        <DataArray type="Float32" Name="Force" NumberOfComponents="3" format="ascii">
                      -0.81375                       6.12611                      -9.30116
                     172.55938                      63.75481                     -98.21813
                     243.20913                     184.23021                    -281.81361
                     234.01587                     276.36207                    -421.71961
                    2947.82251                     -46.51360                      47.54006
                    3706.36288                      21.74459                     -62.11788
                    4660.99779                      75.24897                    -150.89860
                    6627.70620                     146.81116                    -275.05591
                    7420.55695                     227.83976                    -404.38544
                    8664.50204                     289.09993                    -507.21971
                   11183.37337                     420.11584                    -726.03882
                   12720.36027                     491.70562                    -846.86637
                   14131.09625                     502.20892                    -873.89317
                   15365.45936                     550.22967                    -956.53730
                   16470.38739                     586.99678                   -1021.06791
                   17261.63908                     607.05991                   -1057.75860
                   17495.12550                     592.07271                   -1036.82017
                   14282.98992                     415.43161                    -743.24214
                   11141.43270                     498.06082                    -844.13342
        </DataArray>
        <DataArray type="Float32" Name="Moment" NumberOfComponents="3" format="ascii">
                       0.00000                       0.00000                       0.00000
                       0.00000                       0.00000                       0.00000
                       0.00000                       0.00000                       0.00000
                       0.00000                       0.00000                       0.00000
                      -5.73410                   -1110.34305                    -730.81396
                     -11.32150                   -2192.27929                   -1442.93091
                     -15.69375                   -3038.91531                   -2000.17619
                     -23.73991                   -4596.96122                   -3025.66259
                     -34.08262                   -6599.70782                   -4343.84545
                     -38.84012                   -7520.94285                   -4950.19087
                     -42.60356                   -8249.69083                   -5429.84371
                     -45.48267                   -8807.19680                   -5796.78719
                     -37.03458                   -7171.32053                   -4720.07381
                     -37.16809                   -7197.17350                   -4737.08991
                     -36.27701                   -7024.62605                   -4623.52133
                     -34.76874                   -6732.56668                   -4431.29149
                     -31.28732                   -6058.43013                   -3987.58321
                     -16.22218                   -3141.23841                   -2067.52398
                     -15.70393                   -3040.88573                   -2001.47309
        </DataArray>
      </PointData>
      <Lines>
        <DataArray type="Int32" Name="connectivity" format="ascii">
      0      1
      1      2
      2      3
      3      4
      4      5
      5      6
      6      7
      7      8
      8      9
      9     10
     10     11
     11     12
     12     13
     13     14
     14     15
     15     16
     16     17
     17     18
        </DataArray>
        <DataArray type="Int32" Name="offsets" format="ascii">
      2
      4
      6
      8
     10
     12
     14
     16
     18
     20
     22
     24
     26
     28
     30
     32
     34
     36
        </DataArray>
      </Lines>
    </Piece>
  </PolyData>
</VTKFile>
