<?xml version="1.0"?>
<VTKFile type="PolyData" version="0.1" byte_order="LittleEndian">
  <PolyData>
    <Piece NumberOfPoints="    625" NumberOfVerts="  0" NumberOfLines="      0"
           NumberOfStrips="  0" NumberOfPolys="    600">
      <Points>
        <DataArray type="Float32" NumberOfComponents="3" format="ascii">
                      -4.86972                       0.12506                      91.48909
                      -4.86972                       0.12506                      91.48909
                      -4.86972                       0.12506                      91.48909
                      -4.86972                       0.12506                      91.48909
                      -4.86972                       0.12506                      91.48909
                      -4.86972                       0.12506                      91.48909
                      -4.86972                       0.12506                      91.48909
                      -4.86972                       0.12506                      91.48909
                      -4.86972                       0.12506                      91.48909
                      -4.86972                       0.12506                      91.48909
                      -4.86972                       0.12506                      91.48909
                      -4.86972                       0.12506                      91.48909
                      -4.86972                       0.12506                      91.48909
                      -4.86972                       0.12506                      91.48909
                      -4.86972                       0.12506                      91.48909
                      -4.86972                       0.12506                      91.48909
                      -4.86972                       0.12506                      91.48909
                      -4.86972                       0.12506                      91.48909
                      -4.86972                       0.12506                      91.48909
                      -4.86972                       0.12506                      91.48909
                      -4.86972                       0.12506                      91.48909
                      -4.86972                       0.12506                      91.48909
                      -4.86972                       0.12506                      91.48909
                      -4.86972                       0.12506                      91.48909
                      -4.86972                       0.12506                      91.48909
                      -4.28338                       0.11464                      91.31275
                      -4.30106                      -0.03393                      91.32678
                      -4.35515                      -0.17316                      91.34320
                      -4.44226                      -0.29430                      91.36100
                      -4.55691                      -0.38975                      91.37905
                      -4.69189                      -0.45351                      91.39621
                      -4.83873                      -0.48157                      91.41141
                      -4.98820                      -0.47217                      91.42370
                      -5.13091                      -0.42590                      91.43230
                      -5.25789                      -0.34566                      91.43667
                      -5.36116                      -0.23650                      91.43654
                      -5.43424                      -0.10527                      91.43191
                      -5.47252                       0.03977                      91.42308
                      -5.47361                       0.18951                      91.41060
                      -5.43744                       0.33455                      91.39525
                      -5.36628                       0.46578                      91.37801
                      -5.26460                       0.57494                      91.35994
                      -5.13879                       0.65518                      91.34220
                      -4.99676                       0.70145                      91.32588
                      -4.84743                       0.71085                      91.31203
                      -4.70018                       0.68279                      91.30150
                      -4.56426                       0.61903                      91.29497
                      -4.44822                       0.52358                      91.29283
                      -4.35935                       0.40244                      91.29523
                      -4.30323                       0.26321                      91.30201
                      -4.06543                       0.10422                      91.16865
                      -4.08989                      -0.10127                      91.18804
                      -4.16470                      -0.29384                      91.21076
                      -4.28518                      -0.46140                      91.23537
                      -4.44375                      -0.59342                      91.26034
                      -4.63046                      -0.68161                      91.28408
                      -4.83356                      -0.72042                      91.30511
                      -5.04029                      -0.70742                      91.32210
                      -5.23768                      -0.64341                      91.33399
                      -5.41331                      -0.53243                      91.34004
                      -5.55614                      -0.38145                      91.33985
                      -5.65721                      -0.19995                      91.33345
                      -5.71017                       0.00066                      91.32124
                      -5.71168                       0.20778                      91.30398
                      -5.66165                       0.40839                      91.28275
                      -5.56323                       0.58989                      91.25890
                      -5.42259                       0.74087                      91.23391
                      -5.24858                       0.85185                      91.20937
                      -5.05213                       0.91585                      91.18680
                      -4.84558                       0.92886                      91.16764
                      -4.64192                       0.89005                      91.15308
                      -4.45393                       0.80186                      91.14404
                      -4.29343                       0.66984                      91.14109
                      -4.17051                       0.50228                      91.14441
                      -4.09288                       0.30970                      91.15379
                      -3.91391                       0.09380                      91.03035
                      -3.94317                      -0.15208                      91.05356
                      -4.03269                      -0.38251                      91.08074
                      -4.17686                      -0.58302                      91.11020
                      -4.36660                      -0.74099                      91.14006
                      -4.59001                      -0.84652                      91.16847
                      -4.83304                      -0.89296                      91.19363
                      -5.08041                      -0.87739                      91.21397
                      -5.31660                      -0.80081                      91.22820
                      -5.52675                      -0.66801                      91.23543
                      -5.69767                      -0.48735                      91.23521
                      -5.81861                      -0.27017                      91.22756
                      -5.88198                      -0.03012                      91.21294
                      -5.88378                       0.21771                      91.19228
                      -5.82392                       0.45776                      91.16688
                      -5.70615                       0.67494                      91.13834
                      -5.53786                       0.85560                      91.10845
                      -5.32965                       0.98840                      91.07908
                      -5.09458                       1.06499                      91.05208
                      -4.84743                       1.08055                      91.02915
                      -4.60372                       1.03411                      91.01173
                      -4.37878                       0.92859                      91.00091
                      -4.18673                       0.77061                      90.99737
                      -4.03964                       0.57011                      91.00135
                      -3.94676                       0.33968                      91.01257
                      -3.79937                       0.08337                      90.89529
                      -3.83234                      -0.19370                      90.92144
                      -3.93322                      -0.45337                      90.95208
                      -4.09568                      -0.67931                      90.98526
                      -4.30950                      -0.85733                      91.01892
                      -4.56125                      -0.97624                      91.05093
                      -4.83511                      -1.02857                      91.07929
                      -5.11387                      -1.01103                      91.10220
                      -5.38002                      -0.92473                      91.11824
                      -5.61684                      -0.77509                      91.12639
                      -5.80944                      -0.57150                      91.12614
                      -5.94572                      -0.32677                      91.11751
                      -6.01713                      -0.05626                      91.10104
                      -6.01916                       0.22301                      91.07777
                      -5.95171                       0.49352                      91.04915
                      -5.81899                       0.73825                      91.01698
                      -5.62936                       0.94184                      90.98329
                      -5.39472                       1.09148                      90.95020
                      -5.12983                       1.17778                      90.91977
                      -4.85132                       1.19532                      90.89393
                      -4.57670                       1.14299                      90.87430
                      -4.32322                       1.02408                      90.86211
                      -4.10680                       0.84606                      90.85813
                      -3.94105                       0.62012                      90.86260
                      -3.83638                       0.36045                      90.87525
                      -3.71029                       0.07295                      90.76245
                      -3.74622                      -0.22898                      90.79095
                      -3.85616                      -0.51195                      90.82434
                      -4.03319                      -0.75816                      90.86050
                      -4.26619                      -0.95215                      90.89718
                      -4.54053                      -1.08173                      90.93207
                      -4.83896                      -1.13876                      90.96296
                      -5.14274                      -1.11965                      90.98794
                      -5.43277                      -1.02560                      91.00541
                      -5.69083                      -0.86253                      91.01429
                      -5.90072                      -0.64068                      91.01402
                      -6.04923                      -0.37399                      91.00462
                      -6.12704                      -0.07922                      90.98667
                      -6.12926                       0.22512                      90.96130
                      -6.05575                       0.51990                      90.93012
                      -5.91112                       0.78659                      90.89507
                      -5.70448                       1.00844                      90.85835
                      -5.44879                       1.17151                      90.82229
                      -5.16013                       1.26555                      90.78914
                      -4.85663                       1.28466                      90.76098
                      -4.55737                       1.22764                      90.73959
                      -4.28114                       1.09806                      90.72630
                      -4.04531                       0.90407                      90.72196
                      -3.86469                       0.65785                      90.72684
                      -3.75062                       0.37489                      90.74062
                      -3.64077                       0.06253                      90.63133
                      -3.67908                      -0.25940                      90.66172
                      -3.79629                      -0.56111                      90.69731
                      -3.98505                      -0.82363                      90.73587
                      -4.23348                      -1.03046                      90.77498
                      -4.52599                      -1.16863                      90.81218
                      -4.84418                      -1.22943                      90.84512
                      -5.16808                      -1.20905                      90.87175
                      -5.47732                      -1.10878                      90.89038
                      -5.75248                      -0.93491                      90.89985
                      -5.97626                      -0.69837                      90.89956
                      -6.13461                      -0.41401                      90.88953
                      -6.21757                      -0.09971                      90.87040
                      -6.21994                       0.22478                      90.84335
                      -6.14156                       0.53907                      90.81010
                      -5.98735                       0.82343                      90.77273
                      -5.76702                       1.05997                      90.73358
                      -5.49440                       1.23384                      90.69513
                      -5.18662                       1.33412                      90.65978
                      -4.86303                       1.35449                      90.62976
                      -4.54394                       1.29369                      90.60695
                      -4.24942                       1.15553                      90.59278
                      -3.99797                       0.94869                      90.58816
                      -3.80539                       0.68617                      90.59336
                      -3.68377                       0.38446                      90.60805
                      -3.58732                       0.05211                      90.50161
                      -3.62753                      -0.28582                      90.53351
                      -3.75057                      -0.60252                      90.57087
                      -3.94870                      -0.87808                      90.61135
                      -4.20948                      -1.09520                      90.65240
                      -4.51653                      -1.24023                      90.69144
                      -4.85053                      -1.30405                      90.72603
                      -5.19052                      -1.28266                      90.75398
                      -5.51513                      -1.17741                      90.77354
                      -5.80396                      -0.99490                      90.78348
                      -6.03886                      -0.74660                      90.78317
                      -6.20508                      -0.44811                      90.77265
                      -6.29216                      -0.11820                      90.75256
                      -6.29465                       0.22242                      90.72417
                      -6.21237                       0.55233                      90.68926
                      -6.05051                       0.85082                      90.65003
                      -5.81923                       1.09911                      90.60895
                      -5.53306                       1.28163                      90.56858
                      -5.20999                       1.38688                      90.53148
                      -4.87031                       1.40827                      90.49996
                      -4.53537                       1.34444                      90.47602
                      -4.22622                       1.19942                      90.46115
                      -3.96227                       0.98230                      90.45629
                      -3.76012                       0.70674                      90.46175
                      -3.63246                       0.39004                      90.47718
                      -3.54774                       0.04169                      90.37311
                      -3.58945                      -0.30879                      90.40619
                      -3.71706                      -0.63724                      90.44494
                      -3.92255                      -0.92304                      90.48692
                      -4.19301                      -1.14822                      90.52950
                      -4.51145                      -1.29863                      90.56999
                      -4.85786                      -1.36482                      90.60586
                      -5.21047                      -1.34264                      90.63484
                      -5.54713                      -1.23348                      90.65513
                      -5.84668                      -1.04419                      90.66544
                      -6.09030                      -0.78667                      90.66512
                      -6.26269                      -0.47711                      90.65421
                      -6.35301                      -0.13494                      90.63337
                      -6.35559                       0.21832                      90.60393
                      -6.27026                       0.56048                      90.56773
                      -6.10238                       0.87005                      90.52704
                      -5.86252                       1.12756                      90.48443
                      -5.56572                       1.31685                      90.44257
                      -5.23066                       1.42601                      90.40408
                      -4.87837                       1.44820                      90.37140
                      -4.53099                       1.38200                      90.34657
                      -4.21036                       1.23159                      90.33115
                      -3.93662                       1.00641                      90.32611
                      -3.72696                       0.72062                      90.33177
                      -3.59456                       0.39216                      90.34777
                      -3.52059                       0.03127                      90.24569
                      -3.56342                      -0.32867                      90.27967
                      -3.69447                      -0.66598                      90.31946
                      -3.90550                      -0.95949                      90.36258
                      -4.18326                      -1.19074                      90.40630
                      -4.51030                      -1.34521                      90.44789
                      -4.86605                      -1.41319                      90.48472
                      -5.22818                      -1.39041                      90.51449
                      -5.57392                      -1.27830                      90.53532
                      -5.88155                      -1.08391                      90.54591
                      -6.13175                      -0.81944                      90.54559
                      -6.30879                      -0.50153                      90.53438
                      -6.40154                      -0.15013                      90.51298
                      -6.40419                       0.21266                      90.48274
                      -6.31656                       0.56406                      90.44556
                      -6.14415                       0.88197                      90.40378
                      -5.89781                       1.14644                      90.36002
                      -5.59302                       1.34083                      90.31702
                      -5.24891                       1.45294                      90.27750
                      -4.88712                       1.47572                      90.24394
                      -4.53037                       1.40774                      90.21843
                      -4.20109                       1.25327                      90.20260
                      -3.91995                       1.02202                      90.19742
                      -3.70464                       0.72851                      90.20324
                      -3.56867                       0.39120                      90.21967
                      -3.50490                       0.02084                      90.11928
                      -3.54851                      -0.34569                      90.15388
                      -3.68197                      -0.68920                      90.19440
                      -3.89687                      -0.98809                      90.23831
                      -4.17973                      -1.22359                      90.28283
                      -4.51276                      -1.38089                      90.32518
                      -4.87505                      -1.45012                      90.36269
                      -5.24382                      -1.42692                      90.39301
                      -5.59590                      -1.31275                      90.41422
                      -5.90918                      -1.11479                      90.42500
                      -6.16397                      -0.84548                      90.42468
                      -6.34426                      -0.52172                      90.41326
                      -6.43871                      -0.16388                      90.39147
                      -6.44141                       0.20557                      90.36068
                      -6.35217                       0.56341                      90.32282
                      -6.17660                       0.88716                      90.28027
                      -5.92574                       1.15648                      90.23570
                      -5.61535                       1.35444                      90.19192
                      -5.26493                       1.46861                      90.15167
                      -4.89650                       1.49181                      90.11749
                      -4.53321                       1.42258                      90.09152
                      -4.19788                       1.26527                      90.07539
                      -3.91159                       1.02978                      90.07013
                      -3.69232                       0.73089                      90.07604
                      -3.55386                       0.38738                      90.09278
                      -3.50005                       0.01042                      89.99382
                      -3.54413                      -0.36002                      90.02878
                      -3.67901                      -0.70719                      90.06974
                      -3.89621                      -1.00926                      90.11411
                      -4.18208                      -1.24727                      90.15911
                      -4.51866                      -1.40625                      90.20191
                      -4.88480                      -1.47622                      90.23982
                      -5.25750                      -1.45277                      90.27046
                      -5.61334                      -1.33739                      90.29190
                      -5.92996                      -1.13732                      90.30280
                      -6.18746                      -0.86513                      90.30247
                      -6.36967                      -0.53793                      90.29093
                      -6.46514                      -0.17627                      90.26891
                      -6.46786                       0.19712                      90.23779
                      -6.37767                       0.55877                      90.19952
                      -6.20023                       0.88597                      90.15652
                      -5.94670                       1.15816                      90.11148
                      -5.63300                       1.35823                      90.06723
                      -5.27884                       1.47362                      90.02655
                      -4.90648                       1.49706                      89.99201
                      -4.53932                       1.42709                      89.96576
                      -4.20042                       1.26811                      89.94946
                      -3.91108                       1.03011                      89.94414
                      -3.68947                       0.72803                      89.95012
                      -3.54953                       0.38086                      89.96703
                      -3.50571                       0.00000                      89.86927
                      -3.54994                      -0.37174                      89.90436
                      -3.68529                      -0.72011                      89.94546
                      -3.90325                      -1.02325                      89.98999
                      -4.19012                      -1.26208                      90.03514
                      -4.52787                      -1.42162                      90.07809
                      -4.89530                      -1.49183                      90.11613
                      -5.26930                      -1.46830                      90.14688
                      -5.62638                      -1.35251                      90.16840
                      -5.94410                      -1.15175                      90.17933
                      -6.20250                      -0.87861                      90.17900
                      -6.38535                      -0.55026                      90.16742
                      -6.48114                      -0.18735                      90.14532
                      -6.48388                       0.18735                      90.11409
                      -6.39337                       0.55026                      90.07569
                      -6.21532                       0.87861                      90.03254
                      -5.96090                       1.15175                      89.98734
                      -5.64610                       1.35251                      89.94294
                      -5.29071                       1.46830                      89.90212
                      -4.91705                       1.49183                      89.86745
                      -4.54861                       1.42162                      89.84112
                      -4.20852                       1.26208                      89.82476
                      -3.91817                       1.02325                      89.81942
                      -3.69579                       0.72011                      89.82542
                      -3.55537                       0.37174                      89.84239
                      -3.52176                      -0.01042                      89.74563
                      -3.56584                      -0.38086                      89.78060
                      -3.70072                      -0.72803                      89.82156
                      -3.91792                      -1.03011                      89.86593
                      -4.20379                      -1.26811                      89.91093
                      -4.54037                      -1.42709                      89.95373
                      -4.90652                      -1.49706                      89.99164
                      -5.27922                      -1.47362                      90.02228
                      -5.63505                      -1.35823                      90.04372
                      -5.95167                      -1.15816                      90.05462
                      -6.20918                      -0.88597                      90.05429
                      -6.39138                      -0.55877                      90.04275
                      -6.48685                      -0.19712                      90.02072
                      -6.48957                       0.17627                      89.98960
                      -6.39938                       0.53793                      89.95134
                      -6.22194                       0.86513                      89.90834
                      -5.96841                       1.13732                      89.86329
                      -5.65471                       1.33739                      89.81905
                      -5.30056                       1.45277                      89.77837
                      -4.92820                       1.47622                      89.74382
                      -4.56103                       1.40625                      89.71758
                      -4.22213                       1.24727                      89.70128
                      -3.93279                       1.00926                      89.69596
                      -3.71119                       0.70719                      89.70194
                      -3.57125                       0.36002                      89.71885
                      -3.54832                      -0.02084                      89.62292
                      -3.59194                      -0.38738                      89.65752
                      -3.72539                      -0.73089                      89.69804
                      -3.94030                      -1.02978                      89.74195
                      -4.22316                      -1.26527                      89.78647
                      -4.55619                      -1.42258                      89.82882
                      -4.91847                      -1.49181                      89.86633
                      -5.28724                      -1.46861                      89.89664
                      -5.63933                      -1.35444                      89.91786
                      -5.95261                      -1.15648                      89.92864
                      -6.20740                      -0.88716                      89.92831
                      -6.38768                      -0.56341                      89.91690
                      -6.48214                      -0.20557                      89.89511
                      -6.48483                       0.16388                      89.86431
                      -6.39560                       0.52172                      89.82645
                      -6.22003                       0.84548                      89.78390
                      -5.96917                       1.11479                      89.73934
                      -5.65878                       1.31275                      89.69556
                      -5.30836                       1.42692                      89.65531
                      -4.93992                       1.45012                      89.62113
                      -4.57663                       1.38089                      89.59516
                      -4.24131                       1.22359                      89.57903
                      -3.95501                       0.98809                      89.57376
                      -3.73575                       0.68920                      89.57968
                      -3.59728                       0.34569                      89.59642
                      -3.58573                      -0.03127                      89.50115
                      -3.62856                      -0.39120                      89.53512
                      -3.75961                      -0.72851                      89.57492
                      -3.97064                      -1.02202                      89.61803
                      -4.24840                      -1.25327                      89.66176
                      -4.57543                      -1.40774                      89.70334
                      -4.93119                      -1.47572                      89.74017
                      -5.29331                      -1.45294                      89.76994
                      -5.63906                      -1.34083                      89.79078
                      -5.94669                      -1.14644                      89.80136
                      -6.19689                      -0.88197                      89.80104
                      -6.37393                      -0.56406                      89.78983
                      -6.46668                      -0.21266                      89.76843
                      -6.46933                       0.15013                      89.73820
                      -6.38170                       0.50153                      89.70102
                      -6.20929                       0.81944                      89.65923
                      -5.96295                       1.08391                      89.61547
                      -5.65816                       1.27830                      89.57248
                      -5.31405                       1.39041                      89.53296
                      -4.95226                       1.41319                      89.49939
                      -4.59551                       1.34521                      89.47389
                      -4.26622                       1.19074                      89.45805
                      -3.98509                       0.95949                      89.45288
                      -3.76978                       0.66598                      89.45869
                      -3.63381                       0.32867                      89.47513
                      -3.63460                      -0.04169                      89.38038
                      -3.67630                      -0.39216                      89.41347
                      -3.80391                      -0.72062                      89.45222
                      -4.00940                      -1.00641                      89.49420
                      -4.27986                      -1.23159                      89.53677
                      -4.59830                      -1.38200                      89.57726
                      -4.94471                      -1.44820                      89.61313
                      -5.29732                      -1.42601                      89.64212
                      -5.63398                      -1.31685                      89.66240
                      -5.93353                      -1.12756                      89.67271
                      -6.17716                      -0.87005                      89.67240
                      -6.34954                      -0.56048                      89.66148
                      -6.43986                      -0.21832                      89.64065
                      -6.44244                       0.13494                      89.61120
                      -6.35711                       0.47711                      89.57500
                      -6.18924                       0.78667                      89.53432
                      -5.94937                       1.04419                      89.49170
                      -5.65258                       1.23348                      89.44984
                      -5.31751                       1.34264                      89.41136
                      -4.96522                       1.36482                      89.37867
                      -4.61785                       1.29863                      89.35384
                      -4.29721                       1.14822                      89.33842
                      -4.02347                       0.92304                      89.33338
                      -3.81381                       0.63724                      89.33904
                      -3.68141                       0.30879                      89.35504
                      -3.69588                      -0.05211                      89.26070
                      -3.73610                      -0.39004                      89.29260
                      -3.85913                      -0.70674                      89.32997
                      -4.05727                      -0.98230                      89.37044
                      -4.31805                      -1.19942                      89.41149
                      -4.62509                      -1.34444                      89.45054
                      -4.95910                      -1.40827                      89.48512
                      -5.29909                      -1.38688                      89.51307
                      -5.62370                      -1.28163                      89.53263
                      -5.91253                      -1.09911                      89.54257
                      -6.14743                      -0.85082                      89.54227
                      -6.31364                      -0.55233                      89.53174
                      -6.40073                      -0.22242                      89.51165
                      -6.40321                       0.11820                      89.48326
                      -6.32094                       0.44811                      89.44836
                      -6.15908                       0.74660                      89.40913
                      -5.92779                       0.99490                      89.36804
                      -5.64163                       1.17741                      89.32767
                      -5.31856                       1.28266                      89.29057
                      -4.97888                       1.30405                      89.25905
                      -4.64394                       1.24023                      89.23511
                      -4.33478                       1.09520                      89.22024
                      -4.07084                       0.87808                      89.21539
                      -3.86868                       0.60252                      89.22084
                      -3.74102                       0.28582                      89.23627
                      -3.77105                      -0.06253                      89.14224
                      -3.80935                      -0.38446                      89.17263
                      -3.92657                      -0.68617                      89.20822
                      -4.11532                      -0.94869                      89.24678
                      -4.36376                      -1.15553                      89.28589
                      -4.65627                      -1.29369                      89.32309
                      -4.97446                      -1.35449                      89.35603
                      -5.29836                      -1.33412                      89.38266
                      -5.60760                      -1.23384                      89.40129
                      -5.88275                      -1.05997                      89.41076
                      -6.10654                      -0.82343                      89.41047
                      -6.26488                      -0.53907                      89.40045
                      -6.34785                      -0.22478                      89.38131
                      -6.35021                       0.09971                      89.35426
                      -6.27183                       0.41401                      89.32101
                      -6.11763                       0.69837                      89.28364
                      -5.89730                       0.93491                      89.24449
                      -5.62468                       1.10878                      89.20604
                      -5.31690                       1.20905                      89.17069
                      -4.99330                       1.22943                      89.14067
                      -4.67422                       1.16863                      89.11786
                      -4.37970                       1.03046                      89.10369
                      -4.12825                       0.82363                      89.09907
                      -3.93566                       0.56111                      89.10427
                      -3.81405                       0.25940                      89.11896
                      -3.86228                      -0.07295                      89.02518
                      -3.89821                      -0.37489                      89.05368
                      -4.00815                      -0.65785                      89.08707
                      -4.18518                      -0.90407                      89.12323
                      -4.41818                      -1.09806                      89.15991
                      -4.69252                      -1.22764                      89.19479
                      -4.99095                      -1.28466                      89.22569
                      -5.29473                      -1.26555                      89.25067
                      -5.58476                      -1.17151                      89.26814
                      -5.84282                      -1.00844                      89.27702
                      -6.05271                      -0.78659                      89.27675
                      -6.20122                      -0.51990                      89.26735
                      -6.27903                      -0.22512                      89.24940
                      -6.28125                       0.07922                      89.22403
                      -6.20774                       0.37399                      89.19285
                      -6.06311                       0.64068                      89.15779
                      -5.85647                       0.86253                      89.12108
                      -5.60078                       1.02560                      89.08502
                      -5.31212                       1.11965                      89.05186
                      -5.00862                       1.13876                      89.02371
                      -4.70936                       1.08173                      89.00231
                      -4.43313                       0.95215                      88.98903
                      -4.19730                       0.75816                      88.98469
                      -4.01668                       0.51195                      88.98957
                      -3.90262                       0.22898                      89.00335
                      -3.97307                      -0.08337                      88.90983
                      -4.00604                      -0.36045                      88.93599
                      -4.10693                      -0.62012                      88.96662
                      -4.26938                      -0.84606                      88.99981
                      -4.48320                      -1.02408                      89.03347
                      -4.73495                      -1.14299                      89.06548
                      -5.00881                      -1.19532                      89.09384
                      -5.28757                      -1.17778                      89.11675
                      -5.55373                      -1.09148                      89.13279
                      -5.79054                      -0.94184                      89.14094
                      -5.98314                      -0.73825                      89.14069
                      -6.11943                      -0.49352                      89.13206
                      -6.19083                      -0.22301                      89.11559
                      -6.19287                       0.05626                      89.09231
                      -6.12541                       0.32677                      89.06369
                      -5.99269                       0.57150                      89.03153
                      -5.80306                       0.77509                      88.99784
                      -5.56843                       0.92473                      88.96474
                      -5.30353                       1.01103                      88.93432
                      -5.02503                       1.02857                      88.90848
                      -4.75040                       0.97624                      88.88885
                      -4.49692                       0.85733                      88.87666
                      -4.28050                       0.67931                      88.87268
                      -4.11475                       0.45337                      88.87715
                      -4.01009                       0.19370                      88.88980
                      -4.10933                      -0.09380                      88.79671
                      -4.13859                      -0.33968                      88.81992
                      -4.22811                      -0.57011                      88.84711
                      -4.37228                      -0.77061                      88.87656
                      -4.56202                      -0.92859                      88.90643
                      -4.78543                      -1.03411                      88.93484
                      -5.02845                      -1.08055                      88.96000
                      -5.27583                      -1.06499                      88.98034
                      -5.51202                      -0.98840                      88.99457
                      -5.72217                      -0.85560                      89.00180
                      -5.89309                      -0.67494                      89.00158
                      -6.01403                      -0.45776                      88.99392
                      -6.07739                      -0.21771                      88.97930
                      -6.07920                       0.03012                      88.95865
                      -6.01934                       0.27017                      88.93325
                      -5.90156                       0.48735                      88.90471
                      -5.73328                       0.66801                      88.87481
                      -5.52507                       0.80081                      88.84544
                      -5.29000                       0.87739                      88.81844
                      -5.04284                       0.89296                      88.79551
                      -4.79914                       0.84652                      88.77809
                      -4.57420                       0.74099                      88.76727
                      -4.38215                       0.58302                      88.76374
                      -4.23506                       0.38251                      88.76771
                      -4.14217                       0.15208                      88.77894
                      -4.28257                      -0.10422                      88.68683
                      -4.30702                      -0.30970                      88.70623
                      -4.38183                      -0.50228                      88.72895
                      -4.50231                      -0.66984                      88.75356
                      -4.66089                      -0.80186                      88.77852
                      -4.84759                      -0.89005                      88.80226
                      -5.05069                      -0.92886                      88.82329
                      -5.25742                      -0.91585                      88.84028
                      -5.45481                      -0.85185                      88.85218
                      -5.63044                      -0.74087                      88.85822
                      -5.77327                      -0.58989                      88.85804
                      -5.87434                      -0.40839                      88.85164
                      -5.92730                      -0.20778                      88.83942
                      -5.92881                      -0.00066                      88.82216
                      -5.87878                       0.19995                      88.80093
                      -5.78036                       0.38145                      88.77708
                      -5.63972                       0.53243                      88.75210
                      -5.46571                       0.64341                      88.72755
                      -5.26926                       0.70742                      88.70499
                      -5.06271                       0.72042                      88.68583
                      -4.85905                       0.68161                      88.67127
                      -4.67106                       0.59342                      88.66223
                      -4.51056                       0.46140                      88.65927
                      -4.38764                       0.29384                      88.66259
                      -4.31001                       0.10127                      88.67197
                      -4.52222                      -0.11464                      88.58276
                      -4.53990                      -0.26321                      88.59678
                      -4.59400                      -0.40244                      88.61321
                      -4.68110                      -0.52358                      88.63100
                      -4.79575                      -0.61903                      88.64905
                      -4.93074                      -0.68279                      88.66621
                      -5.07758                      -0.71085                      88.68142
                      -5.22705                      -0.70145                      88.69370
                      -5.36976                      -0.65518                      88.70230
                      -5.49673                      -0.57494                      88.70667
                      -5.60001                      -0.46578                      88.70654
                      -5.67308                      -0.33455                      88.70191
                      -5.71137                      -0.18951                      88.69308
                      -5.71246                      -0.03977                      88.68060
                      -5.67629                       0.10527                      88.66525
                      -5.60513                       0.23650                      88.64801
                      -5.50345                       0.34566                      88.62994
                      -5.37764                       0.42590                      88.61220
                      -5.23561                       0.47217                      88.59589
                      -5.08627                       0.48157                      88.58203
                      -4.93902                       0.45351                      88.57151
                      -4.80311                       0.38975                      88.56497
                      -4.68707                       0.29430                      88.56283
                      -4.59819                       0.17316                      88.56523
                      -4.54207                       0.03393                      88.57202
                      -5.13028                      -0.12506                      88.51091
                      -5.13028                      -0.12506                      88.51091
                      -5.13028                      -0.12506                      88.51091
                      -5.13028                      -0.12506                      88.51091
                      -5.13028                      -0.12506                      88.51091
                      -5.13028                      -0.12506                      88.51091
                      -5.13028                      -0.12506                      88.51091
                      -5.13028                      -0.12506                      88.51091
                      -5.13028                      -0.12506                      88.51091
                      -5.13028                      -0.12506                      88.51091
                      -5.13028                      -0.12506                      88.51091
                      -5.13028                      -0.12506                      88.51091
                      -5.13028                      -0.12506                      88.51091
                      -5.13028                      -0.12506                      88.51091
                      -5.13028                      -0.12506                      88.51091
                      -5.13028                      -0.12506                      88.51091
                      -5.13028                      -0.12506                      88.51091
                      -5.13028                      -0.12506                      88.51091
                      -5.13028                      -0.12506                      88.51091
                      -5.13028                      -0.12506                      88.51091
                      -5.13028                      -0.12506                      88.51091
                      -5.13028                      -0.12506                      88.51091
                      -5.13028                      -0.12506                      88.51091
                      -5.13028                      -0.12506                      88.51091
                      -5.13028                      -0.12506                      88.51091
        </DataArray>
      </Points>
      <Polys>
        <DataArray type="Int32" Name="connectivity" format="ascii">
      0      1     26     25
      1      2     27     26
      2      3     28     27
      3      4     29     28
      4      5     30     29
      5      6     31     30
      6      7     32     31
      7      8     33     32
      8      9     34     33
      9     10     35     34
     10     11     36     35
     11     12     37     36
     12     13     38     37
     13     14     39     38
     14     15     40     39
     15     16     41     40
     16     17     42     41
     17     18     43     42
     18     19     44     43
     19     20     45     44
     20     21     46     45
     21     22     47     46
     22     23     48     47
     23     24     49     48
     24      0     25     49
     25     26     51     50
     26     27     52     51
     27     28     53     52
     28     29     54     53
     29     30     55     54
     30     31     56     55
     31     32     57     56
     32     33     58     57
     33     34     59     58
     34     35     60     59
     35     36     61     60
     36     37     62     61
     37     38     63     62
     38     39     64     63
     39     40     65     64
     40     41     66     65
     41     42     67     66
     42     43     68     67
     43     44     69     68
     44     45     70     69
     45     46     71     70
     46     47     72     71
     47     48     73     72
     48     49     74     73
     49     25     50     74
     50     51     76     75
     51     52     77     76
     52     53     78     77
     53     54     79     78
     54     55     80     79
     55     56     81     80
     56     57     82     81
     57     58     83     82
     58     59     84     83
     59     60     85     84
     60     61     86     85
     61     62     87     86
     62     63     88     87
     63     64     89     88
     64     65     90     89
     65     66     91     90
     66     67     92     91
     67     68     93     92
     68     69     94     93
     69     70     95     94
     70     71     96     95
     71     72     97     96
     72     73     98     97
     73     74     99     98
     74     50     75     99
     75     76    101    100
     76     77    102    101
     77     78    103    102
     78     79    104    103
     79     80    105    104
     80     81    106    105
     81     82    107    106
     82     83    108    107
     83     84    109    108
     84     85    110    109
     85     86    111    110
     86     87    112    111
     87     88    113    112
     88     89    114    113
     89     90    115    114
     90     91    116    115
     91     92    117    116
     92     93    118    117
     93     94    119    118
     94     95    120    119
     95     96    121    120
     96     97    122    121
     97     98    123    122
     98     99    124    123
     99     75    100    124
    100    101    126    125
    101    102    127    126
    102    103    128    127
    103    104    129    128
    104    105    130    129
    105    106    131    130
    106    107    132    131
    107    108    133    132
    108    109    134    133
    109    110    135    134
    110    111    136    135
    111    112    137    136
    112    113    138    137
    113    114    139    138
    114    115    140    139
    115    116    141    140
    116    117    142    141
    117    118    143    142
    118    119    144    143
    119    120    145    144
    120    121    146    145
    121    122    147    146
    122    123    148    147
    123    124    149    148
    124    100    125    149
    125    126    151    150
    126    127    152    151
    127    128    153    152
    128    129    154    153
    129    130    155    154
    130    131    156    155
    131    132    157    156
    132    133    158    157
    133    134    159    158
    134    135    160    159
    135    136    161    160
    136    137    162    161
    137    138    163    162
    138    139    164    163
    139    140    165    164
    140    141    166    165
    141    142    167    166
    142    143    168    167
    143    144    169    168
    144    145    170    169
    145    146    171    170
    146    147    172    171
    147    148    173    172
    148    149    174    173
    149    125    150    174
    150    151    176    175
    151    152    177    176
    152    153    178    177
    153    154    179    178
    154    155    180    179
    155    156    181    180
    156    157    182    181
    157    158    183    182
    158    159    184    183
    159    160    185    184
    160    161    186    185
    161    162    187    186
    162    163    188    187
    163    164    189    188
    164    165    190    189
    165    166    191    190
    166    167    192    191
    167    168    193    192
    168    169    194    193
    169    170    195    194
    170    171    196    195
    171    172    197    196
    172    173    198    197
    173    174    199    198
    174    150    175    199
    175    176    201    200
    176    177    202    201
    177    178    203    202
    178    179    204    203
    179    180    205    204
    180    181    206    205
    181    182    207    206
    182    183    208    207
    183    184    209    208
    184    185    210    209
    185    186    211    210
    186    187    212    211
    187    188    213    212
    188    189    214    213
    189    190    215    214
    190    191    216    215
    191    192    217    216
    192    193    218    217
    193    194    219    218
    194    195    220    219
    195    196    221    220
    196    197    222    221
    197    198    223    222
    198    199    224    223
    199    175    200    224
    200    201    226    225
    201    202    227    226
    202    203    228    227
    203    204    229    228
    204    205    230    229
    205    206    231    230
    206    207    232    231
    207    208    233    232
    208    209    234    233
    209    210    235    234
    210    211    236    235
    211    212    237    236
    212    213    238    237
    213    214    239    238
    214    215    240    239
    215    216    241    240
    216    217    242    241
    217    218    243    242
    218    219    244    243
    219    220    245    244
    220    221    246    245
    221    222    247    246
    222    223    248    247
    223    224    249    248
    224    200    225    249
    225    226    251    250
    226    227    252    251
    227    228    253    252
    228    229    254    253
    229    230    255    254
    230    231    256    255
    231    232    257    256
    232    233    258    257
    233    234    259    258
    234    235    260    259
    235    236    261    260
    236    237    262    261
    237    238    263    262
    238    239    264    263
    239    240    265    264
    240    241    266    265
    241    242    267    266
    242    243    268    267
    243    244    269    268
    244    245    270    269
    245    246    271    270
    246    247    272    271
    247    248    273    272
    248    249    274    273
    249    225    250    274
    250    251    276    275
    251    252    277    276
    252    253    278    277
    253    254    279    278
    254    255    280    279
    255    256    281    280
    256    257    282    281
    257    258    283    282
    258    259    284    283
    259    260    285    284
    260    261    286    285
    261    262    287    286
    262    263    288    287
    263    264    289    288
    264    265    290    289
    265    266    291    290
    266    267    292    291
    267    268    293    292
    268    269    294    293
    269    270    295    294
    270    271    296    295
    271    272    297    296
    272    273    298    297
    273    274    299    298
    274    250    275    299
    275    276    301    300
    276    277    302    301
    277    278    303    302
    278    279    304    303
    279    280    305    304
    280    281    306    305
    281    282    307    306
    282    283    308    307
    283    284    309    308
    284    285    310    309
    285    286    311    310
    286    287    312    311
    287    288    313    312
    288    289    314    313
    289    290    315    314
    290    291    316    315
    291    292    317    316
    292    293    318    317
    293    294    319    318
    294    295    320    319
    295    296    321    320
    296    297    322    321
    297    298    323    322
    298    299    324    323
    299    275    300    324
    300    301    326    325
    301    302    327    326
    302    303    328    327
    303    304    329    328
    304    305    330    329
    305    306    331    330
    306    307    332    331
    307    308    333    332
    308    309    334    333
    309    310    335    334
    310    311    336    335
    311    312    337    336
    312    313    338    337
    313    314    339    338
    314    315    340    339
    315    316    341    340
    316    317    342    341
    317    318    343    342
    318    319    344    343
    319    320    345    344
    320    321    346    345
    321    322    347    346
    322    323    348    347
    323    324    349    348
    324    300    325    349
    325    326    351    350
    326    327    352    351
    327    328    353    352
    328    329    354    353
    329    330    355    354
    330    331    356    355
    331    332    357    356
    332    333    358    357
    333    334    359    358
    334    335    360    359
    335    336    361    360
    336    337    362    361
    337    338    363    362
    338    339    364    363
    339    340    365    364
    340    341    366    365
    341    342    367    366
    342    343    368    367
    343    344    369    368
    344    345    370    369
    345    346    371    370
    346    347    372    371
    347    348    373    372
    348    349    374    373
    349    325    350    374
    350    351    376    375
    351    352    377    376
    352    353    378    377
    353    354    379    378
    354    355    380    379
    355    356    381    380
    356    357    382    381
    357    358    383    382
    358    359    384    383
    359    360    385    384
    360    361    386    385
    361    362    387    386
    362    363    388    387
    363    364    389    388
    364    365    390    389
    365    366    391    390
    366    367    392    391
    367    368    393    392
    368    369    394    393
    369    370    395    394
    370    371    396    395
    371    372    397    396
    372    373    398    397
    373    374    399    398
    374    350    375    399
    375    376    401    400
    376    377    402    401
    377    378    403    402
    378    379    404    403
    379    380    405    404
    380    381    406    405
    381    382    407    406
    382    383    408    407
    383    384    409    408
    384    385    410    409
    385    386    411    410
    386    387    412    411
    387    388    413    412
    388    389    414    413
    389    390    415    414
    390    391    416    415
    391    392    417    416
    392    393    418    417
    393    394    419    418
    394    395    420    419
    395    396    421    420
    396    397    422    421
    397    398    423    422
    398    399    424    423
    399    375    400    424
    400    401    426    425
    401    402    427    426
    402    403    428    427
    403    404    429    428
    404    405    430    429
    405    406    431    430
    406    407    432    431
    407    408    433    432
    408    409    434    433
    409    410    435    434
    410    411    436    435
    411    412    437    436
    412    413    438    437
    413    414    439    438
    414    415    440    439
    415    416    441    440
    416    417    442    441
    417    418    443    442
    418    419    444    443
    419    420    445    444
    420    421    446    445
    421    422    447    446
    422    423    448    447
    423    424    449    448
    424    400    425    449
    425    426    451    450
    426    427    452    451
    427    428    453    452
    428    429    454    453
    429    430    455    454
    430    431    456    455
    431    432    457    456
    432    433    458    457
    433    434    459    458
    434    435    460    459
    435    436    461    460
    436    437    462    461
    437    438    463    462
    438    439    464    463
    439    440    465    464
    440    441    466    465
    441    442    467    466
    442    443    468    467
    443    444    469    468
    444    445    470    469
    445    446    471    470
    446    447    472    471
    447    448    473    472
    448    449    474    473
    449    425    450    474
    450    451    476    475
    451    452    477    476
    452    453    478    477
    453    454    479    478
    454    455    480    479
    455    456    481    480
    456    457    482    481
    457    458    483    482
    458    459    484    483
    459    460    485    484
    460    461    486    485
    461    462    487    486
    462    463    488    487
    463    464    489    488
    464    465    490    489
    465    466    491    490
    466    467    492    491
    467    468    493    492
    468    469    494    493
    469    470    495    494
    470    471    496    495
    471    472    497    496
    472    473    498    497
    473    474    499    498
    474    450    475    499
    475    476    501    500
    476    477    502    501
    477    478    503    502
    478    479    504    503
    479    480    505    504
    480    481    506    505
    481    482    507    506
    482    483    508    507
    483    484    509    508
    484    485    510    509
    485    486    511    510
    486    487    512    511
    487    488    513    512
    488    489    514    513
    489    490    515    514
    490    491    516    515
    491    492    517    516
    492    493    518    517
    493    494    519    518
    494    495    520    519
    495    496    521    520
    496    497    522    521
    497    498    523    522
    498    499    524    523
    499    475    500    524
    500    501    526    525
    501    502    527    526
    502    503    528    527
    503    504    529    528
    504    505    530    529
    505    506    531    530
    506    507    532    531
    507    508    533    532
    508    509    534    533
    509    510    535    534
    510    511    536    535
    511    512    537    536
    512    513    538    537
    513    514    539    538
    514    515    540    539
    515    516    541    540
    516    517    542    541
    517    518    543    542
    518    519    544    543
    519    520    545    544
    520    521    546    545
    521    522    547    546
    522    523    548    547
    523    524    549    548
    524    500    525    549
    525    526    551    550
    526    527    552    551
    527    528    553    552
    528    529    554    553
    529    530    555    554
    530    531    556    555
    531    532    557    556
    532    533    558    557
    533    534    559    558
    534    535    560    559
    535    536    561    560
    536    537    562    561
    537    538    563    562
    538    539    564    563
    539    540    565    564
    540    541    566    565
    541    542    567    566
    542    543    568    567
    543    544    569    568
    544    545    570    569
    545    546    571    570
    546    547    572    571
    547    548    573    572
    548    549    574    573
    549    525    550    574
    550    551    576    575
    551    552    577    576
    552    553    578    577
    553    554    579    578
    554    555    580    579
    555    556    581    580
    556    557    582    581
    557    558    583    582
    558    559    584    583
    559    560    585    584
    560    561    586    585
    561    562    587    586
    562    563    588    587
    563    564    589    588
    564    565    590    589
    565    566    591    590
    566    567    592    591
    567    568    593    592
    568    569    594    593
    569    570    595    594
    570    571    596    595
    571    572    597    596
    572    573    598    597
    573    574    599    598
    574    550    575    599
    575    576    601    600
    576    577    602    601
    577    578    603    602
    578    579    604    603
    579    580    605    604
    580    581    606    605
    581    582    607    606
    582    583    608    607
    583    584    609    608
    584    585    610    609
    585    586    611    610
    586    587    612    611
    587    588    613    612
    588    589    614    613
    589    590    615    614
    590    591    616    615
    591    592    617    616
    592    593    618    617
    593    594    619    618
    594    595    620    619
    595    596    621    620
    596    597    622    621
    597    598    623    622
    598    599    624    623
    599    575    600    624
        </DataArray>
        <DataArray type="Int32" Name="offsets" format="ascii">
      4
      8
     12
     16
     20
     24
     28
     32
     36
     40
     44
     48
     52
     56
     60
     64
     68
     72
     76
     80
     84
     88
     92
     96
    100
    104
    108
    112
    116
    120
    124
    128
    132
    136
    140
    144
    148
    152
    156
    160
    164
    168
    172
    176
    180
    184
    188
    192
    196
    200
    204
    208
    212
    216
    220
    224
    228
    232
    236
    240
    244
    248
    252
    256
    260
    264
    268
    272
    276
    280
    284
    288
    292
    296
    300
    304
    308
    312
    316
    320
    324
    328
    332
    336
    340
    344
    348
    352
    356
    360
    364
    368
    372
    376
    380
    384
    388
    392
    396
    400
    404
    408
    412
    416
    420
    424
    428
    432
    436
    440
    444
    448
    452
    456
    460
    464
    468
    472
    476
    480
    484
    488
    492
    496
    500
    504
    508
    512
    516
    520
    524
    528
    532
    536
    540
    544
    548
    552
    556
    560
    564
    568
    572
    576
    580
    584
    588
    592
    596
    600
    604
    608
    612
    616
    620
    624
    628
    632
    636
    640
    644
    648
    652
    656
    660
    664
    668
    672
    676
    680
    684
    688
    692
    696
    700
    704
    708
    712
    716
    720
    724
    728
    732
    736
    740
    744
    748
    752
    756
    760
    764
    768
    772
    776
    780
    784
    788
    792
    796
    800
    804
    808
    812
    816
    820
    824
    828
    832
    836
    840
    844
    848
    852
    856
    860
    864
    868
    872
    876
    880
    884
    888
    892
    896
    900
    904
    908
    912
    916
    920
    924
    928
    932
    936
    940
    944
    948
    952
    956
    960
    964
    968
    972
    976
    980
    984
    988
    992
    996
   1000
   1004
   1008
   1012
   1016
   1020
   1024
   1028
   1032
   1036
   1040
   1044
   1048
   1052
   1056
   1060
   1064
   1068
   1072
   1076
   1080
   1084
   1088
   1092
   1096
   1100
   1104
   1108
   1112
   1116
   1120
   1124
   1128
   1132
   1136
   1140
   1144
   1148
   1152
   1156
   1160
   1164
   1168
   1172
   1176
   1180
   1184
   1188
   1192
   1196
   1200
   1204
   1208
   1212
   1216
   1220
   1224
   1228
   1232
   1236
   1240
   1244
   1248
   1252
   1256
   1260
   1264
   1268
   1272
   1276
   1280
   1284
   1288
   1292
   1296
   1300
   1304
   1308
   1312
   1316
   1320
   1324
   1328
   1332
   1336
   1340
   1344
   1348
   1352
   1356
   1360
   1364
   1368
   1372
   1376
   1380
   1384
   1388
   1392
   1396
   1400
   1404
   1408
   1412
   1416
   1420
   1424
   1428
   1432
   1436
   1440
   1444
   1448
   1452
   1456
   1460
   1464
   1468
   1472
   1476
   1480
   1484
   1488
   1492
   1496
   1500
   1504
   1508
   1512
   1516
   1520
   1524
   1528
   1532
   1536
   1540
   1544
   1548
   1552
   1556
   1560
   1564
   1568
   1572
   1576
   1580
   1584
   1588
   1592
   1596
   1600
   1604
   1608
   1612
   1616
   1620
   1624
   1628
   1632
   1636
   1640
   1644
   1648
   1652
   1656
   1660
   1664
   1668
   1672
   1676
   1680
   1684
   1688
   1692
   1696
   1700
   1704
   1708
   1712
   1716
   1720
   1724
   1728
   1732
   1736
   1740
   1744
   1748
   1752
   1756
   1760
   1764
   1768
   1772
   1776
   1780
   1784
   1788
   1792
   1796
   1800
   1804
   1808
   1812
   1816
   1820
   1824
   1828
   1832
   1836
   1840
   1844
   1848
   1852
   1856
   1860
   1864
   1868
   1872
   1876
   1880
   1884
   1888
   1892
   1896
   1900
   1904
   1908
   1912
   1916
   1920
   1924
   1928
   1932
   1936
   1940
   1944
   1948
   1952
   1956
   1960
   1964
   1968
   1972
   1976
   1980
   1984
   1988
   1992
   1996
   2000
   2004
   2008
   2012
   2016
   2020
   2024
   2028
   2032
   2036
   2040
   2044
   2048
   2052
   2056
   2060
   2064
   2068
   2072
   2076
   2080
   2084
   2088
   2092
   2096
   2100
   2104
   2108
   2112
   2116
   2120
   2124
   2128
   2132
   2136
   2140
   2144
   2148
   2152
   2156
   2160
   2164
   2168
   2172
   2176
   2180
   2184
   2188
   2192
   2196
   2200
   2204
   2208
   2212
   2216
   2220
   2224
   2228
   2232
   2236
   2240
   2244
   2248
   2252
   2256
   2260
   2264
   2268
   2272
   2276
   2280
   2284
   2288
   2292
   2296
   2300
   2304
   2308
   2312
   2316
   2320
   2324
   2328
   2332
   2336
   2340
   2344
   2348
   2352
   2356
   2360
   2364
   2368
   2372
   2376
   2380
   2384
   2388
   2392
   2396
   2400
        </DataArray>
      </Polys>
    </Piece>
  </PolyData>
</VTKFile>
