<?xml version="1.0"?>
<VTKFile type="PolyData" version="0.1" byte_order="LittleEndian">
  <PolyData>
    <Piece NumberOfPoints="     19" NumberOfVerts="  0" NumberOfLines="     18"
           NumberOfStrips="  0" NumberOfPolys="      0">
      <Points>
        <DataArray type="Float32" NumberOfComponents="3" format="ascii">
                      -5.09747                      -1.45207                      89.63668
                      -5.18737                      -2.77421                      89.30240
                      -5.39744                      -5.39404                      88.54467
                      -5.62184                      -8.00234                      87.74469
                      -5.91090                     -11.25591                      86.71947
                      -6.19309                     -15.19775                      85.62215
                      -6.44037                     -19.17275                      84.64798
                      -6.68971                     -23.14829                      83.67653
                      -6.93856                     -27.12491                      82.70930
                      -7.18791                     -31.10213                      81.74453
                      -7.43939                     -35.07896                      80.77881
                      -7.69215                     -39.05581                      79.81352
                      -7.94685                     -43.03265                      78.84872
                      -8.20419                     -47.00944                      77.88442
                      -8.46244                     -50.98622                      76.92031
                      -8.67829                     -54.30022                      76.11700
                      -8.85084                     -56.95330                      75.48206
                      -9.02005                     -59.61992                      74.90035
                      -9.10885                     -60.94285                      74.56934
        </DataArray>
      </Points>
      <PointData>
        <DataArray type="Float32" Name="TranslationalVelocity" NumberOfComponents="3" format="ascii">
                      -0.34449                       1.00833                      -3.93753
                      -0.65815                       1.93612                      -7.52274
                      -1.27969                       4.04069                     -14.62688
                      -1.89848                       6.26320                     -21.69974
                      -2.67036                       9.11184                     -30.52235
                      -3.60552                      12.15437                     -41.21133
                      -4.54856                      14.85465                     -51.99023
                      -5.49172                      17.54806                     -62.77059
                      -6.43513                      20.22991                     -73.55391
                      -7.37869                      22.90521                     -84.33880
                      -8.32216                      25.58358                     -95.12267
                      -9.26563                      28.26109                    -105.90659
                     -10.20910                      30.93776                    -116.69049
                     -11.15255                      33.61368                    -127.47425
                     -12.09601                      36.28930                    -138.25797
                     -12.88222                      38.51882                    -147.24447
                     -13.51164                      40.28151                    -154.43874
                     -14.14427                      41.89904                    -161.66975
                     -14.45812                      42.81769                    -165.25710
        </DataArray>
        <DataArray type="Float32" Name="RotationalVelocity" NumberOfComponents="3" format="ascii">
                       2.71167                      -0.00000                      -0.23724
                       2.71167                      -0.00000                      -0.23724
                       2.71167                      -0.00000                      -0.23724
                       2.71167                      -0.00000                      -0.23724
                       2.71167                      -0.00000                      -0.23724
                       2.71167                      -0.00000                      -0.23724
                       2.71167                      -0.00000                      -0.23724
                       2.71167                      -0.00000                      -0.23724
                       2.71167                      -0.00000                      -0.23724
                       2.71167                      -0.00000                      -0.23724
                       2.71167                      -0.00000                      -0.23724
                       2.71167                      -0.00000                      -0.23724
                       2.71167                      -0.00000                      -0.23724
                       2.71167                      -0.00000                      -0.23724
                       2.71167                      -0.00000                      -0.23724
                       2.71167                      -0.00000                      -0.23724
                       2.71167                      -0.00000                      -0.23724
                       2.71167                      -0.00000                      -0.23724
                       2.71167                      -0.00000                      -0.23724
        </DataArray>
        <DataArray type="Float32" Name="TranslationalAcceleration" NumberOfComponents="3" format="ascii">
                       0.23902                      10.75961                       2.73199
                       0.45895                      20.55648                       5.24579
                       0.95788                      39.96924                      10.94858
                       1.48479                      59.29664                      16.97121
                       2.16016                      83.40542                      24.69069
                       2.88142                     112.61407                      32.93484
                       3.52150                     142.06821                      40.25089
                       4.15994                     171.52635                      47.54831
                       4.79564                     200.99255                      54.81438
                       5.42978                     230.46306                      62.06268
                       6.06465                     259.93076                      69.31931
                       6.69932                     289.39861                      76.57361
                       7.33379                     318.86640                      83.82561
                       7.96808                     348.33381                      91.07561
                       8.60230                     377.80111                      98.32477
                       9.13078                     402.35736                     104.36530
                       9.54860                     422.01623                     109.14098
                       9.93198                     441.77538                     113.52301
                      10.14974                     451.57810                     116.01204
        </DataArray>
        <DataArray type="Float32" Name="OrientationX" NumberOfComponents="3" format="ascii">
                       0.99431                      -0.04227                      -0.09781
                       0.99431                      -0.04227                      -0.09781
                       0.99431                      -0.04227                      -0.09781
                       0.99431                      -0.04227                      -0.09781
                       0.99431                      -0.04227                      -0.09781
                       0.99431                      -0.04227                      -0.09781
                       0.99431                      -0.04227                      -0.09781
                       0.99431                      -0.04227                      -0.09781
                       0.99431                      -0.04227                      -0.09781
                       0.99431                      -0.04227                      -0.09781
                       0.99431                      -0.04227                      -0.09781
                       0.99431                      -0.04227                      -0.09781
                       0.99431                      -0.04227                      -0.09781
                       0.99431                      -0.04227                      -0.09781
                       0.99431                      -0.04227                      -0.09781
                       0.99431                      -0.04227                      -0.09781
                       0.99431                      -0.04227                      -0.09781
                       0.99431                      -0.04227                      -0.09781
                       0.99431                      -0.04227                      -0.09781
        </DataArray>
        <DataArray type="Float32" Name="OrientationY" NumberOfComponents="3" format="ascii">
                       0.08445                      -0.24719                       0.96528
                       0.08445                      -0.24719                       0.96528
                       0.08445                      -0.24719                       0.96528
                       0.08445                      -0.24719                       0.96528
                       0.08445                      -0.24719                       0.96528
                       0.08445                      -0.24719                       0.96528
                       0.08445                      -0.24719                       0.96528
                       0.08445                      -0.24719                       0.96528
                       0.08445                      -0.24719                       0.96528
                       0.08445                      -0.24719                       0.96528
                       0.08445                      -0.24719                       0.96528
                       0.08445                      -0.24719                       0.96528
                       0.08445                      -0.24719                       0.96528
                       0.08445                      -0.24719                       0.96528
                       0.08445                      -0.24719                       0.96528
                       0.08445                      -0.24719                       0.96528
                       0.08445                      -0.24719                       0.96528
                       0.08445                      -0.24719                       0.96528
                       0.08445                      -0.24719                       0.96528
        </DataArray>
        <DataArray type="Float32" Name="OrientationZ" NumberOfComponents="3" format="ascii">
                      -0.06498                      -0.96804                      -0.24221
                      -0.06498                      -0.96804                      -0.24221
                      -0.06498                      -0.96804                      -0.24221
                      -0.06498                      -0.96804                      -0.24221
                      -0.06498                      -0.96804                      -0.24221
                      -0.06498                      -0.96804                      -0.24221
                      -0.06498                      -0.96804                      -0.24221
                      -0.06498                      -0.96804                      -0.24221
                      -0.06498                      -0.96804                      -0.24221
                      -0.06498                      -0.96804                      -0.24221
                      -0.06498                      -0.96804                      -0.24221
                      -0.06498                      -0.96804                      -0.24221
                      -0.06498                      -0.96804                      -0.24221
                      -0.06498                      -0.96804                      -0.24221
                      -0.06498                      -0.96804                      -0.24221
                      -0.06498                      -0.96804                      -0.24221
                      -0.06498                      -0.96804                      -0.24221
                      -0.06498                      -0.96804                      -0.24221
                      -0.06498                      -0.96804                      -0.24221
        </DataArray>
        <DataArray type="Float32" Name="Force" NumberOfComponents="3" format="ascii">
                       2.37500                      -6.95172                      27.14642
                     201.76313                     -43.05194                     117.93785
                     315.85872                    -108.39972                     348.50218
                     333.92820                    -152.24146                     518.87467
                    3031.73958                     -66.03109                    -549.39921
                    3736.41577                    -113.68078                    -547.99852
                    4674.52984                    -162.15466                    -605.92646
                    6667.12002                    -246.87838                    -801.85303
                    7480.43596                    -304.15045                    -791.13909
                    8729.93622                    -364.17052                    -886.45422
                   11324.80148                    -492.09503                   -1071.29039
                   12872.03841                    -564.66973                   -1196.30073
                   14134.57490                    -602.78847                   -1382.64484
                   15317.61928                    -655.44023                   -1489.58089
                   16351.12985                    -699.30164                   -1591.53455
                   17064.94540                    -727.45917                   -1670.48882
                   17198.44752                    -724.81607                   -1716.86596
                   14068.96423                    -561.12883                   -1531.54279
                   11353.78780                    -523.48066                    -953.62910
        </DataArray>
        <DataArray type="Float32" Name="Moment" NumberOfComponents="3" format="ascii">
                       0.00000                       0.00000                       0.00000
                       0.00000                       0.00000                       0.00000
                       0.00000                       0.00000                       0.00000
                       0.00000                       0.00000                       0.00000
                      94.93865                    1414.42087                     353.90203
                     183.14446                    2728.53414                     682.70612
                     250.22297                    3727.88748                     932.75417
                     375.36896                    5592.34523                    1399.25986
                     536.10812                    7987.07949                    1998.44596
                     607.41703                    9049.45825                    2264.26359
                     664.07151                    9893.51164                    2475.45406
                     706.35552                   10523.46986                    2633.07582
                     569.98391                    8491.76982                    2124.72445
                     570.41754                    8498.23017                    2126.34090
                     555.15449                    8270.83725                    2069.44495
                     530.78274                    7907.74047                    1978.59456
                     476.39809                    7097.50367                    1775.86533
                     247.31085                    3684.50189                     921.89866
                     241.24208                    3594.08778                     899.27616
        </DataArray>
      </PointData>
      <Lines>
        <DataArray type="Int32" Name="connectivity" format="ascii">
      0      1
      1      2
      2      3
      3      4
      4      5
      5      6
      6      7
      7      8
      8      9
      9     10
     10     11
     11     12
     12     13
     13     14
     14     15
     15     16
     16     17
     17     18
        </DataArray>
        <DataArray type="Int32" Name="offsets" format="ascii">
      2
      4
      6
      8
     10
     12
     14
     16
     18
     20
     22
     24
     26
     28
     30
     32
     34
     36
        </DataArray>
      </Lines>
    </Piece>
  </PolyData>
</VTKFile>
