<?xml version="1.0"?>
<VTKFile type="PolyData" version="0.1" byte_order="LittleEndian">
  <PolyData>
    <Piece NumberOfPoints="     19" NumberOfVerts="  0" NumberOfLines="     18"
           NumberOfStrips="  0" NumberOfPolys="      0">
      <Points>
        <DataArray type="Float32" NumberOfComponents="3" format="ascii">
                      -5.08666                      -1.47817                      89.76017
                      -5.16673                      -2.82437                      89.53835
                      -5.35727                      -5.50014                      89.00379
                      -5.56221                      -8.16809                      88.42618
                      -5.82700                     -11.49841                      87.67843
                      -6.07982                     -15.52057                      86.91675
                      -6.29754                     -19.56515                      86.28056
                      -6.51731                     -23.61006                      85.64713
                      -6.73657                     -27.65569                      85.01799
                      -6.95634                     -31.70170                      84.39135
                      -7.17824                     -35.74743                      83.76374
                      -7.40143                     -39.79315                      83.13656
                      -7.62654                     -43.83883                      82.50986
                      -7.85430                     -47.88444                      81.88365
                      -8.08298                     -51.93003                      81.25764
                      -8.27417                     -55.30137                      80.73608
                      -8.42699                     -57.99966                      80.32667
                      -8.57639                     -60.70694                      79.97145
                      -8.65535                     -62.05365                      79.75295
        </DataArray>
      </Points>
      <PointData>
        <DataArray type="Float32" Name="TranslationalVelocity" NumberOfComponents="3" format="ascii">
                      -0.18687                       0.35751                      -2.13597
                      -0.35706                       0.68818                      -4.08126
                      -0.69534                       1.48471                      -7.94780
                      -1.03263                       2.34528                     -11.80303
                      -1.45366                       3.45926                     -16.61540
                      -1.96215                       4.59187                     -22.42750
                      -2.47348                       5.53869                     -28.27198
                      -2.98485                       6.48180                     -34.11694
                      -3.49631                       7.41864                     -39.96295
                      -4.00781                       8.35192                     -45.80950
                      -4.51928                       9.28689                     -51.65565
                      -5.03075                      10.22139                     -57.50178
                      -5.54222                      11.15545                     -63.34787
                      -6.05368                      12.08912                     -69.19384
                      -6.56513                      13.02262                     -75.03979
                      -6.99134                      13.80046                     -79.91143
                      -7.33247                      14.41139                     -83.81051
                      -7.67473                      14.94358                     -87.72258
                      -7.84499                      15.26929                     -89.66859
        </DataArray>
        <DataArray type="Float32" Name="RotationalVelocity" NumberOfComponents="3" format="ascii">
                       1.44502                      -0.00000                      -0.12642
                       1.44502                      -0.00000                      -0.12642
                       1.44502                      -0.00000                      -0.12642
                       1.44502                      -0.00000                      -0.12642
                       1.44502                      -0.00000                      -0.12642
                       1.44502                      -0.00000                      -0.12642
                       1.44502                      -0.00000                      -0.12642
                       1.44502                      -0.00000                      -0.12642
                       1.44502                      -0.00000                      -0.12642
                       1.44502                      -0.00000                      -0.12642
                       1.44502                      -0.00000                      -0.12642
                       1.44502                      -0.00000                      -0.12642
                       1.44502                      -0.00000                      -0.12642
                       1.44502                      -0.00000                      -0.12642
                       1.44502                      -0.00000                      -0.12642
                       1.44502                      -0.00000                      -0.12642
                       1.44502                      -0.00000                      -0.12642
                       1.44502                      -0.00000                      -0.12642
                       1.44502                      -0.00000                      -0.12642
        </DataArray>
        <DataArray type="Float32" Name="TranslationalAcceleration" NumberOfComponents="3" format="ascii">
                       0.03377                       3.13200                       0.38604
                       0.06517                       5.98470                       0.74495
                       0.14520                      11.66337                       1.65959
                       0.23337                      17.32949                       2.66747
                       0.34847                      24.40478                       3.98302
                       0.46057                      32.93687                       5.26438
                       0.54902                      41.50478                       6.27529
                       0.63699                      50.07314                       7.28081
                       0.72416                      58.64265                       8.27720
                       0.81088                      67.21274                       9.26842
                       0.89782                      75.78233                      10.26210
                       0.98469                      84.35189                      11.25511
                       1.07152                      92.92134                      12.24747
                       1.15829                     101.49061                      13.23929
                       1.24504                     110.05982                      14.23087
                       1.31732                     117.20086                      15.05706
                       1.37370                     122.91556                      15.70152
                       1.42006                     128.64437                      16.23140
                       1.45083                     131.49783                      16.58312
        </DataArray>
        <DataArray type="Float32" Name="OrientationX" NumberOfComponents="3" format="ascii">
                       0.99462                      -0.04303                      -0.09422
                       0.99462                      -0.04303                      -0.09422
                       0.99462                      -0.04303                      -0.09422
                       0.99462                      -0.04303                      -0.09422
                       0.99462                      -0.04303                      -0.09422
                       0.99462                      -0.04303                      -0.09422
                       0.99462                      -0.04303                      -0.09422
                       0.99462                      -0.04303                      -0.09422
                       0.99462                      -0.04303                      -0.09422
                       0.99462                      -0.04303                      -0.09422
                       0.99462                      -0.04303                      -0.09422
                       0.99462                      -0.04303                      -0.09422
                       0.99462                      -0.04303                      -0.09422
                       0.99462                      -0.04303                      -0.09422
                       0.99462                      -0.04303                      -0.09422
                       0.99462                      -0.04303                      -0.09422
                       0.99462                      -0.04303                      -0.09422
                       0.99462                      -0.04303                      -0.09422
                       0.99462                      -0.04303                      -0.09422
        </DataArray>
        <DataArray type="Float32" Name="OrientationY" NumberOfComponents="3" format="ascii">
                       0.08597                      -0.16447                       0.98263
                       0.08597                      -0.16447                       0.98263
                       0.08597                      -0.16447                       0.98263
                       0.08597                      -0.16447                       0.98263
                       0.08597                      -0.16447                       0.98263
                       0.08597                      -0.16447                       0.98263
                       0.08597                      -0.16447                       0.98263
                       0.08597                      -0.16447                       0.98263
                       0.08597                      -0.16447                       0.98263
                       0.08597                      -0.16447                       0.98263
                       0.08597                      -0.16447                       0.98263
                       0.08597                      -0.16447                       0.98263
                       0.08597                      -0.16447                       0.98263
                       0.08597                      -0.16447                       0.98263
                       0.08597                      -0.16447                       0.98263
                       0.08597                      -0.16447                       0.98263
                       0.08597                      -0.16447                       0.98263
                       0.08597                      -0.16447                       0.98263
                       0.08597                      -0.16447                       0.98263
        </DataArray>
        <DataArray type="Float32" Name="OrientationZ" NumberOfComponents="3" format="ascii">
                      -0.05777                      -0.98544                      -0.15989
                      -0.05777                      -0.98544                      -0.15989
                      -0.05777                      -0.98544                      -0.15989
                      -0.05777                      -0.98544                      -0.15989
                      -0.05777                      -0.98544                      -0.15989
                      -0.05777                      -0.98544                      -0.15989
                      -0.05777                      -0.98544                      -0.15989
                      -0.05777                      -0.98544                      -0.15989
                      -0.05777                      -0.98544                      -0.15989
                      -0.05777                      -0.98544                      -0.15989
                      -0.05777                      -0.98544                      -0.15989
                      -0.05777                      -0.98544                      -0.15989
                      -0.05777                      -0.98544                      -0.15989
                      -0.05777                      -0.98544                      -0.15989
                      -0.05777                      -0.98544                      -0.15989
                      -0.05777                      -0.98544                      -0.15989
                      -0.05777                      -0.98544                      -0.15989
                      -0.05777                      -0.98544                      -0.15989
                      -0.05777                      -0.98544                      -0.15989
        </DataArray>
        <DataArray type="Float32" Name="Force" NumberOfComponents="3" format="ascii">
                       0.95779                      -1.83238                      10.94760
                     173.54566                     -19.26211                      56.01026
                     224.52842                     -35.86573                     139.92285
                     208.35155                     -42.66768                     187.69157
                    2160.10456                     -55.73880                    -437.00477
                    2515.34080                     -44.89902                    -632.17826
                    3902.49076                     -50.53886                   -1098.65937
                    4760.13113                     -86.81094                   -1185.00478
                    5320.12883                    -112.89655                   -1226.58153
                    6073.94896                    -148.59840                   -1278.92643
                    6996.39327                    -189.10484                   -1362.59039
                    7616.87338                    -217.43989                   -1412.15798
                    8354.86362                    -239.47807                   -1542.99768
                    8883.63789                    -261.25038                   -1599.87661
                    9280.92201                    -278.66215                   -1636.11784
                    9371.32186                    -288.85621                   -1605.95329
                    8932.14831                    -283.93652                   -1477.58156
                    6427.42698                    -209.63374                   -1030.46824
                    3259.81824                    -148.74781                    -261.12922
        </DataArray>
        <DataArray type="Float32" Name="Moment" NumberOfComponents="3" format="ascii">
                       0.00000                       0.00000                       0.00000
                       0.00000                       0.00000                       0.00000
                       0.00000                       0.00000                       0.00000
                       0.00000                       0.00000                       0.00000
                      46.59652                     794.78764                     128.95244
                      35.75300                     609.83193                      98.94381
                      68.04846                    1160.68920                     188.31912
                      98.89029                    1686.75230                     273.67163
                     136.20159                    2323.16386                     376.92793
                     161.71176                    2758.28577                     447.52545
                     172.85188                    2948.30068                     478.35492
                     185.73173                    3167.98976                     513.99896
                     172.51965                    2942.63383                     477.43549
                     172.96310                    2950.19778                     478.66272
                     168.48720                    2873.85310                     466.27598
                     159.30913                    2717.30463                     440.87635
                     140.76229                    2400.95473                     389.54932
                      70.65032                    1205.06874                     195.51960
                      61.55883                    1049.99687                     170.35955
        </DataArray>
      </PointData>
      <Lines>
        <DataArray type="Int32" Name="connectivity" format="ascii">
      0      1
      1      2
      2      3
      3      4
      4      5
      5      6
      6      7
      7      8
      8      9
      9     10
     10     11
     11     12
     12     13
     13     14
     14     15
     15     16
     16     17
     17     18
        </DataArray>
        <DataArray type="Int32" Name="offsets" format="ascii">
      2
      4
      6
      8
     10
     12
     14
     16
     18
     20
     22
     24
     26
     28
     30
     32
     34
     36
        </DataArray>
      </Lines>
    </Piece>
  </PolyData>
</VTKFile>
