<?xml version="1.0"?>
<VTKFile type="PolyData" version="0.1" byte_order="LittleEndian">
  <PolyData>
    <Piece NumberOfPoints="    625" NumberOfVerts="  0" NumberOfLines="      0"
           NumberOfStrips="  0" NumberOfPolys="    600">
      <Points>
        <DataArray type="Float32" NumberOfComponents="3" format="ascii">
                      -4.91454                      -1.13510                      90.97686
                      -4.91454                      -1.13510                      90.97686
                      -4.91454                      -1.13510                      90.97686
                      -4.91454                      -1.13510                      90.97686
                      -4.91454                      -1.13510                      90.97686
                      -4.91454                      -1.13510                      90.97686
                      -4.91454                      -1.13510                      90.97686
                      -4.91454                      -1.13510                      90.97686
                      -4.91454                      -1.13510                      90.97686
                      -4.91454                      -1.13510                      90.97686
                      -4.91454                      -1.13510                      90.97686
                      -4.91454                      -1.13510                      90.97686
                      -4.91454                      -1.13510                      90.97686
                      -4.91454                      -1.13510                      90.97686
                      -4.91454                      -1.13510                      90.97686
                      -4.91454                      -1.13510                      90.97686
                      -4.91454                      -1.13510                      90.97686
                      -4.91454                      -1.13510                      90.97686
                      -4.91454                      -1.13510                      90.97686
                      -4.91454                      -1.13510                      90.97686
                      -4.91454                      -1.13510                      90.97686
                      -4.91454                      -1.13510                      90.97686
                      -4.91454                      -1.13510                      90.97686
                      -4.91454                      -1.13510                      90.97686
                      -4.91454                      -1.13510                      90.97686
                      -4.32446                      -1.04051                      90.84320
                      -4.35306                      -1.13797                      90.73246
                      -4.41738                      -1.22931                      90.63195
                      -4.51339                      -1.30878                      90.54800
                      -4.63505                      -1.37140                      90.48589
                      -4.77472                      -1.41322                      90.44950
                      -4.92362                      -1.43163                      90.44114
                      -5.07240                      -1.42546                      90.46133
                      -5.21171                      -1.39511                      90.50879
                      -5.33279                      -1.34247                      90.58054
                      -5.42804                      -1.27086                      90.67209
                      -5.49147                      -1.18478                      90.77767
                      -5.51910                      -1.08963                      90.89065
                      -5.50919                      -0.99139                      91.00393
                      -5.46236                      -0.89624                      91.11039
                      -5.38156                      -0.81016                      91.20335
                      -5.27186                      -0.73855                      91.27697
                      -5.14016                      -0.68592                      91.32661
                      -4.99473                      -0.65556                      91.34916
                      -4.84470                      -0.64939                      91.34320
                      -4.69951                      -0.66780                      91.30911
                      -4.56828                      -0.70962                      91.24902
                      -4.45926                      -0.77224                      91.16672
                      -4.37928                      -0.85171                      91.06738
                      -4.33339                      -0.94305                      90.95723
                      -4.10278                      -0.94592                      90.74178
                      -4.14233                      -1.08072                      90.58860
                      -4.23130                      -1.20705                      90.44959
                      -4.36409                      -1.31697                      90.33348
                      -4.53236                      -1.40358                      90.24757
                      -4.72554                      -1.46143                      90.19724
                      -4.93149                      -1.48689                      90.18568
                      -5.13728                      -1.47836                      90.21360
                      -5.32996                      -1.43637                      90.27924
                      -5.49743                      -1.36357                      90.37849
                      -5.62917                      -1.26452                      90.50511
                      -5.71691                      -1.14546                      90.65114
                      -5.75512                      -1.01385                      90.80740
                      -5.74141                      -0.87798                      90.96408
                      -5.67665                      -0.74638                      91.11134
                      -5.56489                      -0.62732                      91.23991
                      -5.41316                      -0.52827                      91.34173
                      -5.23099                      -0.45547                      91.41039
                      -5.02984                      -0.41348                      91.44158
                      -4.82234                      -0.40495                      91.43334
                      -4.62152                      -0.43041                      91.38619
                      -4.44002                      -0.48826                      91.30308
                      -4.28922                      -0.57487                      91.18925
                      -4.17861                      -0.68479                      91.05185
                      -4.11513                      -0.81112                      90.89950
                      -3.94752                      -0.85133                      90.64617
                      -3.99485                      -1.01263                      90.46288
                      -4.10130                      -1.16379                      90.29654
                      -4.26020                      -1.29532                      90.15761
                      -4.46155                      -1.39895                      90.05480
                      -4.69271                      -1.46818                      89.99459
                      -4.93915                      -1.49864                      89.98075
                      -5.18538                      -1.48843                      90.01415
                      -5.41594                      -1.43819                      90.09270
                      -5.61634                      -1.35108                      90.21146
                      -5.77398                      -1.23256                      90.36297
                      -5.87897                      -1.09009                      90.53771
                      -5.92469                      -0.93262                      90.72469
                      -5.90829                      -0.77004                      90.91217
                      -5.83079                      -0.61256                      91.08838
                      -5.69706                      -0.47009                      91.24223
                      -5.51550                      -0.35158                      91.36406
                      -5.29753                      -0.26446                      91.44622
                      -5.05683                      -0.21422                      91.48354
                      -4.80853                      -0.20401                      91.47368
                      -4.56824                      -0.23448                      91.41726
                      -4.35105                      -0.30370                      91.31782
                      -4.17061                      -0.40733                      91.18161
                      -4.03825                      -0.53886                      91.01719
                      -3.96230                      -0.69003                      90.83489
                      -3.82925                      -0.75673                      90.55379
                      -3.88258                      -0.93850                      90.34725
                      -4.00254                      -1.10884                      90.15981
                      -4.18159                      -1.25706                      90.00324
                      -4.40849                      -1.37384                      89.88740
                      -4.66898                      -1.45185                      89.81954
                      -4.94668                      -1.48618                      89.80395
                      -5.22416                      -1.47467                      89.84159
                      -5.48397                      -1.41806                      89.93011
                      -5.70979                      -1.31989                      90.06393
                      -5.88743                      -1.18634                      90.23466
                      -6.00574                      -1.02579                      90.43157
                      -6.05726                      -0.84834                      90.64228
                      -6.03878                      -0.66513                      90.85355
                      -5.95145                      -0.48768                      91.05211
                      -5.80075                      -0.32713                      91.22548
                      -5.59616                      -0.19358                      91.36277
                      -5.35053                      -0.09541                      91.45535
                      -5.07929                      -0.03880                      91.49740
                      -4.79950                      -0.02729                      91.48629
                      -4.52872                      -0.06162                      91.42271
                      -4.28397                      -0.13963                      91.31066
                      -4.08064                      -0.25641                      91.15717
                      -3.93149                      -0.40463                      90.97189
                      -3.84590                      -0.57497                      90.76646
                      -3.73643                      -0.66214                      90.46365
                      -3.79455                      -0.86021                      90.23857
                      -3.92527                      -1.04584                      90.03431
                      -4.12039                      -1.20736                      89.86370
                      -4.36765                      -1.33462                      89.73746
                      -4.65151                      -1.41962                      89.66351
                      -4.95413                      -1.45703                      89.64652
                      -5.25651                      -1.44450                      89.68754
                      -5.53963                      -1.38280                      89.78400
                      -5.78571                      -1.27583                      89.92983
                      -5.97929                      -1.13029                      90.11588
                      -6.10821                      -0.95534                      90.33046
                      -6.16436                      -0.76197                      90.56007
                      -6.14422                      -0.56232                      90.79030
                      -6.04905                      -0.36895                      91.00667
                      -5.88483                      -0.19399                      91.19560
                      -5.66188                      -0.04846                      91.34520
                      -5.39421                       0.05852                      91.44609
                      -5.09864                       0.12021                      91.49192
                      -4.79374                       0.13275                      91.47981
                      -4.49867                       0.09534                      91.41053
                      -4.23196                       0.01033                      91.28842
                      -4.01038                      -0.11693                      91.12116
                      -3.84785                      -0.27844                      90.91925
                      -3.75458                      -0.46407                      90.69539
                      -3.66317                      -0.56755                      90.37521
                      -3.72514                      -0.77874                      90.13523
                      -3.86452                      -0.97666                      89.91744
                      -4.07256                      -1.14888                      89.73553
                      -4.33620                      -1.28456                      89.60092
                      -4.63885                      -1.37520                      89.52209
                      -4.96152                      -1.41509                      89.50397
                      -5.28392                      -1.40172                      89.54770
                      -5.58579                      -1.33594                      89.65055
                      -5.84817                      -1.22188                      89.80604
                      -6.05457                      -1.06670                      90.00442
                      -6.19203                      -0.88017                      90.23320
                      -6.25190                      -0.67399                      90.47802
                      -6.23042                      -0.46112                      90.72349
                      -6.12895                      -0.25494                      90.95420
                      -5.95385                      -0.06840                      91.15564
                      -5.71614                       0.08678                      91.31515
                      -5.43075                       0.20084                      91.42272
                      -5.11560                       0.26662                      91.47158
                      -4.79050                       0.27998                      91.45867
                      -4.47589                       0.24010                      91.38480
                      -4.19152                       0.14946                      91.25460
                      -3.95527                       0.01377                      91.07626
                      -3.78197                      -0.15844                      90.86099
                      -3.68252                      -0.35636                      90.62231
                      -3.60599                      -0.47296                      90.28818
                      -3.67103                      -0.69464                      90.03627
                      -3.81734                      -0.90240                      89.80766
                      -4.03572                      -1.08317                      89.61671
                      -4.31246                      -1.22560                      89.47542
                      -4.63015                      -1.32074                      89.39266
                      -4.96885                      -1.36261                      89.37364
                      -5.30727                      -1.34858                      89.41955
                      -5.62414                      -1.27953                      89.52751
                      -5.89956                      -1.15980                      89.69073
                      -6.11622                      -0.99692                      89.89896
                      -6.26051                      -0.80111                      90.13911
                      -6.32335                      -0.58468                      90.39610
                      -6.30081                      -0.36124                      90.65377
                      -6.19429                      -0.14481                      90.89594
                      -6.01050                       0.05100                      91.10739
                      -5.76097                       0.21388                      91.27483
                      -5.46140                       0.33361                      91.38774
                      -5.13059                       0.40266                      91.43903
                      -4.78934                       0.41669                      91.42548
                      -4.45909                       0.37482                      91.34794
                      -4.16059                       0.27968                      91.21127
                      -3.91260                       0.13725                      91.02407
                      -3.73069                      -0.04352                      90.79810
                      -3.62630                      -0.25127                      90.54755
                      -3.56268                      -0.37837                      90.20236
                      -3.63014                      -0.60828                      89.94110
                      -3.78188                      -0.82375                      89.70401
                      -4.00837                      -1.01123                      89.50597
                      -4.29538                      -1.15895                      89.35943
                      -4.62487                      -1.25762                      89.27360
                      -4.97614                      -1.30105                      89.25387
                      -5.32712                      -1.28649                      89.30149
                      -5.65576                      -1.21488                      89.41345
                      -5.94140                      -1.09071                      89.58273
                      -6.16611                      -0.92178                      89.79869
                      -6.31575                      -0.71870                      90.04776
                      -6.38093                      -0.49424                      90.31429
                      -6.35755                      -0.26250                      90.58152
                      -6.24708                      -0.03804                      90.83268
                      -6.05646                       0.16504                      91.05198
                      -5.79767                       0.33397                      91.22564
                      -5.48697                       0.45815                      91.34275
                      -5.14388                       0.52976                      91.39594
                      -4.78996                       0.54431                      91.38189
                      -4.44745                       0.50089                      91.30146
                      -4.13787                       0.40222                      91.15972
                      -3.88067                       0.25450                      90.96557
                      -3.69201                       0.06702                      90.73121
                      -3.58375                      -0.14845                      90.47137
                      -3.53179                      -0.28378                      90.11763
                      -3.60107                      -0.51989                      89.84933
                      -3.75690                      -0.74117                      89.60583
                      -3.98950                      -0.93372                      89.40245
                      -4.28426                      -1.08542                      89.25196
                      -4.62264                      -1.18675                      89.16381
                      -4.98339                      -1.23135                      89.14355
                      -5.34384                      -1.21640                      89.19245
                      -5.68134                      -1.14286                      89.30744
                      -5.97469                      -1.01534                      89.48129
                      -6.20546                      -0.84185                      89.70307
                      -6.35914                      -0.63329                      89.95886
                      -6.42607                      -0.40277                      90.23258
                      -6.40206                      -0.16478                      90.50702
                      -6.28861                       0.06574                      90.76496
                      -6.09285                       0.27429                      90.99018
                      -5.82708                       0.44779                      91.16852
                      -5.50800                       0.57531                      91.28879
                      -5.15565                       0.64885                      91.34342
                      -4.79219                       0.66380                      91.32898
                      -4.44044                       0.61920                      91.24639
                      -4.12250                       0.51787                      91.10082
                      -3.85836                       0.36616                      90.90144
                      -3.66461                       0.17362                      90.66075
                      -3.55343                      -0.04766                      90.39390
                      -3.51237                      -0.18918                      90.03391
                      -3.58291                      -0.42963                      89.76068
                      -3.74161                      -0.65498                      89.51271
                      -3.97848                      -0.85105                      89.30560
                      -4.27864                      -1.00554                      89.15234
                      -4.62323                      -1.10873                      89.06258
                      -4.99060                      -1.15414                      89.04195
                      -5.35766                      -1.13893                      89.09175
                      -5.70136                      -1.06403                      89.20885
                      -6.00009                      -0.93417                      89.38588
                      -6.23509                      -0.75749                      89.61174
                      -6.39159                      -0.54511                      89.87222
                      -6.45976                      -0.31036                      90.15096
                      -6.43530                      -0.06800                      90.43044
                      -6.31977                       0.16674                      90.69311
                      -6.12042                       0.37913                      90.92246
                      -5.84977                       0.55580                      91.10408
                      -5.52483                       0.68566                      91.22655
                      -5.16602                       0.76056                      91.28218
                      -4.79589                       0.77578                      91.26748
                      -4.43768                       0.73036                      91.18337
                      -4.11391                       0.62717                      91.03514
                      -3.84493                       0.47268                      90.83209
                      -3.64762                       0.27661                      90.58699
                      -3.53440                       0.05127                      90.31524
                      -3.50378                      -0.09459                      89.95113
                      -3.57508                      -0.33760                      89.67499
                      -3.73547                      -0.56535                      89.42438
                      -3.97486                      -0.76351                      89.21506
                      -4.27822                      -0.91965                      89.06017
                      -4.62648                      -1.02394                      88.96945
                      -4.99777                      -1.06984                      88.94860
                      -5.36875                      -1.05446                      88.99893
                      -5.71611                      -0.97876                      89.11727
                      -6.01803                      -0.84752                      89.29620
                      -6.25553                      -0.66896                      89.52446
                      -6.41370                      -0.45431                      89.78772
                      -6.48259                      -0.21706                      90.06943
                      -6.45788                       0.02788                      90.35189
                      -6.34111                       0.26513                      90.61736
                      -6.13963                       0.47978                      90.84915
                      -5.86610                       0.65833                      91.03270
                      -5.53770                       0.78958                      91.15648
                      -5.17507                       0.86527                      91.21271
                      -4.80099                       0.88065                      91.19785
                      -4.43896                       0.83475                      91.11285
                      -4.11174                       0.73046                      90.96303
                      -3.83989                       0.57433                      90.75782
                      -3.64048                       0.37616                      90.51011
                      -3.52605                       0.14842                      90.23546
                      -3.50571                       0.00000                      89.86927
                      -3.57726                      -0.24386                      89.59216
                      -3.73820                      -0.47240                      89.34068
                      -3.97843                      -0.67126                      89.13063
                      -4.28285                      -0.82793                      88.97520
                      -4.63233                      -0.93259                      88.88417
                      -5.00491                      -0.97865                      88.86324
                      -5.37718                      -0.96321                      88.91375
                      -5.72575                      -0.88726                      89.03250
                      -6.02873                      -0.75555                      89.21205
                      -6.26706                      -0.57637                      89.44111
                      -6.42578                      -0.36098                      89.70529
                      -6.49491                      -0.12290                      89.98798
                      -6.47011                       0.12290                      90.27143
                      -6.35294                       0.36098                      90.53783
                      -6.15076                       0.57637                      90.77043
                      -5.87627                       0.75555                      90.95462
                      -5.54672                       0.88726                      91.07883
                      -5.18282                       0.96321                      91.13525
                      -4.80744                       0.97865                      91.12035
                      -4.44415                       0.93259                      91.03504
                      -4.11579                       0.82793                      90.88470
                      -3.84299                       0.67126                      90.67878
                      -3.64288                       0.47240                      90.43020
                      -3.52805                       0.24386                      90.15459
                      -3.51803                       0.09459                      89.78832
                      -3.58933                      -0.14842                      89.51218
                      -3.74971                      -0.37616                      89.26157
                      -3.98911                      -0.57433                      89.05225
                      -4.29247                      -0.73046                      88.89736
                      -4.64073                      -0.83475                      88.80664
                      -5.01201                      -0.88065                      88.78579
                      -5.38299                      -0.86527                      88.83612
                      -5.73035                      -0.78958                      88.95447
                      -6.03227                      -0.65833                      89.13339
                      -6.26977                      -0.47978                      89.36165
                      -6.42794                      -0.26513                      89.62491
                      -6.49683                      -0.02788                      89.90662
                      -6.47212                       0.21706                      90.18908
                      -6.35536                       0.45431                      90.45455
                      -6.15388                       0.66896                      90.68634
                      -5.88034                       0.84752                      90.86989
                      -5.55194                       0.97876                      90.99367
                      -5.18931                       1.05446                      91.04990
                      -4.81523                       1.06984                      91.03504
                      -4.45321                       1.02394                      90.95004
                      -4.12599                       0.91965                      90.80022
                      -3.85413                       0.76351                      90.59501
                      -3.65472                       0.56535                      90.34730
                      -3.54029                       0.33760                      90.07265
                      -3.54085                       0.18918                      89.70829
                      -3.61140                      -0.05127                      89.43506
                      -3.77010                      -0.27661                      89.18710
                      -4.00696                      -0.47268                      88.97998
                      -4.30712                      -0.62717                      88.82673
                      -4.65171                      -0.73036                      88.73696
                      -5.01908                      -0.77578                      88.71633
                      -5.38615                      -0.76056                      88.76613
                      -5.72985                      -0.68566                      88.88323
                      -6.02858                      -0.55580                      89.06027
                      -6.26358                      -0.37913                      89.28612
                      -6.42008                      -0.16674                      89.54660
                      -6.48824                       0.06800                      89.82534
                      -6.46379                       0.31036                      90.10483
                      -6.34826                       0.54511                      90.36749
                      -6.14891                       0.75749                      90.59684
                      -5.87826                       0.93417                      90.77846
                      -5.55332                       1.06403                      90.90093
                      -5.19451                       1.13893                      90.95657
                      -4.82438                       1.15414                      90.94187
                      -4.46617                       1.10873                      90.85776
                      -4.14240                       1.00554                      90.70952
                      -3.87341                       0.85105                      90.50647
                      -3.67611                       0.65498                      90.26137
                      -3.56288                       0.42963                      89.98962
                      -3.57452                       0.28378                      89.62921
                      -3.64380                       0.04766                      89.36090
                      -3.79964                      -0.17362                      89.11741
                      -4.03224                      -0.36616                      88.91402
                      -4.32699                      -0.51787                      88.76353
                      -4.66537                      -0.61920                      88.67539
                      -5.02612                      -0.66380                      88.65513
                      -5.38657                      -0.64885                      88.70403
                      -5.72407                      -0.57531                      88.81901
                      -6.01743                      -0.44779                      88.99286
                      -6.24819                      -0.27429                      89.21465
                      -6.40187                      -0.06574                      89.47043
                      -6.46881                       0.16478                      89.74415
                      -6.44479                       0.40277                      90.01860
                      -6.33134                       0.63329                      90.27653
                      -6.13558                       0.84185                      90.50175
                      -5.86981                       1.01534                      90.68009
                      -5.55073                       1.14286                      90.80036
                      -5.19839                       1.21640                      90.85499
                      -4.83492                       1.23135                      90.84056
                      -4.48317                       1.18675                      90.75796
                      -4.16523                       1.08542                      90.61240
                      -3.90109                       0.93372                      90.41301
                      -3.70734                       0.74117                      90.17233
                      -3.59616                       0.51989                      89.90547
                      -3.61966                       0.37837                      89.55113
                      -3.68711                       0.14845                      89.28987
                      -3.83885                      -0.06702                      89.05277
                      -4.06534                      -0.25450                      88.85473
                      -4.35235                      -0.40222                      88.70819
                      -4.68184                      -0.50089                      88.62236
                      -5.03312                      -0.54431                      88.60264
                      -5.38410                      -0.52976                      88.65025
                      -5.71274                      -0.45815                      88.76222
                      -5.99838                      -0.33397                      88.93150
                      -6.22308                      -0.16504                      89.14746
                      -6.37272                       0.03804                      89.39653
                      -6.43790                       0.26250                      89.66305
                      -6.41452                       0.49424                      89.93029
                      -6.30405                       0.71870                      90.18145
                      -6.11343                       0.92178                      90.40075
                      -5.85464                       1.09071                      90.57441
                      -5.54394                       1.21488                      90.69151
                      -5.20086                       1.28649                      90.74471
                      -4.84694                       1.30105                      90.73065
                      -4.50443                       1.25762                      90.65023
                      -4.19485                       1.15895                      90.50849
                      -3.93764                       1.01123                      90.31434
                      -3.74899                       0.82375                      90.07998
                      -3.64072                       0.60828                      89.82013
                      -3.67721                       0.47296                      89.47414
                      -3.74225                       0.25127                      89.22223
                      -3.88856                       0.04352                      88.99362
                      -4.10694                      -0.13725                      88.80267
                      -4.38368                      -0.27968                      88.66138
                      -4.70137                      -0.37482                      88.57862
                      -5.04007                      -0.41669                      88.55960
                      -5.37849                      -0.40266                      88.60551
                      -5.69536                      -0.33361                      88.71347
                      -5.97078                      -0.21388                      88.87669
                      -6.18744                      -0.05100                      89.08492
                      -6.33173                       0.14481                      89.32507
                      -6.39457                       0.36124                      89.58205
                      -6.37203                       0.58468                      89.83973
                      -6.26551                       0.80111                      90.08189
                      -6.08172                       0.99692                      90.29334
                      -5.83219                       1.15980                      90.46078
                      -5.53261                       1.27953                      90.57370
                      -5.20181                       1.34858                      90.62499
                      -4.86056                       1.36261                      90.61144
                      -4.53031                       1.32074                      90.53389
                      -4.23181                       1.22560                      90.39723
                      -3.98382                       1.08317                      90.21003
                      -3.80191                       0.90240                      89.98406
                      -3.69752                       0.69464                      89.73351
                      -3.74864                       0.56755                      89.39836
                      -3.81060                       0.35636                      89.15838
                      -3.94998                       0.15844                      88.94059
                      -4.15803                      -0.01377                      88.75868
                      -4.42166                      -0.14946                      88.62407
                      -4.72432                      -0.24010                      88.54523
                      -5.04698                      -0.27998                      88.52711
                      -5.36938                      -0.26662                      88.57085
                      -5.67125                      -0.20084                      88.67370
                      -5.93363                      -0.08678                      88.82919
                      -6.14004                       0.06840                      89.02756
                      -6.27749                       0.25494                      89.25635
                      -6.33736                       0.46112                      89.50117
                      -6.31588                       0.67399                      89.74664
                      -6.21441                       0.88017                      89.97734
                      -6.03932                       1.06670                      90.17878
                      -5.80160                       1.22188                      90.33830
                      -5.51621                       1.33594                      90.44587
                      -5.20106                       1.40172                      90.49473
                      -4.87597                       1.41509                      90.48182
                      -4.56135                       1.37520                      90.40795
                      -4.27698                       1.28456                      90.27775
                      -4.04073                       1.14888                      90.09941
                      -3.86743                       0.97666                      89.88414
                      -3.76799                       0.77874                      89.64545
                      -3.83614                       0.66214                      89.32399
                      -3.89426                       0.46407                      89.09891
                      -4.02498                       0.27844                      88.89465
                      -4.22010                       0.11693                      88.72404
                      -4.46736                      -0.01033                      88.59780
                      -4.75122                      -0.09534                      88.52385
                      -5.05384                      -0.13275                      88.50686
                      -5.35621                      -0.12021                      88.54788
                      -5.63934                      -0.05852                      88.64434
                      -5.88542                       0.04846                      88.79017
                      -6.07900                       0.19399                      88.97622
                      -6.20792                       0.36895                      89.19080
                      -6.26407                       0.56232                      89.42041
                      -6.24393                       0.76197                      89.65064
                      -6.14876                       0.95534                      89.86701
                      -5.98454                       1.13029                      90.05594
                      -5.76159                       1.27583                      90.20554
                      -5.49392                       1.38280                      90.30643
                      -5.19835                       1.44450                      90.35226
                      -4.89345                       1.45703                      90.34015
                      -4.59837                       1.41962                      90.27087
                      -4.33167                       1.33462                      90.14876
                      -4.11009                       1.20736                      89.98149
                      -3.94756                       1.04584                      89.77959
                      -3.85429                       0.86021                      89.55573
                      -3.94320                       0.75673                      89.25133
                      -3.99653                       0.57497                      89.04478
                      -4.11649                       0.40463                      88.85734
                      -4.29554                       0.25641                      88.70078
                      -4.52244                       0.13963                      88.58493
                      -4.78293                       0.06162                      88.51707
                      -5.06063                       0.02729                      88.50148
                      -5.33811                       0.03880                      88.53912
                      -5.59792                       0.09541                      88.62764
                      -5.82374                       0.19358                      88.76147
                      -6.00139                       0.32713                      88.93220
                      -6.11969                       0.48768                      89.12910
                      -6.17122                       0.66513                      89.33981
                      -6.15273                       0.84834                      89.55108
                      -6.06540                       1.02579                      89.74964
                      -5.91470                       1.18634                      89.92301
                      -5.71011                       1.31989                      90.06030
                      -5.46448                       1.41806                      90.15288
                      -5.19325                       1.47467                      90.19493
                      -4.91345                       1.48618                      90.18382
                      -4.64267                       1.45185                      90.12024
                      -4.39792                       1.37384                      90.00819
                      -4.19459                       1.25706                      89.85470
                      -4.04544                       1.10884                      89.66942
                      -3.95985                       0.93850                      89.46399
                      -4.07572                       0.85133                      89.18089
                      -4.12304                       0.69003                      88.99760
                      -4.22950                       0.53886                      88.83126
                      -4.38839                       0.40733                      88.69233
                      -4.58975                       0.30370                      88.58952
                      -4.82091                       0.23448                      88.52931
                      -5.06734                       0.20401                      88.51547
                      -5.31358                       0.21422                      88.54887
                      -5.54414                       0.26446                      88.62742
                      -5.74454                       0.35158                      88.74618
                      -5.90218                       0.47009                      88.89769
                      -6.00716                       0.61256                      89.07243
                      -6.05289                       0.77004                      89.25941
                      -6.03648                       0.93262                      89.44690
                      -5.95898                       1.09009                      89.62310
                      -5.82525                       1.23256                      89.77695
                      -5.64370                       1.35108                      89.89878
                      -5.42572                       1.43819                      89.98094
                      -5.18503                       1.48843                      90.01826
                      -4.93673                       1.49864                      90.00840
                      -4.69644                       1.46818                      89.95198
                      -4.47925                       1.39895                      89.85254
                      -4.29881                       1.29532                      89.71633
                      -4.16645                       1.16379                      89.55191
                      -4.09050                       1.01263                      89.36961
                      -4.24522                       0.94592                      89.11369
                      -4.28477                       0.81112                      88.96052
                      -4.37374                       0.68479                      88.82151
                      -4.50653                       0.57487                      88.70540
                      -4.67480                       0.48826                      88.61948
                      -4.86798                       0.43041                      88.56916
                      -5.07393                       0.40495                      88.55759
                      -5.27971                       0.41348                      88.58551
                      -5.47240                       0.45547                      88.65116
                      -5.63987                       0.52827                      88.75040
                      -5.77161                       0.62732                      88.87702
                      -5.85935                       0.74638                      89.02305
                      -5.89756                       0.87798                      89.17931
                      -5.88385                       1.01385                      89.33600
                      -5.81909                       1.14546                      89.48325
                      -5.70733                       1.26452                      89.61183
                      -5.55560                       1.36357                      89.71364
                      -5.37343                       1.43637                      89.78230
                      -5.17228                       1.47836                      89.81349
                      -4.96478                       1.48689                      89.80525
                      -4.76396                       1.46143                      89.75810
                      -4.58245                       1.40358                      89.67500
                      -4.43166                       1.31697                      89.56117
                      -4.32105                       1.20705                      89.42376
                      -4.25757                       1.08072                      89.27141
                      -4.48114                       1.04051                      89.05231
                      -4.50974                       0.94305                      88.94156
                      -4.57406                       0.85171                      88.84106
                      -4.67007                       0.77224                      88.75711
                      -4.79173                       0.70962                      88.69499
                      -4.93140                       0.66780                      88.65861
                      -5.08030                       0.64939                      88.65025
                      -5.22908                       0.65556                      88.67043
                      -5.36839                       0.68591                      88.71789
                      -5.48948                       0.73855                      88.78965
                      -5.58473                       0.81016                      88.88119
                      -5.64816                       0.89624                      88.98677
                      -5.67579                       0.99139                      89.09975
                      -5.66588                       1.08963                      89.21303
                      -5.61905                       1.18478                      89.31950
                      -5.53825                       1.27086                      89.41246
                      -5.42855                       1.34247                      89.48607
                      -5.29684                       1.39511                      89.53571
                      -5.15141                       1.42546                      89.55826
                      -5.00138                       1.43163                      89.55230
                      -4.85620                       1.41322                      89.51821
                      -4.72496                       1.37140                      89.45813
                      -4.61594                       1.30878                      89.37583
                      -4.53597                       1.22931                      89.27648
                      -4.49007                       1.13797                      89.16634
                      -5.08546                       1.13510                      89.02315
                      -5.08546                       1.13510                      89.02315
                      -5.08546                       1.13510                      89.02315
                      -5.08546                       1.13510                      89.02315
                      -5.08546                       1.13510                      89.02315
                      -5.08546                       1.13510                      89.02315
                      -5.08546                       1.13510                      89.02315
                      -5.08546                       1.13510                      89.02315
                      -5.08546                       1.13510                      89.02315
                      -5.08546                       1.13510                      89.02315
                      -5.08546                       1.13510                      89.02315
                      -5.08546                       1.13510                      89.02315
                      -5.08546                       1.13510                      89.02315
                      -5.08546                       1.13510                      89.02315
                      -5.08546                       1.13510                      89.02315
                      -5.08546                       1.13510                      89.02315
                      -5.08546                       1.13510                      89.02315
                      -5.08546                       1.13510                      89.02315
                      -5.08546                       1.13510                      89.02315
                      -5.08546                       1.13510                      89.02315
                      -5.08546                       1.13510                      89.02315
                      -5.08546                       1.13510                      89.02315
                      -5.08546                       1.13510                      89.02315
                      -5.08546                       1.13510                      89.02315
                      -5.08546                       1.13510                      89.02315
        </DataArray>
      </Points>
      <Polys>
        <DataArray type="Int32" Name="connectivity" format="ascii">
      0      1     26     25
      1      2     27     26
      2      3     28     27
      3      4     29     28
      4      5     30     29
      5      6     31     30
      6      7     32     31
      7      8     33     32
      8      9     34     33
      9     10     35     34
     10     11     36     35
     11     12     37     36
     12     13     38     37
     13     14     39     38
     14     15     40     39
     15     16     41     40
     16     17     42     41
     17     18     43     42
     18     19     44     43
     19     20     45     44
     20     21     46     45
     21     22     47     46
     22     23     48     47
     23     24     49     48
     24      0     25     49
     25     26     51     50
     26     27     52     51
     27     28     53     52
     28     29     54     53
     29     30     55     54
     30     31     56     55
     31     32     57     56
     32     33     58     57
     33     34     59     58
     34     35     60     59
     35     36     61     60
     36     37     62     61
     37     38     63     62
     38     39     64     63
     39     40     65     64
     40     41     66     65
     41     42     67     66
     42     43     68     67
     43     44     69     68
     44     45     70     69
     45     46     71     70
     46     47     72     71
     47     48     73     72
     48     49     74     73
     49     25     50     74
     50     51     76     75
     51     52     77     76
     52     53     78     77
     53     54     79     78
     54     55     80     79
     55     56     81     80
     56     57     82     81
     57     58     83     82
     58     59     84     83
     59     60     85     84
     60     61     86     85
     61     62     87     86
     62     63     88     87
     63     64     89     88
     64     65     90     89
     65     66     91     90
     66     67     92     91
     67     68     93     92
     68     69     94     93
     69     70     95     94
     70     71     96     95
     71     72     97     96
     72     73     98     97
     73     74     99     98
     74     50     75     99
     75     76    101    100
     76     77    102    101
     77     78    103    102
     78     79    104    103
     79     80    105    104
     80     81    106    105
     81     82    107    106
     82     83    108    107
     83     84    109    108
     84     85    110    109
     85     86    111    110
     86     87    112    111
     87     88    113    112
     88     89    114    113
     89     90    115    114
     90     91    116    115
     91     92    117    116
     92     93    118    117
     93     94    119    118
     94     95    120    119
     95     96    121    120
     96     97    122    121
     97     98    123    122
     98     99    124    123
     99     75    100    124
    100    101    126    125
    101    102    127    126
    102    103    128    127
    103    104    129    128
    104    105    130    129
    105    106    131    130
    106    107    132    131
    107    108    133    132
    108    109    134    133
    109    110    135    134
    110    111    136    135
    111    112    137    136
    112    113    138    137
    113    114    139    138
    114    115    140    139
    115    116    141    140
    116    117    142    141
    117    118    143    142
    118    119    144    143
    119    120    145    144
    120    121    146    145
    121    122    147    146
    122    123    148    147
    123    124    149    148
    124    100    125    149
    125    126    151    150
    126    127    152    151
    127    128    153    152
    128    129    154    153
    129    130    155    154
    130    131    156    155
    131    132    157    156
    132    133    158    157
    133    134    159    158
    134    135    160    159
    135    136    161    160
    136    137    162    161
    137    138    163    162
    138    139    164    163
    139    140    165    164
    140    141    166    165
    141    142    167    166
    142    143    168    167
    143    144    169    168
    144    145    170    169
    145    146    171    170
    146    147    172    171
    147    148    173    172
    148    149    174    173
    149    125    150    174
    150    151    176    175
    151    152    177    176
    152    153    178    177
    153    154    179    178
    154    155    180    179
    155    156    181    180
    156    157    182    181
    157    158    183    182
    158    159    184    183
    159    160    185    184
    160    161    186    185
    161    162    187    186
    162    163    188    187
    163    164    189    188
    164    165    190    189
    165    166    191    190
    166    167    192    191
    167    168    193    192
    168    169    194    193
    169    170    195    194
    170    171    196    195
    171    172    197    196
    172    173    198    197
    173    174    199    198
    174    150    175    199
    175    176    201    200
    176    177    202    201
    177    178    203    202
    178    179    204    203
    179    180    205    204
    180    181    206    205
    181    182    207    206
    182    183    208    207
    183    184    209    208
    184    185    210    209
    185    186    211    210
    186    187    212    211
    187    188    213    212
    188    189    214    213
    189    190    215    214
    190    191    216    215
    191    192    217    216
    192    193    218    217
    193    194    219    218
    194    195    220    219
    195    196    221    220
    196    197    222    221
    197    198    223    222
    198    199    224    223
    199    175    200    224
    200    201    226    225
    201    202    227    226
    202    203    228    227
    203    204    229    228
    204    205    230    229
    205    206    231    230
    206    207    232    231
    207    208    233    232
    208    209    234    233
    209    210    235    234
    210    211    236    235
    211    212    237    236
    212    213    238    237
    213    214    239    238
    214    215    240    239
    215    216    241    240
    216    217    242    241
    217    218    243    242
    218    219    244    243
    219    220    245    244
    220    221    246    245
    221    222    247    246
    222    223    248    247
    223    224    249    248
    224    200    225    249
    225    226    251    250
    226    227    252    251
    227    228    253    252
    228    229    254    253
    229    230    255    254
    230    231    256    255
    231    232    257    256
    232    233    258    257
    233    234    259    258
    234    235    260    259
    235    236    261    260
    236    237    262    261
    237    238    263    262
    238    239    264    263
    239    240    265    264
    240    241    266    265
    241    242    267    266
    242    243    268    267
    243    244    269    268
    244    245    270    269
    245    246    271    270
    246    247    272    271
    247    248    273    272
    248    249    274    273
    249    225    250    274
    250    251    276    275
    251    252    277    276
    252    253    278    277
    253    254    279    278
    254    255    280    279
    255    256    281    280
    256    257    282    281
    257    258    283    282
    258    259    284    283
    259    260    285    284
    260    261    286    285
    261    262    287    286
    262    263    288    287
    263    264    289    288
    264    265    290    289
    265    266    291    290
    266    267    292    291
    267    268    293    292
    268    269    294    293
    269    270    295    294
    270    271    296    295
    271    272    297    296
    272    273    298    297
    273    274    299    298
    274    250    275    299
    275    276    301    300
    276    277    302    301
    277    278    303    302
    278    279    304    303
    279    280    305    304
    280    281    306    305
    281    282    307    306
    282    283    308    307
    283    284    309    308
    284    285    310    309
    285    286    311    310
    286    287    312    311
    287    288    313    312
    288    289    314    313
    289    290    315    314
    290    291    316    315
    291    292    317    316
    292    293    318    317
    293    294    319    318
    294    295    320    319
    295    296    321    320
    296    297    322    321
    297    298    323    322
    298    299    324    323
    299    275    300    324
    300    301    326    325
    301    302    327    326
    302    303    328    327
    303    304    329    328
    304    305    330    329
    305    306    331    330
    306    307    332    331
    307    308    333    332
    308    309    334    333
    309    310    335    334
    310    311    336    335
    311    312    337    336
    312    313    338    337
    313    314    339    338
    314    315    340    339
    315    316    341    340
    316    317    342    341
    317    318    343    342
    318    319    344    343
    319    320    345    344
    320    321    346    345
    321    322    347    346
    322    323    348    347
    323    324    349    348
    324    300    325    349
    325    326    351    350
    326    327    352    351
    327    328    353    352
    328    329    354    353
    329    330    355    354
    330    331    356    355
    331    332    357    356
    332    333    358    357
    333    334    359    358
    334    335    360    359
    335    336    361    360
    336    337    362    361
    337    338    363    362
    338    339    364    363
    339    340    365    364
    340    341    366    365
    341    342    367    366
    342    343    368    367
    343    344    369    368
    344    345    370    369
    345    346    371    370
    346    347    372    371
    347    348    373    372
    348    349    374    373
    349    325    350    374
    350    351    376    375
    351    352    377    376
    352    353    378    377
    353    354    379    378
    354    355    380    379
    355    356    381    380
    356    357    382    381
    357    358    383    382
    358    359    384    383
    359    360    385    384
    360    361    386    385
    361    362    387    386
    362    363    388    387
    363    364    389    388
    364    365    390    389
    365    366    391    390
    366    367    392    391
    367    368    393    392
    368    369    394    393
    369    370    395    394
    370    371    396    395
    371    372    397    396
    372    373    398    397
    373    374    399    398
    374    350    375    399
    375    376    401    400
    376    377    402    401
    377    378    403    402
    378    379    404    403
    379    380    405    404
    380    381    406    405
    381    382    407    406
    382    383    408    407
    383    384    409    408
    384    385    410    409
    385    386    411    410
    386    387    412    411
    387    388    413    412
    388    389    414    413
    389    390    415    414
    390    391    416    415
    391    392    417    416
    392    393    418    417
    393    394    419    418
    394    395    420    419
    395    396    421    420
    396    397    422    421
    397    398    423    422
    398    399    424    423
    399    375    400    424
    400    401    426    425
    401    402    427    426
    402    403    428    427
    403    404    429    428
    404    405    430    429
    405    406    431    430
    406    407    432    431
    407    408    433    432
    408    409    434    433
    409    410    435    434
    410    411    436    435
    411    412    437    436
    412    413    438    437
    413    414    439    438
    414    415    440    439
    415    416    441    440
    416    417    442    441
    417    418    443    442
    418    419    444    443
    419    420    445    444
    420    421    446    445
    421    422    447    446
    422    423    448    447
    423    424    449    448
    424    400    425    449
    425    426    451    450
    426    427    452    451
    427    428    453    452
    428    429    454    453
    429    430    455    454
    430    431    456    455
    431    432    457    456
    432    433    458    457
    433    434    459    458
    434    435    460    459
    435    436    461    460
    436    437    462    461
    437    438    463    462
    438    439    464    463
    439    440    465    464
    440    441    466    465
    441    442    467    466
    442    443    468    467
    443    444    469    468
    444    445    470    469
    445    446    471    470
    446    447    472    471
    447    448    473    472
    448    449    474    473
    449    425    450    474
    450    451    476    475
    451    452    477    476
    452    453    478    477
    453    454    479    478
    454    455    480    479
    455    456    481    480
    456    457    482    481
    457    458    483    482
    458    459    484    483
    459    460    485    484
    460    461    486    485
    461    462    487    486
    462    463    488    487
    463    464    489    488
    464    465    490    489
    465    466    491    490
    466    467    492    491
    467    468    493    492
    468    469    494    493
    469    470    495    494
    470    471    496    495
    471    472    497    496
    472    473    498    497
    473    474    499    498
    474    450    475    499
    475    476    501    500
    476    477    502    501
    477    478    503    502
    478    479    504    503
    479    480    505    504
    480    481    506    505
    481    482    507    506
    482    483    508    507
    483    484    509    508
    484    485    510    509
    485    486    511    510
    486    487    512    511
    487    488    513    512
    488    489    514    513
    489    490    515    514
    490    491    516    515
    491    492    517    516
    492    493    518    517
    493    494    519    518
    494    495    520    519
    495    496    521    520
    496    497    522    521
    497    498    523    522
    498    499    524    523
    499    475    500    524
    500    501    526    525
    501    502    527    526
    502    503    528    527
    503    504    529    528
    504    505    530    529
    505    506    531    530
    506    507    532    531
    507    508    533    532
    508    509    534    533
    509    510    535    534
    510    511    536    535
    511    512    537    536
    512    513    538    537
    513    514    539    538
    514    515    540    539
    515    516    541    540
    516    517    542    541
    517    518    543    542
    518    519    544    543
    519    520    545    544
    520    521    546    545
    521    522    547    546
    522    523    548    547
    523    524    549    548
    524    500    525    549
    525    526    551    550
    526    527    552    551
    527    528    553    552
    528    529    554    553
    529    530    555    554
    530    531    556    555
    531    532    557    556
    532    533    558    557
    533    534    559    558
    534    535    560    559
    535    536    561    560
    536    537    562    561
    537    538    563    562
    538    539    564    563
    539    540    565    564
    540    541    566    565
    541    542    567    566
    542    543    568    567
    543    544    569    568
    544    545    570    569
    545    546    571    570
    546    547    572    571
    547    548    573    572
    548    549    574    573
    549    525    550    574
    550    551    576    575
    551    552    577    576
    552    553    578    577
    553    554    579    578
    554    555    580    579
    555    556    581    580
    556    557    582    581
    557    558    583    582
    558    559    584    583
    559    560    585    584
    560    561    586    585
    561    562    587    586
    562    563    588    587
    563    564    589    588
    564    565    590    589
    565    566    591    590
    566    567    592    591
    567    568    593    592
    568    569    594    593
    569    570    595    594
    570    571    596    595
    571    572    597    596
    572    573    598    597
    573    574    599    598
    574    550    575    599
    575    576    601    600
    576    577    602    601
    577    578    603    602
    578    579    604    603
    579    580    605    604
    580    581    606    605
    581    582    607    606
    582    583    608    607
    583    584    609    608
    584    585    610    609
    585    586    611    610
    586    587    612    611
    587    588    613    612
    588    589    614    613
    589    590    615    614
    590    591    616    615
    591    592    617    616
    592    593    618    617
    593    594    619    618
    594    595    620    619
    595    596    621    620
    596    597    622    621
    597    598    623    622
    598    599    624    623
    599    575    600    624
        </DataArray>
        <DataArray type="Int32" Name="offsets" format="ascii">
      4
      8
     12
     16
     20
     24
     28
     32
     36
     40
     44
     48
     52
     56
     60
     64
     68
     72
     76
     80
     84
     88
     92
     96
    100
    104
    108
    112
    116
    120
    124
    128
    132
    136
    140
    144
    148
    152
    156
    160
    164
    168
    172
    176
    180
    184
    188
    192
    196
    200
    204
    208
    212
    216
    220
    224
    228
    232
    236
    240
    244
    248
    252
    256
    260
    264
    268
    272
    276
    280
    284
    288
    292
    296
    300
    304
    308
    312
    316
    320
    324
    328
    332
    336
    340
    344
    348
    352
    356
    360
    364
    368
    372
    376
    380
    384
    388
    392
    396
    400
    404
    408
    412
    416
    420
    424
    428
    432
    436
    440
    444
    448
    452
    456
    460
    464
    468
    472
    476
    480
    484
    488
    492
    496
    500
    504
    508
    512
    516
    520
    524
    528
    532
    536
    540
    544
    548
    552
    556
    560
    564
    568
    572
    576
    580
    584
    588
    592
    596
    600
    604
    608
    612
    616
    620
    624
    628
    632
    636
    640
    644
    648
    652
    656
    660
    664
    668
    672
    676
    680
    684
    688
    692
    696
    700
    704
    708
    712
    716
    720
    724
    728
    732
    736
    740
    744
    748
    752
    756
    760
    764
    768
    772
    776
    780
    784
    788
    792
    796
    800
    804
    808
    812
    816
    820
    824
    828
    832
    836
    840
    844
    848
    852
    856
    860
    864
    868
    872
    876
    880
    884
    888
    892
    896
    900
    904
    908
    912
    916
    920
    924
    928
    932
    936
    940
    944
    948
    952
    956
    960
    964
    968
    972
    976
    980
    984
    988
    992
    996
   1000
   1004
   1008
   1012
   1016
   1020
   1024
   1028
   1032
   1036
   1040
   1044
   1048
   1052
   1056
   1060
   1064
   1068
   1072
   1076
   1080
   1084
   1088
   1092
   1096
   1100
   1104
   1108
   1112
   1116
   1120
   1124
   1128
   1132
   1136
   1140
   1144
   1148
   1152
   1156
   1160
   1164
   1168
   1172
   1176
   1180
   1184
   1188
   1192
   1196
   1200
   1204
   1208
   1212
   1216
   1220
   1224
   1228
   1232
   1236
   1240
   1244
   1248
   1252
   1256
   1260
   1264
   1268
   1272
   1276
   1280
   1284
   1288
   1292
   1296
   1300
   1304
   1308
   1312
   1316
   1320
   1324
   1328
   1332
   1336
   1340
   1344
   1348
   1352
   1356
   1360
   1364
   1368
   1372
   1376
   1380
   1384
   1388
   1392
   1396
   1400
   1404
   1408
   1412
   1416
   1420
   1424
   1428
   1432
   1436
   1440
   1444
   1448
   1452
   1456
   1460
   1464
   1468
   1472
   1476
   1480
   1484
   1488
   1492
   1496
   1500
   1504
   1508
   1512
   1516
   1520
   1524
   1528
   1532
   1536
   1540
   1544
   1548
   1552
   1556
   1560
   1564
   1568
   1572
   1576
   1580
   1584
   1588
   1592
   1596
   1600
   1604
   1608
   1612
   1616
   1620
   1624
   1628
   1632
   1636
   1640
   1644
   1648
   1652
   1656
   1660
   1664
   1668
   1672
   1676
   1680
   1684
   1688
   1692
   1696
   1700
   1704
   1708
   1712
   1716
   1720
   1724
   1728
   1732
   1736
   1740
   1744
   1748
   1752
   1756
   1760
   1764
   1768
   1772
   1776
   1780
   1784
   1788
   1792
   1796
   1800
   1804
   1808
   1812
   1816
   1820
   1824
   1828
   1832
   1836
   1840
   1844
   1848
   1852
   1856
   1860
   1864
   1868
   1872
   1876
   1880
   1884
   1888
   1892
   1896
   1900
   1904
   1908
   1912
   1916
   1920
   1924
   1928
   1932
   1936
   1940
   1944
   1948
   1952
   1956
   1960
   1964
   1968
   1972
   1976
   1980
   1984
   1988
   1992
   1996
   2000
   2004
   2008
   2012
   2016
   2020
   2024
   2028
   2032
   2036
   2040
   2044
   2048
   2052
   2056
   2060
   2064
   2068
   2072
   2076
   2080
   2084
   2088
   2092
   2096
   2100
   2104
   2108
   2112
   2116
   2120
   2124
   2128
   2132
   2136
   2140
   2144
   2148
   2152
   2156
   2160
   2164
   2168
   2172
   2176
   2180
   2184
   2188
   2192
   2196
   2200
   2204
   2208
   2212
   2216
   2220
   2224
   2228
   2232
   2236
   2240
   2244
   2248
   2252
   2256
   2260
   2264
   2268
   2272
   2276
   2280
   2284
   2288
   2292
   2296
   2300
   2304
   2308
   2312
   2316
   2320
   2324
   2328
   2332
   2336
   2340
   2344
   2348
   2352
   2356
   2360
   2364
   2368
   2372
   2376
   2380
   2384
   2388
   2392
   2396
   2400
        </DataArray>
      </Polys>
    </Piece>
  </PolyData>
</VTKFile>
