<?xml version="1.0"?>
<VTKFile type="PolyData" version="0.1" byte_order="LittleEndian">
  <PolyData>
    <Piece NumberOfPoints="    625" NumberOfVerts="  0" NumberOfLines="      0"
           NumberOfStrips="  0" NumberOfPolys="    600">
      <Points>
        <DataArray type="Float32" NumberOfComponents="3" format="ascii">
                      -5.06582                      -1.29602                      89.24767
                      -5.06582                      -1.29602                      89.24767
                      -5.06582                      -1.29602                      89.24767
                      -5.06582                      -1.29602                      89.24767
                      -5.06582                      -1.29602                      89.24767
                      -5.06582                      -1.29602                      89.24767
                      -5.06582                      -1.29602                      89.24767
                      -5.06582                      -1.29602                      89.24767
                      -5.06582                      -1.29602                      89.24767
                      -5.06582                      -1.29602                      89.24767
                      -5.06582                      -1.29602                      89.24767
                      -5.06582                      -1.29602                      89.24767
                      -5.06582                      -1.29602                      89.24767
                      -5.06582                      -1.29602                      89.24767
                      -5.06582                      -1.29602                      89.24767
                      -5.06582                      -1.29602                      89.24767
                      -5.06582                      -1.29602                      89.24767
                      -5.06582                      -1.29602                      89.24767
                      -5.06582                      -1.29602                      89.24767
                      -5.06582                      -1.29602                      89.24767
                      -5.06582                      -1.29602                      89.24767
                      -5.06582                      -1.29602                      89.24767
                      -5.06582                      -1.29602                      89.24767
                      -5.06582                      -1.29602                      89.24767
                      -5.06582                      -1.29602                      89.24767
                      -4.46314                      -1.18802                      89.25812
                      -4.49313                      -1.11296                      89.13144
                      -4.55876                      -1.04262                      89.01600
                      -4.65590                      -0.98141                      88.91906
                      -4.77846                      -0.93318                      88.84671
                      -4.91873                      -0.90097                      88.80349
                      -5.06789                      -0.88680                      88.79212
                      -5.21658                      -0.89155                      88.81331
                      -5.35546                      -0.91492                      88.86574
                      -5.47579                      -0.95546                      88.94610
                      -5.57001                      -1.01061                      89.04935
                      -5.63221                      -1.07691                      89.16900
                      -5.65848                      -1.15019                      89.29753
                      -5.64717                      -1.22585                      89.42687
                      -5.59898                      -1.29913                      89.54889
                      -5.51694                      -1.36542                      89.65593
                      -5.40622                      -1.42057                      89.74125
                      -5.27376                      -1.46111                      89.79949
                      -5.12790                      -1.48449                      89.82701
                      -4.97778                      -1.48924                      89.82206
                      -4.83286                      -1.47507                      89.78496
                      -4.70223                      -1.44285                      89.71803
                      -4.59410                      -1.39463                      89.62550
                      -4.51526                      -1.33342                      89.51316
                      -4.47067                      -1.26308                      89.38808
                      -4.22885                      -1.08002                      89.30080
                      -4.27033                      -0.97620                      89.12558
                      -4.36110                      -0.87891                      88.96592
                      -4.49546                      -0.79425                      88.83184
                      -4.66498                      -0.72755                      88.73176
                      -4.85899                      -0.68299                      88.67198
                      -5.06530                      -0.66339                      88.65626
                      -5.27096                      -0.66996                      88.68557
                      -5.46304                      -0.70229                      88.75808
                      -5.62947                      -0.75836                      88.86923
                      -5.75980                      -0.83464                      89.01204
                      -5.84583                      -0.92634                      89.17753
                      -5.88216                      -1.02770                      89.35531
                      -5.86651                      -1.13234                      89.53421
                      -5.79986                      -1.23369                      89.70298
                      -5.68640                      -1.32539                      89.85102
                      -5.53325                      -1.40167                      89.96902
                      -5.35005                      -1.45774                      90.04959
                      -5.14830                      -1.49008                      90.08764
                      -4.94067                      -1.49665                      90.08079
                      -4.74022                      -1.47704                      90.02948
                      -4.55954                      -1.43249                      89.93692
                      -4.40998                      -1.36578                      89.80893
                      -4.30094                      -1.28113                      89.65355
                      -4.23927                      -1.18383                      89.48055
                      -4.06098                      -0.97202                      89.34928
                      -4.11062                      -0.84779                      89.13963
                      -4.21923                      -0.73137                      88.94857
                      -4.38001                      -0.63007                      88.78814
                      -4.58285                      -0.55026                      88.66839
                      -4.81500                      -0.49694                      88.59686
                      -5.06187                      -0.47348                      88.57804
                      -5.30796                      -0.48134                      88.61311
                      -5.53780                      -0.52004                      88.69988
                      -5.73695                      -0.58713                      88.83288
                      -5.89290                      -0.67840                      89.00376
                      -5.99584                      -0.78813                      89.20179
                      -6.03932                      -0.90941                      89.41452
                      -6.02059                      -1.03462                      89.62858
                      -5.94084                      -1.15590                      89.83053
                      -5.80507                      -1.26563                      90.00767
                      -5.62182                      -1.35690                      90.14888
                      -5.40260                      -1.42399                      90.24527
                      -5.16118                      -1.46269                      90.29081
                      -4.91274                      -1.47055                      90.28262
                      -4.67288                      -1.44709                      90.22121
                      -4.45668                      -1.39377                      90.11046
                      -4.27772                      -1.31396                      89.95731
                      -4.14725                      -1.21266                      89.77139
                      -4.07346                      -1.09624                      89.56438
                      -3.93010                      -0.86401                      89.40101
                      -3.98603                      -0.72403                      89.16475
                      -4.10843                      -0.59284                      88.94946
                      -4.28960                      -0.47869                      88.76866
                      -4.51817                      -0.38875                      88.63372
                      -4.77978                      -0.32867                      88.55312
                      -5.05797                      -0.30223                      88.53191
                      -5.33528                      -0.31109                      88.57143
                      -5.59428                      -0.35469                      88.66921
                      -5.81870                      -0.43030                      88.81908
                      -5.99443                      -0.53315                      89.01165
                      -6.11044                      -0.65680                      89.23480
                      -6.15943                      -0.79346                      89.47451
                      -6.13833                      -0.93456                      89.71574
                      -6.04845                      -1.07123                      89.94330
                      -5.89546                      -1.19487                      90.14292
                      -5.68896                      -1.29773                      90.30204
                      -5.44193                      -1.37334                      90.41067
                      -5.16988                      -1.41694                      90.46198
                      -4.88992                      -1.42580                      90.45275
                      -4.61963                      -1.39936                      90.38356
                      -4.37600                      -1.33928                      90.25875
                      -4.17434                      -1.24934                      90.08617
                      -4.02731                      -1.13519                      89.87666
                      -3.94416                      -1.00400                      89.64339
                      -3.82468                      -0.75601                      89.45496
                      -3.88563                      -0.60347                      89.19750
                      -4.01901                      -0.46050                      88.96290
                      -4.21644                      -0.33611                      88.76588
                      -4.46552                      -0.23810                      88.61883
                      -4.75059                      -0.17263                      88.53099
                      -5.05375                      -0.14382                      88.50788
                      -5.35594                      -0.15348                      88.55095
                      -5.63818                      -0.20099                      88.65750
                      -5.88274                      -0.28338                      88.82082
                      -6.07424                      -0.39546                      89.03066
                      -6.20065                      -0.53020                      89.27383
                      -6.25404                      -0.67913                      89.53506
                      -6.23104                      -0.83289                      89.79793
                      -6.13310                      -0.98182                      90.04591
                      -5.96638                      -1.11656                      90.26344
                      -5.74135                      -1.22865                      90.43684
                      -5.47216                      -1.31103                      90.55522
                      -5.17570                      -1.35855                      90.61113
                      -4.87062                      -1.36820                      90.60107
                      -4.57608                      -1.33939                      90.52567
                      -4.31059                      -1.27392                      90.38966
                      -4.09083                      -1.17591                      90.20160
                      -3.93061                      -1.05152                      89.97329
                      -3.84000                      -0.90856                      89.71909
                      -3.73882                      -0.64801                      89.51062
                      -3.80380                      -0.48536                      89.23611
                      -3.94601                      -0.33293                      88.98597
                      -4.15652                      -0.20030                      88.77590
                      -4.42209                      -0.09580                      88.61912
                      -4.72605                      -0.02600                      88.52546
                      -5.04928                       0.00472                      88.50082
                      -5.37149                      -0.00557                      88.54674
                      -5.67242                      -0.05623                      88.66034
                      -5.93317                      -0.14408                      88.83448
                      -6.13735                      -0.26358                      89.05822
                      -6.27214                      -0.40725                      89.31750
                      -6.32906                      -0.56604                      89.59603
                      -6.30454                      -0.72998                      89.87630
                      -6.20012                      -0.88877                      90.14071
                      -6.02236                      -1.03244                      90.37265
                      -5.78242                      -1.15194                      90.55753
                      -5.49540                      -1.23979                      90.68375
                      -5.17931                      -1.29045                      90.74336
                      -4.85402                      -1.30074                      90.73264
                      -4.53998                      -1.27002                      90.65224
                      -4.25691                      -1.20022                      90.50723
                      -4.02259                      -1.09572                      90.30671
                      -3.85176                      -0.96309                      90.06328
                      -3.75515                      -0.81066                      89.79224
                      -3.66903                      -0.54001                      89.56769
                      -3.73724                      -0.36928                      89.27954
                      -3.88652                      -0.20927                      89.01697
                      -4.10749                      -0.07005                      88.79646
                      -4.38626                       0.03964                      88.63189
                      -4.70531                       0.11291                      88.53358
                      -5.04461                       0.14516                      88.50771
                      -5.38283                       0.13436                      88.55592
                      -5.69872                       0.08118                      88.67516
                      -5.97242                      -0.01103                      88.85795
                      -6.18675                      -0.13648                      89.09281
                      -6.32823                      -0.28728                      89.36497
                      -6.38798                      -0.45396                      89.65734
                      -6.36224                      -0.62605                      89.95154
                      -6.25263                      -0.79273                      90.22909
                      -6.06604                      -0.94354                      90.47255
                      -5.81418                      -1.06898                      90.66662
                      -5.51289                      -1.16119                      90.79911
                      -5.18110                      -1.21437                      90.86169
                      -4.83965                      -1.22518                      90.85043
                      -4.51000                      -1.19293                      90.76604
                      -4.21286                      -1.11966                      90.61382
                      -3.96690                      -1.00997                      90.40334
                      -3.78758                      -0.87074                      90.14781
                      -3.68617                      -0.71074                      89.86330
                      -3.61311                      -0.43201                      89.62597
                      -3.68385                      -0.25494                      89.32712
                      -3.83868                      -0.08899                      89.05480
                      -4.06785                       0.05540                      88.82611
                      -4.35697                       0.16916                      88.65542
                      -4.68787                       0.24516                      88.55347
                      -5.03977                       0.27860                      88.52664
                      -5.39054                       0.26739                      88.57663
                      -5.71815                       0.21224                      88.70031
                      -6.00202                       0.11661                      88.88989
                      -6.22431                      -0.01350                      89.13346
                      -6.37104                      -0.16990                      89.41573
                      -6.43301                      -0.34277                      89.71895
                      -6.40632                      -0.52125                      90.02407
                      -6.29264                      -0.69412                      90.31193
                      -6.09911                      -0.85052                      90.56443
                      -5.83791                      -0.98062                      90.76570
                      -5.52543                      -1.07625                      90.90311
                      -5.18132                      -1.13141                      90.96801
                      -4.82719                      -1.14261                      90.95634
                      -4.48530                      -1.10917                      90.86881
                      -4.17713                      -1.03318                      90.71094
                      -3.92205                      -0.91941                      90.49264
                      -3.73607                      -0.77502                      90.22763
                      -3.63089                      -0.60908                      89.93256
                      -3.56961                      -0.32401                      89.68534
                      -3.64227                      -0.14216                      89.37843
                      -3.80127                       0.02826                      89.09876
                      -4.03662                       0.17655                      88.86390
                      -4.33354                       0.29339                      88.68861
                      -4.67337                       0.37143                      88.58390
                      -5.03476                       0.40577                      88.55635
                      -5.39500                       0.39426                      88.60769
                      -5.73145                       0.33762                      88.73470
                      -6.02298                       0.23941                      88.92940
                      -6.25126                       0.10580                      89.17954
                      -6.40196                      -0.05482                      89.46943
                      -6.46560                      -0.23236                      89.78083
                      -6.43818                      -0.41565                      90.09418
                      -6.32143                      -0.59319                      90.38980
                      -6.12269                      -0.75381                      90.64911
                      -5.85444                      -0.88742                      90.85582
                      -5.53353                      -0.98563                      90.99693
                      -5.18014                      -1.04228                      91.06359
                      -4.81645                      -1.05378                      91.05160
                      -4.46534                      -1.01944                      90.96171
                      -4.14886                      -0.94140                      90.79958
                      -3.88689                      -0.82456                      90.57539
                      -3.69589                      -0.67627                      90.30323
                      -3.58787                      -0.50585                      90.00020
                      -3.53758                      -0.21600                      89.74571
                      -3.61157                      -0.03082                      89.43317
                      -3.77348                       0.14273                      89.14837
                      -4.01316                       0.29374                      88.90920
                      -4.31553                       0.41272                      88.73069
                      -4.66159                       0.49219                      88.62406
                      -5.02961                       0.52717                      88.59600
                      -5.39646                       0.51545                      88.64829
                      -5.73909                       0.45777                      88.77763
                      -6.03596                       0.35775                      88.97590
                      -6.26843                       0.22168                      89.23063
                      -6.42190                       0.05812                      89.52583
                      -6.48670                      -0.12268                      89.84295
                      -6.45879                      -0.30933                      90.16206
                      -6.33990                      -0.49012                      90.46310
                      -6.13750                      -0.65369                      90.72717
                      -5.86433                      -0.78976                      90.93767
                      -5.53753                      -0.88977                      91.08137
                      -5.17765                      -0.94745                      91.14925
                      -4.80730                      -0.95917                      91.13704
                      -4.44974                      -0.92420                      91.04551
                      -4.12745                      -0.84472                      90.88040
                      -3.86067                      -0.72574                      90.65210
                      -3.66617                      -0.57474                      90.37494
                      -3.55617                      -0.40119                      90.06635
                      -3.51639                      -0.10800                      89.80703
                      -3.59117                       0.07916                      89.49116
                      -3.75481                       0.25455                      89.20332
                      -3.99704                       0.40717                      88.96160
                      -4.30263                       0.52742                      88.78119
                      -4.65238                       0.60774                      88.67342
                      -5.02433                       0.64309                      88.64507
                      -5.39508                       0.63124                      88.69791
                      -5.74136                       0.57295                      88.82863
                      -6.04140                       0.47187                      89.02901
                      -6.27635                       0.33435                      89.28646
                      -6.43145                       0.16904                      89.58481
                      -6.49695                      -0.01368                      89.90531
                      -6.46873                      -0.20232                      90.22781
                      -6.34857                      -0.38504                      90.53207
                      -6.14403                      -0.55035                      90.79895
                      -5.86794                      -0.68787                      91.01169
                      -5.53766                      -0.78895                      91.15693
                      -5.17395                      -0.84725                      91.22553
                      -4.79964                      -0.85909                      91.21319
                      -4.43828                      -0.82374                      91.12068
                      -4.11255                      -0.74342                      90.95381
                      -3.84293                      -0.62318                      90.72308
                      -3.64635                      -0.47056                      90.44297
                      -3.53518                      -0.29516                      90.13109
                      -3.50571                       0.00000                      89.86927
                      -3.58075                       0.18781                      89.55230
                      -3.74496                       0.36382                      89.26345
                      -3.98803                       0.51697                      89.02089
                      -4.29469                       0.63764                      88.83985
                      -4.64567                       0.71824                      88.73171
                      -5.01891                       0.75371                      88.70325
                      -5.39096                       0.74183                      88.75628
                      -5.73844                       0.68333                      88.88746
                      -6.03953                       0.58189                      89.08854
                      -6.27530                       0.44390                      89.34689
                      -6.43094                       0.27801                      89.64627
                      -6.49667                       0.09465                      89.96789
                      -6.46835                      -0.09465                      90.29152
                      -6.34778                      -0.27801                      90.59684
                      -6.14251                      -0.44390                      90.86465
                      -5.86546                      -0.58189                      91.07814
                      -5.53403                      -0.68333                      91.22388
                      -5.16905                      -0.74183                      91.29272
                      -4.79344                      -0.75371                      91.28034
                      -4.43081                      -0.71824                      91.18750
                      -4.10395                      -0.63764                      91.02006
                      -3.83339                      -0.51697                      90.78851
                      -3.63613                      -0.36382                      90.50743
                      -3.52456                      -0.18781                      90.19446
                      -3.50542                       0.10800                      89.93242
                      -3.58020                       0.29516                      89.61655
                      -3.74384                       0.47056                      89.32871
                      -3.98607                       0.62318                      89.08699
                      -4.29166                       0.74342                      88.90658
                      -4.64141                       0.82374                      88.79881
                      -5.01336                       0.85909                      88.77046
                      -5.38411                       0.84725                      88.82330
                      -5.73039                       0.78895                      88.95402
                      -6.03043                       0.68787                      89.15440
                      -6.26538                       0.55035                      89.41185
                      -6.42048                       0.38504                      89.71020
                      -6.48598                       0.20232                      90.03070
                      -6.45776                       0.01368                      90.35320
                      -6.33760                      -0.16904                      90.65746
                      -6.13306                      -0.33435                      90.92434
                      -5.85697                      -0.47187                      91.13708
                      -5.52669                      -0.57295                      91.28232
                      -5.16298                      -0.63124                      91.35092
                      -4.78867                      -0.64309                      91.33858
                      -4.42731                      -0.60774                      91.24607
                      -4.10158                      -0.52742                      91.07920
                      -3.83196                      -0.40717                      90.84847
                      -3.63538                      -0.25455                      90.56836
                      -3.52421                      -0.07916                      90.25648
                      -3.51564                       0.21600                      89.99649
                      -3.58963                       0.40119                      89.68395
                      -3.75154                       0.57474                      89.39914
                      -3.99122                       0.72574                      89.15997
                      -4.29359                       0.84472                      88.98147
                      -4.63965                       0.92420                      88.87483
                      -5.00767                       0.95917                      88.84678
                      -5.37452                       0.94745                      88.89906
                      -5.71715                       0.88977                      89.02840
                      -6.01402                       0.78976                      89.22667
                      -6.24649                       0.65369                      89.48141
                      -6.39996                       0.49012                      89.77661
                      -6.46476                       0.30933                      90.09373
                      -6.43685                       0.12268                      90.41283
                      -6.31796                      -0.05812                      90.71388
                      -6.11556                      -0.22169                      90.97795
                      -5.84239                      -0.35775                      91.18845
                      -5.51559                      -0.45777                      91.33215
                      -5.15571                      -0.51545                      91.40003
                      -4.78536                      -0.52717                      91.38782
                      -4.42780                      -0.49219                      91.29628
                      -4.10551                      -0.41272                      91.13118
                      -3.83873                      -0.29374                      90.90287
                      -3.64423                      -0.14273                      90.62572
                      -3.53423                       0.03082                      90.31713
                      -3.53670                       0.32401                      90.06150
                      -3.60936                       0.50585                      89.75460
                      -3.76836                       0.67627                      89.47492
                      -4.00371                       0.82456                      89.24006
                      -4.30063                       0.94140                      89.06477
                      -4.64046                       1.01944                      88.96006
                      -5.00185                       1.05378                      88.93251
                      -5.36209                       1.04228                      88.98386
                      -5.69854                       0.98563                      89.11087
                      -5.99007                       0.88742                      89.30556
                      -6.21835                       0.75381                      89.55571
                      -6.36905                       0.59319                      89.84559
                      -6.43269                       0.41565                      90.15699
                      -6.40527                       0.23236                      90.47035
                      -6.28852                       0.05482                      90.76597
                      -6.08978                      -0.10580                      91.02528
                      -5.82153                      -0.23941                      91.23198
                      -5.50062                      -0.33762                      91.37310
                      -5.14723                      -0.39426                      91.43975
                      -4.78354                      -0.40577                      91.42776
                      -4.43243                      -0.37143                      91.33788
                      -4.11595                      -0.29339                      91.17575
                      -3.85398                      -0.17655                      90.95156
                      -3.66298                      -0.02826                      90.67940
                      -3.55496                       0.14216                      90.37637
                      -3.56923                       0.43201                      90.12752
                      -3.63997                       0.60908                      89.82868
                      -3.79480                       0.77502                      89.55635
                      -4.02397                       0.91941                      89.32766
                      -4.31309                       1.03318                      89.15698
                      -4.64399                       1.10917                      89.05502
                      -4.99588                       1.14261                      89.02819
                      -5.34666                       1.13141                      89.07819
                      -5.67427                       1.07625                      89.20186
                      -5.95814                       0.98062                      89.39144
                      -6.18043                       0.85052                      89.63502
                      -6.32716                       0.69412                      89.91728
                      -6.38913                       0.52125                      90.22050
                      -6.36244                       0.34277                      90.52563
                      -6.24876                       0.16990                      90.81348
                      -6.05523                       0.01350                      91.06598
                      -5.79403                      -0.11661                      91.26725
                      -5.48155                      -0.21224                      91.40466
                      -5.13744                      -0.26739                      91.46956
                      -4.78331                      -0.27860                      91.45789
                      -4.44142                      -0.24516                      91.37036
                      -4.13325                      -0.16916                      91.21249
                      -3.87817                      -0.05540                      90.99419
                      -3.69219                       0.08899                      90.72918
                      -3.58701                       0.25494                      90.43411
                      -3.61418                       0.54001                      90.19463
                      -3.68239                       0.71074                      89.90648
                      -3.83167                       0.87074                      89.64391
                      -4.05264                       1.00997                      89.42340
                      -4.33141                       1.11966                      89.25883
                      -4.65046                       1.19293                      89.16052
                      -4.98976                       1.22518                      89.13465
                      -5.32798                       1.21437                      89.18286
                      -5.64387                       1.16119                      89.30210
                      -5.91757                       1.06898                      89.48490
                      -6.13190                       0.94354                      89.71975
                      -6.27338                       0.79273                      89.99191
                      -6.33313                       0.62605                      90.28428
                      -6.30739                       0.45396                      90.57848
                      -6.19778                       0.28728                      90.85603
                      -6.01119                       0.13648                      91.09949
                      -5.75933                       0.01103                      91.29356
                      -5.45804                      -0.08118                      91.42605
                      -5.12625                      -0.13436                      91.48863
                      -4.78480                      -0.14516                      91.47737
                      -4.45515                      -0.11291                      91.39298
                      -4.15801                      -0.03964                      91.24076
                      -3.91205                       0.07005                      91.03028
                      -3.73273                       0.20927                      90.77475
                      -3.63132                       0.36928                      90.49024
                      -3.67300                       0.64801                      90.26295
                      -3.73798                       0.81066                      89.98844
                      -3.88019                       0.96309                      89.73830
                      -4.09070                       1.09572                      89.52823
                      -4.35627                       1.20022                      89.37145
                      -4.66023                       1.27002                      89.27779
                      -4.98346                       1.30074                      89.25315
                      -5.30567                       1.29045                      89.29907
                      -5.60660                       1.23979                      89.41267
                      -5.86735                       1.15194                      89.58681
                      -6.07153                       1.03244                      89.81055
                      -6.20632                       0.88877                      90.06983
                      -6.26324                       0.72998                      90.34836
                      -6.23872                       0.56604                      90.62863
                      -6.13430                       0.40725                      90.89304
                      -5.95654                       0.26358                      91.12498
                      -5.71660                       0.14408                      91.30986
                      -5.42958                       0.05623                      91.43608
                      -5.11349                       0.00557                      91.49569
                      -4.78820                      -0.00472                      91.48497
                      -4.47416                       0.02600                      91.40457
                      -4.19109                       0.09580                      91.25956
                      -3.95677                       0.20030                      91.05904
                      -3.78594                       0.33293                      90.81561
                      -3.68932                       0.48536                      90.54457
                      -3.74789                       0.75601                      90.33268
                      -3.80884                       0.90856                      90.07522
                      -3.94222                       1.05152                      89.84061
                      -4.13965                       1.17591                      89.64360
                      -4.38873                       1.27392                      89.49655
                      -4.67380                       1.33939                      89.40871
                      -4.97696                       1.36820                      89.38560
                      -5.27915                       1.35855                      89.42867
                      -5.56139                       1.31103                      89.53521
                      -5.80595                       1.22865                      89.69854
                      -5.99745                       1.11656                      89.90838
                      -6.12386                       0.98182                      90.15155
                      -6.17725                       0.83289                      90.41278
                      -6.15425                       0.67913                      90.67564
                      -6.05631                       0.53020                      90.92363
                      -5.88959                       0.39546                      91.14116
                      -5.66456                       0.28338                      91.31456
                      -5.39537                       0.20099                      91.43293
                      -5.09891                       0.15348                      91.48885
                      -4.79383                       0.14382                      91.47879
                      -4.49929                       0.17263                      91.40339
                      -4.23380                       0.23810                      91.26738
                      -4.01404                       0.33611                      91.07932
                      -3.85382                       0.46050                      90.85101
                      -3.76321                       0.60347                      90.59680
                      -3.84234                       0.86401                      90.40411
                      -3.89827                       1.00400                      90.16785
                      -4.02067                       1.13519                      89.95256
                      -4.20184                       1.24934                      89.77177
                      -4.43041                       1.33928                      89.63683
                      -4.69202                       1.39936                      89.55622
                      -4.97021                       1.42580                      89.53502
                      -5.24752                       1.41694                      89.57454
                      -5.50652                       1.37334                      89.67231
                      -5.73094                       1.29773                      89.82219
                      -5.90667                       1.19487                      90.01475
                      -6.02268                       1.07123                      90.23790
                      -6.07167                       0.93456                      90.47762
                      -6.05057                       0.79346                      90.71884
                      -5.96069                       0.65680                      90.94641
                      -5.80770                       0.53315                      91.14603
                      -5.60120                       0.43030                      91.30515
                      -5.35417                       0.35469                      91.41378
                      -5.08212                       0.31109                      91.46509
                      -4.80216                       0.30223                      91.45586
                      -4.53187                       0.32867                      91.38667
                      -4.28824                       0.38875                      91.26186
                      -4.08658                       0.47869                      91.08928
                      -3.93955                       0.59284                      90.87977
                      -3.85639                       0.72403                      90.64649
                      -3.96225                       0.97202                      90.47778
                      -4.01189                       1.09624                      90.26812
                      -4.12050                       1.21266                      90.07707
                      -4.28128                       1.31396                      89.91663
                      -4.48412                       1.39377                      89.79688
                      -4.71627                       1.44709                      89.72535
                      -4.96314                       1.47055                      89.70653
                      -5.20923                       1.46269                      89.74160
                      -5.43907                       1.42399                      89.82837
                      -5.63822                       1.35690                      89.96137
                      -5.79417                       1.26563                      90.13225
                      -5.89711                       1.15590                      90.33028
                      -5.94059                       1.03462                      90.54301
                      -5.92186                       0.90941                      90.75707
                      -5.84211                       0.78813                      90.95902
                      -5.70634                       0.67840                      91.13616
                      -5.52309                       0.58713                      91.27737
                      -5.30387                       0.52004                      91.37377
                      -5.06245                       0.48134                      91.41930
                      -4.81401                       0.47348                      91.41111
                      -4.57415                       0.49694                      91.34971
                      -4.35795                       0.55026                      91.23895
                      -4.17899                       0.63007                      91.08580
                      -4.04852                       0.73137                      90.89988
                      -3.97473                       0.84779                      90.69287
                      -4.11915                       1.08002                      90.55468
                      -4.16063                       1.18383                      90.37946
                      -4.25140                       1.28113                      90.21980
                      -4.38576                       1.36578                      90.08572
                      -4.55528                       1.43249                      89.98565
                      -4.74928                       1.47704                      89.92587
                      -4.95560                       1.49665                      89.91014
                      -5.16126                       1.49008                      89.93945
                      -5.35334                       1.45774                      90.01196
                      -5.51977                       1.40167                      90.12311
                      -5.65010                       1.32539                      90.26592
                      -5.73613                       1.23369                      90.43141
                      -5.77246                       1.13234                      90.60919
                      -5.75681                       1.02770                      90.78809
                      -5.69016                       0.92634                      90.95686
                      -5.57670                       0.83464                      91.10490
                      -5.42355                       0.75836                      91.22291
                      -5.24035                       0.70229                      91.30347
                      -5.03860                       0.66996                      91.34152
                      -4.83097                       0.66339                      91.33467
                      -4.63052                       0.68299                      91.28336
                      -4.44984                       0.72755                      91.19080
                      -4.30028                       0.79425                      91.06281
                      -4.19124                       0.87891                      90.90743
                      -4.12957                       0.97620                      90.73443
                      -4.34247                       1.18802                      90.63739
                      -4.37246                       1.26308                      90.51071
                      -4.43808                       1.33342                      90.39527
                      -4.53523                       1.39463                      90.29833
                      -4.65779                       1.44285                      90.22598
                      -4.79805                       1.47507                      90.18276
                      -4.94722                       1.48924                      90.17139
                      -5.09591                       1.48449                      90.19258
                      -5.23479                       1.46111                      90.24501
                      -5.35512                       1.42057                      90.32537
                      -5.44934                       1.36542                      90.42862
                      -5.51154                       1.29913                      90.54827
                      -5.53781                       1.22585                      90.67680
                      -5.52650                       1.15019                      90.80614
                      -5.47831                       1.07691                      90.92816
                      -5.39627                       1.01061                      91.03520
                      -5.28555                       0.95546                      91.12052
                      -5.15309                       0.91492                      91.17876
                      -5.00723                       0.89155                      91.20628
                      -4.85711                       0.88680                      91.20133
                      -4.71219                       0.90097                      91.16423
                      -4.58156                       0.93318                      91.09730
                      -4.47342                       0.98141                      91.00477
                      -4.39459                       1.04262                      90.89243
                      -4.35000                       1.11296                      90.76735
                      -4.93418                       1.29602                      90.75233
                      -4.93418                       1.29602                      90.75233
                      -4.93418                       1.29602                      90.75233
                      -4.93418                       1.29602                      90.75233
                      -4.93418                       1.29602                      90.75233
                      -4.93418                       1.29602                      90.75233
                      -4.93418                       1.29602                      90.75233
                      -4.93418                       1.29602                      90.75233
                      -4.93418                       1.29602                      90.75233
                      -4.93418                       1.29602                      90.75233
                      -4.93418                       1.29602                      90.75233
                      -4.93418                       1.29602                      90.75233
                      -4.93418                       1.29602                      90.75233
                      -4.93418                       1.29602                      90.75233
                      -4.93418                       1.29602                      90.75233
                      -4.93418                       1.29602                      90.75233
                      -4.93418                       1.29602                      90.75233
                      -4.93418                       1.29602                      90.75233
                      -4.93418                       1.29602                      90.75233
                      -4.93418                       1.29602                      90.75233
                      -4.93418                       1.29602                      90.75233
                      -4.93418                       1.29602                      90.75233
                      -4.93418                       1.29602                      90.75233
                      -4.93418                       1.29602                      90.75233
                      -4.93418                       1.29602                      90.75233
        </DataArray>
      </Points>
      <Polys>
        <DataArray type="Int32" Name="connectivity" format="ascii">
      0      1     26     25
      1      2     27     26
      2      3     28     27
      3      4     29     28
      4      5     30     29
      5      6     31     30
      6      7     32     31
      7      8     33     32
      8      9     34     33
      9     10     35     34
     10     11     36     35
     11     12     37     36
     12     13     38     37
     13     14     39     38
     14     15     40     39
     15     16     41     40
     16     17     42     41
     17     18     43     42
     18     19     44     43
     19     20     45     44
     20     21     46     45
     21     22     47     46
     22     23     48     47
     23     24     49     48
     24      0     25     49
     25     26     51     50
     26     27     52     51
     27     28     53     52
     28     29     54     53
     29     30     55     54
     30     31     56     55
     31     32     57     56
     32     33     58     57
     33     34     59     58
     34     35     60     59
     35     36     61     60
     36     37     62     61
     37     38     63     62
     38     39     64     63
     39     40     65     64
     40     41     66     65
     41     42     67     66
     42     43     68     67
     43     44     69     68
     44     45     70     69
     45     46     71     70
     46     47     72     71
     47     48     73     72
     48     49     74     73
     49     25     50     74
     50     51     76     75
     51     52     77     76
     52     53     78     77
     53     54     79     78
     54     55     80     79
     55     56     81     80
     56     57     82     81
     57     58     83     82
     58     59     84     83
     59     60     85     84
     60     61     86     85
     61     62     87     86
     62     63     88     87
     63     64     89     88
     64     65     90     89
     65     66     91     90
     66     67     92     91
     67     68     93     92
     68     69     94     93
     69     70     95     94
     70     71     96     95
     71     72     97     96
     72     73     98     97
     73     74     99     98
     74     50     75     99
     75     76    101    100
     76     77    102    101
     77     78    103    102
     78     79    104    103
     79     80    105    104
     80     81    106    105
     81     82    107    106
     82     83    108    107
     83     84    109    108
     84     85    110    109
     85     86    111    110
     86     87    112    111
     87     88    113    112
     88     89    114    113
     89     90    115    114
     90     91    116    115
     91     92    117    116
     92     93    118    117
     93     94    119    118
     94     95    120    119
     95     96    121    120
     96     97    122    121
     97     98    123    122
     98     99    124    123
     99     75    100    124
    100    101    126    125
    101    102    127    126
    102    103    128    127
    103    104    129    128
    104    105    130    129
    105    106    131    130
    106    107    132    131
    107    108    133    132
    108    109    134    133
    109    110    135    134
    110    111    136    135
    111    112    137    136
    112    113    138    137
    113    114    139    138
    114    115    140    139
    115    116    141    140
    116    117    142    141
    117    118    143    142
    118    119    144    143
    119    120    145    144
    120    121    146    145
    121    122    147    146
    122    123    148    147
    123    124    149    148
    124    100    125    149
    125    126    151    150
    126    127    152    151
    127    128    153    152
    128    129    154    153
    129    130    155    154
    130    131    156    155
    131    132    157    156
    132    133    158    157
    133    134    159    158
    134    135    160    159
    135    136    161    160
    136    137    162    161
    137    138    163    162
    138    139    164    163
    139    140    165    164
    140    141    166    165
    141    142    167    166
    142    143    168    167
    143    144    169    168
    144    145    170    169
    145    146    171    170
    146    147    172    171
    147    148    173    172
    148    149    174    173
    149    125    150    174
    150    151    176    175
    151    152    177    176
    152    153    178    177
    153    154    179    178
    154    155    180    179
    155    156    181    180
    156    157    182    181
    157    158    183    182
    158    159    184    183
    159    160    185    184
    160    161    186    185
    161    162    187    186
    162    163    188    187
    163    164    189    188
    164    165    190    189
    165    166    191    190
    166    167    192    191
    167    168    193    192
    168    169    194    193
    169    170    195    194
    170    171    196    195
    171    172    197    196
    172    173    198    197
    173    174    199    198
    174    150    175    199
    175    176    201    200
    176    177    202    201
    177    178    203    202
    178    179    204    203
    179    180    205    204
    180    181    206    205
    181    182    207    206
    182    183    208    207
    183    184    209    208
    184    185    210    209
    185    186    211    210
    186    187    212    211
    187    188    213    212
    188    189    214    213
    189    190    215    214
    190    191    216    215
    191    192    217    216
    192    193    218    217
    193    194    219    218
    194    195    220    219
    195    196    221    220
    196    197    222    221
    197    198    223    222
    198    199    224    223
    199    175    200    224
    200    201    226    225
    201    202    227    226
    202    203    228    227
    203    204    229    228
    204    205    230    229
    205    206    231    230
    206    207    232    231
    207    208    233    232
    208    209    234    233
    209    210    235    234
    210    211    236    235
    211    212    237    236
    212    213    238    237
    213    214    239    238
    214    215    240    239
    215    216    241    240
    216    217    242    241
    217    218    243    242
    218    219    244    243
    219    220    245    244
    220    221    246    245
    221    222    247    246
    222    223    248    247
    223    224    249    248
    224    200    225    249
    225    226    251    250
    226    227    252    251
    227    228    253    252
    228    229    254    253
    229    230    255    254
    230    231    256    255
    231    232    257    256
    232    233    258    257
    233    234    259    258
    234    235    260    259
    235    236    261    260
    236    237    262    261
    237    238    263    262
    238    239    264    263
    239    240    265    264
    240    241    266    265
    241    242    267    266
    242    243    268    267
    243    244    269    268
    244    245    270    269
    245    246    271    270
    246    247    272    271
    247    248    273    272
    248    249    274    273
    249    225    250    274
    250    251    276    275
    251    252    277    276
    252    253    278    277
    253    254    279    278
    254    255    280    279
    255    256    281    280
    256    257    282    281
    257    258    283    282
    258    259    284    283
    259    260    285    284
    260    261    286    285
    261    262    287    286
    262    263    288    287
    263    264    289    288
    264    265    290    289
    265    266    291    290
    266    267    292    291
    267    268    293    292
    268    269    294    293
    269    270    295    294
    270    271    296    295
    271    272    297    296
    272    273    298    297
    273    274    299    298
    274    250    275    299
    275    276    301    300
    276    277    302    301
    277    278    303    302
    278    279    304    303
    279    280    305    304
    280    281    306    305
    281    282    307    306
    282    283    308    307
    283    284    309    308
    284    285    310    309
    285    286    311    310
    286    287    312    311
    287    288    313    312
    288    289    314    313
    289    290    315    314
    290    291    316    315
    291    292    317    316
    292    293    318    317
    293    294    319    318
    294    295    320    319
    295    296    321    320
    296    297    322    321
    297    298    323    322
    298    299    324    323
    299    275    300    324
    300    301    326    325
    301    302    327    326
    302    303    328    327
    303    304    329    328
    304    305    330    329
    305    306    331    330
    306    307    332    331
    307    308    333    332
    308    309    334    333
    309    310    335    334
    310    311    336    335
    311    312    337    336
    312    313    338    337
    313    314    339    338
    314    315    340    339
    315    316    341    340
    316    317    342    341
    317    318    343    342
    318    319    344    343
    319    320    345    344
    320    321    346    345
    321    322    347    346
    322    323    348    347
    323    324    349    348
    324    300    325    349
    325    326    351    350
    326    327    352    351
    327    328    353    352
    328    329    354    353
    329    330    355    354
    330    331    356    355
    331    332    357    356
    332    333    358    357
    333    334    359    358
    334    335    360    359
    335    336    361    360
    336    337    362    361
    337    338    363    362
    338    339    364    363
    339    340    365    364
    340    341    366    365
    341    342    367    366
    342    343    368    367
    343    344    369    368
    344    345    370    369
    345    346    371    370
    346    347    372    371
    347    348    373    372
    348    349    374    373
    349    325    350    374
    350    351    376    375
    351    352    377    376
    352    353    378    377
    353    354    379    378
    354    355    380    379
    355    356    381    380
    356    357    382    381
    357    358    383    382
    358    359    384    383
    359    360    385    384
    360    361    386    385
    361    362    387    386
    362    363    388    387
    363    364    389    388
    364    365    390    389
    365    366    391    390
    366    367    392    391
    367    368    393    392
    368    369    394    393
    369    370    395    394
    370    371    396    395
    371    372    397    396
    372    373    398    397
    373    374    399    398
    374    350    375    399
    375    376    401    400
    376    377    402    401
    377    378    403    402
    378    379    404    403
    379    380    405    404
    380    381    406    405
    381    382    407    406
    382    383    408    407
    383    384    409    408
    384    385    410    409
    385    386    411    410
    386    387    412    411
    387    388    413    412
    388    389    414    413
    389    390    415    414
    390    391    416    415
    391    392    417    416
    392    393    418    417
    393    394    419    418
    394    395    420    419
    395    396    421    420
    396    397    422    421
    397    398    423    422
    398    399    424    423
    399    375    400    424
    400    401    426    425
    401    402    427    426
    402    403    428    427
    403    404    429    428
    404    405    430    429
    405    406    431    430
    406    407    432    431
    407    408    433    432
    408    409    434    433
    409    410    435    434
    410    411    436    435
    411    412    437    436
    412    413    438    437
    413    414    439    438
    414    415    440    439
    415    416    441    440
    416    417    442    441
    417    418    443    442
    418    419    444    443
    419    420    445    444
    420    421    446    445
    421    422    447    446
    422    423    448    447
    423    424    449    448
    424    400    425    449
    425    426    451    450
    426    427    452    451
    427    428    453    452
    428    429    454    453
    429    430    455    454
    430    431    456    455
    431    432    457    456
    432    433    458    457
    433    434    459    458
    434    435    460    459
    435    436    461    460
    436    437    462    461
    437    438    463    462
    438    439    464    463
    439    440    465    464
    440    441    466    465
    441    442    467    466
    442    443    468    467
    443    444    469    468
    444    445    470    469
    445    446    471    470
    446    447    472    471
    447    448    473    472
    448    449    474    473
    449    425    450    474
    450    451    476    475
    451    452    477    476
    452    453    478    477
    453    454    479    478
    454    455    480    479
    455    456    481    480
    456    457    482    481
    457    458    483    482
    458    459    484    483
    459    460    485    484
    460    461    486    485
    461    462    487    486
    462    463    488    487
    463    464    489    488
    464    465    490    489
    465    466    491    490
    466    467    492    491
    467    468    493    492
    468    469    494    493
    469    470    495    494
    470    471    496    495
    471    472    497    496
    472    473    498    497
    473    474    499    498
    474    450    475    499
    475    476    501    500
    476    477    502    501
    477    478    503    502
    478    479    504    503
    479    480    505    504
    480    481    506    505
    481    482    507    506
    482    483    508    507
    483    484    509    508
    484    485    510    509
    485    486    511    510
    486    487    512    511
    487    488    513    512
    488    489    514    513
    489    490    515    514
    490    491    516    515
    491    492    517    516
    492    493    518    517
    493    494    519    518
    494    495    520    519
    495    496    521    520
    496    497    522    521
    497    498    523    522
    498    499    524    523
    499    475    500    524
    500    501    526    525
    501    502    527    526
    502    503    528    527
    503    504    529    528
    504    505    530    529
    505    506    531    530
    506    507    532    531
    507    508    533    532
    508    509    534    533
    509    510    535    534
    510    511    536    535
    511    512    537    536
    512    513    538    537
    513    514    539    538
    514    515    540    539
    515    516    541    540
    516    517    542    541
    517    518    543    542
    518    519    544    543
    519    520    545    544
    520    521    546    545
    521    522    547    546
    522    523    548    547
    523    524    549    548
    524    500    525    549
    525    526    551    550
    526    527    552    551
    527    528    553    552
    528    529    554    553
    529    530    555    554
    530    531    556    555
    531    532    557    556
    532    533    558    557
    533    534    559    558
    534    535    560    559
    535    536    561    560
    536    537    562    561
    537    538    563    562
    538    539    564    563
    539    540    565    564
    540    541    566    565
    541    542    567    566
    542    543    568    567
    543    544    569    568
    544    545    570    569
    545    546    571    570
    546    547    572    571
    547    548    573    572
    548    549    574    573
    549    525    550    574
    550    551    576    575
    551    552    577    576
    552    553    578    577
    553    554    579    578
    554    555    580    579
    555    556    581    580
    556    557    582    581
    557    558    583    582
    558    559    584    583
    559    560    585    584
    560    561    586    585
    561    562    587    586
    562    563    588    587
    563    564    589    588
    564    565    590    589
    565    566    591    590
    566    567    592    591
    567    568    593    592
    568    569    594    593
    569    570    595    594
    570    571    596    595
    571    572    597    596
    572    573    598    597
    573    574    599    598
    574    550    575    599
    575    576    601    600
    576    577    602    601
    577    578    603    602
    578    579    604    603
    579    580    605    604
    580    581    606    605
    581    582    607    606
    582    583    608    607
    583    584    609    608
    584    585    610    609
    585    586    611    610
    586    587    612    611
    587    588    613    612
    588    589    614    613
    589    590    615    614
    590    591    616    615
    591    592    617    616
    592    593    618    617
    593    594    619    618
    594    595    620    619
    595    596    621    620
    596    597    622    621
    597    598    623    622
    598    599    624    623
    599    575    600    624
        </DataArray>
        <DataArray type="Int32" Name="offsets" format="ascii">
      4
      8
     12
     16
     20
     24
     28
     32
     36
     40
     44
     48
     52
     56
     60
     64
     68
     72
     76
     80
     84
     88
     92
     96
    100
    104
    108
    112
    116
    120
    124
    128
    132
    136
    140
    144
    148
    152
    156
    160
    164
    168
    172
    176
    180
    184
    188
    192
    196
    200
    204
    208
    212
    216
    220
    224
    228
    232
    236
    240
    244
    248
    252
    256
    260
    264
    268
    272
    276
    280
    284
    288
    292
    296
    300
    304
    308
    312
    316
    320
    324
    328
    332
    336
    340
    344
    348
    352
    356
    360
    364
    368
    372
    376
    380
    384
    388
    392
    396
    400
    404
    408
    412
    416
    420
    424
    428
    432
    436
    440
    444
    448
    452
    456
    460
    464
    468
    472
    476
    480
    484
    488
    492
    496
    500
    504
    508
    512
    516
    520
    524
    528
    532
    536
    540
    544
    548
    552
    556
    560
    564
    568
    572
    576
    580
    584
    588
    592
    596
    600
    604
    608
    612
    616
    620
    624
    628
    632
    636
    640
    644
    648
    652
    656
    660
    664
    668
    672
    676
    680
    684
    688
    692
    696
    700
    704
    708
    712
    716
    720
    724
    728
    732
    736
    740
    744
    748
    752
    756
    760
    764
    768
    772
    776
    780
    784
    788
    792
    796
    800
    804
    808
    812
    816
    820
    824
    828
    832
    836
    840
    844
    848
    852
    856
    860
    864
    868
    872
    876
    880
    884
    888
    892
    896
    900
    904
    908
    912
    916
    920
    924
    928
    932
    936
    940
    944
    948
    952
    956
    960
    964
    968
    972
    976
    980
    984
    988
    992
    996
   1000
   1004
   1008
   1012
   1016
   1020
   1024
   1028
   1032
   1036
   1040
   1044
   1048
   1052
   1056
   1060
   1064
   1068
   1072
   1076
   1080
   1084
   1088
   1092
   1096
   1100
   1104
   1108
   1112
   1116
   1120
   1124
   1128
   1132
   1136
   1140
   1144
   1148
   1152
   1156
   1160
   1164
   1168
   1172
   1176
   1180
   1184
   1188
   1192
   1196
   1200
   1204
   1208
   1212
   1216
   1220
   1224
   1228
   1232
   1236
   1240
   1244
   1248
   1252
   1256
   1260
   1264
   1268
   1272
   1276
   1280
   1284
   1288
   1292
   1296
   1300
   1304
   1308
   1312
   1316
   1320
   1324
   1328
   1332
   1336
   1340
   1344
   1348
   1352
   1356
   1360
   1364
   1368
   1372
   1376
   1380
   1384
   1388
   1392
   1396
   1400
   1404
   1408
   1412
   1416
   1420
   1424
   1428
   1432
   1436
   1440
   1444
   1448
   1452
   1456
   1460
   1464
   1468
   1472
   1476
   1480
   1484
   1488
   1492
   1496
   1500
   1504
   1508
   1512
   1516
   1520
   1524
   1528
   1532
   1536
   1540
   1544
   1548
   1552
   1556
   1560
   1564
   1568
   1572
   1576
   1580
   1584
   1588
   1592
   1596
   1600
   1604
   1608
   1612
   1616
   1620
   1624
   1628
   1632
   1636
   1640
   1644
   1648
   1652
   1656
   1660
   1664
   1668
   1672
   1676
   1680
   1684
   1688
   1692
   1696
   1700
   1704
   1708
   1712
   1716
   1720
   1724
   1728
   1732
   1736
   1740
   1744
   1748
   1752
   1756
   1760
   1764
   1768
   1772
   1776
   1780
   1784
   1788
   1792
   1796
   1800
   1804
   1808
   1812
   1816
   1820
   1824
   1828
   1832
   1836
   1840
   1844
   1848
   1852
   1856
   1860
   1864
   1868
   1872
   1876
   1880
   1884
   1888
   1892
   1896
   1900
   1904
   1908
   1912
   1916
   1920
   1924
   1928
   1932
   1936
   1940
   1944
   1948
   1952
   1956
   1960
   1964
   1968
   1972
   1976
   1980
   1984
   1988
   1992
   1996
   2000
   2004
   2008
   2012
   2016
   2020
   2024
   2028
   2032
   2036
   2040
   2044
   2048
   2052
   2056
   2060
   2064
   2068
   2072
   2076
   2080
   2084
   2088
   2092
   2096
   2100
   2104
   2108
   2112
   2116
   2120
   2124
   2128
   2132
   2136
   2140
   2144
   2148
   2152
   2156
   2160
   2164
   2168
   2172
   2176
   2180
   2184
   2188
   2192
   2196
   2200
   2204
   2208
   2212
   2216
   2220
   2224
   2228
   2232
   2236
   2240
   2244
   2248
   2252
   2256
   2260
   2264
   2268
   2272
   2276
   2280
   2284
   2288
   2292
   2296
   2300
   2304
   2308
   2312
   2316
   2320
   2324
   2328
   2332
   2336
   2340
   2344
   2348
   2352
   2356
   2360
   2364
   2368
   2372
   2376
   2380
   2384
   2388
   2392
   2396
   2400
        </DataArray>
      </Polys>
    </Piece>
  </PolyData>
</VTKFile>
