<?xml version="1.0"?>
<VTKFile type="PolyData" version="0.1" byte_order="LittleEndian">
  <PolyData>
    <Piece NumberOfPoints="     19" NumberOfVerts="  0" NumberOfLines="     18"
           NumberOfStrips="  0" NumberOfPolys="      0">
      <Points>
        <DataArray type="Float32" NumberOfComponents="3" format="ascii">
                      -5.09368                      -1.46247                      89.67998
                      -5.18013                      -2.79418                      89.38512
                      -5.38336                      -5.43591                      88.70555
                      -5.60095                      -8.06740                      87.98342
                      -5.88152                     -11.35072                      87.05531
                      -6.15342                     -15.32414                      86.07557
                      -6.39033                     -19.32695                      85.21992
                      -6.62930                     -23.33022                      84.36700
                      -6.86778                     -27.33446                      83.51834
                      -7.10675                     -31.33921                      82.67214
                      -7.34786                     -35.34361                      81.82499
                      -7.59025                     -39.34803                      80.97827
                      -7.83457                     -43.35242                      80.13203
                      -8.08154                     -47.35676                      79.28630
                      -8.32942                     -51.36108                      78.44075
                      -8.53662                     -54.69803                      77.73625
                      -8.70225                     -57.36924                      77.18040
                      -8.86451                     -60.05239                      76.67818
                      -8.94986                     -61.38480                      76.38661
        </DataArray>
      </Points>
      <PointData>
        <DataArray type="Float32" Name="TranslationalVelocity" NumberOfComponents="3" format="ascii">
                      -0.34740                       0.89116                      -3.97081
                      -0.66374                       1.71228                      -7.58661
                      -1.29127                       3.60569                     -14.75928
                      -1.91637                       5.61808                     -21.90415
                      -2.69630                       8.20468                     -30.81885
                      -3.64016                      10.92939                     -41.60726
                      -4.59101                      13.30888                     -52.47547
                      -5.54196                      15.68144                     -63.34495
                      -6.49315                      18.04235                     -74.21704
                      -7.44446                      20.39666                     -85.09051
                      -8.39568                      22.75406                     -95.96305
                      -9.34691                      25.11061                    -106.83561
                     -10.29813                      27.46631                    -117.70813
                     -11.24934                      29.82127                    -128.58049
                     -12.20054                      32.17593                    -139.45280
                     -12.99321                      34.13798                    -148.51311
                     -13.62774                      35.68653                    -155.76582
                     -14.26511                      37.08869                    -163.05098
                     -14.58162                      37.90060                    -166.66865
        </DataArray>
        <DataArray type="Float32" Name="RotationalVelocity" NumberOfComponents="3" format="ascii">
                       2.71515                      -0.00000                      -0.23754
                       2.71515                      -0.00000                      -0.23754
                       2.71515                      -0.00000                      -0.23754
                       2.71515                      -0.00000                      -0.23754
                       2.71515                      -0.00000                      -0.23754
                       2.71515                      -0.00000                      -0.23754
                       2.71515                      -0.00000                      -0.23754
                       2.71515                      -0.00000                      -0.23754
                       2.71515                      -0.00000                      -0.23754
                       2.71515                      -0.00000                      -0.23754
                       2.71515                      -0.00000                      -0.23754
                       2.71515                      -0.00000                      -0.23754
                       2.71515                      -0.00000                      -0.23754
                       2.71515                      -0.00000                      -0.23754
                       2.71515                      -0.00000                      -0.23754
                       2.71515                      -0.00000                      -0.23754
                       2.71515                      -0.00000                      -0.23754
                       2.71515                      -0.00000                      -0.23754
                       2.71515                      -0.00000                      -0.23754
        </DataArray>
        <DataArray type="Float32" Name="TranslationalAcceleration" NumberOfComponents="3" format="ascii">
                       0.21153                      10.86426                       2.41784
                       0.40644                      20.75720                       4.64564
                       0.85592                      40.38195                       9.78327
                       1.33367                      59.93074                      15.24395
                       1.94775                      84.32188                      22.26290
                       2.59456                     113.83942                      29.65598
                       3.15936                     143.57515                      36.11170
                       3.72252                     173.31434                      42.54863
                       4.28291                     203.06067                      48.95390
                       4.84173                     232.81078                      55.34123
                       5.40129                     262.55832                      61.73700
                       5.96064                     292.30595                      68.13043
                       6.51979                     322.05345                      74.52156
                       7.07877                     351.80050                      80.91069
                       7.63767                     381.54742                      87.29899
                       8.10339                     406.33667                      92.62212
                       8.47095                     426.18028                      96.82335
                       8.80373                     446.11258                     100.62712
                       8.99645                     456.01064                     102.82993
        </DataArray>
        <DataArray type="Float32" Name="OrientationX" NumberOfComponents="3" format="ascii">
                       0.99442                      -0.04257                      -0.09655
                       0.99442                      -0.04257                      -0.09655
                       0.99442                      -0.04257                      -0.09655
                       0.99442                      -0.04257                      -0.09655
                       0.99442                      -0.04257                      -0.09655
                       0.99442                      -0.04257                      -0.09655
                       0.99442                      -0.04257                      -0.09655
                       0.99442                      -0.04257                      -0.09655
                       0.99442                      -0.04257                      -0.09655
                       0.99442                      -0.04257                      -0.09655
                       0.99442                      -0.04257                      -0.09655
                       0.99442                      -0.04257                      -0.09655
                       0.99442                      -0.04257                      -0.09655
                       0.99442                      -0.04257                      -0.09655
                       0.99442                      -0.04257                      -0.09655
                       0.99442                      -0.04257                      -0.09655
                       0.99442                      -0.04257                      -0.09655
                       0.99442                      -0.04257                      -0.09655
                       0.99442                      -0.04257                      -0.09655
        </DataArray>
        <DataArray type="Float32" Name="OrientationY" NumberOfComponents="3" format="ascii">
                       0.08506                      -0.21819                       0.97219
                       0.08506                      -0.21819                       0.97219
                       0.08506                      -0.21819                       0.97219
                       0.08506                      -0.21819                       0.97219
                       0.08506                      -0.21819                       0.97219
                       0.08506                      -0.21819                       0.97219
                       0.08506                      -0.21819                       0.97219
                       0.08506                      -0.21819                       0.97219
                       0.08506                      -0.21819                       0.97219
                       0.08506                      -0.21819                       0.97219
                       0.08506                      -0.21819                       0.97219
                       0.08506                      -0.21819                       0.97219
                       0.08506                      -0.21819                       0.97219
                       0.08506                      -0.21819                       0.97219
                       0.08506                      -0.21819                       0.97219
                       0.08506                      -0.21819                       0.97219
                       0.08506                      -0.21819                       0.97219
                       0.08506                      -0.21819                       0.97219
                       0.08506                      -0.21819                       0.97219
        </DataArray>
        <DataArray type="Float32" Name="OrientationZ" NumberOfComponents="3" format="ascii">
                      -0.06245                      -0.97498                      -0.21335
                      -0.06245                      -0.97498                      -0.21335
                      -0.06245                      -0.97498                      -0.21335
                      -0.06245                      -0.97498                      -0.21335
                      -0.06245                      -0.97498                      -0.21335
                      -0.06245                      -0.97498                      -0.21335
                      -0.06245                      -0.97498                      -0.21335
                      -0.06245                      -0.97498                      -0.21335
                      -0.06245                      -0.97498                      -0.21335
                      -0.06245                      -0.97498                      -0.21335
                      -0.06245                      -0.97498                      -0.21335
                      -0.06245                      -0.97498                      -0.21335
                      -0.06245                      -0.97498                      -0.21335
                      -0.06245                      -0.97498                      -0.21335
                      -0.06245                      -0.97498                      -0.21335
                      -0.06245                      -0.97498                      -0.21335
                      -0.06245                      -0.97498                      -0.21335
                      -0.06245                      -0.97498                      -0.21335
                      -0.06245                      -0.97498                      -0.21335
        </DataArray>
        <DataArray type="Float32" Name="Force" NumberOfComponents="3" format="ascii">
                       2.40384                      -6.16641                      27.47605
                     202.45830                     -39.11856                     119.50302
                     316.18587                     -97.13950                     351.36076
                     334.40274                    -136.02570                     523.73316
                    3033.09254                     -74.59249                    -546.96989
                    3737.88958                    -120.39783                    -543.95387
                    4677.64568                    -168.22733                    -600.46501
                    6674.94696                    -253.76478                    -794.22068
                    7490.97940                    -308.70751                    -782.00890
                    8744.87273                    -368.45974                    -875.98904
                   11348.20047                    -495.46440                   -1057.64127
                   12902.07623                    -567.95380                   -1181.22520
                   14171.69369                    -608.46485                   -1367.73780
                   15361.85625                    -661.41214                   -1474.16038
                   16402.82141                    -705.80305                   -1576.01136
                   17122.99255                    -734.59453                   -1655.24678
                   17261.54142                    -733.05265                   -1702.84905
                   14122.19345                    -571.62291                   -1521.61091
                   11385.63904                    -523.47046                    -940.61627
        </DataArray>
        <DataArray type="Float32" Name="Moment" NumberOfComponents="3" format="ascii">
                       0.00000                       0.00000                       0.00000
                       0.00000                       0.00000                       0.00000
                       0.00000                       0.00000                       0.00000
                       0.00000                       0.00000                       0.00000
                      91.40417                    1426.97689                     312.25771
                     176.40545                    2753.99356                     602.64167
                     241.07385                    3763.57876                     823.56379
                     361.71207                    5646.94959                    1235.69175
                     516.65362                    8065.85453                    1765.00777
                     585.38335                    9138.84425                    1999.80437
                     640.00796                    9991.62859                    2186.41460
                     680.76267                   10627.87997                    2325.64208
                     549.32640                    8575.93301                    1876.62551
                     549.77448                    8582.92828                    1878.15625
                     535.09471                    8353.75173                    1828.00677
                     511.63072                    7987.43846                    1747.84840
                     459.23827                    7169.50183                    1568.86371
                     238.40063                    3721.84517                     814.43145
                     232.48796                    3629.53822                     794.23242
        </DataArray>
      </PointData>
      <Lines>
        <DataArray type="Int32" Name="connectivity" format="ascii">
      0      1
      1      2
      2      3
      3      4
      4      5
      5      6
      6      7
      7      8
      8      9
      9     10
     10     11
     11     12
     12     13
     13     14
     14     15
     15     16
     16     17
     17     18
        </DataArray>
        <DataArray type="Int32" Name="offsets" format="ascii">
      2
      4
      6
      8
     10
     12
     14
     16
     18
     20
     22
     24
     26
     28
     30
     32
     34
     36
        </DataArray>
      </Lines>
    </Piece>
  </PolyData>
</VTKFile>
