<?xml version="1.0"?>
<VTKFile type="PolyData" version="0.1" byte_order="LittleEndian">
  <PolyData>
    <Piece NumberOfPoints="    625" NumberOfVerts="  0" NumberOfLines="      0"
           NumberOfStrips="  0" NumberOfPolys="    600">
      <Points>
        <DataArray type="Float32" NumberOfComponents="3" format="ascii">
                      -4.90416                       1.02024                      91.09541
                      -4.90416                       1.02024                      91.09541
                      -4.90416                       1.02024                      91.09541
                      -4.90416                       1.02024                      91.09541
                      -4.90416                       1.02024                      91.09541
                      -4.90416                       1.02024                      91.09541
                      -4.90416                       1.02024                      91.09541
                      -4.90416                       1.02024                      91.09541
                      -4.90416                       1.02024                      91.09541
                      -4.90416                       1.02024                      91.09541
                      -4.90416                       1.02024                      91.09541
                      -4.90416                       1.02024                      91.09541
                      -4.90416                       1.02024                      91.09541
                      -4.90416                       1.02024                      91.09541
                      -4.90416                       1.02024                      91.09541
                      -4.90416                       1.02024                      91.09541
                      -4.90416                       1.02024                      91.09541
                      -4.90416                       1.02024                      91.09541
                      -4.90416                       1.02024                      91.09541
                      -4.90416                       1.02024                      91.09541
                      -4.90416                       1.02024                      91.09541
                      -4.90416                       1.02024                      91.09541
                      -4.90416                       1.02024                      91.09541
                      -4.90416                       1.02024                      91.09541
                      -4.90416                       1.02024                      91.09541
                      -4.31495                       0.93522                      90.95188
                      -4.32488                       0.82593                      91.05454
                      -4.37170                       0.72351                      91.15403
                      -4.45249                       0.63439                      91.24410
                      -4.56215                       0.56418                      91.31909
                      -4.69381                       0.51727                      91.37429
                      -4.83919                       0.49663                      91.40624
                      -4.98915                       0.50355                      91.41292
                      -5.13427                       0.53759                      91.39391
                      -5.26544                       0.59661                      91.35041
                      -5.37441                       0.67691                      91.28515
                      -5.45433                       0.77345                      91.20224
                      -5.50019                       0.88014                      91.10688
                      -5.50909                       0.99030                      91.00506
                      -5.48049                       1.09699                      90.90318
                      -5.41618                       1.19353                      90.80765
                      -5.32020                       1.27383                      90.72446
                      -5.19858                       1.33285                      90.65884
                      -5.05896                       1.36689                      90.61493
                      -4.91012                       1.37381                      90.59546
                      -4.76140                       1.35317                      90.60168
                      -4.62216                       1.30627                      90.63318
                      -4.50114                       1.23605                      90.68799
                      -4.40594                       1.14693                      90.76266
                      -4.34255                       1.04451                      90.85251
                      -4.09414                       0.85020                      90.84058
                      -4.10786                       0.69904                      90.98257
                      -4.17263                       0.55738                      91.12017
                      -4.28436                       0.43412                      91.24475
                      -4.43604                       0.33700                      91.34848
                      -4.61814                       0.27212                      91.42483
                      -4.81922                       0.24358                      91.46901
                      -5.02663                       0.25314                      91.47825
                      -5.22736                       0.30022                      91.45196
                      -5.40878                       0.38186                      91.39179
                      -5.55950                       0.49293                      91.30154
                      -5.67004                       0.62645                      91.18685
                      -5.73346                       0.77402                      91.05496
                      -5.74579                       0.92638                      90.91413
                      -5.70623                       1.07396                      90.77322
                      -5.61728                       1.20747                      90.64108
                      -5.48452                       1.31854                      90.52603
                      -5.31631                       1.40018                      90.43527
                      -5.12320                       1.44726                      90.37453
                      -4.91733                       1.45682                      90.34760
                      -4.71164                       1.42828                      90.35620
                      -4.51904                       1.36340                      90.39977
                      -4.35166                       1.26628                      90.47558
                      -4.21999                       1.14302                      90.57886
                      -4.13231                       1.00136                      90.70313
                      -3.93974                       0.76518                      90.73509
                      -3.95617                       0.58430                      90.90499
                      -4.03366                       0.41479                      91.06965
                      -4.16736                       0.26730                      91.21872
                      -4.34886                       0.15109                      91.34283
                      -4.56676                       0.07346                      91.43420
                      -4.80736                       0.03930                      91.48706
                      -5.05555                       0.05075                      91.49811
                      -5.29574                       0.10709                      91.46666
                      -5.51282                       0.20478                      91.39466
                      -5.69317                       0.33768                      91.28666
                      -5.82545                       0.49744                      91.14944
                      -5.90134                       0.67402                      90.99161
                      -5.91608                       0.85634                      90.82310
                      -5.86875                       1.03292                      90.65449
                      -5.76231                       1.19268                      90.49638
                      -5.60346                       1.32559                      90.35870
                      -5.40217                       1.42327                      90.25010
                      -5.17110                       1.47961                      90.17742
                      -4.92476                       1.49106                      90.14520
                      -4.67863                       1.45690                      90.15549
                      -4.44818                       1.37927                      90.20762
                      -4.24789                       1.26306                      90.29833
                      -4.09033                       1.11557                      90.42192
                      -3.98542                       0.94606                      90.57062
                      -3.82233                       0.68016                      90.63283
                      -3.84084                       0.47634                      90.82429
                      -3.92817                       0.28532                      91.00984
                      -4.07883                       0.11911                      91.17782
                      -4.28336                      -0.01184                      91.31768
                      -4.52890                      -0.09932                      91.42064
                      -4.80003                      -0.13781                      91.48021
                      -5.07971                      -0.12491                      91.49267
                      -5.35037                      -0.06143                      91.45722
                      -5.59499                       0.04866                      91.37609
                      -5.79822                       0.19842                      91.25439
                      -5.94728                       0.37845                      91.09975
                      -6.03280                       0.57744                      90.92190
                      -6.04941                       0.78288                      90.73201
                      -5.99607                       0.98187                      90.54201
                      -5.87613                       1.16190                      90.36383
                      -5.69713                       1.31167                      90.20869
                      -5.47030                       1.42175                      90.08632
                      -5.20991                       1.48523                      90.00441
                      -4.93232                       1.49813                      89.96811
                      -4.65497                       1.45964                      89.97969
                      -4.39528                       1.37216                      90.03845
                      -4.16957                       1.24121                      90.14067
                      -3.99203                       1.07500                      90.27994
                      -3.87380                       0.88398                      90.44750
                      -3.73038                       0.59514                      90.53281
                      -3.75055                       0.37303                      90.74144
                      -3.84572                       0.16487                      90.94364
                      -4.00990                      -0.01625                      91.12669
                      -4.23278                      -0.15895                      91.27910
                      -4.50035                      -0.25427                      91.39130
                      -4.79581                      -0.29622                      91.45622
                      -5.10058                      -0.28217                      91.46979
                      -5.39552                      -0.21299                      91.43116
                      -5.66210                      -0.09303                      91.34275
                      -5.88356                       0.07017                      91.21013
                      -6.04599                       0.26636                      91.04162
                      -6.13919                       0.48320                      90.84781
                      -6.15729                       0.70708                      90.64088
                      -6.09917                       0.92392                      90.43383
                      -5.96846                       1.12011                      90.23967
                      -5.77340                       1.28331                      90.07061
                      -5.52622                       1.40327                      89.93725
                      -5.24247                       1.47245                      89.84799
                      -4.93997                       1.48651                      89.80844
                      -4.63773                       1.44455                      89.82106
                      -4.35474                       1.34923                      89.88509
                      -4.10878                       1.20653                      89.99648
                      -3.91531                       1.02541                      90.14824
                      -3.78648                       0.81725                      90.33084
                      -3.65799                       0.51012                      90.43449
                      -3.67949                       0.27330                      90.65694
                      -3.78096                       0.05136                      90.87253
                      -3.95601                      -0.14176                      91.06771
                      -4.19365                      -0.29391                      91.23021
                      -4.47895                      -0.39555                      91.34983
                      -4.79397                      -0.44028                      91.41905
                      -5.11893                      -0.42529                      91.43353
                      -5.43340                      -0.35153                      91.39234
                      -5.71764                      -0.22362                      91.29808
                      -5.95376                      -0.04961                      91.15667
                      -6.12695                       0.15956                      90.97700
                      -6.22632                       0.39077                      90.77035
                      -6.24562                       0.62947                      90.54972
                      -6.18365                       0.86068                      90.32896
                      -6.04429                       1.06985                      90.12194
                      -5.83630                       1.24386                      89.94168
                      -5.57276                       1.37177                      89.79949
                      -5.27021                       1.44553                      89.70432
                      -4.94768                       1.46052                      89.66215
                      -4.62542                       1.41579                      89.67561
                      -4.32369                       1.31415                      89.74387
                      -4.06144                       1.16200                      89.86264
                      -3.85516                       0.96888                      90.02446
                      -3.71780                       0.74694                      90.21915
                      -3.60167                       0.42510                      90.33758
                      -3.62424                       0.17651                      90.57109
                      -3.73075                      -0.05646                      90.79739
                      -3.91450                      -0.25917                      91.00226
                      -4.16395                      -0.41889                      91.17284
                      -4.46342                      -0.52557                      91.29841
                      -4.79410                      -0.57252                      91.37107
                      -5.13521                      -0.55679                      91.38626
                      -5.46531                      -0.47936                      91.34302
                      -5.76366                      -0.34510                      91.24408
                      -6.01153                      -0.16245                      91.09564
                      -6.19332                       0.05712                      90.90704
                      -6.29763                       0.29982                      90.69013
                      -6.31789                       0.55038                      90.45853
                      -6.25283                       0.79308                      90.22680
                      -6.10655                       1.01265                      90.00950
                      -5.88823                       1.19530                      89.82028
                      -5.61159                       1.32956                      89.67103
                      -5.29401                       1.40699                      89.57113
                      -4.95545                       1.42273                      89.52686
                      -4.61718                       1.37577                      89.54099
                      -4.30045                       1.26909                      89.61264
                      -4.02517                       1.10937                      89.73732
                      -3.80864                       0.90666                      89.90717
                      -3.66445                       0.67369                      90.11154
                      -3.55922                       0.34008                      90.24188
                      -3.58264                       0.08226                      90.48406
                      -3.69310                      -0.15936                      90.71876
                      -3.88367                      -0.36960                      90.93124
                      -4.14238                      -0.53524                      91.10816
                      -4.45297                      -0.64589                      91.23838
                      -4.79593                      -0.69458                      91.31374
                      -5.14969                      -0.67827                      91.32949
                      -5.49205                      -0.59796                      91.28465
                      -5.80148                      -0.45872                      91.18204
                      -6.05855                      -0.26928                      91.02809
                      -6.24709                      -0.04156                      90.83249
                      -6.35527                       0.21015                      90.60752
                      -6.37629                       0.47001                      90.36733
                      -6.30882                       0.72172                      90.12699
                      -6.15710                       0.94944                      89.90162
                      -5.93067                       1.13888                      89.70538
                      -5.64376                       1.27812                      89.55059
                      -5.31439                       1.35843                      89.44698
                      -4.96326                       1.37474                      89.40106
                      -4.61243                       1.32605                      89.41572
                      -4.28395                       1.21540                      89.49003
                      -3.99845                       1.04976                      89.61934
                      -3.77387                       0.83952                      89.79550
                      -3.62433                       0.59790                      90.00745
                      -3.52920                       0.25506                      90.14727
                      -3.55324                      -0.00971                      90.39598
                      -3.66669                      -0.25785                      90.63702
                      -3.86240                      -0.47376                      90.85523
                      -4.12809                      -0.64388                      91.03692
                      -4.44706                      -0.75751                      91.17066
                      -4.79927                      -0.80752                      91.24805
                      -5.16258                      -0.79076                      91.26423
                      -5.51418                      -0.70829                      91.21818
                      -5.83196                      -0.56529                      91.11279
                      -6.09596                      -0.37074                      90.95469
                      -6.28959                      -0.13687                      90.75381
                      -6.40068                       0.12162                      90.52278
                      -6.42227                       0.38850                      90.27610
                      -6.35298                       0.64699                      90.02928
                      -6.19717                       0.88086                      89.79783
                      -5.96463                       1.07541                      89.59629
                      -5.66998                       1.21841                      89.43733
                      -5.33172                       1.30088                      89.33092
                      -4.97112                       1.31764                      89.28377
                      -4.61083                       1.26763                      89.29882
                      -4.27348                       1.15400                      89.37514
                      -3.98028                       0.98388                      89.50793
                      -3.74964                       0.76797                      89.68885
                      -3.59607                       0.51983                      89.90652
                      -3.51064                       0.17004                      90.05367
                      -3.53512                      -0.09959                      90.30694
                      -3.65065                      -0.35228                      90.55240
                      -3.84995                      -0.57216                      90.77462
                      -4.12052                      -0.74539                      90.95964
                      -4.44534                      -0.86111                      91.09583
                      -4.80401                      -0.91204                      91.17464
                      -5.17399                      -0.89497                      91.19112
                      -5.53204                      -0.81099                      91.14422
                      -5.85565                      -0.66536                      91.03690
                      -6.12449                      -0.46725                      90.87590
                      -6.32168                      -0.22909                      90.67134
                      -6.43481                       0.03415                      90.43606
                      -6.45679                       0.30593                      90.18486
                      -6.38623                       0.56917                      89.93351
                      -6.22756                       0.80733                      89.69781
                      -5.99076                       1.00544                      89.49258
                      -5.69070                       1.15107                      89.33069
                      -5.34624                       1.23505                      89.22233
                      -4.97902                       1.25212                      89.17431
                      -4.61211                       1.20119                      89.18964
                      -4.26857                       1.08547                      89.26736
                      -3.96999                       0.91224                      89.40259
                      -3.73512                       0.69236                      89.58683
                      -3.57873                       0.43967                      89.80849
                      -3.50292                       0.08502                      89.96101
                      -3.52767                      -0.18749                      90.21698
                      -3.64442                      -0.44287                      90.46505
                      -3.84585                      -0.66509                      90.68964
                      -4.11930                      -0.84017                      90.87664
                      -4.44759                      -0.95712                      91.01428
                      -4.81008                      -1.00859                      91.09393
                      -5.18400                      -0.99134                      91.11058
                      -5.54586                      -0.90646                      91.06319
                      -5.87292                      -0.75929                      90.95472
                      -6.14463                      -0.55906                      90.79201
                      -6.34392                      -0.31836                      90.58526
                      -6.45826                      -0.05232                      90.34748
                      -6.48047                       0.22236                      90.09360
                      -6.40916                       0.48840                      89.83957
                      -6.24880                       0.72910                      89.60136
                      -6.00947                       0.92933                      89.39394
                      -5.70622                       1.07650                      89.23033
                      -5.35808                       1.16138                      89.12082
                      -4.98695                       1.17863                      89.07228
                      -4.61613                       1.12716                      89.08778
                      -4.26893                       1.01021                      89.16633
                      -3.96717                       0.83513                      89.30299
                      -3.72980                       0.61291                      89.48919
                      -3.57174                       0.35753                      89.71322
                      -3.50571                       0.00000                      89.86927
                      -3.53054                      -0.27346                      90.12613
                      -3.64771                      -0.52973                      90.37507
                      -3.84984                      -0.75272                      90.60045
                      -4.12424                      -0.92842                      90.78809
                      -4.45367                      -1.04578                      90.92622
                      -4.81743                      -1.09743                      91.00615
                      -5.19266                      -1.08012                      91.02286
                      -5.55578                      -0.99494                      90.97530
                      -5.88398                      -0.84725                      90.86645
                      -6.15664                      -0.64633                      90.70317
                      -6.35662                      -0.40479                      90.49570
                      -6.47137                      -0.13782                      90.25709
                      -6.49365                       0.13782                      90.00232
                      -6.42209                       0.40479                      89.74741
                      -6.26117                       0.64633                      89.50837
                      -6.02101                       0.84725                      89.30022
                      -5.71670                       0.99494                      89.13604
                      -5.36735                       1.08012                      89.02615
                      -4.99492                       1.09743                      88.97744
                      -4.62281                       1.04578                      88.99299
                      -4.27440                       0.92842                      89.07181
                      -3.97158                       0.75272                      89.20896
                      -3.73338                       0.52973                      89.39581
                      -3.57477                       0.27346                      89.62062
                      -3.51889                      -0.08502                      89.77844
                      -3.54364                      -0.35753                      90.03441
                      -3.66040                      -0.61291                      90.28249
                      -3.86183                      -0.83513                      90.50707
                      -4.13527                      -1.01021                      90.69407
                      -4.46356                      -1.12716                      90.83171
                      -4.82605                      -1.17863                      90.91136
                      -5.19997                      -1.16138                      90.92801
                      -5.56184                      -1.07650                      90.88062
                      -5.88890                      -0.92933                      90.77216
                      -6.16061                      -0.72910                      90.60944
                      -6.35989                      -0.48840                      90.40269
                      -6.47423                      -0.22236                      90.16491
                      -6.49645                       0.05232                      89.91103
                      -6.42513                       0.31836                      89.65700
                      -6.26477                       0.55906                      89.41879
                      -6.02545                       0.75929                      89.21137
                      -5.72219                       0.90646                      89.04776
                      -5.37406                       0.99134                      88.93825
                      -5.00292                       1.00859                      88.88971
                      -4.63211                       0.95712                      88.90521
                      -4.28491                       0.84017                      88.98376
                      -3.98314                       0.66509                      89.12043
                      -3.74577                       0.44287                      89.30662
                      -3.58771                       0.18749                      89.53065
                      -3.54258                      -0.17004                      89.68853
                      -3.56707                      -0.43967                      89.94180
                      -3.68259                      -0.69236                      90.18726
                      -3.88190                      -0.91224                      90.40948
                      -4.15246                      -1.08547                      90.59450
                      -4.47729                      -1.20119                      90.73070
                      -4.83596                      -1.25212                      90.80951
                      -5.20594                      -1.23505                      90.82598
                      -5.56398                      -1.15107                      90.77909
                      -5.88759                      -1.00544                      90.67177
                      -6.15644                      -0.80733                      90.51077
                      -6.35362                      -0.56917                      90.30620
                      -6.46676                      -0.30593                      90.07093
                      -6.48874                      -0.03415                      89.81972
                      -6.41817                       0.22909                      89.56837
                      -6.25951                       0.46725                      89.33268
                      -6.02270                       0.66536                      89.12744
                      -5.72265                       0.81099                      88.96555
                      -5.37818                       0.89497                      88.85720
                      -5.01096                       0.91204                      88.80918
                      -4.64406                       0.86111                      88.82451
                      -4.30052                       0.74539                      88.90223
                      -4.00194                       0.57216                      89.03745
                      -3.76707                       0.35228                      89.22169
                      -3.61068                       0.09959                      89.44336
                      -3.57712                      -0.25506                      89.59957
                      -3.60116                      -0.51983                      89.84828
                      -3.71461                      -0.76797                      90.08931
                      -3.91032                      -0.98388                      90.30753
                      -4.17601                      -1.15400                      90.48921
                      -4.49498                      -1.26763                      90.62295
                      -4.84719                      -1.31764                      90.70034
                      -5.21050                      -1.30088                      90.71652
                      -5.56209                      -1.21841                      90.67047
                      -5.87987                      -1.07541                      90.56509
                      -6.14387                      -0.88086                      90.40699
                      -6.33751                      -0.64699                      90.20611
                      -6.44860                      -0.38850                      89.97507
                      -6.47018                      -0.12162                      89.72840
                      -6.40089                       0.13687                      89.48158
                      -6.24509                       0.37074                      89.25013
                      -6.01255                       0.56529                      89.04859
                      -5.71790                       0.70829                      88.88962
                      -5.37964                       0.79076                      88.78322
                      -5.01904                       0.80752                      88.73606
                      -4.65874                       0.75751                      88.75111
                      -4.32140                       0.64388                      88.82743
                      -4.02819                       0.47376                      88.96022
                      -3.79756                       0.25785                      89.14114
                      -3.64398                       0.00971                      89.35881
                      -3.62311                      -0.34008                      89.51161
                      -3.64653                      -0.59790                      89.75378
                      -3.75699                      -0.83952                      89.98849
                      -3.94756                      -1.04976                      90.20097
                      -4.20627                      -1.21540                      90.37788
                      -4.51686                      -1.32605                      90.50811
                      -4.85982                      -1.37474                      90.58347
                      -5.21359                      -1.35843                      90.59922
                      -5.55594                      -1.27812                      90.55438
                      -5.86537                      -1.13888                      90.45176
                      -6.12244                      -0.94944                      90.29782
                      -6.31098                      -0.72172                      90.10222
                      -6.41916                      -0.47001                      89.87725
                      -6.44018                      -0.21015                      89.63705
                      -6.37271                       0.04156                      89.39672
                      -6.22099                       0.26928                      89.17135
                      -5.99456                       0.45872                      88.97510
                      -5.70765                       0.59796                      88.82031
                      -5.37828                       0.67827                      88.71670
                      -5.02715                       0.69458                      88.67079
                      -4.67632                       0.64589                      88.68545
                      -4.34784                       0.53524                      88.75976
                      -4.06234                       0.36960                      88.88906
                      -3.83776                       0.15936                      89.06522
                      -3.68822                      -0.08226                      89.27718
                      -3.68153                      -0.42510                      89.42474
                      -3.70411                      -0.67369                      89.65824
                      -3.81062                      -0.90666                      89.88454
                      -3.99437                      -1.10937                      90.08942
                      -4.24382                      -1.26909                      90.26000
                      -4.54329                      -1.37577                      90.38557
                      -4.87396                      -1.42273                      90.45823
                      -5.21507                      -1.40699                      90.47342
                      -5.54517                      -1.32956                      90.43018
                      -5.84353                      -1.19530                      90.33124
                      -6.09139                      -1.01265                      90.18280
                      -6.27318                      -0.79308                      89.99420
                      -6.37749                      -0.55038                      89.77729
                      -6.39775                      -0.29982                      89.54569
                      -6.33270                      -0.05712                      89.31396
                      -6.18641                       0.16245                      89.09666
                      -5.96809                       0.34510                      88.90744
                      -5.69145                       0.47936                      88.75819
                      -5.37387                       0.55679                      88.65829
                      -5.03531                       0.57253                      88.61401
                      -4.69704                       0.52557                      88.62815
                      -4.38032                       0.41889                      88.69980
                      -4.10504                       0.25917                      88.82447
                      -3.88850                       0.05646                      88.99433
                      -3.74431                      -0.17651                      89.19870
                      -3.75382                      -0.51012                      89.33908
                      -3.77533                      -0.74694                      89.56153
                      -3.87680                      -0.96888                      89.77712
                      -4.05185                      -1.16200                      89.97230
                      -4.28949                      -1.31415                      90.13480
                      -4.57478                      -1.41579                      90.25442
                      -4.88981                      -1.46052                      90.32364
                      -5.21477                      -1.44553                      90.33811
                      -5.52924                      -1.37177                      90.29693
                      -5.81347                      -1.24386                      90.20267
                      -6.04960                      -1.06985                      90.06126
                      -6.22279                      -0.86068                      89.88159
                      -6.32216                      -0.62947                      89.67494
                      -6.34146                      -0.39077                      89.45431
                      -6.27949                      -0.15956                      89.23355
                      -6.14013                       0.04961                      89.02653
                      -5.93214                       0.22362                      88.84627
                      -5.66860                       0.35153                      88.70408
                      -5.36605                       0.42529                      88.60891
                      -5.04352                       0.44028                      88.56673
                      -4.72126                       0.39555                      88.58020
                      -4.41953                       0.29391                      88.64846
                      -4.15728                       0.14176                      88.76723
                      -3.95099                      -0.05136                      88.92905
                      -3.81363                      -0.27330                      89.12374
                      -3.84219                      -0.59514                      89.25483
                      -3.86236                      -0.81725                      89.46346
                      -3.95753                      -1.02541                      89.66566
                      -4.12171                      -1.20653                      89.84871
                      -4.34458                      -1.34923                      90.00113
                      -4.61216                      -1.44455                      90.11332
                      -4.90761                      -1.48651                      90.17824
                      -5.21239                      -1.47245                      90.19181
                      -5.50733                      -1.40327                      90.15318
                      -5.77391                      -1.28331                      90.06477
                      -5.99537                      -1.12011                      89.93215
                      -6.15780                      -0.92392                      89.76364
                      -6.25100                      -0.70708                      89.56983
                      -6.26910                      -0.48320                      89.36290
                      -6.21097                      -0.26636                      89.15585
                      -6.08027                      -0.07017                      88.96169
                      -5.88520                       0.09303                      88.79263
                      -5.63803                       0.21299                      88.65927
                      -5.35428                       0.28217                      88.57001
                      -5.05178                       0.29622                      88.53046
                      -4.74954                       0.25427                      88.54308
                      -4.46655                       0.15895                      88.60711
                      -4.22059                       0.01625                      88.71850
                      -4.02711                      -0.16487                      88.87026
                      -3.89828                      -0.37303                      89.05287
                      -3.95011                      -0.68016                      89.17229
                      -3.96862                      -0.88398                      89.36374
                      -4.05595                      -1.07500                      89.54929
                      -4.20661                      -1.24121                      89.71727
                      -4.41114                      -1.37216                      89.85714
                      -4.65668                      -1.45964                      89.96009
                      -4.92781                      -1.49813                      90.01966
                      -5.20749                      -1.48523                      90.03212
                      -5.47815                      -1.42175                      89.99667
                      -5.72277                      -1.31167                      89.91554
                      -5.92600                      -1.16190                      89.79384
                      -6.07506                      -0.98187                      89.63920
                      -6.16058                      -0.78288                      89.46135
                      -6.17720                      -0.57744                      89.27146
                      -6.12386                      -0.37845                      89.08146
                      -6.00391                      -0.19842                      88.90329
                      -5.82491                      -0.04865                      88.74814
                      -5.59809                       0.06143                      88.62577
                      -5.33770                       0.12491                      88.54386
                      -5.06010                       0.13781                      88.50756
                      -4.78275                       0.09932                      88.51915
                      -4.52306                       0.01184                      88.57790
                      -4.29735                      -0.11911                      88.68012
                      -4.11981                      -0.28532                      88.81939
                      -4.00159                      -0.47634                      88.98695
                      -4.08350                      -0.76518                      89.09197
                      -4.09992                      -0.94606                      89.26187
                      -4.17742                      -1.11557                      89.42653
                      -4.31112                      -1.26306                      89.57560
                      -4.49262                      -1.37927                      89.69972
                      -4.71051                      -1.45690                      89.79108
                      -4.95112                      -1.49106                      89.84395
                      -5.19931                      -1.47961                      89.85500
                      -5.43949                      -1.42327                      89.82354
                      -5.65658                      -1.32559                      89.75155
                      -5.83692                      -1.19268                      89.64355
                      -5.96920                      -1.03292                      89.50632
                      -6.04509                      -0.85634                      89.34849
                      -6.05984                      -0.67402                      89.17998
                      -6.01250                      -0.49744                      89.01137
                      -5.90607                      -0.33768                      88.85326
                      -5.74721                      -0.20477                      88.71558
                      -5.54593                      -0.10709                      88.60699
                      -5.31486                      -0.05075                      88.53430
                      -5.06852                      -0.03930                      88.50208
                      -4.82239                      -0.07346                      88.51237
                      -4.59194                      -0.15109                      88.56451
                      -4.39164                      -0.26730                      88.65522
                      -4.23409                      -0.41479                      88.77881
                      -4.12918                      -0.58430                      88.92751
                      -4.25386                      -0.85020                      89.01490
                      -4.26759                      -1.00136                      89.15688
                      -4.33235                      -1.14302                      89.29449
                      -4.44409                      -1.26628                      89.41907
                      -4.59577                      -1.36340                      89.52279
                      -4.77787                      -1.42828                      89.59915
                      -4.97894                      -1.45682                      89.64333
                      -5.18636                      -1.44726                      89.65256
                      -5.38708                      -1.40018                      89.62627
                      -5.56850                      -1.31854                      89.56611
                      -5.71922                      -1.20747                      89.47585
                      -5.82977                      -1.07396                      89.36117
                      -5.89319                      -0.92638                      89.22927
                      -5.90551                      -0.77402                      89.08844
                      -5.86595                      -0.62645                      88.94753
                      -5.77700                      -0.49293                      88.81540
                      -5.64425                      -0.38186                      88.70034
                      -5.47603                      -0.30022                      88.60959
                      -5.28292                      -0.25314                      88.54884
                      -5.07705                      -0.24358                      88.52192
                      -4.87136                      -0.27213                      88.53051
                      -4.67877                      -0.33700                      88.57408
                      -4.51138                      -0.43412                      88.64989
                      -4.37971                      -0.55738                      88.75318
                      -4.29204                      -0.69904                      88.87745
                      -4.49065                      -0.93522                      88.94363
                      -4.50058                      -1.04451                      89.04629
                      -4.54740                      -1.14693                      89.14577
                      -4.62819                      -1.23605                      89.23585
                      -4.73785                      -1.30627                      89.31084
                      -4.86951                      -1.35317                      89.36604
                      -5.01489                      -1.37381                      89.39798
                      -5.16485                      -1.36689                      89.40466
                      -5.30997                      -1.33285                      89.38565
                      -5.44114                      -1.27383                      89.34216
                      -5.55011                      -1.19353                      89.27690
                      -5.63003                      -1.09699                      89.19398
                      -5.67589                      -0.99030                      89.09862
                      -5.68479                      -0.88014                      88.99680
                      -5.65619                      -0.77345                      88.89493
                      -5.59188                      -0.67691                      88.79939
                      -5.49590                      -0.59661                      88.71621
                      -5.37428                      -0.53759                      88.65059
                      -5.23466                      -0.50355                      88.60667
                      -5.08582                      -0.49663                      88.58721
                      -4.93710                      -0.51727                      88.59342
                      -4.79786                      -0.56417                      88.62492
                      -4.67684                      -0.63439                      88.67973
                      -4.58164                      -0.72351                      88.75441
                      -4.51825                      -0.82593                      88.84425
                      -5.09584                      -1.02024                      88.90459
                      -5.09584                      -1.02024                      88.90459
                      -5.09584                      -1.02024                      88.90459
                      -5.09584                      -1.02024                      88.90459
                      -5.09584                      -1.02024                      88.90459
                      -5.09584                      -1.02024                      88.90459
                      -5.09584                      -1.02024                      88.90459
                      -5.09584                      -1.02024                      88.90459
                      -5.09584                      -1.02024                      88.90459
                      -5.09584                      -1.02024                      88.90459
                      -5.09584                      -1.02024                      88.90459
                      -5.09584                      -1.02024                      88.90459
                      -5.09584                      -1.02024                      88.90459
                      -5.09584                      -1.02024                      88.90459
                      -5.09584                      -1.02024                      88.90459
                      -5.09584                      -1.02024                      88.90459
                      -5.09584                      -1.02024                      88.90459
                      -5.09584                      -1.02024                      88.90459
                      -5.09584                      -1.02024                      88.90459
                      -5.09584                      -1.02024                      88.90459
                      -5.09584                      -1.02024                      88.90459
                      -5.09584                      -1.02024                      88.90459
                      -5.09584                      -1.02024                      88.90459
                      -5.09584                      -1.02024                      88.90459
                      -5.09584                      -1.02024                      88.90459
        </DataArray>
      </Points>
      <Polys>
        <DataArray type="Int32" Name="connectivity" format="ascii">
      0      1     26     25
      1      2     27     26
      2      3     28     27
      3      4     29     28
      4      5     30     29
      5      6     31     30
      6      7     32     31
      7      8     33     32
      8      9     34     33
      9     10     35     34
     10     11     36     35
     11     12     37     36
     12     13     38     37
     13     14     39     38
     14     15     40     39
     15     16     41     40
     16     17     42     41
     17     18     43     42
     18     19     44     43
     19     20     45     44
     20     21     46     45
     21     22     47     46
     22     23     48     47
     23     24     49     48
     24      0     25     49
     25     26     51     50
     26     27     52     51
     27     28     53     52
     28     29     54     53
     29     30     55     54
     30     31     56     55
     31     32     57     56
     32     33     58     57
     33     34     59     58
     34     35     60     59
     35     36     61     60
     36     37     62     61
     37     38     63     62
     38     39     64     63
     39     40     65     64
     40     41     66     65
     41     42     67     66
     42     43     68     67
     43     44     69     68
     44     45     70     69
     45     46     71     70
     46     47     72     71
     47     48     73     72
     48     49     74     73
     49     25     50     74
     50     51     76     75
     51     52     77     76
     52     53     78     77
     53     54     79     78
     54     55     80     79
     55     56     81     80
     56     57     82     81
     57     58     83     82
     58     59     84     83
     59     60     85     84
     60     61     86     85
     61     62     87     86
     62     63     88     87
     63     64     89     88
     64     65     90     89
     65     66     91     90
     66     67     92     91
     67     68     93     92
     68     69     94     93
     69     70     95     94
     70     71     96     95
     71     72     97     96
     72     73     98     97
     73     74     99     98
     74     50     75     99
     75     76    101    100
     76     77    102    101
     77     78    103    102
     78     79    104    103
     79     80    105    104
     80     81    106    105
     81     82    107    106
     82     83    108    107
     83     84    109    108
     84     85    110    109
     85     86    111    110
     86     87    112    111
     87     88    113    112
     88     89    114    113
     89     90    115    114
     90     91    116    115
     91     92    117    116
     92     93    118    117
     93     94    119    118
     94     95    120    119
     95     96    121    120
     96     97    122    121
     97     98    123    122
     98     99    124    123
     99     75    100    124
    100    101    126    125
    101    102    127    126
    102    103    128    127
    103    104    129    128
    104    105    130    129
    105    106    131    130
    106    107    132    131
    107    108    133    132
    108    109    134    133
    109    110    135    134
    110    111    136    135
    111    112    137    136
    112    113    138    137
    113    114    139    138
    114    115    140    139
    115    116    141    140
    116    117    142    141
    117    118    143    142
    118    119    144    143
    119    120    145    144
    120    121    146    145
    121    122    147    146
    122    123    148    147
    123    124    149    148
    124    100    125    149
    125    126    151    150
    126    127    152    151
    127    128    153    152
    128    129    154    153
    129    130    155    154
    130    131    156    155
    131    132    157    156
    132    133    158    157
    133    134    159    158
    134    135    160    159
    135    136    161    160
    136    137    162    161
    137    138    163    162
    138    139    164    163
    139    140    165    164
    140    141    166    165
    141    142    167    166
    142    143    168    167
    143    144    169    168
    144    145    170    169
    145    146    171    170
    146    147    172    171
    147    148    173    172
    148    149    174    173
    149    125    150    174
    150    151    176    175
    151    152    177    176
    152    153    178    177
    153    154    179    178
    154    155    180    179
    155    156    181    180
    156    157    182    181
    157    158    183    182
    158    159    184    183
    159    160    185    184
    160    161    186    185
    161    162    187    186
    162    163    188    187
    163    164    189    188
    164    165    190    189
    165    166    191    190
    166    167    192    191
    167    168    193    192
    168    169    194    193
    169    170    195    194
    170    171    196    195
    171    172    197    196
    172    173    198    197
    173    174    199    198
    174    150    175    199
    175    176    201    200
    176    177    202    201
    177    178    203    202
    178    179    204    203
    179    180    205    204
    180    181    206    205
    181    182    207    206
    182    183    208    207
    183    184    209    208
    184    185    210    209
    185    186    211    210
    186    187    212    211
    187    188    213    212
    188    189    214    213
    189    190    215    214
    190    191    216    215
    191    192    217    216
    192    193    218    217
    193    194    219    218
    194    195    220    219
    195    196    221    220
    196    197    222    221
    197    198    223    222
    198    199    224    223
    199    175    200    224
    200    201    226    225
    201    202    227    226
    202    203    228    227
    203    204    229    228
    204    205    230    229
    205    206    231    230
    206    207    232    231
    207    208    233    232
    208    209    234    233
    209    210    235    234
    210    211    236    235
    211    212    237    236
    212    213    238    237
    213    214    239    238
    214    215    240    239
    215    216    241    240
    216    217    242    241
    217    218    243    242
    218    219    244    243
    219    220    245    244
    220    221    246    245
    221    222    247    246
    222    223    248    247
    223    224    249    248
    224    200    225    249
    225    226    251    250
    226    227    252    251
    227    228    253    252
    228    229    254    253
    229    230    255    254
    230    231    256    255
    231    232    257    256
    232    233    258    257
    233    234    259    258
    234    235    260    259
    235    236    261    260
    236    237    262    261
    237    238    263    262
    238    239    264    263
    239    240    265    264
    240    241    266    265
    241    242    267    266
    242    243    268    267
    243    244    269    268
    244    245    270    269
    245    246    271    270
    246    247    272    271
    247    248    273    272
    248    249    274    273
    249    225    250    274
    250    251    276    275
    251    252    277    276
    252    253    278    277
    253    254    279    278
    254    255    280    279
    255    256    281    280
    256    257    282    281
    257    258    283    282
    258    259    284    283
    259    260    285    284
    260    261    286    285
    261    262    287    286
    262    263    288    287
    263    264    289    288
    264    265    290    289
    265    266    291    290
    266    267    292    291
    267    268    293    292
    268    269    294    293
    269    270    295    294
    270    271    296    295
    271    272    297    296
    272    273    298    297
    273    274    299    298
    274    250    275    299
    275    276    301    300
    276    277    302    301
    277    278    303    302
    278    279    304    303
    279    280    305    304
    280    281    306    305
    281    282    307    306
    282    283    308    307
    283    284    309    308
    284    285    310    309
    285    286    311    310
    286    287    312    311
    287    288    313    312
    288    289    314    313
    289    290    315    314
    290    291    316    315
    291    292    317    316
    292    293    318    317
    293    294    319    318
    294    295    320    319
    295    296    321    320
    296    297    322    321
    297    298    323    322
    298    299    324    323
    299    275    300    324
    300    301    326    325
    301    302    327    326
    302    303    328    327
    303    304    329    328
    304    305    330    329
    305    306    331    330
    306    307    332    331
    307    308    333    332
    308    309    334    333
    309    310    335    334
    310    311    336    335
    311    312    337    336
    312    313    338    337
    313    314    339    338
    314    315    340    339
    315    316    341    340
    316    317    342    341
    317    318    343    342
    318    319    344    343
    319    320    345    344
    320    321    346    345
    321    322    347    346
    322    323    348    347
    323    324    349    348
    324    300    325    349
    325    326    351    350
    326    327    352    351
    327    328    353    352
    328    329    354    353
    329    330    355    354
    330    331    356    355
    331    332    357    356
    332    333    358    357
    333    334    359    358
    334    335    360    359
    335    336    361    360
    336    337    362    361
    337    338    363    362
    338    339    364    363
    339    340    365    364
    340    341    366    365
    341    342    367    366
    342    343    368    367
    343    344    369    368
    344    345    370    369
    345    346    371    370
    346    347    372    371
    347    348    373    372
    348    349    374    373
    349    325    350    374
    350    351    376    375
    351    352    377    376
    352    353    378    377
    353    354    379    378
    354    355    380    379
    355    356    381    380
    356    357    382    381
    357    358    383    382
    358    359    384    383
    359    360    385    384
    360    361    386    385
    361    362    387    386
    362    363    388    387
    363    364    389    388
    364    365    390    389
    365    366    391    390
    366    367    392    391
    367    368    393    392
    368    369    394    393
    369    370    395    394
    370    371    396    395
    371    372    397    396
    372    373    398    397
    373    374    399    398
    374    350    375    399
    375    376    401    400
    376    377    402    401
    377    378    403    402
    378    379    404    403
    379    380    405    404
    380    381    406    405
    381    382    407    406
    382    383    408    407
    383    384    409    408
    384    385    410    409
    385    386    411    410
    386    387    412    411
    387    388    413    412
    388    389    414    413
    389    390    415    414
    390    391    416    415
    391    392    417    416
    392    393    418    417
    393    394    419    418
    394    395    420    419
    395    396    421    420
    396    397    422    421
    397    398    423    422
    398    399    424    423
    399    375    400    424
    400    401    426    425
    401    402    427    426
    402    403    428    427
    403    404    429    428
    404    405    430    429
    405    406    431    430
    406    407    432    431
    407    408    433    432
    408    409    434    433
    409    410    435    434
    410    411    436    435
    411    412    437    436
    412    413    438    437
    413    414    439    438
    414    415    440    439
    415    416    441    440
    416    417    442    441
    417    418    443    442
    418    419    444    443
    419    420    445    444
    420    421    446    445
    421    422    447    446
    422    423    448    447
    423    424    449    448
    424    400    425    449
    425    426    451    450
    426    427    452    451
    427    428    453    452
    428    429    454    453
    429    430    455    454
    430    431    456    455
    431    432    457    456
    432    433    458    457
    433    434    459    458
    434    435    460    459
    435    436    461    460
    436    437    462    461
    437    438    463    462
    438    439    464    463
    439    440    465    464
    440    441    466    465
    441    442    467    466
    442    443    468    467
    443    444    469    468
    444    445    470    469
    445    446    471    470
    446    447    472    471
    447    448    473    472
    448    449    474    473
    449    425    450    474
    450    451    476    475
    451    452    477    476
    452    453    478    477
    453    454    479    478
    454    455    480    479
    455    456    481    480
    456    457    482    481
    457    458    483    482
    458    459    484    483
    459    460    485    484
    460    461    486    485
    461    462    487    486
    462    463    488    487
    463    464    489    488
    464    465    490    489
    465    466    491    490
    466    467    492    491
    467    468    493    492
    468    469    494    493
    469    470    495    494
    470    471    496    495
    471    472    497    496
    472    473    498    497
    473    474    499    498
    474    450    475    499
    475    476    501    500
    476    477    502    501
    477    478    503    502
    478    479    504    503
    479    480    505    504
    480    481    506    505
    481    482    507    506
    482    483    508    507
    483    484    509    508
    484    485    510    509
    485    486    511    510
    486    487    512    511
    487    488    513    512
    488    489    514    513
    489    490    515    514
    490    491    516    515
    491    492    517    516
    492    493    518    517
    493    494    519    518
    494    495    520    519
    495    496    521    520
    496    497    522    521
    497    498    523    522
    498    499    524    523
    499    475    500    524
    500    501    526    525
    501    502    527    526
    502    503    528    527
    503    504    529    528
    504    505    530    529
    505    506    531    530
    506    507    532    531
    507    508    533    532
    508    509    534    533
    509    510    535    534
    510    511    536    535
    511    512    537    536
    512    513    538    537
    513    514    539    538
    514    515    540    539
    515    516    541    540
    516    517    542    541
    517    518    543    542
    518    519    544    543
    519    520    545    544
    520    521    546    545
    521    522    547    546
    522    523    548    547
    523    524    549    548
    524    500    525    549
    525    526    551    550
    526    527    552    551
    527    528    553    552
    528    529    554    553
    529    530    555    554
    530    531    556    555
    531    532    557    556
    532    533    558    557
    533    534    559    558
    534    535    560    559
    535    536    561    560
    536    537    562    561
    537    538    563    562
    538    539    564    563
    539    540    565    564
    540    541    566    565
    541    542    567    566
    542    543    568    567
    543    544    569    568
    544    545    570    569
    545    546    571    570
    546    547    572    571
    547    548    573    572
    548    549    574    573
    549    525    550    574
    550    551    576    575
    551    552    577    576
    552    553    578    577
    553    554    579    578
    554    555    580    579
    555    556    581    580
    556    557    582    581
    557    558    583    582
    558    559    584    583
    559    560    585    584
    560    561    586    585
    561    562    587    586
    562    563    588    587
    563    564    589    588
    564    565    590    589
    565    566    591    590
    566    567    592    591
    567    568    593    592
    568    569    594    593
    569    570    595    594
    570    571    596    595
    571    572    597    596
    572    573    598    597
    573    574    599    598
    574    550    575    599
    575    576    601    600
    576    577    602    601
    577    578    603    602
    578    579    604    603
    579    580    605    604
    580    581    606    605
    581    582    607    606
    582    583    608    607
    583    584    609    608
    584    585    610    609
    585    586    611    610
    586    587    612    611
    587    588    613    612
    588    589    614    613
    589    590    615    614
    590    591    616    615
    591    592    617    616
    592    593    618    617
    593    594    619    618
    594    595    620    619
    595    596    621    620
    596    597    622    621
    597    598    623    622
    598    599    624    623
    599    575    600    624
        </DataArray>
        <DataArray type="Int32" Name="offsets" format="ascii">
      4
      8
     12
     16
     20
     24
     28
     32
     36
     40
     44
     48
     52
     56
     60
     64
     68
     72
     76
     80
     84
     88
     92
     96
    100
    104
    108
    112
    116
    120
    124
    128
    132
    136
    140
    144
    148
    152
    156
    160
    164
    168
    172
    176
    180
    184
    188
    192
    196
    200
    204
    208
    212
    216
    220
    224
    228
    232
    236
    240
    244
    248
    252
    256
    260
    264
    268
    272
    276
    280
    284
    288
    292
    296
    300
    304
    308
    312
    316
    320
    324
    328
    332
    336
    340
    344
    348
    352
    356
    360
    364
    368
    372
    376
    380
    384
    388
    392
    396
    400
    404
    408
    412
    416
    420
    424
    428
    432
    436
    440
    444
    448
    452
    456
    460
    464
    468
    472
    476
    480
    484
    488
    492
    496
    500
    504
    508
    512
    516
    520
    524
    528
    532
    536
    540
    544
    548
    552
    556
    560
    564
    568
    572
    576
    580
    584
    588
    592
    596
    600
    604
    608
    612
    616
    620
    624
    628
    632
    636
    640
    644
    648
    652
    656
    660
    664
    668
    672
    676
    680
    684
    688
    692
    696
    700
    704
    708
    712
    716
    720
    724
    728
    732
    736
    740
    744
    748
    752
    756
    760
    764
    768
    772
    776
    780
    784
    788
    792
    796
    800
    804
    808
    812
    816
    820
    824
    828
    832
    836
    840
    844
    848
    852
    856
    860
    864
    868
    872
    876
    880
    884
    888
    892
    896
    900
    904
    908
    912
    916
    920
    924
    928
    932
    936
    940
    944
    948
    952
    956
    960
    964
    968
    972
    976
    980
    984
    988
    992
    996
   1000
   1004
   1008
   1012
   1016
   1020
   1024
   1028
   1032
   1036
   1040
   1044
   1048
   1052
   1056
   1060
   1064
   1068
   1072
   1076
   1080
   1084
   1088
   1092
   1096
   1100
   1104
   1108
   1112
   1116
   1120
   1124
   1128
   1132
   1136
   1140
   1144
   1148
   1152
   1156
   1160
   1164
   1168
   1172
   1176
   1180
   1184
   1188
   1192
   1196
   1200
   1204
   1208
   1212
   1216
   1220
   1224
   1228
   1232
   1236
   1240
   1244
   1248
   1252
   1256
   1260
   1264
   1268
   1272
   1276
   1280
   1284
   1288
   1292
   1296
   1300
   1304
   1308
   1312
   1316
   1320
   1324
   1328
   1332
   1336
   1340
   1344
   1348
   1352
   1356
   1360
   1364
   1368
   1372
   1376
   1380
   1384
   1388
   1392
   1396
   1400
   1404
   1408
   1412
   1416
   1420
   1424
   1428
   1432
   1436
   1440
   1444
   1448
   1452
   1456
   1460
   1464
   1468
   1472
   1476
   1480
   1484
   1488
   1492
   1496
   1500
   1504
   1508
   1512
   1516
   1520
   1524
   1528
   1532
   1536
   1540
   1544
   1548
   1552
   1556
   1560
   1564
   1568
   1572
   1576
   1580
   1584
   1588
   1592
   1596
   1600
   1604
   1608
   1612
   1616
   1620
   1624
   1628
   1632
   1636
   1640
   1644
   1648
   1652
   1656
   1660
   1664
   1668
   1672
   1676
   1680
   1684
   1688
   1692
   1696
   1700
   1704
   1708
   1712
   1716
   1720
   1724
   1728
   1732
   1736
   1740
   1744
   1748
   1752
   1756
   1760
   1764
   1768
   1772
   1776
   1780
   1784
   1788
   1792
   1796
   1800
   1804
   1808
   1812
   1816
   1820
   1824
   1828
   1832
   1836
   1840
   1844
   1848
   1852
   1856
   1860
   1864
   1868
   1872
   1876
   1880
   1884
   1888
   1892
   1896
   1900
   1904
   1908
   1912
   1916
   1920
   1924
   1928
   1932
   1936
   1940
   1944
   1948
   1952
   1956
   1960
   1964
   1968
   1972
   1976
   1980
   1984
   1988
   1992
   1996
   2000
   2004
   2008
   2012
   2016
   2020
   2024
   2028
   2032
   2036
   2040
   2044
   2048
   2052
   2056
   2060
   2064
   2068
   2072
   2076
   2080
   2084
   2088
   2092
   2096
   2100
   2104
   2108
   2112
   2116
   2120
   2124
   2128
   2132
   2136
   2140
   2144
   2148
   2152
   2156
   2160
   2164
   2168
   2172
   2176
   2180
   2184
   2188
   2192
   2196
   2200
   2204
   2208
   2212
   2216
   2220
   2224
   2228
   2232
   2236
   2240
   2244
   2248
   2252
   2256
   2260
   2264
   2268
   2272
   2276
   2280
   2284
   2288
   2292
   2296
   2300
   2304
   2308
   2312
   2316
   2320
   2324
   2328
   2332
   2336
   2340
   2344
   2348
   2352
   2356
   2360
   2364
   2368
   2372
   2376
   2380
   2384
   2388
   2392
   2396
   2400
        </DataArray>
      </Polys>
    </Piece>
  </PolyData>
</VTKFile>
