<?xml version="1.0"?>
<VTKFile type="PolyData" version="0.1" byte_order="LittleEndian">
  <PolyData>
    <Piece NumberOfPoints="     19" NumberOfVerts="  0" NumberOfLines="     18"
           NumberOfStrips="  0" NumberOfPolys="      0">
      <Points>
        <DataArray type="Float32" NumberOfComponents="3" format="ascii">
                      -5.18920                      -0.47012                      88.58820
                      -5.36248                      -0.89518                      87.30089
                      -5.73384                      -1.65507                      84.69964
                      -6.11693                      -2.37225                      82.08574
                      -6.60282                      -3.24322                      78.81074
                      -7.12952                      -4.42495                      74.91870
                      -7.62880                      -5.73047                      71.06421
                      -8.13027                      -7.03841                      67.21082
                      -8.63151                      -8.35052                      63.35879
                      -9.13338                      -9.66497                      59.50762
                      -9.63732                     -10.97826                      55.65634
                     -10.14255                     -12.29183                      51.80533
                     -10.64973                     -13.60565                      47.95466
                     -11.15955                     -14.91968                      44.10442
                     -11.67030                     -16.23380                      40.25432
                     -12.09656                     -17.32895                      37.04599
                     -12.43789                     -18.21257                      34.48191
                     -12.77902                     -19.14840                      31.93521
                     -12.95139                     -19.57672                      30.64896
        </DataArray>
      </Points>
      <PointData>
        <DataArray type="Float32" Name="TranslationalVelocity" NumberOfComponents="3" format="ascii">
                      -0.09929                       3.44808                      -1.13489
                      -0.18906                       6.59228                      -2.16099
                      -0.34955                      12.95018                      -3.99538
                      -0.50102                      19.34109                      -5.72665
                      -0.68497                      27.34963                      -7.82920
                      -0.93455                      36.85633                     -10.68193
                      -1.21027                      46.26660                     -13.83349
                      -1.48651                      55.67468                     -16.99088
                      -1.76363                      65.07943                     -20.15833
                      -2.04124                      74.48224                     -23.33144
                      -2.31860                      83.88574                     -26.50175
                      -2.59603                      93.28887                     -29.67273
                      -2.87351                     102.69157                     -32.84434
                      -3.15103                     112.09382                     -36.01643
                      -3.42857                     121.49589                     -39.18873
                      -3.65987                     129.33092                     -41.83247
                      -3.84648                     135.59273                     -43.96552
                      -4.04413                     141.81258                     -46.22466
                      -4.13459                     144.95402                     -47.25861
        </DataArray>
        <DataArray type="Float32" Name="RotationalVelocity" NumberOfComponents="3" format="ascii">
                       2.41402                      -0.00000                      -0.21120
                       2.41402                      -0.00000                      -0.21120
                       2.41402                      -0.00000                      -0.21120
                       2.41402                      -0.00000                      -0.21120
                       2.41402                      -0.00000                      -0.21120
                       2.41402                      -0.00000                      -0.21120
                       2.41402                      -0.00000                      -0.21120
                       2.41402                      -0.00000                      -0.21120
                       2.41402                      -0.00000                      -0.21120
                       2.41402                      -0.00000                      -0.21120
                       2.41402                      -0.00000                      -0.21120
                       2.41402                      -0.00000                      -0.21120
                       2.41402                      -0.00000                      -0.21120
                       2.41402                      -0.00000                      -0.21120
                       2.41402                      -0.00000                      -0.21120
                       2.41402                      -0.00000                      -0.21120
                       2.41402                      -0.00000                      -0.21120
                       2.41402                      -0.00000                      -0.21120
                       2.41402                      -0.00000                      -0.21120
        </DataArray>
        <DataArray type="Float32" Name="TranslationalAcceleration" NumberOfComponents="3" format="ascii">
                       0.72743                       2.78837                       8.31461
                       1.39077                       5.30968                      15.89652
                       2.73226                       9.82300                      31.22985
                       4.08080                      14.08576                      46.64372
                       5.77072                      19.26466                      65.95958
                       7.77652                      26.28044                      88.88599
                       9.76174                      34.02235                     111.57721
                      11.74650                      41.77844                     134.26310
                      13.73055                      49.55896                     156.94089
                      15.71418                      57.35321                     179.61391
                      17.69796                      65.14068                     202.28865
                      19.68167                      72.92978                     224.96248
                      21.66528                      80.72038                     247.63529
                      23.64880                      88.51217                     270.30698
                      25.63228                      96.30447                     292.97825
                      27.28517                     102.79842                     311.87089
                      28.60616                     108.03748                     326.96987
                      29.91820                     113.58288                     341.96654
                      30.58094                     116.12327                     349.54171
        </DataArray>
        <DataArray type="Float32" Name="OrientationX" NumberOfComponents="3" format="ascii">
                       0.99164                      -0.01368                      -0.12833
                       0.99164                      -0.01368                      -0.12833
                       0.99164                      -0.01368                      -0.12833
                       0.99164                      -0.01368                      -0.12833
                       0.99164                      -0.01368                      -0.12833
                       0.99164                      -0.01368                      -0.12833
                       0.99164                      -0.01368                      -0.12833
                       0.99164                      -0.01368                      -0.12833
                       0.99164                      -0.01368                      -0.12833
                       0.99164                      -0.01368                      -0.12833
                       0.99164                      -0.01368                      -0.12833
                       0.99164                      -0.01368                      -0.12833
                       0.99164                      -0.01368                      -0.12833
                       0.99164                      -0.01368                      -0.12833
                       0.99164                      -0.01368                      -0.12833
                       0.99164                      -0.01368                      -0.12833
                       0.99164                      -0.01368                      -0.12833
                       0.99164                      -0.01368                      -0.12833
                       0.99164                      -0.01368                      -0.12833
        </DataArray>
        <DataArray type="Float32" Name="OrientationY" NumberOfComponents="3" format="ascii">
                       0.02734                      -0.94952                       0.31252
                       0.02734                      -0.94952                       0.31252
                       0.02734                      -0.94952                       0.31252
                       0.02734                      -0.94952                       0.31252
                       0.02734                      -0.94952                       0.31252
                       0.02734                      -0.94952                       0.31252
                       0.02734                      -0.94952                       0.31252
                       0.02734                      -0.94952                       0.31252
                       0.02734                      -0.94952                       0.31252
                       0.02734                      -0.94952                       0.31252
                       0.02734                      -0.94952                       0.31252
                       0.02734                      -0.94952                       0.31252
                       0.02734                      -0.94952                       0.31252
                       0.02734                      -0.94952                       0.31252
                       0.02734                      -0.94952                       0.31252
                       0.02734                      -0.94952                       0.31252
                       0.02734                      -0.94952                       0.31252
                       0.02734                      -0.94952                       0.31252
                       0.02734                      -0.94952                       0.31252
        </DataArray>
        <DataArray type="Float32" Name="OrientationZ" NumberOfComponents="3" format="ascii">
                      -0.12613                      -0.31342                      -0.94120
                      -0.12613                      -0.31342                      -0.94120
                      -0.12613                      -0.31342                      -0.94120
                      -0.12613                      -0.31342                      -0.94120
                      -0.12613                      -0.31342                      -0.94120
                      -0.12613                      -0.31342                      -0.94120
                      -0.12613                      -0.31342                      -0.94120
                      -0.12613                      -0.31342                      -0.94120
                      -0.12613                      -0.31342                      -0.94120
                      -0.12613                      -0.31342                      -0.94120
                      -0.12613                      -0.31342                      -0.94120
                      -0.12613                      -0.31342                      -0.94120
                      -0.12613                      -0.31342                      -0.94120
                      -0.12613                      -0.31342                      -0.94120
                      -0.12613                      -0.31342                      -0.94120
                      -0.12613                      -0.31342                      -0.94120
                      -0.12613                      -0.31342                      -0.94120
                      -0.12613                      -0.31342                      -0.94120
                      -0.12613                      -0.31342                      -0.94120
        </DataArray>
        <DataArray type="Float32" Name="Force" NumberOfComponents="3" format="ascii">
                       0.49197                     -17.08500                       5.62329
                     148.07075                    -104.61508                      14.99331
                     234.60597                    -295.67908                      67.02004
                     243.01506                    -430.40272                     110.75540
                    2795.46779                     245.73481                    -456.44909
                    3523.35824                     186.45822                    -534.25491
                    4381.30406                     148.70592                    -636.65692
                    6074.70602                     131.63396                    -857.90488
                    6704.05081                      37.47863                    -910.89015
                    7699.17694                      -1.73848                   -1031.18793
                    9712.13991                     -81.70291                   -1274.31739
                   10868.62353                    -124.02444                   -1415.20493
                   11891.25161                     -93.76805                   -1562.32256
                   12708.38488                    -124.63477                   -1661.54814
                   13370.58236                    -148.96032                   -1742.18896
                   13778.21525                    -163.46587                   -1791.98558
                   13717.46156                    -154.19704                   -1786.93045
                   11050.82164                     -39.33313                   -1467.82307
                    8908.35960                    -248.26397                   -1111.13881
        </DataArray>
        <DataArray type="Float32" Name="Moment" NumberOfComponents="3" format="ascii">
                       0.00000                       0.00000                       0.00000
                       0.00000                       0.00000                       0.00000
                       0.00000                       0.00000                       0.00000
                       0.00000                       0.00000                       0.00000
                     143.18605                     355.79583                    1068.47275
                     288.24469                     716.24476                    2150.91896
                     393.90507                     978.79495                    2939.37037
                     585.41031                    1454.65671                    4368.40713
                     830.65826                    2064.06103                    6198.47887
                     939.27315                    2333.95272                    7008.97718
                    1023.16187                    2542.40360                    7634.96561
                    1086.94868                    2700.90424                    8110.95101
                     887.09943                    2204.30888                    6619.65020
                     884.40780                    2197.62056                    6599.56485
                     857.43382                    2130.59428                    6398.28157
                     817.06310                    2030.27911                    6097.03008
                     731.01920                    1816.47293                    5454.95939
                     377.85151                     938.90426                    2819.57661
                     368.70877                     916.18592                    2751.35232
        </DataArray>
      </PointData>
      <Lines>
        <DataArray type="Int32" Name="connectivity" format="ascii">
      0      1
      1      2
      2      3
      3      4
      4      5
      5      6
      6      7
      7      8
      8      9
      9     10
     10     11
     11     12
     12     13
     13     14
     14     15
     15     16
     16     17
     17     18
        </DataArray>
        <DataArray type="Int32" Name="offsets" format="ascii">
      2
      4
      6
      8
     10
     12
     14
     16
     18
     20
     22
     24
     26
     28
     30
     32
     34
     36
        </DataArray>
      </Lines>
    </Piece>
  </PolyData>
</VTKFile>
