<?xml version="1.0"?>
<VTKFile type="PolyData" version="0.1" byte_order="LittleEndian">
  <PolyData>
    <Piece NumberOfPoints="    625" NumberOfVerts="  0" NumberOfLines="      0"
           NumberOfStrips="  0" NumberOfPolys="    600">
      <Points>
        <DataArray type="Float32" NumberOfComponents="3" format="ascii">
                      -4.87141                      -0.27030                      91.46983
                      -4.87141                      -0.27030                      91.46983
                      -4.87141                      -0.27030                      91.46983
                      -4.87141                      -0.27030                      91.46983
                      -4.87141                      -0.27030                      91.46983
                      -4.87141                      -0.27030                      91.46983
                      -4.87141                      -0.27030                      91.46983
                      -4.87141                      -0.27030                      91.46983
                      -4.87141                      -0.27030                      91.46983
                      -4.87141                      -0.27030                      91.46983
                      -4.87141                      -0.27030                      91.46983
                      -4.87141                      -0.27030                      91.46983
                      -4.87141                      -0.27030                      91.46983
                      -4.87141                      -0.27030                      91.46983
                      -4.87141                      -0.27030                      91.46983
                      -4.87141                      -0.27030                      91.46983
                      -4.87141                      -0.27030                      91.46983
                      -4.87141                      -0.27030                      91.46983
                      -4.87141                      -0.27030                      91.46983
                      -4.87141                      -0.27030                      91.46983
                      -4.87141                      -0.27030                      91.46983
                      -4.87141                      -0.27030                      91.46983
                      -4.87141                      -0.27030                      91.46983
                      -4.87141                      -0.27030                      91.46983
                      -4.87141                      -0.27030                      91.46983
                      -4.28493                      -0.24777                      91.29510
                      -4.30603                      -0.39441                      91.26998
                      -4.36333                      -0.53184                      91.24972
                      -4.45323                      -0.65142                      91.23560
                      -4.57008                      -0.74564                      91.22849
                      -4.70653                      -0.80858                      91.22886
                      -4.85402                      -0.83627                      91.23667
                      -5.00328                      -0.82699                      91.25143
                      -5.14492                      -0.78132                      91.27222
                      -5.27005                      -0.70212                      91.29774
                      -5.37080                      -0.59437                      91.32636
                      -5.44085                      -0.46484                      91.35631
                      -5.47579                      -0.32168                      91.38570
                      -5.47343                      -0.17387                      91.41267
                      -5.43392                      -0.03070                      91.43554
                      -5.35973                       0.09883                      91.45287
                      -5.25554                       0.20657                      91.46357
                      -5.12788                       0.28577                      91.46697
                      -4.98478                       0.33145                      91.46285
                      -4.83523                       0.34073                      91.45147
                      -4.68862                       0.31303                      91.43355
                      -4.55418                       0.25010                      91.41021
                      -4.44034                       0.15588                      91.38293
                      -4.35426                       0.03630                      91.35341
                      -4.30135                      -0.10113                      91.32350
                      -4.06684                      -0.22525                      91.15260
                      -4.09603                      -0.42807                      91.11785
                      -4.17528                      -0.61816                      91.08983
                      -4.29962                      -0.78355                      91.07029
                      -4.46124                      -0.91387                      91.06047
                      -4.64998                      -1.00091                      91.06097
                      -4.85397                      -1.03922                      91.07178
                      -5.06041                      -1.02638                      91.09220
                      -5.25632                      -0.96321                      91.12096
                      -5.42939                      -0.85366                      91.15624
                      -5.56874                      -0.70463                      91.19584
                      -5.66563                      -0.52548                      91.23726
                      -5.71396                      -0.32747                      91.27790
                      -5.71070                      -0.12303                      91.31521
                      -5.65604                       0.07499                      91.34685
                      -5.55343                       0.25414                      91.37081
                      -5.40932                       0.40317                      91.38561
                      -5.23275                       0.51272                      91.39031
                      -5.03483                       0.57589                      91.38461
                      -4.82798                       0.58873                      91.36887
                      -4.62521                       0.55042                      91.34409
                      -4.43925                       0.46337                      91.31181
                      -4.28180                       0.33306                      91.27407
                      -4.16274                       0.16766                      91.23324
                      -4.08955                      -0.02242                      91.19188
                      -3.91517                      -0.20272                      91.01590
                      -3.95010                      -0.44542                      90.97433
                      -4.04494                      -0.67287                      90.94080
                      -4.19372                      -0.87078                      90.91742
                      -4.38711                      -1.02671                      90.90567
                      -4.61295                      -1.13087                      90.90627
                      -4.85705                      -1.17671                      90.91920
                      -5.10407                      -1.16135                      90.94363
                      -5.33849                      -1.08576                      90.97804
                      -5.54558                      -0.95468                      91.02027
                      -5.71233                      -0.77635                      91.06765
                      -5.82827                      -0.56198                      91.11721
                      -5.88610                      -0.32504                      91.16584
                      -5.88219                      -0.08041                      91.21049
                      -5.81679                       0.15654                      91.24834
                      -5.69401                       0.37091                      91.27702
                      -5.52157                       0.54923                      91.29473
                      -5.31029                       0.68031                      91.30035
                      -5.07345                       0.75591                      91.29353
                      -4.82594                       0.77127                      91.27470
                      -4.58331                       0.72543                      91.24504
                      -4.36080                       0.62127                      91.20642
                      -4.17239                       0.46534                      91.16126
                      -4.02992                       0.26743                      91.11240
                      -3.94235                       0.03998                      91.06291
                      -3.80049                      -0.18020                      90.88245
                      -3.83985                      -0.45369                      90.83560
                      -3.94672                      -0.71000                      90.79781
                      -4.11438                      -0.93302                      90.77147
                      -4.33230                      -1.10873                      90.75822
                      -4.58679                      -1.22610                      90.75890
                      -4.86186                      -1.27776                      90.77347
                      -5.14022                      -1.26045                      90.80101
                      -5.40438                      -1.17526                      90.83978
                      -5.63775                      -1.02756                      90.88736
                      -5.82566                      -0.82660                      90.94076
                      -5.95630                      -0.58504                      90.99661
                      -6.02147                      -0.31803                      91.05141
                      -6.01707                      -0.04236                      91.10172
                      -5.94337                       0.22464                      91.14437
                      -5.80502                       0.46621                      91.17669
                      -5.61069                       0.66716                      91.19665
                      -5.37261                       0.81487                      91.20298
                      -5.10573                       0.90006                      91.19529
                      -4.82681                       0.91737                      91.17408
                      -4.55340                       0.86571                      91.14066
                      -4.30265                       0.74834                      91.09713
                      -4.09034                       0.57262                      91.04625
                      -3.92980                       0.34960                      90.99119
                      -3.83112                       0.09330                      90.93542
                      -3.71127                      -0.15767                      90.75122
                      -3.75416                      -0.45570                      90.70016
                      -3.87062                      -0.73501                      90.65899
                      -4.05333                      -0.97804                      90.63028
                      -4.29080                      -1.16952                      90.61585
                      -4.56813                      -1.29742                      90.61659
                      -4.86787                      -1.35371                      90.63246
                      -5.17121                      -1.33485                      90.66247
                      -5.45908                      -1.24202                      90.70472
                      -5.71338                      -1.08106                      90.75657
                      -5.91815                      -0.86208                      90.81476
                      -6.06051                      -0.59883                      90.87562
                      -6.13153                      -0.30787                      90.93534
                      -6.12673                      -0.00747                      90.99017
                      -6.04643                       0.28349                      91.03665
                      -5.89566                       0.54673                      91.07186
                      -5.68389                       0.76572                      91.09361
                      -5.42445                       0.92668                      91.10051
                      -5.13362                       1.01951                      91.09214
                      -4.82968                       1.03837                      91.06901
                      -4.53173                       0.98208                      91.03259
                      -4.25849                       0.85418                      90.98517
                      -4.02713                       0.66269                      90.92971
                      -3.85218                       0.41966                      90.86972
                      -3.74465                       0.14036                      90.80895
                      -3.64161                      -0.13515                      90.62170
                      -3.68734                      -0.45292                      90.56726
                      -3.81151                      -0.75072                      90.52336
                      -4.00632                      -1.00984                      90.49276
                      -4.25952                      -1.21401                      90.47736
                      -4.55521                      -1.35038                      90.47815
                      -4.87481                      -1.41040                      90.49508
                      -5.19823                      -1.39029                      90.52707
                      -5.50516                      -1.29131                      90.57213
                      -5.77631                      -1.11969                      90.62741
                      -5.99464                      -0.88620                      90.68945
                      -6.14643                      -0.60553                      90.75434
                      -6.22215                      -0.29530                      90.81802
                      -6.21704                       0.02500                      90.87647
                      -6.13141                       0.33523                      90.92603
                      -5.97066                       0.61591                      90.96358
                      -5.74487                       0.84939                      90.98676
                      -5.46824                       1.02102                      90.99412
                      -5.15815                       1.11999                      90.98520
                      -4.83409                       1.14010                      90.96054
                      -4.51640                       1.08009                      90.92171
                      -4.22507                       0.94371                      90.87114
                      -3.97838                       0.73955                      90.81202
                      -3.79185                       0.48042                      90.74805
                      -3.67719                       0.18262                      90.68325
                      -3.58802                      -0.11262                      90.49359
                      -3.63602                      -0.44618                      90.43645
                      -3.76636                      -0.75878                      90.39037
                      -3.97085                      -1.03078                      90.35824
                      -4.23663                      -1.24509                      90.34208
                      -4.54702                      -1.38824                      90.34291
                      -4.88250                      -1.45124                      90.36067
                      -5.22200                      -1.43013                      90.39426
                      -5.54418                      -1.32624                      90.44155
                      -5.82880                      -1.14609                      90.49958
                      -6.05798                      -0.90100                      90.56470
                      -6.21731                      -0.60638                      90.63282
                      -6.29679                      -0.28073                      90.69966
                      -6.29142                       0.05548                      90.76102
                      -6.20154                       0.38113                      90.81304
                      -6.03280                       0.67575                      90.85246
                      -5.79580                       0.92084                      90.87679
                      -5.50542                       1.10099                      90.88452
                      -5.17992                       1.20489                      90.87515
                      -4.83975                       1.22600                      90.84927
                      -4.50628                       1.16300                      90.80851
                      -4.20047                       1.01985                      90.75543
                      -3.94153                       0.80554                      90.69336
                      -3.74573                       0.53354                      90.62621
                      -3.62537                       0.22094                      90.55820
                      -3.54830                      -0.09010                      90.36669
                      -3.59809                      -0.43604                      90.30743
                      -3.73327                      -0.76025                      90.25963
                      -3.94535                      -1.04235                      90.22631
                      -4.22100                      -1.26461                      90.20956
                      -4.54291                      -1.41308                      90.21042
                      -4.89084                      -1.47842                      90.22884
                      -5.24294                      -1.45652                      90.26367
                      -5.57708                      -1.34877                      90.31272
                      -5.87227                      -1.16193                      90.37291
                      -6.10996                      -0.90775                      90.44044
                      -6.27521                      -0.60218                      90.51109
                      -6.35764                      -0.26444                      90.58041
                      -6.35208                       0.08425                      90.64405
                      -6.25886                       0.42199                      90.69800
                      -6.08385                       0.72755                      90.73888
                      -5.83805                       0.98173                      90.76412
                      -5.53689                       1.16857                      90.77213
                      -5.19931                       1.27633                      90.76241
                      -4.84651                       1.29822                      90.73557
                      -4.50066                       1.23288                      90.69330
                      -4.18349                       1.08442                      90.63825
                      -3.91494                       0.86215                      90.57388
                      -3.71187                       0.58005                      90.50424
                      -3.58704                       0.25584                      90.43370
                      -3.52101                      -0.06757                      90.24088
                      -3.57214                      -0.42285                      90.18002
                      -3.71096                      -0.75580                      90.13094
                      -3.92876                      -1.04551                      90.09671
                      -4.21185                      -1.27378                      90.07950
                      -4.54245                      -1.42625                      90.08039
                      -4.89977                      -1.49335                      90.09931
                      -5.26137                      -1.47086                      90.13508
                      -5.60453                      -1.36020                      90.18545
                      -5.90768                      -1.16832                      90.24726
                      -6.15178                      -0.90728                      90.31662
                      -6.32149                      -0.59347                      90.38918
                      -6.40614                      -0.24662                      90.46037
                      -6.40043                       0.11148                      90.52572
                      -6.30470                       0.45833                      90.58113
                      -6.12496                       0.77213                      90.62311
                      -5.87253                       1.03318                      90.64903
                      -5.56325                       1.22506                      90.65726
                      -5.21656                       1.33572                      90.64728
                      -4.85424                       1.35820                      90.61971
                      -4.49906                       1.29110                      90.57630
                      -4.17334                       1.13863                      90.51977
                      -3.89754                       0.91037                      90.45366
                      -3.68899                       0.62066                      90.38214
                      -3.56079                       0.28770                      90.30969
                      -3.50518                      -0.04505                      90.11607
                      -3.55724                      -0.40685                      90.05409
                      -3.69862                      -0.74591                      90.00411
                      -3.92041                      -1.04093                      89.96926
                      -4.20870                      -1.27339                      89.95174
                      -4.54536                      -1.42866                      89.95264
                      -4.90924                      -1.49699                      89.97190
                      -5.27747                      -1.47409                      90.00833
                      -5.62693                      -1.36140                      90.05963
                      -5.93564                      -1.16600                      90.12257
                      -6.18422                      -0.90016                      90.19320
                      -6.35704                      -0.58060                      90.26709
                      -6.44325                      -0.22739                      90.33959
                      -6.43743                       0.13729                      90.40614
                      -6.33994                       0.49050                      90.46257
                      -6.15691                       0.81007                      90.50532
                      -5.89985                       1.07590                      90.53171
                      -5.58489                       1.27130                      90.54009
                      -5.23184                       1.38399                      90.52993
                      -4.86287                       1.40689                      90.50186
                      -4.50117                       1.33856                      90.45765
                      -4.16947                       1.18329                      90.40007
                      -3.88861                       0.95084                      90.33276
                      -3.67624                       0.65581                      90.25992
                      -3.54569                       0.31675                      90.18615
                      -3.50019                      -0.02252                      89.99221
                      -3.55281                      -0.38818                      89.92957
                      -3.69569                      -0.73085                      89.87906
                      -3.91985                      -1.02902                      89.84384
                      -4.21121                      -1.26395                      89.82612
                      -4.55146                      -1.42088                      89.82703
                      -4.91921                      -1.48994                      89.84651
                      -5.29137                      -1.46680                      89.88332
                      -5.64455                      -1.35290                      89.93517
                      -5.95656                      -1.15542                      89.99878
                      -6.20779                      -0.88675                      90.07017
                      -6.38245                      -0.56378                      90.14484
                      -6.46958                      -0.20680                      90.21811
                      -6.46370                       0.16175                      90.28537
                      -6.36517                       0.51873                      90.34240
                      -6.18019                       0.84170                      90.38561
                      -5.92038                       1.11037                      90.41228
                      -5.60207                       1.30786                      90.42075
                      -5.24525                       1.42175                      90.41048
                      -4.87235                       1.44489                      90.38211
                      -4.50680                       1.37583                      90.33743
                      -4.17157                       1.21890                      90.27924
                      -3.88771                       0.98397                      90.21120
                      -3.67307                       0.68580                      90.13759
                      -3.54113                       0.34313                      90.06303
                      -3.50571                       0.00000                      89.86927
                      -3.55851                      -0.36693                      89.80641
                      -3.70189                      -0.71080                      89.75572
                      -3.92684                      -1.01001                      89.72038
                      -4.21921                      -1.24576                      89.70260
                      -4.56064                      -1.40323                      89.70352
                      -4.92968                      -1.47253                      89.72306
                      -5.30314                      -1.44931                      89.76000
                      -5.65756                      -1.33502                      89.81203
                      -5.97065                      -1.13685                      89.87586
                      -6.22276                      -0.86725                      89.94750
                      -6.39803                      -0.54315                      90.02243
                      -6.48546                      -0.18492                      90.09596
                      -6.47956                       0.18492                      90.16345
                      -6.38069                       0.54315                      90.22068
                      -6.19506                       0.86725                      90.26404
                      -5.93435                       1.13685                      90.29081
                      -5.61492                       1.33502                      90.29931
                      -5.25686                       1.44931                      90.28900
                      -4.88266                       1.47253                      90.26053
                      -4.51583                       1.40323                      90.21569
                      -4.17943                       1.24576                      90.15730
                      -3.89458                       1.01001                      90.08903
                      -3.67919                       0.71080                      90.01516
                      -3.54680                       0.36693                      89.94034
                      -3.52162                       0.02252                      89.74724
                      -3.57424                      -0.34313                      89.68460
                      -3.71712                      -0.68580                      89.63408
                      -3.94128                      -0.98397                      89.59886
                      -4.23264                      -1.21890                      89.58115
                      -4.57289                      -1.37583                      89.58206
                      -4.94065                      -1.44489                      89.60154
                      -5.31281                      -1.42175                      89.63835
                      -5.66598                      -1.30786                      89.69020
                      -5.97799                      -1.11037                      89.75381
                      -6.22922                      -0.84170                      89.82519
                      -6.40388                      -0.51873                      89.89987
                      -6.49101                      -0.16175                      89.97314
                      -6.48513                       0.20680                      90.04040
                      -6.38660                       0.56378                      90.09743
                      -6.20162                       0.88675                      90.14064
                      -5.94181                       1.15542                      90.16731
                      -5.62350                       1.35290                      90.17578
                      -5.26669                       1.46680                      90.16551
                      -4.89379                       1.48994                      90.13714
                      -4.52823                       1.42088                      90.09246
                      -4.19300                       1.26395                      90.03427
                      -3.90914                       1.02902                      89.96623
                      -3.69450                       0.73085                      89.89262
                      -3.56257                       0.38818                      89.81806
                      -3.54804                       0.04505                      89.62613
                      -3.60011                      -0.31675                      89.56415
                      -3.74148                      -0.65581                      89.51417
                      -3.96328                      -0.95084                      89.47932
                      -4.25156                      -1.18329                      89.46179
                      -4.58822                      -1.33856                      89.46269
                      -4.95210                      -1.40689                      89.48196
                      -5.32034                      -1.38399                      89.51839
                      -5.66979                      -1.27130                      89.56968
                      -5.97851                      -1.07590                      89.63263
                      -6.22709                      -0.81007                      89.70326
                      -6.39991                      -0.49050                      89.77715
                      -6.48612                      -0.13729                      89.84964
                      -6.48030                       0.22738                      89.91620
                      -6.38281                       0.58060                      89.97262
                      -6.19978                       0.90016                      90.01538
                      -5.94271                       1.16600                      90.04177
                      -5.62776                       1.36140                      90.05015
                      -5.27470                       1.47409                      90.03998
                      -4.90574                       1.49699                      90.01191
                      -4.54404                       1.42865                      89.96770
                      -4.21234                       1.27339                      89.91013
                      -3.93148                       1.04093                      89.84281
                      -3.71910                       0.74591                      89.76998
                      -3.58855                       0.40685                      89.69620
                      -3.58531                       0.06757                      89.50596
                      -3.63643                      -0.28770                      89.44510
                      -3.77526                      -0.62066                      89.39602
                      -3.99306                      -0.91037                      89.36180
                      -4.27615                      -1.13863                      89.34459
                      -4.60674                      -1.29110                      89.34547
                      -4.96407                      -1.35820                      89.36440
                      -5.32567                      -1.33572                      89.40017
                      -5.66882                      -1.22506                      89.45054
                      -5.97198                      -1.03318                      89.51235
                      -6.21608                      -0.77213                      89.58171
                      -6.38579                      -0.45833                      89.65426
                      -6.47044                      -0.11148                      89.72545
                      -6.46472                       0.24662                      89.79081
                      -6.36899                       0.59347                      89.84621
                      -6.18926                       0.90728                      89.88820
                      -5.93683                       1.16832                      89.91412
                      -5.62755                       1.36020                      89.92234
                      -5.28085                       1.47086                      89.91236
                      -4.91854                       1.49335                      89.88480
                      -4.56336                       1.42625                      89.84139
                      -4.23763                       1.27378                      89.78485
                      -3.96183                       1.04551                      89.71874
                      -3.75328                       0.75580                      89.64722
                      -3.62509                       0.42285                      89.57478
                      -3.63403                       0.09010                      89.38680
                      -3.68382                      -0.25585                      89.32754
                      -3.81900                      -0.58005                      89.27975
                      -4.03108                      -0.86215                      89.24643
                      -4.30673                      -1.08442                      89.22967
                      -4.62864                      -1.23288                      89.23053
                      -4.97657                      -1.29822                      89.24895
                      -5.32867                      -1.27633                      89.28379
                      -5.66281                      -1.16857                      89.33283
                      -5.95800                      -0.98173                      89.39302
                      -6.19569                      -0.72755                      89.46056
                      -6.36094                      -0.42199                      89.53121
                      -6.44337                      -0.08425                      89.60053
                      -6.43780                       0.26444                      89.66416
                      -6.34459                       0.60218                      89.71812
                      -6.16958                       0.90775                      89.75900
                      -5.92377                       1.16193                      89.78423
                      -5.62262                       1.34877                      89.79225
                      -5.28504                       1.45652                      89.78253
                      -4.93224                       1.47842                      89.75569
                      -4.58639                       1.41308                      89.71341
                      -4.26922                       1.26461                      89.65836
                      -4.00067                       1.04235                      89.59399
                      -3.79760                       0.76025                      89.52435
                      -3.67277                       0.43604                      89.45381
                      -3.69518                       0.11262                      89.26873
                      -3.74318                      -0.22094                      89.21159
                      -3.87352                      -0.53354                      89.16551
                      -4.07801                      -0.80554                      89.13338
                      -4.34380                      -1.01985                      89.11722
                      -4.65418                      -1.16300                      89.11805
                      -4.98966                      -1.22600                      89.13582
                      -5.32916                      -1.20489                      89.16940
                      -5.65134                      -1.10099                      89.21669
                      -5.93596                      -0.92084                      89.27472
                      -6.16514                      -0.67575                      89.33984
                      -6.32447                      -0.38113                      89.40796
                      -6.40395                      -0.05548                      89.47480
                      -6.39859                       0.28073                      89.53616
                      -6.30871                       0.60638                      89.58818
                      -6.13996                       0.90100                      89.62760
                      -5.90296                       1.14609                      89.65193
                      -5.61258                       1.32624                      89.65966
                      -5.28708                       1.43013                      89.65029
                      -4.94691                       1.45124                      89.62441
                      -4.61345                       1.38824                      89.58365
                      -4.30763                       1.24509                      89.53057
                      -4.04869                       1.03078                      89.46850
                      -3.85289                       0.75878                      89.40135
                      -3.73253                       0.44618                      89.33334
                      -3.77020                       0.13515                      89.15187
                      -3.81593                      -0.18262                      89.09743
                      -3.94010                      -0.48042                      89.05353
                      -4.13491                      -0.73955                      89.02292
                      -4.38811                      -0.94371                      89.00753
                      -4.68380                      -1.08009                      89.00832
                      -5.00340                      -1.14010                      89.02525
                      -5.32683                      -1.11999                      89.05724
                      -5.63376                      -1.02102                      89.10230
                      -5.90490                      -0.84939                      89.15758
                      -6.12323                      -0.61591                      89.21962
                      -6.27503                      -0.33523                      89.28451
                      -6.35075                      -0.02500                      89.34819
                      -6.34563                       0.29529                      89.40664
                      -6.26001                       0.60553                      89.45620
                      -6.09925                       0.88620                      89.49375
                      -5.87346                       1.11969                      89.51693
                      -5.59684                       1.29131                      89.52429
                      -5.28675                       1.39029                      89.51536
                      -4.96268                       1.41040                      89.49071
                      -4.64500                       1.35038                      89.45188
                      -4.35366                       1.21401                      89.40131
                      -4.10698                       1.00984                      89.34219
                      -3.92045                       0.75072                      89.27821
                      -3.80579                       0.45292                      89.21342
                      -3.86130                       0.15767                      89.03642
                      -3.90419                      -0.14036                      88.98536
                      -4.02065                      -0.41966                      88.94419
                      -4.20335                      -0.66269                      88.91548
                      -4.44083                      -0.85418                      88.90104
                      -4.71815                      -0.98208                      88.90179
                      -5.01790                      -1.03837                      88.91766
                      -5.32124                      -1.01951                      88.94767
                      -5.60910                      -0.92668                      88.98992
                      -5.86341                      -0.76572                      89.04177
                      -6.06818                      -0.54673                      89.09996
                      -6.21054                      -0.28349                      89.16082
                      -6.28155                       0.00747                      89.22054
                      -6.27676                       0.30787                      89.27536
                      -6.19645                       0.59883                      89.32184
                      -6.04568                       0.86208                      89.35706
                      -5.83392                       1.08106                      89.37880
                      -5.57447                       1.24202                      89.38571
                      -5.28365                       1.33485                      89.37733
                      -4.97971                       1.35371                      89.35421
                      -4.68176                       1.29742                      89.31779
                      -4.40852                       1.16952                      89.27037
                      -4.17716                       0.97804                      89.21491
                      -4.00221                       0.73501                      89.15491
                      -3.89467                       0.45570                      89.09414
                      -3.97195                       0.18020                      88.92267
                      -4.01131                      -0.09330                      88.87582
                      -4.11818                      -0.34960                      88.83804
                      -4.28584                      -0.57262                      88.81169
                      -4.50376                      -0.74834                      88.79845
                      -4.75825                      -0.86571                      88.79913
                      -5.03332                      -0.91737                      88.81369
                      -5.31168                      -0.90006                      88.84123
                      -5.57584                      -0.81487                      88.88001
                      -5.80921                      -0.66716                      88.92759
                      -5.99712                      -0.46621                      88.98098
                      -6.12776                      -0.22464                      89.03683
                      -6.19293                       0.04236                      89.09164
                      -6.18853                       0.31803                      89.14194
                      -6.11483                       0.58504                      89.18460
                      -5.97648                       0.82660                      89.21692
                      -5.78215                       1.02756                      89.23687
                      -5.54407                       1.17526                      89.24320
                      -5.27718                       1.26045                      89.23552
                      -4.99827                       1.27776                      89.21430
                      -4.72485                       1.22610                      89.18088
                      -4.47411                       1.10873                      89.13736
                      -4.26180                       0.93302                      89.08647
                      -4.10126                       0.71000                      89.03141
                      -4.00258                       0.45369                      88.97565
                      -4.10806                       0.20272                      88.81116
                      -4.14299                      -0.03998                      88.76958
                      -4.23783                      -0.26743                      88.73605
                      -4.38661                      -0.46534                      88.71267
                      -4.58000                      -0.62127                      88.70092
                      -4.80584                      -0.72543                      88.70152
                      -5.04994                      -0.77127                      88.71445
                      -5.29696                      -0.75591                      88.73888
                      -5.53138                      -0.68031                      88.77330
                      -5.73847                      -0.54923                      88.81552
                      -5.90522                      -0.37091                      88.86290
                      -6.02116                      -0.15654                      88.91247
                      -6.07899                       0.08041                      88.96110
                      -6.07508                       0.32504                      89.00574
                      -6.00968                       0.56198                      89.04359
                      -5.88690                       0.77635                      89.07227
                      -5.71446                       0.95468                      89.08998
                      -5.50318                       1.08576                      89.09560
                      -5.26634                       1.16135                      89.08878
                      -5.01883                       1.17671                      89.06995
                      -4.77620                       1.13087                      89.04029
                      -4.55369                       1.02671                      89.00167
                      -4.36528                       0.87078                      88.95651
                      -4.22281                       0.67287                      88.90766
                      -4.13524                       0.44542                      88.85817
                      -4.28116                       0.22525                      88.70288
                      -4.31035                       0.02242                      88.66813
                      -4.38961                      -0.16766                      88.64011
                      -4.51395                      -0.33306                      88.62057
                      -4.67556                      -0.46337                      88.61075
                      -4.86430                      -0.55042                      88.61125
                      -5.06829                      -0.58873                      88.62206
                      -5.27473                      -0.57589                      88.64248
                      -5.47064                      -0.51272                      88.67124
                      -5.64371                      -0.40317                      88.70652
                      -5.78307                      -0.25414                      88.74612
                      -5.87995                      -0.07499                      88.78754
                      -5.92828                       0.12303                      88.82818
                      -5.92502                       0.32747                      88.86549
                      -5.87036                       0.52548                      88.89713
                      -5.76776                       0.70463                      88.92110
                      -5.62364                       0.85366                      88.93589
                      -5.44707                       0.96321                      88.94059
                      -5.24915                       1.02638                      88.93489
                      -5.04230                       1.03922                      88.91916
                      -4.83953                       1.00091                      88.89437
                      -4.65357                       0.91387                      88.86209
                      -4.49612                       0.78355                      88.82435
                      -4.37706                       0.61816                      88.78352
                      -4.30387                       0.42807                      88.74216
                      -4.52068                       0.24777                      88.60041
                      -4.54178                       0.10113                      88.57529
                      -4.59909                      -0.03630                      88.55503
                      -4.68898                      -0.15588                      88.54090
                      -4.80583                      -0.25010                      88.53380
                      -4.94229                      -0.31303                      88.53417
                      -5.08978                      -0.34073                      88.54198
                      -5.23903                      -0.33145                      88.55674
                      -5.38067                      -0.28577                      88.57753
                      -5.50580                      -0.20657                      88.60304
                      -5.60656                      -0.09883                      88.63167
                      -5.67660                       0.03070                      88.66162
                      -5.71155                       0.17387                      88.69101
                      -5.70919                       0.32168                      88.71798
                      -5.66967                       0.46484                      88.74085
                      -5.59549                       0.59437                      88.75818
                      -5.49129                       0.70212                      88.76888
                      -5.36363                       0.78132                      88.77228
                      -5.22053                       0.82699                      88.76816
                      -5.07098                       0.83627                      88.75678
                      -4.92438                       0.80858                      88.73886
                      -4.78993                       0.74564                      88.71552
                      -4.67609                       0.65142                      88.68824
                      -4.59001                       0.53184                      88.65872
                      -4.53710                       0.39441                      88.62881
                      -5.12859                       0.27030                      88.53017
                      -5.12859                       0.27030                      88.53017
                      -5.12859                       0.27030                      88.53017
                      -5.12859                       0.27030                      88.53017
                      -5.12859                       0.27030                      88.53017
                      -5.12859                       0.27030                      88.53017
                      -5.12859                       0.27030                      88.53017
                      -5.12859                       0.27030                      88.53017
                      -5.12859                       0.27030                      88.53017
                      -5.12859                       0.27030                      88.53017
                      -5.12859                       0.27030                      88.53017
                      -5.12859                       0.27030                      88.53017
                      -5.12859                       0.27030                      88.53017
                      -5.12859                       0.27030                      88.53017
                      -5.12859                       0.27030                      88.53017
                      -5.12859                       0.27030                      88.53017
                      -5.12859                       0.27030                      88.53017
                      -5.12859                       0.27030                      88.53017
                      -5.12859                       0.27030                      88.53017
                      -5.12859                       0.27030                      88.53017
                      -5.12859                       0.27030                      88.53017
                      -5.12859                       0.27030                      88.53017
                      -5.12859                       0.27030                      88.53017
                      -5.12859                       0.27030                      88.53017
                      -5.12859                       0.27030                      88.53017
        </DataArray>
      </Points>
      <Polys>
        <DataArray type="Int32" Name="connectivity" format="ascii">
      0      1     26     25
      1      2     27     26
      2      3     28     27
      3      4     29     28
      4      5     30     29
      5      6     31     30
      6      7     32     31
      7      8     33     32
      8      9     34     33
      9     10     35     34
     10     11     36     35
     11     12     37     36
     12     13     38     37
     13     14     39     38
     14     15     40     39
     15     16     41     40
     16     17     42     41
     17     18     43     42
     18     19     44     43
     19     20     45     44
     20     21     46     45
     21     22     47     46
     22     23     48     47
     23     24     49     48
     24      0     25     49
     25     26     51     50
     26     27     52     51
     27     28     53     52
     28     29     54     53
     29     30     55     54
     30     31     56     55
     31     32     57     56
     32     33     58     57
     33     34     59     58
     34     35     60     59
     35     36     61     60
     36     37     62     61
     37     38     63     62
     38     39     64     63
     39     40     65     64
     40     41     66     65
     41     42     67     66
     42     43     68     67
     43     44     69     68
     44     45     70     69
     45     46     71     70
     46     47     72     71
     47     48     73     72
     48     49     74     73
     49     25     50     74
     50     51     76     75
     51     52     77     76
     52     53     78     77
     53     54     79     78
     54     55     80     79
     55     56     81     80
     56     57     82     81
     57     58     83     82
     58     59     84     83
     59     60     85     84
     60     61     86     85
     61     62     87     86
     62     63     88     87
     63     64     89     88
     64     65     90     89
     65     66     91     90
     66     67     92     91
     67     68     93     92
     68     69     94     93
     69     70     95     94
     70     71     96     95
     71     72     97     96
     72     73     98     97
     73     74     99     98
     74     50     75     99
     75     76    101    100
     76     77    102    101
     77     78    103    102
     78     79    104    103
     79     80    105    104
     80     81    106    105
     81     82    107    106
     82     83    108    107
     83     84    109    108
     84     85    110    109
     85     86    111    110
     86     87    112    111
     87     88    113    112
     88     89    114    113
     89     90    115    114
     90     91    116    115
     91     92    117    116
     92     93    118    117
     93     94    119    118
     94     95    120    119
     95     96    121    120
     96     97    122    121
     97     98    123    122
     98     99    124    123
     99     75    100    124
    100    101    126    125
    101    102    127    126
    102    103    128    127
    103    104    129    128
    104    105    130    129
    105    106    131    130
    106    107    132    131
    107    108    133    132
    108    109    134    133
    109    110    135    134
    110    111    136    135
    111    112    137    136
    112    113    138    137
    113    114    139    138
    114    115    140    139
    115    116    141    140
    116    117    142    141
    117    118    143    142
    118    119    144    143
    119    120    145    144
    120    121    146    145
    121    122    147    146
    122    123    148    147
    123    124    149    148
    124    100    125    149
    125    126    151    150
    126    127    152    151
    127    128    153    152
    128    129    154    153
    129    130    155    154
    130    131    156    155
    131    132    157    156
    132    133    158    157
    133    134    159    158
    134    135    160    159
    135    136    161    160
    136    137    162    161
    137    138    163    162
    138    139    164    163
    139    140    165    164
    140    141    166    165
    141    142    167    166
    142    143    168    167
    143    144    169    168
    144    145    170    169
    145    146    171    170
    146    147    172    171
    147    148    173    172
    148    149    174    173
    149    125    150    174
    150    151    176    175
    151    152    177    176
    152    153    178    177
    153    154    179    178
    154    155    180    179
    155    156    181    180
    156    157    182    181
    157    158    183    182
    158    159    184    183
    159    160    185    184
    160    161    186    185
    161    162    187    186
    162    163    188    187
    163    164    189    188
    164    165    190    189
    165    166    191    190
    166    167    192    191
    167    168    193    192
    168    169    194    193
    169    170    195    194
    170    171    196    195
    171    172    197    196
    172    173    198    197
    173    174    199    198
    174    150    175    199
    175    176    201    200
    176    177    202    201
    177    178    203    202
    178    179    204    203
    179    180    205    204
    180    181    206    205
    181    182    207    206
    182    183    208    207
    183    184    209    208
    184    185    210    209
    185    186    211    210
    186    187    212    211
    187    188    213    212
    188    189    214    213
    189    190    215    214
    190    191    216    215
    191    192    217    216
    192    193    218    217
    193    194    219    218
    194    195    220    219
    195    196    221    220
    196    197    222    221
    197    198    223    222
    198    199    224    223
    199    175    200    224
    200    201    226    225
    201    202    227    226
    202    203    228    227
    203    204    229    228
    204    205    230    229
    205    206    231    230
    206    207    232    231
    207    208    233    232
    208    209    234    233
    209    210    235    234
    210    211    236    235
    211    212    237    236
    212    213    238    237
    213    214    239    238
    214    215    240    239
    215    216    241    240
    216    217    242    241
    217    218    243    242
    218    219    244    243
    219    220    245    244
    220    221    246    245
    221    222    247    246
    222    223    248    247
    223    224    249    248
    224    200    225    249
    225    226    251    250
    226    227    252    251
    227    228    253    252
    228    229    254    253
    229    230    255    254
    230    231    256    255
    231    232    257    256
    232    233    258    257
    233    234    259    258
    234    235    260    259
    235    236    261    260
    236    237    262    261
    237    238    263    262
    238    239    264    263
    239    240    265    264
    240    241    266    265
    241    242    267    266
    242    243    268    267
    243    244    269    268
    244    245    270    269
    245    246    271    270
    246    247    272    271
    247    248    273    272
    248    249    274    273
    249    225    250    274
    250    251    276    275
    251    252    277    276
    252    253    278    277
    253    254    279    278
    254    255    280    279
    255    256    281    280
    256    257    282    281
    257    258    283    282
    258    259    284    283
    259    260    285    284
    260    261    286    285
    261    262    287    286
    262    263    288    287
    263    264    289    288
    264    265    290    289
    265    266    291    290
    266    267    292    291
    267    268    293    292
    268    269    294    293
    269    270    295    294
    270    271    296    295
    271    272    297    296
    272    273    298    297
    273    274    299    298
    274    250    275    299
    275    276    301    300
    276    277    302    301
    277    278    303    302
    278    279    304    303
    279    280    305    304
    280    281    306    305
    281    282    307    306
    282    283    308    307
    283    284    309    308
    284    285    310    309
    285    286    311    310
    286    287    312    311
    287    288    313    312
    288    289    314    313
    289    290    315    314
    290    291    316    315
    291    292    317    316
    292    293    318    317
    293    294    319    318
    294    295    320    319
    295    296    321    320
    296    297    322    321
    297    298    323    322
    298    299    324    323
    299    275    300    324
    300    301    326    325
    301    302    327    326
    302    303    328    327
    303    304    329    328
    304    305    330    329
    305    306    331    330
    306    307    332    331
    307    308    333    332
    308    309    334    333
    309    310    335    334
    310    311    336    335
    311    312    337    336
    312    313    338    337
    313    314    339    338
    314    315    340    339
    315    316    341    340
    316    317    342    341
    317    318    343    342
    318    319    344    343
    319    320    345    344
    320    321    346    345
    321    322    347    346
    322    323    348    347
    323    324    349    348
    324    300    325    349
    325    326    351    350
    326    327    352    351
    327    328    353    352
    328    329    354    353
    329    330    355    354
    330    331    356    355
    331    332    357    356
    332    333    358    357
    333    334    359    358
    334    335    360    359
    335    336    361    360
    336    337    362    361
    337    338    363    362
    338    339    364    363
    339    340    365    364
    340    341    366    365
    341    342    367    366
    342    343    368    367
    343    344    369    368
    344    345    370    369
    345    346    371    370
    346    347    372    371
    347    348    373    372
    348    349    374    373
    349    325    350    374
    350    351    376    375
    351    352    377    376
    352    353    378    377
    353    354    379    378
    354    355    380    379
    355    356    381    380
    356    357    382    381
    357    358    383    382
    358    359    384    383
    359    360    385    384
    360    361    386    385
    361    362    387    386
    362    363    388    387
    363    364    389    388
    364    365    390    389
    365    366    391    390
    366    367    392    391
    367    368    393    392
    368    369    394    393
    369    370    395    394
    370    371    396    395
    371    372    397    396
    372    373    398    397
    373    374    399    398
    374    350    375    399
    375    376    401    400
    376    377    402    401
    377    378    403    402
    378    379    404    403
    379    380    405    404
    380    381    406    405
    381    382    407    406
    382    383    408    407
    383    384    409    408
    384    385    410    409
    385    386    411    410
    386    387    412    411
    387    388    413    412
    388    389    414    413
    389    390    415    414
    390    391    416    415
    391    392    417    416
    392    393    418    417
    393    394    419    418
    394    395    420    419
    395    396    421    420
    396    397    422    421
    397    398    423    422
    398    399    424    423
    399    375    400    424
    400    401    426    425
    401    402    427    426
    402    403    428    427
    403    404    429    428
    404    405    430    429
    405    406    431    430
    406    407    432    431
    407    408    433    432
    408    409    434    433
    409    410    435    434
    410    411    436    435
    411    412    437    436
    412    413    438    437
    413    414    439    438
    414    415    440    439
    415    416    441    440
    416    417    442    441
    417    418    443    442
    418    419    444    443
    419    420    445    444
    420    421    446    445
    421    422    447    446
    422    423    448    447
    423    424    449    448
    424    400    425    449
    425    426    451    450
    426    427    452    451
    427    428    453    452
    428    429    454    453
    429    430    455    454
    430    431    456    455
    431    432    457    456
    432    433    458    457
    433    434    459    458
    434    435    460    459
    435    436    461    460
    436    437    462    461
    437    438    463    462
    438    439    464    463
    439    440    465    464
    440    441    466    465
    441    442    467    466
    442    443    468    467
    443    444    469    468
    444    445    470    469
    445    446    471    470
    446    447    472    471
    447    448    473    472
    448    449    474    473
    449    425    450    474
    450    451    476    475
    451    452    477    476
    452    453    478    477
    453    454    479    478
    454    455    480    479
    455    456    481    480
    456    457    482    481
    457    458    483    482
    458    459    484    483
    459    460    485    484
    460    461    486    485
    461    462    487    486
    462    463    488    487
    463    464    489    488
    464    465    490    489
    465    466    491    490
    466    467    492    491
    467    468    493    492
    468    469    494    493
    469    470    495    494
    470    471    496    495
    471    472    497    496
    472    473    498    497
    473    474    499    498
    474    450    475    499
    475    476    501    500
    476    477    502    501
    477    478    503    502
    478    479    504    503
    479    480    505    504
    480    481    506    505
    481    482    507    506
    482    483    508    507
    483    484    509    508
    484    485    510    509
    485    486    511    510
    486    487    512    511
    487    488    513    512
    488    489    514    513
    489    490    515    514
    490    491    516    515
    491    492    517    516
    492    493    518    517
    493    494    519    518
    494    495    520    519
    495    496    521    520
    496    497    522    521
    497    498    523    522
    498    499    524    523
    499    475    500    524
    500    501    526    525
    501    502    527    526
    502    503    528    527
    503    504    529    528
    504    505    530    529
    505    506    531    530
    506    507    532    531
    507    508    533    532
    508    509    534    533
    509    510    535    534
    510    511    536    535
    511    512    537    536
    512    513    538    537
    513    514    539    538
    514    515    540    539
    515    516    541    540
    516    517    542    541
    517    518    543    542
    518    519    544    543
    519    520    545    544
    520    521    546    545
    521    522    547    546
    522    523    548    547
    523    524    549    548
    524    500    525    549
    525    526    551    550
    526    527    552    551
    527    528    553    552
    528    529    554    553
    529    530    555    554
    530    531    556    555
    531    532    557    556
    532    533    558    557
    533    534    559    558
    534    535    560    559
    535    536    561    560
    536    537    562    561
    537    538    563    562
    538    539    564    563
    539    540    565    564
    540    541    566    565
    541    542    567    566
    542    543    568    567
    543    544    569    568
    544    545    570    569
    545    546    571    570
    546    547    572    571
    547    548    573    572
    548    549    574    573
    549    525    550    574
    550    551    576    575
    551    552    577    576
    552    553    578    577
    553    554    579    578
    554    555    580    579
    555    556    581    580
    556    557    582    581
    557    558    583    582
    558    559    584    583
    559    560    585    584
    560    561    586    585
    561    562    587    586
    562    563    588    587
    563    564    589    588
    564    565    590    589
    565    566    591    590
    566    567    592    591
    567    568    593    592
    568    569    594    593
    569    570    595    594
    570    571    596    595
    571    572    597    596
    572    573    598    597
    573    574    599    598
    574    550    575    599
    575    576    601    600
    576    577    602    601
    577    578    603    602
    578    579    604    603
    579    580    605    604
    580    581    606    605
    581    582    607    606
    582    583    608    607
    583    584    609    608
    584    585    610    609
    585    586    611    610
    586    587    612    611
    587    588    613    612
    588    589    614    613
    589    590    615    614
    590    591    616    615
    591    592    617    616
    592    593    618    617
    593    594    619    618
    594    595    620    619
    595    596    621    620
    596    597    622    621
    597    598    623    622
    598    599    624    623
    599    575    600    624
        </DataArray>
        <DataArray type="Int32" Name="offsets" format="ascii">
      4
      8
     12
     16
     20
     24
     28
     32
     36
     40
     44
     48
     52
     56
     60
     64
     68
     72
     76
     80
     84
     88
     92
     96
    100
    104
    108
    112
    116
    120
    124
    128
    132
    136
    140
    144
    148
    152
    156
    160
    164
    168
    172
    176
    180
    184
    188
    192
    196
    200
    204
    208
    212
    216
    220
    224
    228
    232
    236
    240
    244
    248
    252
    256
    260
    264
    268
    272
    276
    280
    284
    288
    292
    296
    300
    304
    308
    312
    316
    320
    324
    328
    332
    336
    340
    344
    348
    352
    356
    360
    364
    368
    372
    376
    380
    384
    388
    392
    396
    400
    404
    408
    412
    416
    420
    424
    428
    432
    436
    440
    444
    448
    452
    456
    460
    464
    468
    472
    476
    480
    484
    488
    492
    496
    500
    504
    508
    512
    516
    520
    524
    528
    532
    536
    540
    544
    548
    552
    556
    560
    564
    568
    572
    576
    580
    584
    588
    592
    596
    600
    604
    608
    612
    616
    620
    624
    628
    632
    636
    640
    644
    648
    652
    656
    660
    664
    668
    672
    676
    680
    684
    688
    692
    696
    700
    704
    708
    712
    716
    720
    724
    728
    732
    736
    740
    744
    748
    752
    756
    760
    764
    768
    772
    776
    780
    784
    788
    792
    796
    800
    804
    808
    812
    816
    820
    824
    828
    832
    836
    840
    844
    848
    852
    856
    860
    864
    868
    872
    876
    880
    884
    888
    892
    896
    900
    904
    908
    912
    916
    920
    924
    928
    932
    936
    940
    944
    948
    952
    956
    960
    964
    968
    972
    976
    980
    984
    988
    992
    996
   1000
   1004
   1008
   1012
   1016
   1020
   1024
   1028
   1032
   1036
   1040
   1044
   1048
   1052
   1056
   1060
   1064
   1068
   1072
   1076
   1080
   1084
   1088
   1092
   1096
   1100
   1104
   1108
   1112
   1116
   1120
   1124
   1128
   1132
   1136
   1140
   1144
   1148
   1152
   1156
   1160
   1164
   1168
   1172
   1176
   1180
   1184
   1188
   1192
   1196
   1200
   1204
   1208
   1212
   1216
   1220
   1224
   1228
   1232
   1236
   1240
   1244
   1248
   1252
   1256
   1260
   1264
   1268
   1272
   1276
   1280
   1284
   1288
   1292
   1296
   1300
   1304
   1308
   1312
   1316
   1320
   1324
   1328
   1332
   1336
   1340
   1344
   1348
   1352
   1356
   1360
   1364
   1368
   1372
   1376
   1380
   1384
   1388
   1392
   1396
   1400
   1404
   1408
   1412
   1416
   1420
   1424
   1428
   1432
   1436
   1440
   1444
   1448
   1452
   1456
   1460
   1464
   1468
   1472
   1476
   1480
   1484
   1488
   1492
   1496
   1500
   1504
   1508
   1512
   1516
   1520
   1524
   1528
   1532
   1536
   1540
   1544
   1548
   1552
   1556
   1560
   1564
   1568
   1572
   1576
   1580
   1584
   1588
   1592
   1596
   1600
   1604
   1608
   1612
   1616
   1620
   1624
   1628
   1632
   1636
   1640
   1644
   1648
   1652
   1656
   1660
   1664
   1668
   1672
   1676
   1680
   1684
   1688
   1692
   1696
   1700
   1704
   1708
   1712
   1716
   1720
   1724
   1728
   1732
   1736
   1740
   1744
   1748
   1752
   1756
   1760
   1764
   1768
   1772
   1776
   1780
   1784
   1788
   1792
   1796
   1800
   1804
   1808
   1812
   1816
   1820
   1824
   1828
   1832
   1836
   1840
   1844
   1848
   1852
   1856
   1860
   1864
   1868
   1872
   1876
   1880
   1884
   1888
   1892
   1896
   1900
   1904
   1908
   1912
   1916
   1920
   1924
   1928
   1932
   1936
   1940
   1944
   1948
   1952
   1956
   1960
   1964
   1968
   1972
   1976
   1980
   1984
   1988
   1992
   1996
   2000
   2004
   2008
   2012
   2016
   2020
   2024
   2028
   2032
   2036
   2040
   2044
   2048
   2052
   2056
   2060
   2064
   2068
   2072
   2076
   2080
   2084
   2088
   2092
   2096
   2100
   2104
   2108
   2112
   2116
   2120
   2124
   2128
   2132
   2136
   2140
   2144
   2148
   2152
   2156
   2160
   2164
   2168
   2172
   2176
   2180
   2184
   2188
   2192
   2196
   2200
   2204
   2208
   2212
   2216
   2220
   2224
   2228
   2232
   2236
   2240
   2244
   2248
   2252
   2256
   2260
   2264
   2268
   2272
   2276
   2280
   2284
   2288
   2292
   2296
   2300
   2304
   2308
   2312
   2316
   2320
   2324
   2328
   2332
   2336
   2340
   2344
   2348
   2352
   2356
   2360
   2364
   2368
   2372
   2376
   2380
   2384
   2388
   2392
   2396
   2400
        </DataArray>
      </Polys>
    </Piece>
  </PolyData>
</VTKFile>
