<?xml version="1.0"?>
<VTKFile type="PolyData" version="0.1" byte_order="LittleEndian">
  <PolyData>
    <Piece NumberOfPoints="    625" NumberOfVerts="  0" NumberOfLines="      0"
           NumberOfStrips="  0" NumberOfPolys="    600">
      <Points>
        <DataArray type="Float32" NumberOfComponents="3" format="ascii">
                      -5.12119                      -0.56250                      88.61476
                      -5.12119                      -0.56250                      88.61476
                      -5.12119                      -0.56250                      88.61476
                      -5.12119                      -0.56250                      88.61476
                      -5.12119                      -0.56250                      88.61476
                      -5.12119                      -0.56250                      88.61476
                      -5.12119                      -0.56250                      88.61476
                      -5.12119                      -0.56250                      88.61476
                      -5.12119                      -0.56250                      88.61476
                      -5.12119                      -0.56250                      88.61476
                      -5.12119                      -0.56250                      88.61476
                      -5.12119                      -0.56250                      88.61476
                      -5.12119                      -0.56250                      88.61476
                      -5.12119                      -0.56250                      88.61476
                      -5.12119                      -0.56250                      88.61476
                      -5.12119                      -0.56250                      88.61476
                      -5.12119                      -0.56250                      88.61476
                      -5.12119                      -0.56250                      88.61476
                      -5.12119                      -0.56250                      88.61476
                      -5.12119                      -0.56250                      88.61476
                      -5.12119                      -0.56250                      88.61476
                      -5.12119                      -0.56250                      88.61476
                      -5.12119                      -0.56250                      88.61476
                      -5.12119                      -0.56250                      88.61476
                      -5.12119                      -0.56250                      88.61476
                      -4.51390                      -0.51562                      88.67795
                      -4.53753                      -0.37742                      88.62389
                      -4.59721                      -0.24790                      88.57652
                      -4.68917                      -0.13520                      88.53880
                      -4.80764                      -0.04640                      88.51311
                      -4.94518                       0.01291                      88.50106
                      -5.09315                       0.03901                      88.50341
                      -5.24224                       0.03026                      88.52000
                      -5.38310                      -0.01278                      88.54981
                      -5.50686                      -0.08743                      88.59094
                      -5.60575                      -0.18897                      88.64083
                      -5.67357                      -0.31105                      88.69633
                      -5.70604                      -0.44597                      88.75396
                      -5.70113                      -0.58528                      88.81010
                      -5.65914                      -0.72020                      88.86121
                      -5.58272                      -0.84228                      88.90410
                      -5.47667                      -0.94382                      88.93605
                      -5.34764                      -1.01847                      88.95508
                      -5.20375                      -1.06151                      88.95997
                      -5.05404                      -1.07026                      88.95042
                      -4.90792                      -1.04416                      88.92704
                      -4.77456                      -0.98484                      88.89128
                      -4.66234                      -0.89605                      88.84541
                      -4.57833                      -0.78335                      88.79230
                      -4.52779                      -0.65383                      88.73528
                      -4.27499                      -0.46875                      88.77337
                      -4.30768                      -0.27759                      88.69860
                      -4.39022                      -0.09845                      88.63308
                      -4.51742                       0.05743                      88.58091
                      -4.68128                       0.18024                      88.54538
                      -4.87152                       0.26228                      88.52871
                      -5.07618                       0.29838                      88.53196
                      -5.28239                       0.28628                      88.55491
                      -5.47721                       0.22674                      88.59613
                      -5.64839                       0.12350                      88.65303
                      -5.78517                      -0.01695                      88.72203
                      -5.87897                      -0.18579                      88.79880
                      -5.92388                      -0.37241                      88.87851
                      -5.91709                      -0.56509                      88.95615
                      -5.85902                      -0.75171                      89.02685
                      -5.75332                      -0.92055                      89.08616
                      -5.60663                      -1.06100                      89.13036
                      -5.42817                      -1.16424                      89.15667
                      -5.22915                      -1.22378                      89.16344
                      -5.02208                      -1.23588                      89.15023
                      -4.81997                      -1.19978                      89.11789
                      -4.63552                      -1.11774                      89.06844
                      -4.48032                      -0.99493                      89.00499
                      -4.36411                      -0.83905                      88.93153
                      -4.29421                      -0.65990                      88.85267
                      -4.10251                      -0.42187                      88.87460
                      -4.14163                      -0.19314                      88.78514
                      -4.24039                       0.02122                      88.70673
                      -4.39259                       0.20774                      88.64431
                      -4.58867                       0.35470                      88.60179
                      -4.81631                       0.45286                      88.58185
                      -5.06120                       0.49606                      88.58573
                      -5.30795                       0.48159                      88.61319
                      -5.54107                       0.41034                      88.66252
                      -5.74590                       0.28681                      88.73060
                      -5.90957                       0.11874                      88.81317
                      -6.02181                      -0.08329                      88.90503
                      -6.07555                      -0.30660                      89.00041
                      -6.06742                      -0.53715                      89.09331
                      -5.99793                      -0.76046                      89.17791
                      -5.87145                      -0.96249                      89.24888
                      -5.69593                      -1.13056                      89.30177
                      -5.48239                      -1.25409                      89.33325
                      -5.24425                      -1.32534                      89.34135
                      -4.99647                      -1.33981                      89.32555
                      -4.75463                      -1.29661                      89.28685
                      -4.53392                      -1.19845                      89.22768
                      -4.34820                      -1.05149                      89.15176
                      -4.20915                      -0.86497                      89.06385
                      -4.12550                      -0.65061                      88.96949
                      -3.96702                      -0.37500                      88.97906
                      -4.01110                      -0.11725                      88.87825
                      -4.12239                       0.12431                      88.78990
                      -4.29390                       0.33450                      88.71956
                      -4.51486                       0.50010                      88.67165
                      -4.77137                       0.61072                      88.64917
                      -5.04733                       0.65940                      88.65354
                      -5.32539                       0.64309                      88.68450
                      -5.58808                       0.56280                      88.74008
                      -5.81890                       0.42360                      88.81680
                      -6.00334                       0.23421                      88.90984
                      -6.12981                       0.00654                      89.01335
                      -6.19037                      -0.24510                      89.12083
                      -6.18121                      -0.50490                      89.22553
                      -6.10291                      -0.75654                      89.32086
                      -5.96038                      -0.98421                      89.40084
                      -5.76259                      -1.17359                      89.46044
                      -5.52196                      -1.31280                      89.49591
                      -5.25360                      -1.39309                      89.50503
                      -4.97439                      -1.40940                      89.48723
                      -4.70187                      -1.36072                      89.44362
                      -4.45315                      -1.25010                      89.37694
                      -4.24387                      -1.08450                      89.29139
                      -4.08718                      -0.87431                      89.19233
                      -3.99292                      -0.63275                      89.08599
                      -3.85698                      -0.32812                      89.08576
                      -3.90502                      -0.04724                      88.97590
                      -4.02630                       0.21599                      88.87963
                      -4.21320                       0.44503                      88.80297
                      -4.45398                       0.62549                      88.75076
                      -4.73351                       0.74604                      88.72626
                      -5.03423                       0.79909                      88.73103
                      -5.33724                       0.78131                      88.76476
                      -5.62350                       0.69382                      88.82533
                      -5.87503                       0.54212                      88.90894
                      -6.07602                       0.33574                      89.01032
                      -6.21384                       0.08765                      89.12312
                      -6.27983                      -0.18657                      89.24025
                      -6.26985                      -0.46968                      89.35434
                      -6.18452                      -0.74390                      89.45822
                      -6.02921                      -0.99199                      89.54538
                      -5.81366                      -1.19837                      89.61032
                      -5.55144                      -1.35007                      89.64898
                      -5.25901                      -1.43756                      89.65892
                      -4.95475                      -1.45534                      89.63952
                      -4.65777                      -1.40229                      89.59200
                      -4.38674                      -1.28174                      89.51933
                      -4.15868                      -1.10128                      89.42610
                      -3.98793                      -0.87224                      89.31816
                      -3.88521                      -0.60900                      89.20228
                      -3.76650                      -0.28125                      89.19416
                      -3.81772                       0.01823                      89.07703
                      -3.94703                       0.29890                      88.97438
                      -4.14631                       0.54311                      88.89265
                      -4.40303                       0.73552                      88.83698
                      -4.70108                       0.86405                      88.81086
                      -5.02171                       0.92061                      88.81594
                      -5.34479                       0.90166                      88.85191
                      -5.65001                       0.80838                      88.91649
                      -5.91820                       0.64663                      89.00563
                      -6.13250                       0.42659                      89.11373
                      -6.27945                       0.16206                      89.23400
                      -6.34981                      -0.13032                      89.35888
                      -6.33917                      -0.43218                      89.48053
                      -6.24819                      -0.72456                      89.59129
                      -6.08259                      -0.98908                      89.68422
                      -5.85277                      -1.20913                      89.75347
                      -5.57318                      -1.37088                      89.79469
                      -5.26138                      -1.46416                      89.80528
                      -4.93697                      -1.48311                      89.78460
                      -4.62032                      -1.42655                      89.73393
                      -4.33134                      -1.29802                      89.65645
                      -4.08818                      -1.10561                      89.55705
                      -3.90612                      -0.86140                      89.44195
                      -3.79660                      -0.58073                      89.31840
                      -3.69210                      -0.23437                      89.30397
                      -3.74586                       0.07999                      89.18102
                      -3.88159                       0.37460                      89.07327
                      -4.09077                       0.63095                      88.98748
                      -4.36026                       0.83292                      88.92904
                      -4.67311                       0.96784                      88.90162
                      -5.00968                       1.02721                      88.90696
                      -5.34881                       1.00732                      88.94471
                      -5.66920                       0.90940                      89.01250
                      -5.95071                       0.73962                      89.10607
                      -6.17566                       0.50863                      89.21955
                      -6.32991                       0.23096                      89.34579
                      -6.40377                      -0.07594                      89.47688
                      -6.39260                      -0.39281                      89.60457
                      -6.29710                      -0.69971                      89.72084
                      -6.12327                      -0.97738                      89.81838
                      -5.88204                      -1.20837                      89.89107
                      -5.58855                      -1.37815                      89.93434
                      -5.26126                      -1.47607                      89.94546
                      -4.92072                      -1.49596                      89.92375
                      -4.58834                      -1.43659                      89.87056
                      -4.28500                      -1.30167                      89.78924
                      -4.02976                      -1.09970                      89.68489
                      -3.83865                      -0.84335                      89.56408
                      -3.72369                      -0.54874                      89.43439
                      -3.63157                      -0.18750                      89.41500
                      -3.68732                       0.13854                      89.28748
                      -3.82810                       0.44408                      89.17573
                      -4.04504                       0.70995                      89.08675
                      -4.32453                       0.91942                      89.02614
                      -4.64900                       1.05935                      88.99771
                      -4.99807                       1.12092                      89.00325
                      -5.34979                       1.10029                      89.04240
                      -5.68207                       0.99874                      89.11270
                      -5.97404                       0.82265                      89.20975
                      -6.20734                       0.58309                      89.32744
                      -6.36731                       0.29512                      89.45837
                      -6.44391                      -0.02319                      89.59432
                      -6.43233                      -0.35181                      89.72675
                      -6.33328                      -0.67012                      89.84734
                      -6.15300                      -0.95809                      89.94851
                      -5.90281                      -1.19765                      90.02389
                      -5.59843                      -1.37374                      90.06877
                      -5.25898                      -1.47529                      90.08030
                      -4.90581                      -1.49592                      90.05778
                      -4.56109                      -1.43435                      90.00262
                      -4.24648                      -1.29442                      89.91828
                      -3.98176                      -1.08495                      89.81006
                      -3.78356                      -0.81908                      89.68476
                      -3.66433                      -0.51353                      89.55026
                      -3.58346                      -0.14062                      89.52711
                      -3.64072                       0.19421                      89.39616
                      -3.78529                       0.50800                      89.28138
                      -4.00809                       0.78104                      89.19001
                      -4.29512                       0.99616                      89.12776
                      -4.62835                       1.13986                      89.09857
                      -4.98683                       1.20310                      89.10425
                      -5.34804                       1.18191                      89.14446
                      -5.68929                       1.07762                      89.21666
                      -5.98913                       0.89678                      89.31632
                      -6.22872                       0.65076                      89.43719
                      -6.39301                       0.35501                      89.57165
                      -6.47168                       0.02812                      89.71127
                      -6.45978                      -0.30937                      89.84728
                      -6.35806                      -0.63626                      89.97112
                      -6.17292                      -0.93201                      90.07501
                      -5.91598                      -1.17803                      90.15243
                      -5.60338                      -1.35887                      90.19852
                      -5.25478                      -1.46316                      90.21037
                      -4.89208                      -1.48435                      90.18724
                      -4.53806                      -1.42111                      90.13059
                      -4.21496                      -1.27741                      90.04397
                      -3.94310                      -1.06229                      89.93283
                      -3.73955                      -0.78925                      89.80415
                      -3.61711                      -0.47546                      89.66602
                      -3.54681                      -0.09375                      89.64022
                      -3.60512                       0.24723                      89.50687
                      -3.75234                       0.56678                      89.38999
                      -3.97923                       0.84482                      89.29693
                      -4.27153                       1.06390                      89.23355
                      -4.61087                       1.21023                      89.20382
                      -4.97593                       1.27463                      89.20960
                      -5.34377                       1.25305                      89.25055
                      -5.69128                       1.14685                      89.32408
                      -5.99662                       0.96269                      89.42557
                      -6.24061                       0.71216                      89.54865
                      -6.40792                       0.41098                      89.68559
                      -6.48803                       0.07809                      89.82777
                      -6.47591                      -0.26559                      89.96627
                      -6.37233                      -0.59848                      90.09238
                      -6.18379                      -0.89966                      90.19818
                      -5.92213                      -1.15019                      90.27702
                      -5.60380                      -1.33435                      90.32395
                      -5.24880                      -1.44055                      90.33602
                      -4.87944                      -1.46213                      90.31247
                      -4.51892                      -1.39773                      90.25477
                      -4.18990                      -1.25140                      90.16657
                      -3.91305                      -1.03232                      90.05339
                      -3.70577                      -0.75428                      89.92235
                      -3.58108                      -0.43473                      89.78168
                      -3.52101                      -0.04687                      89.75429
                      -3.57994                       0.29773                      89.61951
                      -3.72873                       0.62069                      89.50139
                      -3.95804                       0.90170                      89.40734
                      -4.25345                       1.12311                      89.34328
                      -4.59641                       1.27101                      89.31323
                      -4.96536                       1.33609                      89.31908
                      -5.33712                       1.31428                      89.36046
                      -5.68833                       1.20694                      89.43477
                      -5.99693                       1.02083                      89.53735
                      -6.24352                       0.76762                      89.66174
                      -6.41261                       0.46324                      89.80013
                      -6.49358                       0.12680                      89.94383
                      -6.48133                      -0.22055                      90.08381
                      -6.37664                      -0.55699                      90.21126
                      -6.18609                      -0.86137                      90.31819
                      -5.92164                      -1.11458                      90.39787
                      -5.59992                      -1.30069                      90.44530
                      -5.24114                      -1.40803                      90.45750
                      -4.86784                      -1.42984                      90.43369
                      -4.50348                      -1.36475                      90.37539
                      -4.17095                      -1.21686                      90.28624
                      -3.89115                      -0.99545                      90.17185
                      -3.68166                      -0.71444                      90.03942
                      -3.55564                      -0.39148                      89.89725
                      -3.50571                       0.00000                      89.86927
                      -3.56485                       0.34581                      89.73402
                      -3.71416                       0.66990                      89.61549
                      -3.94427                       0.95189                      89.52111
                      -4.24071                       1.17407                      89.45683
                      -4.58486                       1.32248                      89.42667
                      -4.95510                       1.38779                      89.43254
                      -5.32816                       1.36591                      89.47407
                      -5.68060                       1.25820                      89.54864
                      -5.99027                       1.07143                      89.65157
                      -6.23772                       0.81734                      89.77640
                      -6.40741                       0.51189                      89.91527
                      -6.48865                       0.17428                      90.05947
                      -6.47637                      -0.17428                      90.19994
                      -6.37131                      -0.51189                      90.32784
                      -6.18009                      -0.81734                      90.43514
                      -5.91472                      -1.07143                      90.51510
                      -5.59188                      -1.25820                      90.56269
                      -5.23185                      -1.36591                      90.57493
                      -4.85725                      -1.38779                      90.55105
                      -4.49161                      -1.32248                      90.49254
                      -4.15793                      -1.17407                      90.40308
                      -3.87715                      -0.95189                      90.28829
                      -3.66692                      -0.66990                      90.15540
                      -3.54046                      -0.34581                      90.01273
                      -3.50081                       0.04687                      89.98516
                      -3.55974                       0.39148                      89.85038
                      -3.70853                       0.71444                      89.73226
                      -3.93784                       0.99545                      89.63821
                      -4.23325                       1.21686                      89.57415
                      -4.57621                       1.36475                      89.54410
                      -4.94516                       1.42984                      89.54995
                      -5.31692                       1.40803                      89.59133
                      -5.66813                       1.30069                      89.66565
                      -5.97673                       1.11458                      89.76822
                      -6.22332                       0.86137                      89.89261
                      -6.39241                       0.55699                      90.03101
                      -6.47338                       0.22055                      90.17470
                      -6.46113                      -0.12680                      90.31468
                      -6.35644                      -0.46324                      90.44214
                      -6.16589                      -0.76762                      90.54906
                      -5.90144                      -1.02083                      90.62875
                      -5.57972                      -1.20694                      90.67617
                      -5.22094                      -1.31428                      90.68837
                      -4.84764                      -1.33609                      90.66457
                      -4.48328                      -1.27100                      90.60626
                      -4.15076                      -1.12311                      90.51711
                      -3.87096                      -0.90170                      90.40273
                      -3.66146                      -0.62069                      90.27029
                      -3.53544                      -0.29773                      90.12813
                      -3.50641                       0.09375                      90.10197
                      -3.56472                       0.43473                      89.96862
                      -3.71195                       0.75428                      89.85174
                      -3.93884                       1.03232                      89.75868
                      -4.23113                       1.25140                      89.69530
                      -4.57047                       1.39773                      89.66556
                      -4.93553                       1.46213                      89.67135
                      -5.30337                       1.44055                      89.71230
                      -5.65088                       1.33435                      89.78583
                      -5.95622                       1.15019                      89.88732
                      -6.20021                       0.89966                      90.01040
                      -6.36752                       0.59848                      90.14733
                      -6.44763                       0.26559                      90.28952
                      -6.43552                      -0.07809                      90.42802
                      -6.33193                      -0.41098                      90.55413
                      -6.14339                      -0.71216                      90.65993
                      -5.88173                      -0.96269                      90.73877
                      -5.56340                      -1.14685                      90.78570
                      -5.20840                      -1.25305                      90.79777
                      -4.83904                      -1.27463                      90.77421
                      -4.47853                      -1.21023                      90.71652
                      -4.14951                      -1.06390                      90.62832
                      -3.87266                      -0.84482                      90.51514
                      -3.66537                      -0.56678                      90.38410
                      -3.54068                      -0.24723                      90.24343
                      -3.52286                       0.14062                      90.21973
                      -3.58012                       0.47546                      90.08878
                      -3.72469                       0.78925                      89.97401
                      -3.94749                       1.06229                      89.88263
                      -4.23452                       1.27741                      89.82039
                      -4.56775                       1.42111                      89.79119
                      -4.92623                       1.48435                      89.79687
                      -5.28744                       1.46316                      89.83708
                      -5.62869                       1.35887                      89.90928
                      -5.92853                       1.17803                      90.00895
                      -6.16812                       0.93201                      90.12981
                      -6.33242                       0.63626                      90.26428
                      -6.41109                       0.30937                      90.40390
                      -6.39919                      -0.02812                      90.53990
                      -6.29747                      -0.35501                      90.66374
                      -6.11232                      -0.65076                      90.76763
                      -5.85538                      -0.89678                      90.84506
                      -5.54279                      -1.07762                      90.89114
                      -5.19419                      -1.18191                      90.90299
                      -4.83148                      -1.20310                      90.87986
                      -4.47746                      -1.13986                      90.82321
                      -4.15437                      -0.99616                      90.73659
                      -3.88251                      -0.78104                      90.62545
                      -3.67896                      -0.50800                      90.49677
                      -3.55651                      -0.19421                      90.35864
                      -3.55077                       0.18750                      90.33850
                      -3.60653                       0.51354                      90.21098
                      -3.74730                       0.81908                      90.09923
                      -3.96425                       1.08495                      90.01025
                      -4.24374                       1.29442                      89.94964
                      -4.56821                       1.43435                      89.92121
                      -4.91727                       1.49592                      89.92674
                      -5.26899                       1.47529                      89.96589
                      -5.60128                       1.37374                      90.03620
                      -5.89324                       1.19765                      90.13325
                      -6.12654                       0.95809                      90.25094
                      -6.28652                       0.67012                      90.38187
                      -6.36312                       0.35181                      90.51782
                      -6.35153                       0.02319                      90.65025
                      -6.25249                      -0.29512                      90.77084
                      -6.07220                      -0.58309                      90.87200
                      -5.82201                      -0.82265                      90.94739
                      -5.51763                      -0.99874                      90.99226
                      -5.17819                      -1.10029                      91.00380
                      -4.82501                      -1.12092                      90.98128
                      -4.48029                      -1.05935                      90.92612
                      -4.16569                      -0.91942                      90.84178
                      -3.90097                      -0.70995                      90.73356
                      -3.70277                      -0.44408                      90.60826
                      -3.58354                      -0.13854                      90.47375
                      -3.59110                       0.23437                      90.45834
                      -3.64486                       0.54874                      90.33540
                      -3.78060                       0.84335                      90.22764
                      -3.98978                       1.09970                      90.14185
                      -4.25927                       1.30167                      90.08341
                      -4.57212                       1.43659                      90.05600
                      -4.90869                       1.49596                      90.06133
                      -5.24782                       1.47607                      90.09908
                      -5.56821                       1.37815                      90.16687
                      -5.84972                       1.20837                      90.26044
                      -6.07467                       0.97738                      90.37392
                      -6.22892                       0.69971                      90.50017
                      -6.30278                       0.39281                      90.63125
                      -6.29161                       0.07594                      90.75894
                      -6.19611                      -0.23096                      90.87521
                      -6.02228                      -0.50863                      90.97275
                      -5.78104                      -0.73962                      91.04544
                      -5.48756                      -0.90940                      91.08871
                      -5.16027                      -1.00732                      91.09983
                      -4.81973                      -1.02721                      91.07812
                      -4.48735                      -0.96784                      91.02493
                      -4.18401                      -0.83292                      90.94361
                      -3.92876                      -0.63095                      90.83926
                      -3.73766                      -0.37460                      90.71845
                      -3.62270                      -0.07999                      90.58876
                      -3.64531                       0.28125                      90.57941
                      -3.69652                       0.58073                      90.46228
                      -3.82583                       0.86140                      90.35962
                      -4.02511                       1.10561                      90.27789
                      -4.28184                       1.29802                      90.22222
                      -4.57989                       1.42655                      90.19611
                      -4.90052                       1.48311                      90.20119
                      -5.22360                       1.46416                      90.23715
                      -5.52882                       1.37088                      90.30173
                      -5.79700                       1.20913                      90.39088
                      -6.01130                       0.98908                      90.49898
                      -6.15825                       0.72456                      90.61925
                      -6.22862                       0.43218                      90.74413
                      -6.21797                       0.13032                      90.86577
                      -6.12699                      -0.16206                      90.97654
                      -5.96139                      -0.42659                      91.06947
                      -5.73158                      -0.64663                      91.13871
                      -5.45199                      -0.80838                      91.17993
                      -5.14019                      -0.90166                      91.19053
                      -4.81577                      -0.92061                      91.16984
                      -4.49913                      -0.86405                      91.11917
                      -4.21015                      -0.73552                      91.04170
                      -3.96699                      -0.54311                      90.94229
                      -3.78493                      -0.29890                      90.82720
                      -3.67541                      -0.01823                      90.70365
                      -3.71559                       0.32812                      90.70188
                      -3.76363                       0.60900                      90.59202
                      -3.88490                       0.87224                      90.49575
                      -4.07180                       1.10128                      90.41909
                      -4.31259                       1.28174                      90.36688
                      -4.59212                       1.40229                      90.34238
                      -4.89284                       1.45534                      90.34715
                      -5.19585                       1.43756                      90.38088
                      -5.48211                       1.35007                      90.44145
                      -5.73364                       1.19837                      90.52506
                      -5.93462                       0.99199                      90.62644
                      -6.07245                       0.74390                      90.73924
                      -6.13844                       0.46968                      90.85637
                      -6.12846                       0.18657                      90.97046
                      -6.04313                      -0.08765                      91.07434
                      -5.88781                      -0.33574                      91.16150
                      -5.67227                      -0.54212                      91.22644
                      -5.41005                      -0.69382                      91.26510
                      -5.11762                      -0.78131                      91.27504
                      -4.81335                      -0.79909                      91.25564
                      -4.51638                      -0.74604                      91.20812
                      -4.24534                      -0.62549                      91.13546
                      -4.01729                      -0.44503                      91.04222
                      -3.84654                      -0.21599                      90.93428
                      -3.74382                       0.04724                      90.81840
                      -3.80543                       0.37500                      90.82606
                      -3.84950                       0.63275                      90.72525
                      -3.96080                       0.87431                      90.63690
                      -4.13231                       1.08450                      90.56656
                      -4.35327                       1.25010                      90.51864
                      -4.60978                       1.36072                      90.49616
                      -4.88574                       1.40940                      90.50054
                      -5.16380                       1.39309                      90.53149
                      -5.42649                       1.31280                      90.58707
                      -5.65731                       1.17359                      90.66380
                      -5.84175                       0.98421                      90.75684
                      -5.96822                       0.75654                      90.86035
                      -6.02878                       0.50490                      90.96783
                      -6.01962                       0.24510                      91.07252
                      -5.94132                      -0.00654                      91.16785
                      -5.79879                      -0.23421                      91.24783
                      -5.60100                      -0.42360                      91.30743
                      -5.36037                      -0.56280                      91.34291
                      -5.09201                      -0.64309                      91.35203
                      -4.81280                      -0.65940                      91.33422
                      -4.54028                      -0.61072                      91.29061
                      -4.29156                      -0.50010                      91.22394
                      -4.08228                      -0.33450                      91.13838
                      -3.92559                      -0.12431                      91.03932
                      -3.83133                       0.11725                      90.93299
                      -3.92072                       0.42187                      90.95247
                      -3.95984                       0.65061                      90.86301
                      -4.05860                       0.86497                      90.78460
                      -4.21080                       1.05149                      90.72218
                      -4.40688                       1.19845                      90.67966
                      -4.63452                       1.29661                      90.65971
                      -4.87941                       1.33981                      90.66360
                      -5.12616                       1.32534                      90.69106
                      -5.35928                       1.25409                      90.74039
                      -5.56411                       1.13056                      90.80847
                      -5.72778                       0.96249                      90.89104
                      -5.84002                       0.76046                      90.98290
                      -5.89376                       0.53715                      91.07827
                      -5.88563                       0.30660                      91.17118
                      -5.81614                       0.08329                      91.25578
                      -5.68966                      -0.11874                      91.32675
                      -5.51414                      -0.28681                      91.37964
                      -5.30060                      -0.41034                      91.41112
                      -5.06246                      -0.48159                      91.41922
                      -4.81468                      -0.49606                      91.40342
                      -4.57284                      -0.45286                      91.36472
                      -4.35213                      -0.35470                      91.30555
                      -4.16641                      -0.20774                      91.22962
                      -4.02736                      -0.02122                      91.14172
                      -3.94371                       0.19314                      91.04736
                      -4.07301                       0.46875                      91.08211
                      -4.10570                       0.65990                      91.00735
                      -4.18823                       0.83905                      90.94183
                      -4.31543                       0.99493                      90.88966
                      -4.47929                       1.11774                      90.85412
                      -4.66953                       1.19978                      90.83745
                      -4.87419                       1.23588                      90.84070
                      -5.08040                       1.22378                      90.86365
                      -5.27522                       1.16424                      90.90487
                      -5.44640                       1.06100                      90.96177
                      -5.58318                       0.92055                      91.03077
                      -5.67698                       0.75171                      91.10754
                      -5.72189                       0.56509                      91.18725
                      -5.71510                       0.37241                      91.26489
                      -5.65703                       0.18579                      91.33559
                      -5.55133                       0.01695                      91.39491
                      -5.40464                      -0.12350                      91.43911
                      -5.22618                      -0.22674                      91.46541
                      -5.02716                      -0.28628                      91.47218
                      -4.82010                      -0.29838                      91.45898
                      -4.61798                      -0.26228                      91.42663
                      -4.43353                      -0.18024                      91.37718
                      -4.27833                      -0.05743                      91.31373
                      -4.16212                       0.09845                      91.24027
                      -4.09222                       0.27759                      91.16141
                      -4.29171                       0.51562                      91.21756
                      -4.31534                       0.65383                      91.16351
                      -4.37502                       0.78335                      91.11614
                      -4.46698                       0.89605                      91.07842
                      -4.58546                       0.98484                      91.05273
                      -4.72300                       1.04416                      91.04068
                      -4.87096                       1.07026                      91.04302
                      -5.02006                       1.06151                      91.05962
                      -5.16091                       1.01847                      91.08942
                      -5.28467                       0.94382                      91.13056
                      -5.38357                       0.84228                      91.18045
                      -5.45138                       0.72020                      91.23595
                      -5.48385                       0.58528                      91.29358
                      -5.47894                       0.44597                      91.34972
                      -5.43695                       0.31105                      91.40083
                      -5.36053                       0.18897                      91.44372
                      -5.25448                       0.08743                      91.47567
                      -5.12545                       0.01278                      91.49469
                      -4.98156                      -0.03026                      91.49958
                      -4.83185                      -0.03901                      91.49004
                      -4.68573                      -0.01291                      91.46665
                      -4.55237                       0.04640                      91.43090
                      -4.44016                       0.13520                      91.38503
                      -4.35614                       0.24790                      91.33192
                      -4.30560                       0.37742                      91.27490
                      -4.87881                       0.56250                      91.38525
                      -4.87881                       0.56250                      91.38525
                      -4.87881                       0.56250                      91.38525
                      -4.87881                       0.56250                      91.38525
                      -4.87881                       0.56250                      91.38525
                      -4.87881                       0.56250                      91.38525
                      -4.87881                       0.56250                      91.38525
                      -4.87881                       0.56250                      91.38525
                      -4.87881                       0.56250                      91.38525
                      -4.87881                       0.56250                      91.38525
                      -4.87881                       0.56250                      91.38525
                      -4.87881                       0.56250                      91.38525
                      -4.87881                       0.56250                      91.38525
                      -4.87881                       0.56250                      91.38525
                      -4.87881                       0.56250                      91.38525
                      -4.87881                       0.56250                      91.38525
                      -4.87881                       0.56250                      91.38525
                      -4.87881                       0.56250                      91.38525
                      -4.87881                       0.56250                      91.38525
                      -4.87881                       0.56250                      91.38525
                      -4.87881                       0.56250                      91.38525
                      -4.87881                       0.56250                      91.38525
                      -4.87881                       0.56250                      91.38525
                      -4.87881                       0.56250                      91.38525
                      -4.87881                       0.56250                      91.38525
        </DataArray>
      </Points>
      <Polys>
        <DataArray type="Int32" Name="connectivity" format="ascii">
      0      1     26     25
      1      2     27     26
      2      3     28     27
      3      4     29     28
      4      5     30     29
      5      6     31     30
      6      7     32     31
      7      8     33     32
      8      9     34     33
      9     10     35     34
     10     11     36     35
     11     12     37     36
     12     13     38     37
     13     14     39     38
     14     15     40     39
     15     16     41     40
     16     17     42     41
     17     18     43     42
     18     19     44     43
     19     20     45     44
     20     21     46     45
     21     22     47     46
     22     23     48     47
     23     24     49     48
     24      0     25     49
     25     26     51     50
     26     27     52     51
     27     28     53     52
     28     29     54     53
     29     30     55     54
     30     31     56     55
     31     32     57     56
     32     33     58     57
     33     34     59     58
     34     35     60     59
     35     36     61     60
     36     37     62     61
     37     38     63     62
     38     39     64     63
     39     40     65     64
     40     41     66     65
     41     42     67     66
     42     43     68     67
     43     44     69     68
     44     45     70     69
     45     46     71     70
     46     47     72     71
     47     48     73     72
     48     49     74     73
     49     25     50     74
     50     51     76     75
     51     52     77     76
     52     53     78     77
     53     54     79     78
     54     55     80     79
     55     56     81     80
     56     57     82     81
     57     58     83     82
     58     59     84     83
     59     60     85     84
     60     61     86     85
     61     62     87     86
     62     63     88     87
     63     64     89     88
     64     65     90     89
     65     66     91     90
     66     67     92     91
     67     68     93     92
     68     69     94     93
     69     70     95     94
     70     71     96     95
     71     72     97     96
     72     73     98     97
     73     74     99     98
     74     50     75     99
     75     76    101    100
     76     77    102    101
     77     78    103    102
     78     79    104    103
     79     80    105    104
     80     81    106    105
     81     82    107    106
     82     83    108    107
     83     84    109    108
     84     85    110    109
     85     86    111    110
     86     87    112    111
     87     88    113    112
     88     89    114    113
     89     90    115    114
     90     91    116    115
     91     92    117    116
     92     93    118    117
     93     94    119    118
     94     95    120    119
     95     96    121    120
     96     97    122    121
     97     98    123    122
     98     99    124    123
     99     75    100    124
    100    101    126    125
    101    102    127    126
    102    103    128    127
    103    104    129    128
    104    105    130    129
    105    106    131    130
    106    107    132    131
    107    108    133    132
    108    109    134    133
    109    110    135    134
    110    111    136    135
    111    112    137    136
    112    113    138    137
    113    114    139    138
    114    115    140    139
    115    116    141    140
    116    117    142    141
    117    118    143    142
    118    119    144    143
    119    120    145    144
    120    121    146    145
    121    122    147    146
    122    123    148    147
    123    124    149    148
    124    100    125    149
    125    126    151    150
    126    127    152    151
    127    128    153    152
    128    129    154    153
    129    130    155    154
    130    131    156    155
    131    132    157    156
    132    133    158    157
    133    134    159    158
    134    135    160    159
    135    136    161    160
    136    137    162    161
    137    138    163    162
    138    139    164    163
    139    140    165    164
    140    141    166    165
    141    142    167    166
    142    143    168    167
    143    144    169    168
    144    145    170    169
    145    146    171    170
    146    147    172    171
    147    148    173    172
    148    149    174    173
    149    125    150    174
    150    151    176    175
    151    152    177    176
    152    153    178    177
    153    154    179    178
    154    155    180    179
    155    156    181    180
    156    157    182    181
    157    158    183    182
    158    159    184    183
    159    160    185    184
    160    161    186    185
    161    162    187    186
    162    163    188    187
    163    164    189    188
    164    165    190    189
    165    166    191    190
    166    167    192    191
    167    168    193    192
    168    169    194    193
    169    170    195    194
    170    171    196    195
    171    172    197    196
    172    173    198    197
    173    174    199    198
    174    150    175    199
    175    176    201    200
    176    177    202    201
    177    178    203    202
    178    179    204    203
    179    180    205    204
    180    181    206    205
    181    182    207    206
    182    183    208    207
    183    184    209    208
    184    185    210    209
    185    186    211    210
    186    187    212    211
    187    188    213    212
    188    189    214    213
    189    190    215    214
    190    191    216    215
    191    192    217    216
    192    193    218    217
    193    194    219    218
    194    195    220    219
    195    196    221    220
    196    197    222    221
    197    198    223    222
    198    199    224    223
    199    175    200    224
    200    201    226    225
    201    202    227    226
    202    203    228    227
    203    204    229    228
    204    205    230    229
    205    206    231    230
    206    207    232    231
    207    208    233    232
    208    209    234    233
    209    210    235    234
    210    211    236    235
    211    212    237    236
    212    213    238    237
    213    214    239    238
    214    215    240    239
    215    216    241    240
    216    217    242    241
    217    218    243    242
    218    219    244    243
    219    220    245    244
    220    221    246    245
    221    222    247    246
    222    223    248    247
    223    224    249    248
    224    200    225    249
    225    226    251    250
    226    227    252    251
    227    228    253    252
    228    229    254    253
    229    230    255    254
    230    231    256    255
    231    232    257    256
    232    233    258    257
    233    234    259    258
    234    235    260    259
    235    236    261    260
    236    237    262    261
    237    238    263    262
    238    239    264    263
    239    240    265    264
    240    241    266    265
    241    242    267    266
    242    243    268    267
    243    244    269    268
    244    245    270    269
    245    246    271    270
    246    247    272    271
    247    248    273    272
    248    249    274    273
    249    225    250    274
    250    251    276    275
    251    252    277    276
    252    253    278    277
    253    254    279    278
    254    255    280    279
    255    256    281    280
    256    257    282    281
    257    258    283    282
    258    259    284    283
    259    260    285    284
    260    261    286    285
    261    262    287    286
    262    263    288    287
    263    264    289    288
    264    265    290    289
    265    266    291    290
    266    267    292    291
    267    268    293    292
    268    269    294    293
    269    270    295    294
    270    271    296    295
    271    272    297    296
    272    273    298    297
    273    274    299    298
    274    250    275    299
    275    276    301    300
    276    277    302    301
    277    278    303    302
    278    279    304    303
    279    280    305    304
    280    281    306    305
    281    282    307    306
    282    283    308    307
    283    284    309    308
    284    285    310    309
    285    286    311    310
    286    287    312    311
    287    288    313    312
    288    289    314    313
    289    290    315    314
    290    291    316    315
    291    292    317    316
    292    293    318    317
    293    294    319    318
    294    295    320    319
    295    296    321    320
    296    297    322    321
    297    298    323    322
    298    299    324    323
    299    275    300    324
    300    301    326    325
    301    302    327    326
    302    303    328    327
    303    304    329    328
    304    305    330    329
    305    306    331    330
    306    307    332    331
    307    308    333    332
    308    309    334    333
    309    310    335    334
    310    311    336    335
    311    312    337    336
    312    313    338    337
    313    314    339    338
    314    315    340    339
    315    316    341    340
    316    317    342    341
    317    318    343    342
    318    319    344    343
    319    320    345    344
    320    321    346    345
    321    322    347    346
    322    323    348    347
    323    324    349    348
    324    300    325    349
    325    326    351    350
    326    327    352    351
    327    328    353    352
    328    329    354    353
    329    330    355    354
    330    331    356    355
    331    332    357    356
    332    333    358    357
    333    334    359    358
    334    335    360    359
    335    336    361    360
    336    337    362    361
    337    338    363    362
    338    339    364    363
    339    340    365    364
    340    341    366    365
    341    342    367    366
    342    343    368    367
    343    344    369    368
    344    345    370    369
    345    346    371    370
    346    347    372    371
    347    348    373    372
    348    349    374    373
    349    325    350    374
    350    351    376    375
    351    352    377    376
    352    353    378    377
    353    354    379    378
    354    355    380    379
    355    356    381    380
    356    357    382    381
    357    358    383    382
    358    359    384    383
    359    360    385    384
    360    361    386    385
    361    362    387    386
    362    363    388    387
    363    364    389    388
    364    365    390    389
    365    366    391    390
    366    367    392    391
    367    368    393    392
    368    369    394    393
    369    370    395    394
    370    371    396    395
    371    372    397    396
    372    373    398    397
    373    374    399    398
    374    350    375    399
    375    376    401    400
    376    377    402    401
    377    378    403    402
    378    379    404    403
    379    380    405    404
    380    381    406    405
    381    382    407    406
    382    383    408    407
    383    384    409    408
    384    385    410    409
    385    386    411    410
    386    387    412    411
    387    388    413    412
    388    389    414    413
    389    390    415    414
    390    391    416    415
    391    392    417    416
    392    393    418    417
    393    394    419    418
    394    395    420    419
    395    396    421    420
    396    397    422    421
    397    398    423    422
    398    399    424    423
    399    375    400    424
    400    401    426    425
    401    402    427    426
    402    403    428    427
    403    404    429    428
    404    405    430    429
    405    406    431    430
    406    407    432    431
    407    408    433    432
    408    409    434    433
    409    410    435    434
    410    411    436    435
    411    412    437    436
    412    413    438    437
    413    414    439    438
    414    415    440    439
    415    416    441    440
    416    417    442    441
    417    418    443    442
    418    419    444    443
    419    420    445    444
    420    421    446    445
    421    422    447    446
    422    423    448    447
    423    424    449    448
    424    400    425    449
    425    426    451    450
    426    427    452    451
    427    428    453    452
    428    429    454    453
    429    430    455    454
    430    431    456    455
    431    432    457    456
    432    433    458    457
    433    434    459    458
    434    435    460    459
    435    436    461    460
    436    437    462    461
    437    438    463    462
    438    439    464    463
    439    440    465    464
    440    441    466    465
    441    442    467    466
    442    443    468    467
    443    444    469    468
    444    445    470    469
    445    446    471    470
    446    447    472    471
    447    448    473    472
    448    449    474    473
    449    425    450    474
    450    451    476    475
    451    452    477    476
    452    453    478    477
    453    454    479    478
    454    455    480    479
    455    456    481    480
    456    457    482    481
    457    458    483    482
    458    459    484    483
    459    460    485    484
    460    461    486    485
    461    462    487    486
    462    463    488    487
    463    464    489    488
    464    465    490    489
    465    466    491    490
    466    467    492    491
    467    468    493    492
    468    469    494    493
    469    470    495    494
    470    471    496    495
    471    472    497    496
    472    473    498    497
    473    474    499    498
    474    450    475    499
    475    476    501    500
    476    477    502    501
    477    478    503    502
    478    479    504    503
    479    480    505    504
    480    481    506    505
    481    482    507    506
    482    483    508    507
    483    484    509    508
    484    485    510    509
    485    486    511    510
    486    487    512    511
    487    488    513    512
    488    489    514    513
    489    490    515    514
    490    491    516    515
    491    492    517    516
    492    493    518    517
    493    494    519    518
    494    495    520    519
    495    496    521    520
    496    497    522    521
    497    498    523    522
    498    499    524    523
    499    475    500    524
    500    501    526    525
    501    502    527    526
    502    503    528    527
    503    504    529    528
    504    505    530    529
    505    506    531    530
    506    507    532    531
    507    508    533    532
    508    509    534    533
    509    510    535    534
    510    511    536    535
    511    512    537    536
    512    513    538    537
    513    514    539    538
    514    515    540    539
    515    516    541    540
    516    517    542    541
    517    518    543    542
    518    519    544    543
    519    520    545    544
    520    521    546    545
    521    522    547    546
    522    523    548    547
    523    524    549    548
    524    500    525    549
    525    526    551    550
    526    527    552    551
    527    528    553    552
    528    529    554    553
    529    530    555    554
    530    531    556    555
    531    532    557    556
    532    533    558    557
    533    534    559    558
    534    535    560    559
    535    536    561    560
    536    537    562    561
    537    538    563    562
    538    539    564    563
    539    540    565    564
    540    541    566    565
    541    542    567    566
    542    543    568    567
    543    544    569    568
    544    545    570    569
    545    546    571    570
    546    547    572    571
    547    548    573    572
    548    549    574    573
    549    525    550    574
    550    551    576    575
    551    552    577    576
    552    553    578    577
    553    554    579    578
    554    555    580    579
    555    556    581    580
    556    557    582    581
    557    558    583    582
    558    559    584    583
    559    560    585    584
    560    561    586    585
    561    562    587    586
    562    563    588    587
    563    564    589    588
    564    565    590    589
    565    566    591    590
    566    567    592    591
    567    568    593    592
    568    569    594    593
    569    570    595    594
    570    571    596    595
    571    572    597    596
    572    573    598    597
    573    574    599    598
    574    550    575    599
    575    576    601    600
    576    577    602    601
    577    578    603    602
    578    579    604    603
    579    580    605    604
    580    581    606    605
    581    582    607    606
    582    583    608    607
    583    584    609    608
    584    585    610    609
    585    586    611    610
    586    587    612    611
    587    588    613    612
    588    589    614    613
    589    590    615    614
    590    591    616    615
    591    592    617    616
    592    593    618    617
    593    594    619    618
    594    595    620    619
    595    596    621    620
    596    597    622    621
    597    598    623    622
    598    599    624    623
    599    575    600    624
        </DataArray>
        <DataArray type="Int32" Name="offsets" format="ascii">
      4
      8
     12
     16
     20
     24
     28
     32
     36
     40
     44
     48
     52
     56
     60
     64
     68
     72
     76
     80
     84
     88
     92
     96
    100
    104
    108
    112
    116
    120
    124
    128
    132
    136
    140
    144
    148
    152
    156
    160
    164
    168
    172
    176
    180
    184
    188
    192
    196
    200
    204
    208
    212
    216
    220
    224
    228
    232
    236
    240
    244
    248
    252
    256
    260
    264
    268
    272
    276
    280
    284
    288
    292
    296
    300
    304
    308
    312
    316
    320
    324
    328
    332
    336
    340
    344
    348
    352
    356
    360
    364
    368
    372
    376
    380
    384
    388
    392
    396
    400
    404
    408
    412
    416
    420
    424
    428
    432
    436
    440
    444
    448
    452
    456
    460
    464
    468
    472
    476
    480
    484
    488
    492
    496
    500
    504
    508
    512
    516
    520
    524
    528
    532
    536
    540
    544
    548
    552
    556
    560
    564
    568
    572
    576
    580
    584
    588
    592
    596
    600
    604
    608
    612
    616
    620
    624
    628
    632
    636
    640
    644
    648
    652
    656
    660
    664
    668
    672
    676
    680
    684
    688
    692
    696
    700
    704
    708
    712
    716
    720
    724
    728
    732
    736
    740
    744
    748
    752
    756
    760
    764
    768
    772
    776
    780
    784
    788
    792
    796
    800
    804
    808
    812
    816
    820
    824
    828
    832
    836
    840
    844
    848
    852
    856
    860
    864
    868
    872
    876
    880
    884
    888
    892
    896
    900
    904
    908
    912
    916
    920
    924
    928
    932
    936
    940
    944
    948
    952
    956
    960
    964
    968
    972
    976
    980
    984
    988
    992
    996
   1000
   1004
   1008
   1012
   1016
   1020
   1024
   1028
   1032
   1036
   1040
   1044
   1048
   1052
   1056
   1060
   1064
   1068
   1072
   1076
   1080
   1084
   1088
   1092
   1096
   1100
   1104
   1108
   1112
   1116
   1120
   1124
   1128
   1132
   1136
   1140
   1144
   1148
   1152
   1156
   1160
   1164
   1168
   1172
   1176
   1180
   1184
   1188
   1192
   1196
   1200
   1204
   1208
   1212
   1216
   1220
   1224
   1228
   1232
   1236
   1240
   1244
   1248
   1252
   1256
   1260
   1264
   1268
   1272
   1276
   1280
   1284
   1288
   1292
   1296
   1300
   1304
   1308
   1312
   1316
   1320
   1324
   1328
   1332
   1336
   1340
   1344
   1348
   1352
   1356
   1360
   1364
   1368
   1372
   1376
   1380
   1384
   1388
   1392
   1396
   1400
   1404
   1408
   1412
   1416
   1420
   1424
   1428
   1432
   1436
   1440
   1444
   1448
   1452
   1456
   1460
   1464
   1468
   1472
   1476
   1480
   1484
   1488
   1492
   1496
   1500
   1504
   1508
   1512
   1516
   1520
   1524
   1528
   1532
   1536
   1540
   1544
   1548
   1552
   1556
   1560
   1564
   1568
   1572
   1576
   1580
   1584
   1588
   1592
   1596
   1600
   1604
   1608
   1612
   1616
   1620
   1624
   1628
   1632
   1636
   1640
   1644
   1648
   1652
   1656
   1660
   1664
   1668
   1672
   1676
   1680
   1684
   1688
   1692
   1696
   1700
   1704
   1708
   1712
   1716
   1720
   1724
   1728
   1732
   1736
   1740
   1744
   1748
   1752
   1756
   1760
   1764
   1768
   1772
   1776
   1780
   1784
   1788
   1792
   1796
   1800
   1804
   1808
   1812
   1816
   1820
   1824
   1828
   1832
   1836
   1840
   1844
   1848
   1852
   1856
   1860
   1864
   1868
   1872
   1876
   1880
   1884
   1888
   1892
   1896
   1900
   1904
   1908
   1912
   1916
   1920
   1924
   1928
   1932
   1936
   1940
   1944
   1948
   1952
   1956
   1960
   1964
   1968
   1972
   1976
   1980
   1984
   1988
   1992
   1996
   2000
   2004
   2008
   2012
   2016
   2020
   2024
   2028
   2032
   2036
   2040
   2044
   2048
   2052
   2056
   2060
   2064
   2068
   2072
   2076
   2080
   2084
   2088
   2092
   2096
   2100
   2104
   2108
   2112
   2116
   2120
   2124
   2128
   2132
   2136
   2140
   2144
   2148
   2152
   2156
   2160
   2164
   2168
   2172
   2176
   2180
   2184
   2188
   2192
   2196
   2200
   2204
   2208
   2212
   2216
   2220
   2224
   2228
   2232
   2236
   2240
   2244
   2248
   2252
   2256
   2260
   2264
   2268
   2272
   2276
   2280
   2284
   2288
   2292
   2296
   2300
   2304
   2308
   2312
   2316
   2320
   2324
   2328
   2332
   2336
   2340
   2344
   2348
   2352
   2356
   2360
   2364
   2368
   2372
   2376
   2380
   2384
   2388
   2392
   2396
   2400
        </DataArray>
      </Polys>
    </Piece>
  </PolyData>
</VTKFile>
